%!PS-Adobe-3.0 EPSF-3.0
%%Creator: cairo 1.11.2 (http://cairographics.org)
%%CreationDate: Mon Apr 28 11:14:21 2014
%%Pages: 1
%%DocumentData: Clean7Bit
%%LanguageLevel: 2
%%BoundingBox: 4 3 346 78
%%EndComments
%%BeginProlog
/cairo_eps_state save def
/dict_count countdictstack def
/op_count count 1 sub def
userdict begin
/q { gsave } bind def
/Q { grestore } bind def
/cm { 6 array astore concat } bind def
/w { setlinewidth } bind def
/J { setlinecap } bind def
/j { setlinejoin } bind def
/M { setmiterlimit } bind def
/d { setdash } bind def
/m { moveto } bind def
/l { lineto } bind def
/c { curveto } bind def
/h { closepath } bind def
/re { exch dup neg 3 1 roll 5 3 roll moveto 0 rlineto
      0 exch rlineto 0 rlineto closepath } bind def
/S { stroke } bind def
/f { fill } bind def
/f* { eofill } bind def
/n { newpath } bind def
/W { clip } bind def
/W* { eoclip } bind def
/BT { } bind def
/ET { } bind def
/pdfmark where { pop globaldict /?pdfmark /exec load put }
    { globaldict begin /?pdfmark /pop load def /pdfmark
    /cleartomark load def end } ifelse
/BDC { mark 3 1 roll /BDC pdfmark } bind def
/EMC { mark /EMC pdfmark } bind def
/cairo_store_point { /cairo_point_y exch def /cairo_point_x exch def } def
/Tj { show currentpoint cairo_store_point } bind def
/TJ {
  {
    dup
    type /stringtype eq
    { show } { -0.001 mul 0 cairo_font_matrix dtransform rmoveto } ifelse
  } forall
  currentpoint cairo_store_point
} bind def
/cairo_selectfont { cairo_font_matrix aload pop pop pop 0 0 6 array astore
    cairo_font exch selectfont cairo_point_x cairo_point_y moveto } bind def
/Tf { pop /cairo_font exch def /cairo_font_matrix where
      { pop cairo_selectfont } if } bind def
/Td { matrix translate cairo_font_matrix matrix concatmatrix dup
      /cairo_font_matrix exch def dup 4 get exch 5 get cairo_store_point
      /cairo_font where { pop cairo_selectfont } if } bind def
/Tm { 2 copy 8 2 roll 6 array astore /cairo_font_matrix exch def
      cairo_store_point /cairo_font where { pop cairo_selectfont } if } bind def
/g { setgray } bind def
/rg { setrgbcolor } bind def
/d1 { setcachedevice } bind def
%%EndProlog
%%Page: 1 1
%%BeginPageSetup
%%PageBoundingBox: 4 3 346 78
%%EndPageSetup
q 4 3 342 75 rectclip q
0 g
30.398 76.956 m 29.07 76.956 28 75.886 28 74.558 c 28 11.355 l 28 10.027
 29.07 8.956 30.398 8.956 c 61.602 8.956 l 62.93 8.956 64 10.027 64 11.355
 c 64 26.558 l 64 27.886 62.93 28.956 61.602 28.956 c 50.398 28.956 l 49.07
 28.956 48 30.027 48 31.355 c 48 74.558 l 48 75.886 46.93 76.956 45.602 
76.956 c h
f
0.4 g
70.398 76.956 m 69.07 76.956 68 75.886 68 74.558 c 68 55.355 l 68 54.027
 66.93 52.956 65.602 52.956 c 54.398 52.956 l 53.07 52.956 52 51.886 52 
50.558 c 52 35.355 l 52 34.027 53.07 32.956 54.398 32.956 c 65.602 32.956
 l 66.93 32.956 68 31.886 68 30.558 c 68 11.355 l 68 10.027 69.07 8.956 
70.398 8.956 c 85.602 8.956 l 86.93 8.956 88 10.027 88 11.355 c 88 74.558
 l 88 75.886 86.93 76.956 85.602 76.956 c h
f
6.398 52.956 m 21.602 52.956 l 22.93 52.956 24 51.886 24 50.558 c 24 11.355
 l 24 10.027 22.93 8.956 21.602 8.956 c 6.398 8.956 l 5.07 8.956 4 10.027
 4 11.355 c 4 50.558 l 4 51.886 5.07 52.956 6.398 52.956 c h
f
0 g
99.227 76.8 m 99.227 60.488 l 97.367 60.488 l 97.367 76.8 l h
102.426 71.909 m 104.016 71.909 l 104.016 70.441 l 104.453 71.14 105.016
 71.601 105.703 71.823 c 106.387 72.042 107.117 72.152 107.902 72.155 c 
109.449 72.152 110.535 71.855 111.156 71.261 c 111.773 70.663 112.082 69.593
 112.086 68.046 c 112.086 60.488 l 110.348 60.488 l 110.348 67.898 l 110.344
 69.038 110.164 69.796 109.809 70.175 c 109.449 70.546 108.691 70.734 107.535
 70.738 c 106.441 70.734 105.602 70.48 105.016 69.976 c 104.426 69.468 104.133
 68.64 104.137 67.484 c 104.137 60.488 l 102.426 60.488 l h
124.145 68.948 m 122.434 68.948 l 122.434 69.566 122.336 70.003 122.141
 70.269 c 121.945 70.527 121.52 70.675 120.867 70.71 c 120.555 70.726 120.242
 70.734 119.926 70.738 c 119.605 70.734 119.281 70.734 118.961 70.738 c 
118.844 70.734 118.727 70.734 118.605 70.738 c 118.48 70.734 118.355 70.726
 118.227 70.71 c 117.98 70.691 117.742 70.659 117.516 70.613 c 117.285 70.562
 117.082 70.472 116.906 70.343 c 116.758 70.23 116.66 70.089 116.613 69.929
 c 116.563 69.761 116.531 69.589 116.516 69.413 c 116.516 69.343 116.516
 69.28 116.516 69.218 c 116.516 69.152 116.516 69.085 116.516 69.023 c 116.516
 68.32 116.625 67.843 116.844 67.593 c 117.063 67.339 117.523 67.195 118.227
 67.163 c 118.438 67.144 118.652 67.136 118.875 67.14 c 119.094 67.136 119.309
 67.136 119.523 67.14 c 120.773 67.12 121.914 66.968 122.945 66.675 c 123.969
 66.378 124.484 65.441 124.488 63.863 c 124.484 62.198 124.035 61.195 123.141
 60.851 c 122.242 60.511 121.086 60.343 119.672 60.339 c 119.602 60.343 
119.535 60.343 119.473 60.339 c 119.406 60.343 119.34 60.343 119.277 60.339
 c 118.117 60.363 117.063 60.53 116.109 60.855 c 115.152 61.179 114.676 
62.05 114.68 63.472 c 114.676 63.519 114.676 63.573 114.68 63.632 c 114.676
 63.687 114.684 63.738 114.703 63.788 c 114.699 63.835 114.703 63.89 114.715
 63.948 c 114.723 64.003 114.727 64.058 114.73 64.109 c 116.441 64.109 l
 116.438 63.062 116.637 62.386 117.039 62.089 c 117.438 61.784 118.137 61.636
 119.133 61.636 c 119.547 61.636 l 119.707 61.636 119.887 61.64 120.086 
61.648 c 120.277 61.655 120.484 61.667 120.699 61.687 c 120.973 61.698 121.246
 61.738 121.527 61.808 c 121.801 61.87 122.031 61.968 122.215 62.101 c 122.375
 62.21 122.492 62.366 122.566 62.566 c 122.641 62.757 122.688 62.96 122.703
 63.179 c 122.719 63.273 122.727 63.37 122.727 63.468 c 122.727 63.566 122.727
 63.663 122.727 63.765 c 122.727 64.655 122.492 65.179 122.027 65.327 c 
121.563 65.476 120.988 65.55 120.305 65.55 c 120.285 65.55 120.27 65.55 
120.258 65.55 c 120.238 65.55 120.223 65.55 120.207 65.55 c 120.109 65.566
 120.008 65.573 119.902 65.573 c 119.793 65.573 119.68 65.573 119.57 65.573
 c 119.484 65.573 119.406 65.577 119.328 65.585 c 119.246 65.593 119.164
 65.597 119.082 65.601 c 117.906 65.644 116.898 65.812 116.063 66.101 c 
115.223 66.386 114.805 67.245 114.805 68.683 c 114.805 68.827 114.809 68.976
 114.816 69.132 c 114.824 69.284 114.836 69.445 114.852 69.613 c 114.883
 69.933 114.953 70.245 115.07 70.55 c 115.18 70.847 115.367 71.097 115.633
 71.3 c 115.906 71.507 116.234 71.671 116.613 71.788 c 116.984 71.902 117.375
 71.984 117.785 72.03 c 118.063 72.062 118.336 72.081 118.605 72.093 c 118.871
 72.097 119.121 72.101 119.352 72.105 c 119.563 72.101 119.777 72.101 120
 72.105 c 120.219 72.101 120.441 72.093 120.672 72.081 c 121.547 72.03 122.352
 71.835 123.082 71.491 c 123.805 71.148 124.168 70.437 124.172 69.366 c 
124.168 69.327 124.168 69.292 124.172 69.253 c 124.168 69.214 124.168 69.179
 124.172 69.148 c 124.152 69.113 124.145 69.077 124.145 69.046 c 124.145
 69.011 124.145 68.98 124.145 68.948 c h
133.051 71.909 m 133.051 70.538 l 128.648 70.538 l 128.648 63.519 l 128.648
 62.863 128.746 62.402 128.941 62.136 c 129.137 61.863 129.574 61.73 130.262
 61.734 c 131.027 61.73 131.488 61.917 131.645 62.296 c 131.797 62.667 131.875
 63.155 131.879 63.765 c 131.879 64.523 l 133.492 64.523 l 133.488 63.331
 133.309 62.335 132.953 61.538 c 132.59 60.738 131.684 60.343 130.238 60.339
 c 128.965 60.343 128.094 60.566 127.621 61.023 c 127.148 61.476 126.914
 62.308 126.914 63.519 c 126.914 70.538 l 125.422 70.538 l 125.422 71.909
 l 126.914 71.909 l 126.914 74.675 l 128.648 74.675 l 128.648 71.909 l h
136.836 71.909 m 136.836 60.488 l 135.102 60.488 l 135.102 71.909 l h
136.836 76.8 m 136.836 74.917 l 135.102 74.917 l 135.102 76.8 l h
145.984 71.909 m 145.984 70.538 l 141.582 70.538 l 141.582 63.519 l 141.582
 62.863 141.68 62.402 141.875 62.136 c 142.07 61.863 142.508 61.73 143.195
 61.734 c 143.961 61.73 144.422 61.917 144.578 62.296 c 144.73 62.667 144.809
 63.155 144.813 63.765 c 144.813 64.523 l 146.426 64.523 l 146.422 63.331
 146.242 62.335 145.887 61.538 c 145.523 60.738 144.617 60.343 143.172 60.339
 c 141.898 60.343 141.027 60.566 140.555 61.023 c 140.082 61.476 139.848
 62.308 139.848 63.519 c 139.848 70.538 l 138.355 70.538 l 138.355 71.909
 l 139.848 71.909 l 139.848 74.675 l 141.582 74.675 l 141.582 71.909 l h
157.5 71.909 m 157.5 60.488 l 155.91 60.488 l 155.91 62.003 l 155.418 61.265
 154.859 60.804 154.234 60.62 c 153.605 60.433 152.859 60.343 151.996 60.339
 c 150.625 60.343 149.621 60.655 148.988 61.292 c 148.348 61.925 148.031
 62.929 148.035 64.304 c 148.035 71.909 l 149.77 71.909 l 149.77 64.304 
l 149.766 63.304 149.938 62.628 150.281 62.273 c 150.625 61.909 151.316 
61.73 152.363 61.734 c 153.715 61.73 154.621 61.984 155.078 62.491 c 155.531
 62.999 155.758 63.894 155.762 65.183 c 155.762 71.909 l h
166.652 71.909 m 166.652 70.538 l 162.25 70.538 l 162.25 63.519 l 162.25
 62.863 162.348 62.402 162.543 62.136 c 162.738 61.863 163.176 61.73 163.863
 61.734 c 164.629 61.73 165.09 61.917 165.246 62.296 c 165.398 62.667 165.477
 63.155 165.48 63.765 c 165.48 64.523 l 167.094 64.523 l 167.09 63.331 166.91
 62.335 166.555 61.538 c 166.191 60.738 165.285 60.343 163.84 60.339 c 162.566
 60.343 161.695 60.566 161.223 61.023 c 160.75 61.476 160.516 62.308 160.516
 63.519 c 160.516 70.538 l 159.023 70.538 l 159.023 71.909 l 160.516 71.909
 l 160.516 74.675 l 162.25 74.675 l 162.25 71.909 l h
176.625 63.96 m 178.387 63.96 l 178.383 62.277 177.934 61.257 177.039 60.902
 c 176.141 60.546 174.969 60.37 173.52 60.366 c 171.383 60.37 169.996 60.777
 169.363 61.589 c 168.723 62.402 168.406 63.843 168.41 65.917 c 168.406 
67.905 168.648 69.429 169.141 70.491 c 169.625 71.546 171.004 72.077 173.277
 72.081 c 175.41 72.077 176.793 71.718 177.422 71.003 c 178.047 70.284 178.367
 68.866 178.387 66.749 c 178.387 65.894 l 170.168 65.894 l 170.164 64.616
 170.297 63.597 170.57 62.835 c 170.836 62.066 171.738 61.683 173.277 61.687
 c 173.742 61.687 l 173.902 61.683 174.078 61.683 174.266 61.687 c 174.453
 61.683 174.652 61.698 174.867 61.734 c 175.109 61.749 175.344 61.792 175.574
 61.859 c 175.801 61.921 175.996 62.011 176.16 62.128 c 176.32 62.238 176.434
 62.386 176.492 62.577 c 176.547 62.761 176.582 62.952 176.602 63.155 c 
176.613 63.218 176.621 63.292 176.625 63.374 c 176.621 63.452 176.621 63.527
 176.625 63.593 c h
176.676 67.214 m 176.672 68.632 176.504 69.577 176.172 70.05 c 175.836 
70.523 174.922 70.757 173.422 70.761 c 172.102 70.757 171.23 70.515 170.816
 70.027 c 170.398 69.534 170.191 68.597 170.195 67.214 c h
187.938 66.503 m 187.934 68.441 188.223 69.859 188.805 70.757 c 189.383
 71.652 190.719 72.101 192.805 72.105 c 194.988 72.101 196.406 71.722 197.059
 70.968 c 197.711 70.206 198.035 68.749 198.039 66.601 c 198.035 64.722 
197.836 63.206 197.438 62.05 c 197.035 60.894 195.664 60.32 193.32 60.316
 c 191.281 60.32 189.871 60.632 189.098 61.269 c 188.32 61.902 187.934 63.288
 187.938 65.429 c h
189.699 66.53 m 189.699 65.573 l 189.699 65.409 189.699 65.234 189.699 
65.05 c 189.699 64.859 189.707 64.675 189.723 64.499 c 189.754 64.023 189.816
 63.573 189.918 63.152 c 190.012 62.726 190.168 62.402 190.383 62.175 c 
190.559 62.011 190.777 61.894 191.043 61.831 c 191.301 61.761 191.578 61.722
 191.875 61.71 c 191.938 61.706 192 61.706 192.059 61.71 c 192.113 61.706
 192.176 61.706 192.242 61.71 c 193.027 61.71 l 194.02 61.706 194.777 61.843
 195.309 62.124 c 195.836 62.398 196.137 63.077 196.203 64.155 c 196.219
 64.382 196.23 64.601 196.242 64.816 c 196.246 65.027 196.25 65.245 196.254
 65.476 c 196.266 65.687 196.273 65.905 196.277 66.124 c 196.273 66.343 
196.273 66.558 196.277 66.773 c 196.273 68.175 196.145 69.179 195.887 69.78
 c 195.625 70.382 194.793 70.683 193.391 70.687 c 193.027 70.687 l 191.543
 70.683 190.617 70.452 190.25 69.999 c 189.883 69.538 189.699 68.507 189.699
 66.898 c h
205.848 71.909 m 205.848 70.515 l 202.84 70.515 l 202.84 60.488 l 201.102
 60.488 l 201.102 70.515 l 199.367 70.515 l 199.367 71.909 l 201.102 71.909
 l 201.102 73.597 l 201.098 74.913 201.402 75.812 202.008 76.284 c 202.609
 76.757 203.531 76.991 204.773 76.995 c 204.867 76.991 204.957 76.988 205.051
 76.984 c 205.137 76.972 205.223 76.968 205.309 76.972 c 205.387 76.968 
205.473 76.964 205.566 76.96 c 205.652 76.948 205.746 76.945 205.848 76.948
 c 205.848 75.53 l 205.633 75.558 205.426 75.573 205.223 75.577 c 205.016
 75.573 204.809 75.573 204.602 75.577 c 203.93 75.573 203.469 75.425 203.219
 75.124 c 202.965 74.823 202.84 74.363 202.84 73.745 c 202.84 71.909 l h
f
97.367 34.804 m 97.367 51.116 l 105.098 51.116 l 106.793 51.116 108.02 
50.765 108.777 50.066 c 109.535 49.363 109.914 48.14 109.918 46.398 c 109.914
 45.3 109.793 44.374 109.551 43.62 c 109.305 42.859 108.473 42.351 107.055
 42.093 c 108 42.027 108.676 41.71 109.082 41.152 c 109.488 40.585 109.691
 39.855 109.695 38.96 c 109.695 34.804 l 107.813 34.804 l 107.813 38.546
 l 107.809 39.62 107.563 40.363 107.066 40.769 c 106.566 41.175 105.785 
41.378 104.73 41.382 c 99.18 41.382 l 99.18 34.804 l h
99.18 42.902 m 104.488 42.902 l 105.723 42.902 106.617 43.101 107.176 43.499
 c 107.727 43.898 108.004 44.714 108.008 45.956 c 108.004 47.128 107.855
 48.015 107.566 48.609 c 107.27 49.202 106.457 49.499 105.121 49.503 c 99.18
 49.503 l h
112.547 40.82 m 112.543 42.757 112.832 44.175 113.414 45.073 c 113.992 
45.968 115.328 46.417 117.414 46.421 c 119.598 46.417 121.016 46.038 121.668
 45.284 c 122.32 44.523 122.645 43.066 122.648 40.917 c 122.645 39.038 122.445
 37.523 122.047 36.366 c 121.645 35.21 120.273 34.636 117.93 34.632 c 115.891
 34.636 114.48 34.948 113.707 35.585 c 112.93 36.218 112.543 37.605 112.547
 39.745 c h
114.309 40.847 m 114.309 39.89 l 114.309 39.726 114.309 39.55 114.309 39.366
 c 114.309 39.175 114.316 38.991 114.332 38.816 c 114.363 38.339 114.426
 37.89 114.527 37.468 c 114.621 37.042 114.777 36.718 114.992 36.491 c 115.168
 36.327 115.387 36.21 115.652 36.148 c 115.91 36.077 116.188 36.038 116.484
 36.027 c 116.547 36.023 116.609 36.023 116.668 36.027 c 116.723 36.023 
116.785 36.023 116.852 36.027 c 117.637 36.027 l 118.629 36.023 119.387 
36.159 119.918 36.441 c 120.445 36.714 120.746 37.394 120.813 38.472 c 120.828
 38.698 120.84 38.917 120.852 39.132 c 120.855 39.343 120.859 39.562 120.863
 39.792 c 120.875 40.003 120.883 40.222 120.887 40.441 c 120.883 40.659 
120.883 40.874 120.887 41.089 c 120.883 42.491 120.754 43.495 120.496 44.097
 c 120.234 44.698 119.402 44.999 118 45.003 c 117.637 45.003 l 116.152 44.999
 115.227 44.769 114.859 44.316 c 114.492 43.855 114.309 42.823 114.309 41.214
 c h
125.277 34.804 m 125.277 51.116 l 126.965 51.116 l 126.965 44.784 l 127.238
 45.351 127.641 45.745 128.172 45.968 c 128.699 46.187 129.258 46.323 129.852
 46.374 c 129.945 46.386 130.043 46.394 130.141 46.398 c 130.238 46.394 
130.336 46.394 130.438 46.398 c 132.473 46.394 133.77 45.909 134.324 44.941
 c 134.875 43.972 135.152 42.566 135.156 40.722 c 135.152 38.96 134.914 
37.519 134.445 36.405 c 133.969 35.288 132.66 34.734 130.512 34.73 c 130.477
 34.734 130.445 34.734 130.422 34.73 c 130.395 34.734 130.367 34.734 130.34
 34.73 c 129.668 34.749 129.02 34.855 128.395 35.058 c 127.766 35.261 127.258
 35.659 126.867 36.245 c 126.965 34.804 l h
127.012 40.847 m 127.012 40.21 l 127.008 38.823 127.176 37.792 127.512 
37.116 c 127.848 36.437 128.797 36.097 130.363 36.101 c 131.289 36.097 131.973
 36.253 132.418 36.566 c 132.855 36.874 133.133 37.511 133.25 38.472 c 133.297
 38.847 133.332 39.218 133.348 39.585 c 133.363 39.952 133.371 40.323 133.371
 40.698 c 133.371 42.081 133.234 43.148 132.969 43.902 c 132.695 44.648 
131.754 45.023 130.145 45.027 c 128.672 45.023 127.785 44.655 127.477 43.925
 c 127.164 43.191 127.008 42.163 127.012 40.847 c h
147.418 46.226 m 147.418 34.804 l 145.828 34.804 l 145.828 36.32 l 145.336
 35.581 144.777 35.12 144.152 34.937 c 143.523 34.749 142.777 34.659 141.914
 34.655 c 140.543 34.659 139.539 34.972 138.906 35.609 c 138.266 36.241 
137.949 37.245 137.953 38.62 c 137.953 46.226 l 139.688 46.226 l 139.688
 38.62 l 139.684 37.62 139.855 36.945 140.199 36.589 c 140.543 36.226 141.234
 36.046 142.281 36.05 c 143.633 36.046 144.539 36.3 144.996 36.808 c 145.449
 37.316 145.676 38.21 145.68 39.499 c 145.68 46.226 l h
159.48 43.265 m 157.77 43.265 l 157.77 43.882 157.672 44.32 157.477 44.585
 c 157.281 44.843 156.855 44.991 156.203 45.027 c 155.891 45.042 155.578
 45.05 155.262 45.054 c 154.941 45.05 154.617 45.05 154.297 45.054 c 154.18
 45.05 154.063 45.05 153.941 45.054 c 153.816 45.05 153.691 45.042 153.563
 45.027 c 153.316 45.007 153.078 44.976 152.852 44.929 c 152.621 44.878 
152.418 44.788 152.242 44.659 c 152.094 44.546 151.996 44.405 151.949 44.245
 c 151.898 44.077 151.867 43.905 151.852 43.73 c 151.852 43.659 151.852 
43.597 151.852 43.534 c 151.852 43.468 151.852 43.402 151.852 43.339 c 151.852
 42.636 151.961 42.159 152.18 41.909 c 152.398 41.655 152.859 41.511 153.563
 41.48 c 153.773 41.46 153.988 41.452 154.211 41.456 c 154.43 41.452 154.645
 41.452 154.859 41.456 c 156.109 41.437 157.25 41.284 158.281 40.991 c 159.305
 40.695 159.82 39.757 159.824 38.179 c 159.82 36.515 159.371 35.511 158.477
 35.167 c 157.578 34.827 156.422 34.659 155.008 34.655 c 154.938 34.659 
154.871 34.659 154.809 34.655 c 154.742 34.659 154.676 34.659 154.613 34.655
 c 153.453 34.679 152.398 34.847 151.445 35.171 c 150.488 35.495 150.012
 36.366 150.016 37.788 c 150.012 37.835 150.012 37.89 150.016 37.948 c 150.012
 38.003 150.02 38.054 150.039 38.105 c 150.035 38.152 150.039 38.206 150.051
 38.265 c 150.059 38.32 150.063 38.374 150.066 38.425 c 151.777 38.425 l
 151.773 37.378 151.973 36.702 152.375 36.405 c 152.773 36.101 153.473 35.952
 154.469 35.952 c 154.883 35.952 l 155.043 35.952 155.223 35.956 155.422
 35.964 c 155.613 35.972 155.82 35.984 156.035 36.003 c 156.309 36.015 156.582
 36.054 156.863 36.124 c 157.137 36.187 157.367 36.284 157.551 36.417 c 
157.711 36.527 157.828 36.683 157.902 36.882 c 157.977 37.073 158.023 37.277
 158.039 37.495 c 158.055 37.589 158.063 37.687 158.063 37.784 c 158.063
 37.882 158.063 37.98 158.063 38.081 c 158.063 38.972 157.828 39.495 157.363
 39.644 c 156.898 39.792 156.324 39.866 155.641 39.866 c 155.621 39.866 
155.605 39.866 155.594 39.866 c 155.574 39.866 155.559 39.866 155.543 39.866
 c 155.445 39.882 155.344 39.89 155.238 39.89 c 155.129 39.89 155.016 39.89
 154.906 39.89 c 154.82 39.89 154.742 39.894 154.664 39.902 c 154.582 39.909
 154.5 39.913 154.418 39.917 c 153.242 39.96 152.234 40.128 151.398 40.417
 c 150.559 40.702 150.141 41.562 150.141 42.999 c 150.141 43.144 150.145
 43.292 150.152 43.448 c 150.16 43.601 150.172 43.761 150.188 43.929 c 150.219
 44.249 150.289 44.562 150.406 44.866 c 150.516 45.163 150.703 45.413 150.969
 45.616 c 151.242 45.823 151.57 45.988 151.949 46.105 c 152.32 46.218 152.711
 46.3 153.121 46.347 c 153.398 46.378 153.672 46.398 153.941 46.409 c 154.207
 46.413 154.457 46.417 154.688 46.421 c 154.898 46.417 155.113 46.417 155.336
 46.421 c 155.555 46.417 155.777 46.409 156.008 46.398 c 156.883 46.347 
157.688 46.152 158.418 45.808 c 159.141 45.464 159.504 44.753 159.508 43.683
 c 159.504 43.644 159.504 43.609 159.508 43.57 c 159.504 43.53 159.504 43.495
 159.508 43.464 c 159.488 43.429 159.48 43.394 159.48 43.363 c 159.48 43.327
 159.48 43.296 159.48 43.265 c h
168.387 46.226 m 168.387 44.855 l 163.984 44.855 l 163.984 37.835 l 163.984
 37.179 164.082 36.718 164.277 36.452 c 164.473 36.179 164.91 36.046 165.598
 36.05 c 166.363 36.046 166.824 36.234 166.98 36.613 c 167.133 36.984 167.211
 37.472 167.215 38.081 c 167.215 38.839 l 168.828 38.839 l 168.824 37.648
 168.645 36.652 168.289 35.855 c 167.926 35.054 167.02 34.659 165.574 34.655
 c 164.301 34.659 163.43 34.882 162.957 35.339 c 162.484 35.792 162.25 36.624
 162.25 37.835 c 162.25 44.855 l 160.758 44.855 l 160.758 46.226 l 162.25
 46.226 l 162.25 48.991 l 163.984 48.991 l 163.984 46.226 l h
f
177.453 34.804 m 177.453 51.116 l 185.063 51.116 l 185.219 51.116 185.383
 51.116 185.551 51.116 c 185.711 51.116 185.883 51.109 186.066 51.093 c 
186.469 51.062 186.863 50.991 187.25 50.886 c 187.629 50.777 187.977 50.585
 188.289 50.312 c 188.762 49.886 189.086 49.39 189.27 48.82 c 189.445 48.249
 189.559 47.652 189.609 47.034 c 189.605 46.866 189.609 46.698 189.621 46.53
 c 189.629 46.359 189.637 46.195 189.637 46.03 c 189.637 45.835 189.629 
45.632 189.621 45.429 c 189.609 45.222 189.598 45.015 189.586 44.808 c 189.531
 44.347 189.434 43.905 189.293 43.476 c 189.145 43.042 188.91 42.663 188.582
 42.339 c 188.059 41.816 187.465 41.499 186.809 41.394 c 186.145 41.288 
185.473 41.23 184.793 41.214 c 184.773 41.214 184.762 41.214 184.754 41.214
 c 184.742 41.214 184.73 41.214 184.719 41.214 c 184.586 41.214 184.461 
41.206 184.34 41.198 c 184.215 41.187 184.086 41.183 183.961 41.187 c 179.242
 41.187 l 179.242 34.804 l h
179.242 42.777 m 183.594 42.777 l 185.043 42.773 186.094 42.937 186.746
 43.265 c 187.398 43.593 187.727 44.53 187.727 46.081 c 187.727 47.234 187.578
 48.097 187.285 48.671 c 186.992 49.238 186.234 49.523 185.012 49.527 c 
184.945 49.523 184.875 49.523 184.805 49.527 c 184.727 49.523 184.66 49.523
 184.598 49.527 c 184.531 49.507 184.461 49.499 184.387 49.503 c 184.313
 49.499 184.242 49.499 184.18 49.503 c 179.242 49.503 l h
191.773 40.82 m 191.77 42.757 192.059 44.175 192.641 45.073 c 193.219 45.968
 194.555 46.417 196.641 46.421 c 198.824 46.417 200.242 46.038 200.895 45.284
 c 201.547 44.523 201.871 43.066 201.875 40.917 c 201.871 39.038 201.672
 37.523 201.273 36.366 c 200.871 35.21 199.5 34.636 197.156 34.632 c 195.117
 34.636 193.707 34.948 192.934 35.585 c 192.156 36.218 191.77 37.605 191.773
 39.745 c h
193.535 40.847 m 193.535 39.89 l 193.535 39.726 193.535 39.55 193.535 39.366
 c 193.535 39.175 193.543 38.991 193.559 38.816 c 193.59 38.339 193.652 
37.89 193.754 37.468 c 193.848 37.042 194.004 36.718 194.219 36.491 c 194.395
 36.327 194.613 36.21 194.879 36.148 c 195.137 36.077 195.414 36.038 195.711
 36.027 c 195.773 36.023 195.836 36.023 195.895 36.027 c 195.949 36.023 
196.012 36.023 196.078 36.027 c 196.863 36.027 l 197.855 36.023 198.613 
36.159 199.145 36.441 c 199.672 36.714 199.973 37.394 200.039 38.472 c 200.055
 38.698 200.066 38.917 200.078 39.132 c 200.082 39.343 200.086 39.562 200.09
 39.792 c 200.102 40.003 200.109 40.222 200.113 40.441 c 200.109 40.659 
200.109 40.874 200.113 41.089 c 200.109 42.491 199.98 43.495 199.723 44.097
 c 199.461 44.698 198.629 44.999 197.227 45.003 c 196.863 45.003 l 195.379
 44.999 194.453 44.769 194.086 44.316 c 193.719 43.855 193.535 42.823 193.535
 41.214 c h
219.344 46.226 m 216.141 34.804 l 213.672 34.804 l 211.199 45.003 l 208.73
 34.804 l 206.211 34.804 l 203.105 46.226 l 204.867 46.226 l 207.484 35.952
 l 210.004 46.226 l 212.449 46.226 l 214.941 35.952 l 217.559 46.226 l h
228.969 38.277 m 230.73 38.277 l 230.727 36.593 230.277 35.573 229.383 
35.218 c 228.484 34.863 227.313 34.687 225.863 34.683 c 223.727 34.687 222.34
 35.093 221.707 35.905 c 221.066 36.718 220.75 38.159 220.754 40.234 c 220.75
 42.222 220.992 43.745 221.484 44.808 c 221.969 45.863 223.348 46.394 225.621
 46.398 c 227.754 46.394 229.137 46.034 229.766 45.32 c 230.391 44.601 230.711
 43.183 230.73 41.066 c 230.73 40.21 l 222.512 40.21 l 222.508 38.933 222.641
 37.913 222.914 37.152 c 223.18 36.382 224.082 35.999 225.621 36.003 c 226.086
 36.003 l 226.246 35.999 226.422 35.999 226.609 36.003 c 226.797 35.999 
226.996 36.015 227.211 36.05 c 227.453 36.066 227.688 36.109 227.918 36.175
 c 228.145 36.238 228.34 36.327 228.504 36.445 c 228.664 36.554 228.777 
36.702 228.836 36.894 c 228.891 37.077 228.926 37.269 228.945 37.472 c 228.957
 37.534 228.965 37.609 228.969 37.691 c 228.965 37.769 228.965 37.843 228.969
 37.909 c h
229.02 41.53 m 229.016 42.948 228.848 43.894 228.516 44.366 c 228.18 44.839
 227.266 45.073 225.766 45.077 c 224.445 45.073 223.574 44.831 223.16 44.343
 c 222.742 43.851 222.535 42.913 222.539 41.53 c h
233.484 46.226 m 235.145 46.226 l 235.074 44.905 l 235.414 45.476 235.855
 45.882 236.406 46.128 c 236.949 46.37 237.551 46.491 238.203 46.495 c 239.359
 46.491 240.203 46.214 240.734 45.663 c 241.266 45.105 241.531 44.257 241.531
 43.12 c 241.531 43.003 241.531 42.894 241.531 42.788 c 241.531 42.683 241.52
 42.566 241.504 42.437 c 239.844 42.437 l 239.859 42.566 239.867 42.702 
239.867 42.851 c 239.867 42.991 239.867 43.14 239.867 43.292 c 239.867 43.991
 239.699 44.464 239.363 44.71 c 239.027 44.952 238.523 45.073 237.859 45.077
 c 236.977 45.073 236.313 44.855 235.867 44.417 c 235.414 43.976 235.191
 43.308 235.195 42.409 c 235.195 34.804 l 233.484 34.804 l h
f
108.547 20.964 m 106.762 20.964 l 106.695 22.167 106.465 22.968 106.074
 23.37 c 105.68 23.769 104.855 23.972 103.605 23.972 c 102.727 23.972 l 
102.508 23.972 102.27 23.964 102.004 23.956 c 101.734 23.945 101.453 23.933
 101.16 23.921 c 100.816 23.886 100.48 23.839 100.156 23.777 c 99.828 23.71
 99.559 23.613 99.352 23.48 c 99.086 23.316 98.895 23.093 98.773 22.82 c
 98.652 22.538 98.574 22.253 98.543 21.964 c 98.523 21.831 98.512 21.702
 98.508 21.573 c 98.496 21.441 98.492 21.32 98.496 21.206 c 98.492 20.308
 98.637 19.624 98.922 19.163 c 99.207 18.695 99.871 18.433 100.914 18.37
 c 101.273 18.335 101.621 18.312 101.965 18.308 c 102.305 18.296 102.648
 18.292 102.996 18.296 c 104.605 18.257 105.988 18.05 107.137 17.667 c 108.285
 17.284 108.859 16.023 108.863 13.882 c 108.859 12.64 108.676 11.573 108.313
 10.683 c 107.945 9.792 107.02 9.273 105.539 9.124 c 105.273 9.109 105.012
 9.097 104.754 9.089 c 104.488 9.081 104.238 9.07 103.996 9.05 c 103.734
 9.038 103.473 9.03 103.215 9.027 c 102.953 9.03 102.691 9.03 102.434 9.027
 c 100.73 9.03 99.328 9.245 98.223 9.675 c 97.113 10.109 96.559 11.355 96.563
 13.417 c 96.559 13.484 96.559 13.55 96.563 13.616 c 96.559 13.679 96.566
 13.745 96.586 13.812 c 96.582 13.874 96.586 13.937 96.598 14.007 c 96.602
 14.07 96.605 14.136 96.609 14.202 c 98.371 14.202 l 98.371 12.714 98.578
 11.741 98.996 11.284 c 99.41 10.823 100.367 10.593 101.871 10.597 c 103.41
 10.597 l 104.762 10.593 105.699 10.761 106.223 11.101 c 106.742 11.433 
107 12.296 107.004 13.691 c 107 14.78 106.844 15.507 106.527 15.87 c 106.207
 16.23 105.516 16.437 104.461 16.488 c 104.211 16.499 103.969 16.511 103.727
 16.523 c 103.484 16.527 103.238 16.53 102.996 16.534 c 101.277 16.597 99.793
 16.831 98.543 17.241 c 97.285 17.648 96.66 18.937 96.66 21.109 c 96.66 
23.077 97.164 24.308 98.176 24.8 c 99.184 25.284 100.539 25.53 102.238 25.534
 c 102.676 25.534 l 104.367 25.53 105.77 25.331 106.883 24.937 c 107.988
 24.534 108.543 23.292 108.547 21.206 c h
119.09 12.597 m 120.852 12.597 l 120.848 10.913 120.398 9.894 119.504 9.538
 c 118.605 9.183 117.434 9.007 115.984 9.003 c 113.848 9.007 112.461 9.413
 111.828 10.226 c 111.188 11.038 110.871 12.48 110.875 14.554 c 110.871 
16.542 111.113 18.066 111.605 19.128 c 112.09 20.183 113.469 20.714 115.742
 20.718 c 117.875 20.714 119.258 20.355 119.887 19.64 c 120.512 18.921 120.832
 17.503 120.852 15.386 c 120.852 14.53 l 112.633 14.53 l 112.629 13.253 
112.762 12.234 113.035 11.472 c 113.301 10.702 114.203 10.32 115.742 10.323
 c 116.207 10.323 l 116.367 10.32 116.543 10.32 116.73 10.323 c 116.918 
10.32 117.117 10.335 117.332 10.37 c 117.574 10.386 117.809 10.429 118.039
 10.495 c 118.266 10.558 118.461 10.648 118.625 10.765 c 118.785 10.874 
118.898 11.023 118.957 11.214 c 119.012 11.398 119.047 11.589 119.066 11.792
 c 119.078 11.855 119.086 11.929 119.09 12.011 c 119.086 12.089 119.086 
12.163 119.09 12.23 c h
119.141 15.851 m 119.137 17.269 118.969 18.214 118.637 18.687 c 118.301
 19.159 117.387 19.394 115.887 19.398 c 114.566 19.394 113.695 19.152 113.281
 18.663 c 112.863 18.171 112.656 17.234 112.66 15.851 c h
123.605 20.546 m 125.242 20.546 l 125.242 18.835 l 125.617 19.546 126.145
 20.038 126.832 20.312 c 127.512 20.577 128.23 20.714 128.984 20.718 c 129.113
 20.714 129.238 20.71 129.363 20.706 c 129.48 20.695 129.609 20.691 129.742
 20.695 c 130.359 20.628 130.941 20.46 131.492 20.191 c 132.035 19.921 132.414
 19.468 132.629 18.835 c 133.051 19.546 133.605 20.042 134.293 20.323 c 
134.977 20.597 135.719 20.738 136.52 20.741 c 138.016 20.738 139.078 20.429
 139.711 19.812 c 140.336 19.191 140.652 18.14 140.652 16.659 c 140.652 
9.124 l 138.867 9.124 l 138.867 16.804 l 138.863 17.78 138.688 18.445 138.34
 18.796 c 137.988 19.144 137.316 19.32 136.324 19.323 c 136.156 19.32 135.98
 19.312 135.797 19.3 c 135.605 19.28 135.414 19.257 135.223 19.226 c 134.809
 19.159 134.418 19.03 134.047 18.847 c 133.668 18.655 133.398 18.374 133.242
 18.003 c 133.141 17.788 133.074 17.562 133.043 17.32 c 133.008 17.073 132.984
 16.835 132.973 16.609 c 132.969 16.523 132.969 16.441 132.973 16.363 c 
132.969 16.277 132.969 16.198 132.973 16.12 c 132.973 9.124 l 131.234 9.124
 l 131.234 16.659 l 131.184 17.718 131.004 18.421 130.695 18.773 c 130.387
 19.12 129.68 19.296 128.57 19.3 c 127.297 19.296 126.422 18.988 125.949
 18.37 c 125.477 17.749 125.242 16.851 125.242 15.679 c 125.242 9.124 l 
123.605 9.124 l h
145.465 20.546 m 145.465 9.124 l 143.73 9.124 l 143.73 20.546 l h
145.465 25.437 m 145.465 23.554 l 143.73 23.554 l 143.73 25.437 l h
156.496 13.257 m 158.184 13.257 l 158.18 11.491 157.813 10.347 157.082 
9.82 c 156.348 9.292 155.117 9.03 153.391 9.027 c 150.977 9.03 149.531 9.523
 149.051 10.507 c 148.566 11.491 148.324 13.05 148.328 15.191 c 148.324 
17.128 148.66 18.527 149.332 19.382 c 150 20.238 151.344 20.667 153.367 
20.667 c 154.621 20.667 155.703 20.468 156.617 20.07 c 157.527 19.671 157.984
 18.71 157.988 17.195 c 157.984 17.159 157.984 17.128 157.988 17.097 c 157.984
 17.062 157.984 17.038 157.988 17.023 c 157.969 16.991 157.961 16.956 157.965
 16.925 c 157.961 16.89 157.961 16.859 157.965 16.827 c 156.301 16.827 l
 156.297 17.855 156.09 18.523 155.676 18.835 c 155.258 19.14 154.555 19.296
 153.563 19.3 c 152.047 19.296 151.09 19.054 150.699 18.577 c 150.305 18.093
 150.109 17.038 150.113 15.409 c 150.113 14.261 l 150.109 12.968 150.258
 12.003 150.555 11.363 c 150.848 10.718 151.734 10.394 153.219 10.398 c 
154.488 10.394 155.355 10.546 155.813 10.847 c 156.266 11.148 156.492 11.948
 156.496 13.257 c h
160.434 15.14 m 160.43 17.077 160.719 18.495 161.301 19.394 c 161.879 20.288
 163.215 20.738 165.301 20.741 c 167.484 20.738 168.902 20.359 169.555 19.605
 c 170.207 18.843 170.531 17.386 170.535 15.238 c 170.531 13.359 170.332
 11.843 169.934 10.687 c 169.531 9.53 168.16 8.956 165.816 8.952 c 163.777
 8.956 162.367 9.269 161.594 9.905 c 160.816 10.538 160.43 11.925 160.434
 14.066 c h
162.195 15.167 m 162.195 14.21 l 162.195 14.046 162.195 13.87 162.195 13.687
 c 162.195 13.495 162.203 13.312 162.219 13.136 c 162.25 12.659 162.313 
12.21 162.414 11.788 c 162.508 11.363 162.664 11.038 162.879 10.812 c 163.055
 10.648 163.273 10.53 163.539 10.468 c 163.797 10.398 164.074 10.359 164.371
 10.347 c 164.434 10.343 164.496 10.343 164.555 10.347 c 164.609 10.343 
164.672 10.343 164.738 10.347 c 165.523 10.347 l 166.516 10.343 167.273 
10.48 167.805 10.761 c 168.332 11.034 168.633 11.714 168.699 12.792 c 168.715
 13.019 168.727 13.238 168.738 13.452 c 168.742 13.663 168.746 13.882 168.75
 14.113 c 168.762 14.323 168.77 14.542 168.773 14.761 c 168.77 14.98 168.77
 15.195 168.773 15.409 c 168.77 16.812 168.641 17.816 168.383 18.417 c 168.121
 19.019 167.289 19.32 165.887 19.323 c 165.523 19.323 l 164.039 19.32 163.113
 19.089 162.746 18.636 c 162.379 18.175 162.195 17.144 162.195 15.534 c 
h
173.16 20.546 m 174.75 20.546 l 174.75 19.077 l 175.188 19.777 175.75 20.238
 176.438 20.46 c 177.121 20.679 177.852 20.788 178.637 20.792 c 180.184 
20.788 181.27 20.491 181.891 19.898 c 182.508 19.3 182.816 18.23 182.82 
16.683 c 182.82 9.124 l 181.082 9.124 l 181.082 16.534 l 181.078 17.675 
180.898 18.433 180.543 18.812 c 180.184 19.183 179.426 19.37 178.27 19.374
 c 177.176 19.37 176.336 19.116 175.75 18.613 c 175.16 18.105 174.867 17.277
 174.871 16.12 c 174.871 9.124 l 173.16 9.124 l h
195.473 25.437 m 195.473 9.124 l 193.785 9.124 l 193.883 10.593 l 193.453
 9.921 192.918 9.484 192.277 9.28 c 191.629 9.077 190.926 8.98 190.164 8.976
 c 188.09 8.98 186.813 9.527 186.336 10.628 c 185.852 11.726 185.613 13.183
 185.613 14.995 c 185.613 16.64 185.859 17.995 186.359 19.066 c 186.852 
20.132 188.039 20.667 189.918 20.667 c 190.094 20.667 190.273 20.667 190.457
 20.667 c 190.633 20.667 190.82 20.659 191.02 20.644 c 191.57 20.593 192.109
 20.464 192.633 20.265 c 193.156 20.058 193.539 19.671 193.785 19.105 c 
193.785 25.437 l h
187.375 15.019 m 187.371 14.808 187.371 14.597 187.375 14.394 c 187.371
 14.187 187.379 13.98 187.398 13.773 c 187.414 13.476 187.438 13.191 187.473
 12.913 c 187.504 12.636 187.555 12.366 187.621 12.109 c 187.797 11.355 
188.148 10.874 188.672 10.663 c 189.191 10.448 189.793 10.343 190.48 10.347
 c 192.063 10.343 193.008 10.714 193.32 11.46 c 193.625 12.198 193.781 13.253
 193.785 14.628 c 193.781 15.995 193.641 17.116 193.367 17.991 c 193.086
 18.859 192.109 19.296 190.434 19.3 c 188.898 19.296 188.004 18.917 187.754
 18.159 c 187.496 17.402 187.371 16.355 187.375 15.019 c h
208.027 20.546 m 208.027 9.124 l 206.438 9.124 l 206.438 10.64 l 205.945
 9.902 205.387 9.441 204.762 9.257 c 204.133 9.07 203.387 8.98 202.523 8.976
 c 201.152 8.98 200.148 9.292 199.516 9.929 c 198.875 10.562 198.559 11.566
 198.563 12.941 c 198.563 20.546 l 200.297 20.546 l 200.297 12.941 l 200.293
 11.941 200.465 11.265 200.809 10.909 c 201.152 10.546 201.844 10.366 202.891
 10.37 c 204.242 10.366 205.148 10.62 205.605 11.128 c 206.059 11.636 206.285
 12.53 206.289 13.82 c 206.289 20.546 l h
219.063 13.257 m 220.75 13.257 l 220.746 11.491 220.379 10.347 219.648 
9.82 c 218.914 9.292 217.684 9.03 215.957 9.027 c 213.543 9.03 212.098 9.523
 211.617 10.507 c 211.133 11.491 210.891 13.05 210.895 15.191 c 210.891 
17.128 211.227 18.527 211.898 19.382 c 212.566 20.238 213.91 20.667 215.934
 20.667 c 217.188 20.667 218.27 20.468 219.184 20.07 c 220.094 19.671 220.551
 18.71 220.555 17.195 c 220.551 17.159 220.551 17.128 220.555 17.097 c 220.551
 17.062 220.551 17.038 220.555 17.023 c 220.535 16.991 220.527 16.956 220.531
 16.925 c 220.527 16.89 220.527 16.859 220.531 16.827 c 218.867 16.827 l
 218.863 17.855 218.656 18.523 218.242 18.835 c 217.824 19.14 217.121 19.296
 216.129 19.3 c 214.613 19.296 213.656 19.054 213.266 18.577 c 212.871 18.093
 212.676 17.038 212.68 15.409 c 212.68 14.261 l 212.676 12.968 212.824 12.003
 213.121 11.363 c 213.414 10.718 214.301 10.394 215.785 10.398 c 217.055
 10.394 217.922 10.546 218.379 10.847 c 218.832 11.148 219.059 11.948 219.063
 13.257 c h
229.188 20.546 m 229.188 19.175 l 224.785 19.175 l 224.785 12.155 l 224.785
 11.499 224.883 11.038 225.078 10.773 c 225.273 10.499 225.711 10.366 226.398
 10.37 c 227.164 10.366 227.625 10.554 227.781 10.933 c 227.934 11.304 228.012
 11.792 228.016 12.402 c 228.016 13.159 l 229.629 13.159 l 229.625 11.968
 229.445 10.972 229.09 10.175 c 228.727 9.374 227.82 8.98 226.375 8.976 
c 225.102 8.98 224.23 9.202 223.758 9.659 c 223.285 10.113 223.051 10.945
 223.051 12.155 c 223.051 19.175 l 221.559 19.175 l 221.559 20.546 l 223.051
 20.546 l 223.051 23.312 l 224.785 23.312 l 224.785 20.546 l h
231.09 15.14 m 231.086 17.077 231.375 18.495 231.957 19.394 c 232.535 20.288
 233.871 20.738 235.957 20.741 c 238.141 20.738 239.559 20.359 240.211 19.605
 c 240.863 18.843 241.188 17.386 241.191 15.238 c 241.188 13.359 240.988
 11.843 240.59 10.687 c 240.188 9.53 238.816 8.956 236.473 8.952 c 234.434
 8.956 233.023 9.269 232.25 9.905 c 231.473 10.538 231.086 11.925 231.09
 14.066 c h
232.852 15.167 m 232.852 14.21 l 232.852 14.046 232.852 13.87 232.852 13.687
 c 232.852 13.495 232.859 13.312 232.875 13.136 c 232.906 12.659 232.969
 12.21 233.07 11.788 c 233.164 11.363 233.32 11.038 233.535 10.812 c 233.711
 10.648 233.93 10.53 234.195 10.468 c 234.453 10.398 234.73 10.359 235.027
 10.347 c 235.09 10.343 235.152 10.343 235.211 10.347 c 235.266 10.343 235.328
 10.343 235.395 10.347 c 236.18 10.347 l 237.172 10.343 237.93 10.48 238.461
 10.761 c 238.988 11.034 239.289 11.714 239.355 12.792 c 239.371 13.019 
239.383 13.238 239.395 13.452 c 239.398 13.663 239.402 13.882 239.406 14.113
 c 239.418 14.323 239.426 14.542 239.43 14.761 c 239.426 14.98 239.426 15.195
 239.43 15.409 c 239.426 16.812 239.297 17.816 239.039 18.417 c 238.777 
19.019 237.945 19.32 236.543 19.323 c 236.18 19.323 l 234.695 19.32 233.77
 19.089 233.402 18.636 c 233.035 18.175 232.852 17.144 232.852 15.534 c 
h
243.82 20.546 m 245.48 20.546 l 245.41 19.226 l 245.75 19.796 246.191 20.202
 246.742 20.448 c 247.285 20.691 247.887 20.812 248.539 20.816 c 249.695
 20.812 250.539 20.534 251.07 19.984 c 251.602 19.425 251.867 18.577 251.867
 17.441 c 251.867 17.323 251.867 17.214 251.867 17.109 c 251.867 17.003 
251.855 16.886 251.84 16.757 c 250.18 16.757 l 250.195 16.886 250.203 17.023
 250.203 17.171 c 250.203 17.312 250.203 17.46 250.203 17.613 c 250.203 
18.312 250.035 18.784 249.699 19.03 c 249.363 19.273 248.859 19.394 248.195
 19.398 c 247.313 19.394 246.648 19.175 246.203 18.738 c 245.75 18.296 245.527
 17.628 245.531 16.73 c 245.531 9.124 l 243.82 9.124 l h
271.773 20.964 m 269.988 20.964 l 269.922 22.167 269.691 22.968 269.301
 23.37 c 268.906 23.769 268.082 23.972 266.832 23.972 c 265.953 23.972 l
 265.734 23.972 265.496 23.964 265.23 23.956 c 264.961 23.945 264.68 23.933
 264.387 23.921 c 264.043 23.886 263.707 23.839 263.383 23.777 c 263.055
 23.71 262.785 23.613 262.578 23.48 c 262.313 23.316 262.121 23.093 262 
22.82 c 261.879 22.538 261.801 22.253 261.77 21.964 c 261.75 21.831 261.738
 21.702 261.734 21.573 c 261.723 21.441 261.719 21.32 261.723 21.206 c 261.719
 20.308 261.863 19.624 262.148 19.163 c 262.434 18.695 263.098 18.433 264.141
 18.37 c 264.5 18.335 264.848 18.312 265.191 18.308 c 265.531 18.296 265.875
 18.292 266.223 18.296 c 267.832 18.257 269.215 18.05 270.363 17.667 c 271.512
 17.284 272.086 16.023 272.09 13.882 c 272.086 12.64 271.902 11.573 271.539
 10.683 c 271.172 9.792 270.246 9.273 268.766 9.124 c 268.5 9.109 268.238
 9.097 267.98 9.089 c 267.715 9.081 267.465 9.07 267.223 9.05 c 266.961 
9.038 266.699 9.03 266.441 9.027 c 266.18 9.03 265.918 9.03 265.66 9.027
 c 263.957 9.03 262.555 9.245 261.449 9.675 c 260.34 10.109 259.785 11.355
 259.789 13.417 c 259.785 13.484 259.785 13.55 259.789 13.616 c 259.785 
13.679 259.793 13.745 259.813 13.812 c 259.809 13.874 259.813 13.937 259.824
 14.007 c 259.828 14.07 259.832 14.136 259.836 14.202 c 261.598 14.202 l
 261.598 12.714 261.805 11.741 262.223 11.284 c 262.637 10.823 263.594 10.593
 265.098 10.597 c 266.637 10.597 l 267.988 10.593 268.926 10.761 269.449
 11.101 c 269.969 11.433 270.227 12.296 270.23 13.691 c 270.227 14.78 270.07
 15.507 269.754 15.87 c 269.434 16.23 268.742 16.437 267.688 16.488 c 267.438
 16.499 267.195 16.511 266.953 16.523 c 266.711 16.527 266.465 16.53 266.223
 16.534 c 264.504 16.597 263.02 16.831 261.77 17.241 c 260.512 17.648 259.887
 18.937 259.887 21.109 c 259.887 23.077 260.391 24.308 261.402 24.8 c 262.41
 25.284 263.766 25.53 265.465 25.534 c 265.902 25.534 l 267.594 25.53 268.996
 25.331 270.109 24.937 c 271.215 24.534 271.77 23.292 271.773 21.206 c h
282.512 20.546 m 279.285 8.464 l 279.246 8.366 279.219 8.261 279.199 8.148
 c 279.172 8.034 279.145 7.921 279.113 7.804 c 278.836 6.843 278.43 5.964
 277.902 5.175 c 277.371 4.386 276.535 3.991 275.395 3.988 c 275.262 3.991
 275.129 4.003 274.992 4.027 c 274.852 4.05 274.719 4.077 274.59 4.109 c
 274.59 5.48 l 274.637 5.48 274.688 5.476 274.746 5.468 c 274.801 5.46 274.855
 5.456 274.906 5.456 c 274.953 5.441 275.004 5.433 275.066 5.433 c 275.121
 5.433 275.176 5.433 275.227 5.433 c 275.809 5.433 276.254 5.667 276.559
 6.128 c 276.859 6.597 277.082 7.105 277.23 7.655 c 277.309 7.937 277.379
 8.202 277.438 8.452 c 277.492 8.706 277.543 8.929 277.598 9.124 c 276.984
 9.124 l 272.852 20.546 l 274.59 20.546 l 278.16 10.37 l 280.754 20.546 
l h
293.012 17.585 m 291.301 17.585 l 291.301 18.202 291.203 18.64 291.008 
18.905 c 290.813 19.163 290.387 19.312 289.734 19.347 c 289.422 19.363 289.109
 19.37 288.793 19.374 c 288.473 19.37 288.148 19.37 287.828 19.374 c 287.711
 19.37 287.594 19.37 287.473 19.374 c 287.348 19.37 287.223 19.363 287.094
 19.347 c 286.848 19.327 286.609 19.296 286.383 19.249 c 286.152 19.198 
285.949 19.109 285.773 18.98 c 285.625 18.866 285.527 18.726 285.48 18.566
 c 285.43 18.398 285.398 18.226 285.383 18.05 c 285.383 17.98 285.383 17.917
 285.383 17.855 c 285.383 17.788 285.383 17.722 285.383 17.659 c 285.383
 16.956 285.492 16.48 285.711 16.23 c 285.93 15.976 286.391 15.831 287.094
 15.8 c 287.305 15.78 287.52 15.773 287.742 15.777 c 287.961 15.773 288.176
 15.773 288.391 15.777 c 289.641 15.757 290.781 15.605 291.813 15.312 c 
292.836 15.015 293.352 14.077 293.355 12.499 c 293.352 10.835 292.902 9.831
 292.008 9.488 c 291.109 9.148 289.953 8.98 288.539 8.976 c 288.469 8.98
 288.402 8.98 288.34 8.976 c 288.273 8.98 288.207 8.98 288.145 8.976 c 286.984
 8.999 285.93 9.167 284.977 9.491 c 284.02 9.816 283.543 10.687 283.547 
12.109 c 283.543 12.155 283.543 12.21 283.547 12.269 c 283.543 12.323 283.551
 12.374 283.57 12.425 c 283.566 12.472 283.57 12.527 283.582 12.585 c 283.59
 12.64 283.594 12.695 283.598 12.745 c 285.309 12.745 l 285.305 11.698 285.504
 11.023 285.906 10.726 c 286.305 10.421 287.004 10.273 288 10.273 c 288.414
 10.273 l 288.574 10.273 288.754 10.277 288.953 10.284 c 289.145 10.292 
289.352 10.304 289.566 10.323 c 289.84 10.335 290.113 10.374 290.395 10.445
 c 290.668 10.507 290.898 10.605 291.082 10.738 c 291.242 10.847 291.359
 11.003 291.434 11.202 c 291.508 11.394 291.555 11.597 291.57 11.816 c 291.586
 11.909 291.594 12.007 291.594 12.105 c 291.594 12.202 291.594 12.3 291.594
 12.402 c 291.594 13.292 291.359 13.816 290.895 13.964 c 290.43 14.113 289.855
 14.187 289.172 14.187 c 289.152 14.187 289.137 14.187 289.125 14.187 c 
289.105 14.187 289.09 14.187 289.074 14.187 c 288.977 14.202 288.875 14.21
 288.77 14.21 c 288.66 14.21 288.547 14.21 288.438 14.21 c 288.352 14.21
 288.273 14.214 288.195 14.222 c 288.113 14.23 288.031 14.234 287.949 14.238
 c 286.773 14.28 285.766 14.448 284.93 14.738 c 284.09 15.023 283.672 15.882
 283.672 17.32 c 283.672 17.464 283.676 17.613 283.684 17.769 c 283.691 
17.921 283.703 18.081 283.719 18.249 c 283.75 18.57 283.82 18.882 283.938
 19.187 c 284.047 19.484 284.234 19.734 284.5 19.937 c 284.773 20.144 285.102
 20.308 285.48 20.425 c 285.852 20.538 286.242 20.62 286.652 20.667 c 286.93
 20.698 287.203 20.718 287.473 20.73 c 287.738 20.734 287.988 20.738 288.219
 20.741 c 288.43 20.738 288.645 20.738 288.867 20.741 c 289.086 20.738 289.309
 20.73 289.539 20.718 c 290.414 20.667 291.219 20.472 291.949 20.128 c 292.672
 19.784 293.035 19.073 293.039 18.003 c 293.035 17.964 293.035 17.929 293.039
 17.89 c 293.035 17.851 293.035 17.816 293.039 17.784 c 293.02 17.749 293.012
 17.714 293.012 17.683 c 293.012 17.648 293.012 17.616 293.012 17.585 c 
h
301.918 20.546 m 301.918 19.175 l 297.516 19.175 l 297.516 12.155 l 297.516
 11.499 297.613 11.038 297.809 10.773 c 298.004 10.499 298.441 10.366 299.129
 10.37 c 299.895 10.366 300.355 10.554 300.512 10.933 c 300.664 11.304 300.742
 11.792 300.746 12.402 c 300.746 13.159 l 302.359 13.159 l 302.355 11.968
 302.176 10.972 301.82 10.175 c 301.457 9.374 300.551 8.98 299.105 8.976
 c 297.832 8.98 296.961 9.202 296.488 9.659 c 296.016 10.113 295.781 10.945
 295.781 12.155 c 295.781 19.175 l 294.289 19.175 l 294.289 20.546 l 295.781
 20.546 l 295.781 23.312 l 297.516 23.312 l 297.516 20.546 l h
311.891 12.597 m 313.652 12.597 l 313.648 10.913 313.199 9.894 312.305 
9.538 c 311.406 9.183 310.234 9.007 308.785 9.003 c 306.648 9.007 305.262
 9.413 304.629 10.226 c 303.988 11.038 303.672 12.48 303.676 14.554 c 303.672
 16.542 303.914 18.066 304.406 19.128 c 304.891 20.183 306.27 20.714 308.543
 20.718 c 310.676 20.714 312.059 20.355 312.688 19.64 c 313.313 18.921 313.633
 17.503 313.652 15.386 c 313.652 14.53 l 305.434 14.53 l 305.43 13.253 305.563
 12.234 305.836 11.472 c 306.102 10.702 307.004 10.32 308.543 10.323 c 309.008
 10.323 l 309.168 10.32 309.344 10.32 309.531 10.323 c 309.719 10.32 309.918
 10.335 310.133 10.37 c 310.375 10.386 310.609 10.429 310.84 10.495 c 311.066
 10.558 311.262 10.648 311.426 10.765 c 311.586 10.874 311.699 11.023 311.758
 11.214 c 311.813 11.398 311.848 11.589 311.867 11.792 c 311.879 11.855 
311.887 11.929 311.891 12.011 c 311.887 12.089 311.887 12.163 311.891 12.23
 c h
311.941 15.851 m 311.938 17.269 311.77 18.214 311.438 18.687 c 311.102 
19.159 310.188 19.394 308.688 19.398 c 307.367 19.394 306.496 19.152 306.082
 18.663 c 305.664 18.171 305.457 17.234 305.461 15.851 c h
316.406 20.546 m 318.043 20.546 l 318.043 18.835 l 318.418 19.546 318.945
 20.038 319.633 20.312 c 320.313 20.577 321.031 20.714 321.785 20.718 c 
321.914 20.714 322.039 20.71 322.164 20.706 c 322.281 20.695 322.41 20.691
 322.543 20.695 c 323.16 20.628 323.742 20.46 324.293 20.191 c 324.836 19.921
 325.215 19.468 325.43 18.835 c 325.852 19.546 326.406 20.042 327.094 20.323
 c 327.777 20.597 328.52 20.738 329.32 20.741 c 330.816 20.738 331.879 20.429
 332.512 19.812 c 333.137 19.191 333.453 18.14 333.453 16.659 c 333.453 
9.124 l 331.668 9.124 l 331.668 16.804 l 331.664 17.78 331.488 18.445 331.141
 18.796 c 330.789 19.144 330.117 19.32 329.125 19.323 c 328.957 19.32 328.781
 19.312 328.598 19.3 c 328.406 19.28 328.215 19.257 328.023 19.226 c 327.609
 19.159 327.219 19.03 326.848 18.847 c 326.469 18.655 326.199 18.374 326.043
 18.003 c 325.941 17.788 325.875 17.562 325.844 17.32 c 325.809 17.073 325.785
 16.835 325.773 16.609 c 325.77 16.523 325.77 16.441 325.773 16.363 c 325.77
 16.277 325.77 16.198 325.773 16.12 c 325.773 9.124 l 324.035 9.124 l 324.035
 16.659 l 323.984 17.718 323.805 18.421 323.496 18.773 c 323.188 19.12 322.48
 19.296 321.371 19.3 c 320.098 19.296 319.223 18.988 318.75 18.37 c 318.277
 17.749 318.043 16.851 318.043 15.679 c 318.043 9.124 l 316.406 9.124 l 
h
345.484 17.585 m 343.773 17.585 l 343.773 18.202 343.676 18.64 343.48 18.905
 c 343.285 19.163 342.859 19.312 342.207 19.347 c 341.895 19.363 341.582
 19.37 341.266 19.374 c 340.945 19.37 340.621 19.37 340.301 19.374 c 340.184
 19.37 340.066 19.37 339.945 19.374 c 339.82 19.37 339.695 19.363 339.566
 19.347 c 339.32 19.327 339.082 19.296 338.855 19.249 c 338.625 19.198 338.422
 19.109 338.246 18.98 c 338.098 18.866 338 18.726 337.953 18.566 c 337.902
 18.398 337.871 18.226 337.855 18.05 c 337.855 17.98 337.855 17.917 337.855
 17.855 c 337.855 17.788 337.855 17.722 337.855 17.659 c 337.855 16.956 
337.965 16.48 338.184 16.23 c 338.402 15.976 338.863 15.831 339.566 15.8
 c 339.777 15.78 339.992 15.773 340.215 15.777 c 340.434 15.773 340.648 
15.773 340.863 15.777 c 342.113 15.757 343.254 15.605 344.285 15.312 c 345.309
 15.015 345.824 14.077 345.828 12.499 c 345.824 10.835 345.375 9.831 344.48
 9.488 c 343.582 9.148 342.426 8.98 341.012 8.976 c 340.941 8.98 340.875
 8.98 340.813 8.976 c 340.746 8.98 340.68 8.98 340.617 8.976 c 339.457 8.999
 338.402 9.167 337.449 9.491 c 336.492 9.816 336.016 10.687 336.02 12.109
 c 336.016 12.155 336.016 12.21 336.02 12.269 c 336.016 12.323 336.023 12.374
 336.043 12.425 c 336.039 12.472 336.043 12.527 336.055 12.585 c 336.063
 12.64 336.066 12.695 336.07 12.745 c 337.781 12.745 l 337.777 11.698 337.977
 11.023 338.379 10.726 c 338.777 10.421 339.477 10.273 340.473 10.273 c 
340.887 10.273 l 341.047 10.273 341.227 10.277 341.426 10.284 c 341.617 
10.292 341.824 10.304 342.039 10.323 c 342.313 10.335 342.586 10.374 342.867
 10.445 c 343.141 10.507 343.371 10.605 343.555 10.738 c 343.715 10.847 
343.832 11.003 343.906 11.202 c 343.98 11.394 344.027 11.597 344.043 11.816
 c 344.059 11.909 344.066 12.007 344.066 12.105 c 344.066 12.202 344.066
 12.3 344.066 12.402 c 344.066 13.292 343.832 13.816 343.367 13.964 c 342.902
 14.113 342.328 14.187 341.645 14.187 c 341.625 14.187 341.609 14.187 341.598
 14.187 c 341.578 14.187 341.563 14.187 341.547 14.187 c 341.449 14.202 
341.348 14.21 341.242 14.21 c 341.133 14.21 341.02 14.21 340.91 14.21 c 
340.824 14.21 340.746 14.214 340.668 14.222 c 340.586 14.23 340.504 14.234
 340.422 14.238 c 339.246 14.28 338.238 14.448 337.402 14.738 c 336.563 
15.023 336.145 15.882 336.145 17.32 c 336.145 17.464 336.148 17.613 336.156
 17.769 c 336.164 17.921 336.176 18.081 336.191 18.249 c 336.223 18.57 336.293
 18.882 336.41 19.187 c 336.52 19.484 336.707 19.734 336.973 19.937 c 337.246
 20.144 337.574 20.308 337.953 20.425 c 338.324 20.538 338.715 20.62 339.125
 20.667 c 339.402 20.698 339.676 20.718 339.945 20.73 c 340.211 20.734 340.461
 20.738 340.691 20.741 c 340.902 20.738 341.117 20.738 341.34 20.741 c 341.559
 20.738 341.781 20.73 342.012 20.718 c 342.887 20.667 343.691 20.472 344.422
 20.128 c 345.145 19.784 345.508 19.073 345.512 18.003 c 345.508 17.964 
345.508 17.929 345.512 17.89 c 345.508 17.851 345.508 17.816 345.512 17.784
 c 345.492 17.749 345.484 17.714 345.484 17.683 c 345.484 17.648 345.484
 17.616 345.484 17.585 c h
f
0.4 g
6.93 56.956 m 3.023 60.863 3.023 67.195 6.93 71.097 c 10.836 75.003 17.164
 75.003 21.07 71.097 c 24.977 67.195 24.977 60.863 21.07 56.956 c f
Q Q
showpage
%%Trailer
count op_count sub {pop} repeat
countdictstack dict_count sub {end} repeat
cairo_eps_state restore
%%EOF
