%!PS-Adobe-3.0 EPSF-3.0
%%Creator: (MATLAB, The Mathworks, Inc. Version 24.1.0.2603908 \(R2024a\) Update 3. Operating System: Windows 10)
%%Title: (C:/Users/lorde/Documents/MATLAB/Master Lab Course/Exercise 1/E1_1_lowZ_fall.eps)
%%CreationDate: 2024-06-25T15:14:49
%%Pages: (atend)
%%BoundingBox:     0     0   420   315
%%LanguageLevel: 3
%%EndComments
%%BeginProlog
%%BeginResource: procset (Apache XML Graphics Std ProcSet) 1.2 0
%%Version: 1.2 0
%%Copyright: (Copyright 2001-2003,2010 The Apache Software Foundation. License terms: http://www.apache.org/licenses/LICENSE-2.0)
/bd{bind def}bind def
/ld{load def}bd
/GR/grestore ld
/GS/gsave ld
/RM/rmoveto ld
/C/curveto ld
/t/show ld
/L/lineto ld
/ML/setmiterlimit ld
/CT/concat ld
/f/fill ld
/N/newpath ld
/S/stroke ld
/CC/setcmykcolor ld
/A/ashow ld
/cp/closepath ld
/RC/setrgbcolor ld
/LJ/setlinejoin ld
/GC/setgray ld
/LW/setlinewidth ld
/M/moveto ld
/re {4 2 roll M
1 index 0 rlineto
0 exch rlineto
neg 0 rlineto
cp } bd
/_ctm matrix def
/_tm matrix def
/BT { _ctm currentmatrix pop matrix _tm copy pop 0 0 moveto } bd
/ET { _ctm setmatrix } bd
/iTm { _ctm setmatrix _tm concat } bd
/Tm { _tm astore pop iTm 0 0 moveto } bd
/ux 0.0 def
/uy 0.0 def
/F {
  /Tp exch def
  /Tf exch def
  Tf findfont Tp scalefont setfont
  /cf Tf def  /cs Tp def
} bd
/ULS {currentpoint /uy exch def /ux exch def} bd
/ULE {
  /Tcx currentpoint pop def
  gsave
  newpath
  cf findfont cs scalefont dup
  /FontMatrix get 0 get /Ts exch def /FontInfo get dup
  /UnderlinePosition get Ts mul /To exch def
  /UnderlineThickness get Ts mul /Tt exch def
  ux uy To add moveto  Tcx uy To add lineto
  Tt setlinewidth stroke
  grestore
} bd
/OLE {
  /Tcx currentpoint pop def
  gsave
  newpath
  cf findfont cs scalefont dup
  /FontMatrix get 0 get /Ts exch def /FontInfo get dup
  /UnderlinePosition get Ts mul /To exch def
  /UnderlineThickness get Ts mul /Tt exch def
  ux uy To add cs add moveto Tcx uy To add cs add lineto
  Tt setlinewidth stroke
  grestore
} bd
/SOE {
  /Tcx currentpoint pop def
  gsave
  newpath
  cf findfont cs scalefont dup
  /FontMatrix get 0 get /Ts exch def /FontInfo get dup
  /UnderlinePosition get Ts mul /To exch def
  /UnderlineThickness get Ts mul /Tt exch def
  ux uy To add cs 10 mul 26 idiv add moveto Tcx uy To add cs 10 mul 26 idiv add lineto
  Tt setlinewidth stroke
  grestore
} bd
/QT {
/Y22 exch store
/X22 exch store
/Y21 exch store
/X21 exch store
currentpoint
/Y21 load 2 mul add 3 div exch
/X21 load 2 mul add 3 div exch
/X21 load 2 mul /X22 load add 3 div
/Y21 load 2 mul /Y22 load add 3 div
/X22 load /Y22 load curveto
} bd
/SSPD {
dup length /d exch dict def
{
/v exch def
/k exch def
currentpagedevice k known {
/cpdv currentpagedevice k get def
v cpdv ne {
/upd false def
/nullv v type /nulltype eq def
/nullcpdv cpdv type /nulltype eq def
nullv nullcpdv or
{
/upd true def
} {
/sametype v type cpdv type eq def
sametype {
v type /arraytype eq {
/vlen v length def
/cpdvlen cpdv length def
vlen cpdvlen eq {
0 1 vlen 1 sub {
/i exch def
/obj v i get def
/cpdobj cpdv i get def
obj cpdobj ne {
/upd true def
exit
} if
} for
} {
/upd true def
} ifelse
} {
v type /dicttype eq {
v {
/dv exch def
/dk exch def
/cpddv cpdv dk get def
dv cpddv ne {
/upd true def
exit
} if
} forall
} {
/upd true def
} ifelse
} ifelse
} if
} ifelse
upd true eq {
d k v put
} if
} if
} if
} forall
d length 0 gt {
d setpagedevice
} if
} bd
/RE { % /NewFontName [NewEncodingArray] /FontName RE -
  findfont dup length dict begin
  {
    1 index /FID ne
    {def} {pop pop} ifelse
  } forall
  /Encoding exch def
  /FontName 1 index def
  currentdict definefont pop
  end
} bind def
%%EndResource
%%BeginResource: procset (Apache XML Graphics EPS ProcSet) 1.0 0
%%Version: 1.0 0
%%Copyright: (Copyright 2002-2003 The Apache Software Foundation. License terms: http://www.apache.org/licenses/LICENSE-2.0)
/BeginEPSF { %def
/b4_Inc_state save def         % Save state for cleanup
/dict_count countdictstack def % Count objects on dict stack
/op_count count 1 sub def      % Count objects on operand stack
userdict begin                 % Push userdict on dict stack
/showpage { } def              % Redefine showpage, { } = null proc
0 setgray 0 setlinecap         % Prepare graphics state
1 setlinewidth 0 setlinejoin
10 setmiterlimit [ ] 0 setdash newpath
/languagelevel where           % If level not equal to 1 then
{pop languagelevel             % set strokeadjust and
1 ne                           % overprint to their defaults.
{false setstrokeadjust false setoverprint
} if
} if
} bd
/EndEPSF { %def
count op_count sub {pop} repeat            % Clean up stacks
countdictstack dict_count sub {end} repeat
b4_Inc_state restore
} bd
%%EndResource
%FOPBeginFontDict
%%IncludeResource: font Courier-Oblique
%%IncludeResource: font Courier-BoldOblique
%%IncludeResource: font Courier-Bold
%%IncludeResource: font ZapfDingbats
%%IncludeResource: font Symbol
%%IncludeResource: font Helvetica
%%IncludeResource: font Helvetica-Oblique
%%IncludeResource: font Helvetica-Bold
%%IncludeResource: font Helvetica-BoldOblique
%%IncludeResource: font Times-Roman
%%IncludeResource: font Times-Italic
%%IncludeResource: font Times-Bold
%%IncludeResource: font Times-BoldItalic
%%IncludeResource: font Courier
%FOPEndFontDict
%%BeginResource: encoding WinAnsiEncoding
/WinAnsiEncoding [
/.notdef /.notdef /.notdef /.notdef /.notdef
/.notdef /.notdef /.notdef /.notdef /.notdef
/.notdef /.notdef /.notdef /.notdef /.notdef
/.notdef /.notdef /.notdef /.notdef /.notdef
/.notdef /.notdef /.notdef /.notdef /.notdef
/.notdef /.notdef /.notdef /.notdef /.notdef
/.notdef /.notdef /space /exclam /quotedbl
/numbersign /dollar /percent /ampersand /quotesingle
/parenleft /parenright /asterisk /plus /comma
/hyphen /period /slash /zero /one
/two /three /four /five /six
/seven /eight /nine /colon /semicolon
/less /equal /greater /question /at
/A /B /C /D /E
/F /G /H /I /J
/K /L /M /N /O
/P /Q /R /S /T
/U /V /W /X /Y
/Z /bracketleft /backslash /bracketright /asciicircum
/underscore /quoteleft /a /b /c
/d /e /f /g /h
/i /j /k /l /m
/n /o /p /q /r
/s /t /u /v /w
/x /y /z /braceleft /bar
/braceright /asciitilde /bullet /Euro /bullet
/quotesinglbase /florin /quotedblbase /ellipsis /dagger
/daggerdbl /circumflex /perthousand /Scaron /guilsinglleft
/OE /bullet /Zcaron /bullet /bullet
/quoteleft /quoteright /quotedblleft /quotedblright /bullet
/endash /emdash /asciitilde /trademark /scaron
/guilsinglright /oe /bullet /zcaron /Ydieresis
/space /exclamdown /cent /sterling /currency
/yen /brokenbar /section /dieresis /copyright
/ordfeminine /guillemotleft /logicalnot /sfthyphen /registered
/macron /degree /plusminus /twosuperior /threesuperior
/acute /mu /paragraph /middot /cedilla
/onesuperior /ordmasculine /guillemotright /onequarter /onehalf
/threequarters /questiondown /Agrave /Aacute /Acircumflex
/Atilde /Adieresis /Aring /AE /Ccedilla
/Egrave /Eacute /Ecircumflex /Edieresis /Igrave
/Iacute /Icircumflex /Idieresis /Eth /Ntilde
/Ograve /Oacute /Ocircumflex /Otilde /Odieresis
/multiply /Oslash /Ugrave /Uacute /Ucircumflex
/Udieresis /Yacute /Thorn /germandbls /agrave
/aacute /acircumflex /atilde /adieresis /aring
/ae /ccedilla /egrave /eacute /ecircumflex
/edieresis /igrave /iacute /icircumflex /idieresis
/eth /ntilde /ograve /oacute /ocircumflex
/otilde /odieresis /divide /oslash /ugrave
/uacute /ucircumflex /udieresis /yacute /thorn
/ydieresis
] def
%%EndResource
%FOPBeginFontReencode
/Courier-Oblique findfont
dup length dict begin
  {1 index /FID ne {def} {pop pop} ifelse} forall
  /Encoding WinAnsiEncoding def
  currentdict
end
/Courier-Oblique exch definefont pop
/Courier-BoldOblique findfont
dup length dict begin
  {1 index /FID ne {def} {pop pop} ifelse} forall
  /Encoding WinAnsiEncoding def
  currentdict
end
/Courier-BoldOblique exch definefont pop
/Courier-Bold findfont
dup length dict begin
  {1 index /FID ne {def} {pop pop} ifelse} forall
  /Encoding WinAnsiEncoding def
  currentdict
end
/Courier-Bold exch definefont pop
/Helvetica findfont
dup length dict begin
  {1 index /FID ne {def} {pop pop} ifelse} forall
  /Encoding WinAnsiEncoding def
  currentdict
end
/Helvetica exch definefont pop
/Helvetica-Oblique findfont
dup length dict begin
  {1 index /FID ne {def} {pop pop} ifelse} forall
  /Encoding WinAnsiEncoding def
  currentdict
end
/Helvetica-Oblique exch definefont pop
/Helvetica-Bold findfont
dup length dict begin
  {1 index /FID ne {def} {pop pop} ifelse} forall
  /Encoding WinAnsiEncoding def
  currentdict
end
/Helvetica-Bold exch definefont pop
/Helvetica-BoldOblique findfont
dup length dict begin
  {1 index /FID ne {def} {pop pop} ifelse} forall
  /Encoding WinAnsiEncoding def
  currentdict
end
/Helvetica-BoldOblique exch definefont pop
/Times-Roman findfont
dup length dict begin
  {1 index /FID ne {def} {pop pop} ifelse} forall
  /Encoding WinAnsiEncoding def
  currentdict
end
/Times-Roman exch definefont pop
/Times-Italic findfont
dup length dict begin
  {1 index /FID ne {def} {pop pop} ifelse} forall
  /Encoding WinAnsiEncoding def
  currentdict
end
/Times-Italic exch definefont pop
/Times-Bold findfont
dup length dict begin
  {1 index /FID ne {def} {pop pop} ifelse} forall
  /Encoding WinAnsiEncoding def
  currentdict
end
/Times-Bold exch definefont pop
/Times-BoldItalic findfont
dup length dict begin
  {1 index /FID ne {def} {pop pop} ifelse} forall
  /Encoding WinAnsiEncoding def
  currentdict
end
/Times-BoldItalic exch definefont pop
/Courier findfont
dup length dict begin
  {1 index /FID ne {def} {pop pop} ifelse} forall
  /Encoding WinAnsiEncoding def
  currentdict
end
/Courier exch definefont pop
%FOPEndFontReencode
%%EndProlog
%%Page: 1 1
%%PageBoundingBox: 0 0 420 315
%%BeginPageSetup
[1 0 0 -1 0 315] CT
%%EndPageSetup
GS
[0.75 0 0 0.75 0 0] CT
1 GC
N
0 0 560 420 re
f
GR
GS
[0.75 0 0 0.75 0 0] CT
1 GC
N
0 0 560 420 re
f
GR
GS
[0.75 0 0 0.75 0 0] CT
1 GC
N
73 372 M
507 372 L
507 31 L
73 31 L
cp
f
GR
GS
[0.75 0 0 0.75 0 0] CT
0.873 GC
1 LJ
0.667 LW
N
73 372 M
73 31 L
S
GR
GS
[0.75 0 0 0.75 0 0] CT
0.873 GC
1 LJ
0.667 LW
N
135 372 M
135 31 L
S
GR
GS
[0.75 0 0 0.75 0 0] CT
0.873 GC
1 LJ
0.667 LW
N
197 372 M
197 31 L
S
GR
GS
[0.75 0 0 0.75 0 0] CT
0.873 GC
1 LJ
0.667 LW
N
259 372 M
259 31 L
S
GR
GS
[0.75 0 0 0.75 0 0] CT
0.873 GC
1 LJ
0.667 LW
N
321 372 M
321 31 L
S
GR
GS
[0.75 0 0 0.75 0 0] CT
0.873 GC
1 LJ
0.667 LW
N
383 372 M
383 31 L
S
GR
GS
[0.75 0 0 0.75 0 0] CT
0.873 GC
1 LJ
0.667 LW
N
445 372 M
445 31 L
S
GR
GS
[0.75 0 0 0.75 0 0] CT
0.873 GC
1 LJ
0.667 LW
N
507 372 M
507 31 L
S
GR
GS
[0.75 0 0 0.75 0 0] CT
0.873 GC
1 LJ
0.667 LW
N
507 349.355 M
73 349.355 L
S
GR
GS
[0.75 0 0 0.75 0 0] CT
0.873 GC
1 LJ
0.667 LW
N
507 306.73 M
73 306.73 L
S
GR
GS
[0.75 0 0 0.75 0 0] CT
0.873 GC
1 LJ
0.667 LW
N
507 264.105 M
73 264.105 L
S
GR
GS
[0.75 0 0 0.75 0 0] CT
0.873 GC
1 LJ
0.667 LW
N
507 221.48 M
73 221.48 L
S
GR
GS
[0.75 0 0 0.75 0 0] CT
0.873 GC
1 LJ
0.667 LW
N
507 178.855 M
73 178.855 L
S
GR
GS
[0.75 0 0 0.75 0 0] CT
0.873 GC
1 LJ
0.667 LW
N
507 136.23 M
73 136.23 L
S
GR
GS
[0.75 0 0 0.75 0 0] CT
0.873 GC
1 LJ
0.667 LW
N
507 93.605 M
73 93.605 L
S
GR
GS
[0.75 0 0 0.75 0 0] CT
0.873 GC
1 LJ
0.667 LW
N
507 50.98 M
73 50.98 L
S
GR
GS
[0.75 0 0 0.75 0 0] CT
0.149 GC
2 setlinecap
1 LJ
0.667 LW
N
73 372 M
507 372 L
S
GR
GS
[0.75 0 0 0.75 0 0] CT
0.149 GC
2 setlinecap
1 LJ
0.667 LW
N
73 31 M
507 31 L
S
GR
GS
[0.75 0 0 0.75 0 0] CT
0.149 GC
2 setlinecap
1 LJ
0.667 LW
N
73 372 M
73 367.66 L
S
GR
GS
[0.75 0 0 0.75 0 0] CT
0.149 GC
2 setlinecap
1 LJ
0.667 LW
N
135 372 M
135 367.66 L
S
GR
GS
[0.75 0 0 0.75 0 0] CT
0.149 GC
2 setlinecap
1 LJ
0.667 LW
N
197 372 M
197 367.66 L
S
GR
GS
[0.75 0 0 0.75 0 0] CT
0.149 GC
2 setlinecap
1 LJ
0.667 LW
N
259 372 M
259 367.66 L
S
GR
GS
[0.75 0 0 0.75 0 0] CT
0.149 GC
2 setlinecap
1 LJ
0.667 LW
N
321 372 M
321 367.66 L
S
GR
GS
[0.75 0 0 0.75 0 0] CT
0.149 GC
2 setlinecap
1 LJ
0.667 LW
N
383 372 M
383 367.66 L
S
GR
GS
[0.75 0 0 0.75 0 0] CT
0.149 GC
2 setlinecap
1 LJ
0.667 LW
N
445 372 M
445 367.66 L
S
GR
GS
[0.75 0 0 0.75 0 0] CT
0.149 GC
2 setlinecap
1 LJ
0.667 LW
N
507 372 M
507 367.66 L
S
GR
GS
[0.75 0 0 0.75 0 0] CT
0.149 GC
2 setlinecap
1 LJ
0.667 LW
N
73 31 M
73 35.34 L
S
GR
GS
[0.75 0 0 0.75 0 0] CT
0.149 GC
2 setlinecap
1 LJ
0.667 LW
N
135 31 M
135 35.34 L
S
GR
GS
[0.75 0 0 0.75 0 0] CT
0.149 GC
2 setlinecap
1 LJ
0.667 LW
N
197 31 M
197 35.34 L
S
GR
GS
[0.75 0 0 0.75 0 0] CT
0.149 GC
2 setlinecap
1 LJ
0.667 LW
N
259 31 M
259 35.34 L
S
GR
GS
[0.75 0 0 0.75 0 0] CT
0.149 GC
2 setlinecap
1 LJ
0.667 LW
N
321 31 M
321 35.34 L
S
GR
GS
[0.75 0 0 0.75 0 0] CT
0.149 GC
2 setlinecap
1 LJ
0.667 LW
N
383 31 M
383 35.34 L
S
GR
GS
[0.75 0 0 0.75 0 0] CT
0.149 GC
2 setlinecap
1 LJ
0.667 LW
N
445 31 M
445 35.34 L
S
GR
GS
[0.75 0 0 0.75 0 0] CT
0.149 GC
2 setlinecap
1 LJ
0.667 LW
N
507 31 M
507 35.34 L
S
GR
GS
[0.75 0 0 0.75 54.75 283.00001] CT
0.149 GC
/Helvetica 13.333 F
GS
[1 0 0 1 0 0] CT
-11.5 14 moveto 
1 -1 scale
(300) t 
GR
GR
GS
[0.75 0 0 0.75 101.25 283.00001] CT
0.149 GC
/Helvetica 13.333 F
GS
[1 0 0 1 0 0] CT
-11.5 14 moveto 
1 -1 scale
(400) t 
GR
GR
GS
[0.75 0 0 0.75 147.75 283.00001] CT
0.149 GC
/Helvetica 13.333 F
GS
[1 0 0 1 0 0] CT
-11.5 14 moveto 
1 -1 scale
(500) t 
GR
GR
GS
[0.75 0 0 0.75 194.25 283.00001] CT
0.149 GC
/Helvetica 13.333 F
GS
[1 0 0 1 0 0] CT
-11.5 14 moveto 
1 -1 scale
(600) t 
GR
GR
GS
[0.75 0 0 0.75 240.75 283.00001] CT
0.149 GC
/Helvetica 13.333 F
GS
[1 0 0 1 0 0] CT
-11.5 14 moveto 
1 -1 scale
(700) t 
GR
GR
GS
[0.75 0 0 0.75 287.25 283.00001] CT
0.149 GC
/Helvetica 13.333 F
GS
[1 0 0 1 0 0] CT
-11.5 14 moveto 
1 -1 scale
(800) t 
GR
GR
GS
[0.75 0 0 0.75 333.75 283.00001] CT
0.149 GC
/Helvetica 13.333 F
GS
[1 0 0 1 0 0] CT
-11.5 14 moveto 
1 -1 scale
(900) t 
GR
GR
GS
[0.75 0 0 0.75 380.25 283.00001] CT
0.149 GC
/Helvetica 13.333 F
GS
[1 0 0 1 0 0] CT
-15 14 moveto 
1 -1 scale
(1000) t 
GR
GR
GS
[0.75 0 0 0.75 217.50014 297] CT
0.149 GC
/Helvetica 18.667 F
GS
[1 0 0 1 0 0] CT
-38.5 19 moveto 
1 -1 scale
(Time / ns) t 
GR
GR
GS
[0.75 0 0 0.75 0 0] CT
0.149 GC
2 setlinecap
1 LJ
0.667 LW
N
73 372 M
73 31 L
S
GR
GS
[0.75 0 0 0.75 0 0] CT
0.149 GC
2 setlinecap
1 LJ
0.667 LW
N
507 372 M
507 31 L
S
GR
GS
[0.75 0 0 0.75 0 0] CT
0.149 GC
2 setlinecap
1 LJ
0.667 LW
N
73 349.355 M
77.34 349.355 L
S
GR
GS
[0.75 0 0 0.75 0 0] CT
0.149 GC
2 setlinecap
1 LJ
0.667 LW
N
73 306.73 M
77.34 306.73 L
S
GR
GS
[0.75 0 0 0.75 0 0] CT
0.149 GC
2 setlinecap
1 LJ
0.667 LW
N
73 264.105 M
77.34 264.105 L
S
GR
GS
[0.75 0 0 0.75 0 0] CT
0.149 GC
2 setlinecap
1 LJ
0.667 LW
N
73 221.48 M
77.34 221.48 L
S
GR
GS
[0.75 0 0 0.75 0 0] CT
0.149 GC
2 setlinecap
1 LJ
0.667 LW
N
73 178.855 M
77.34 178.855 L
S
GR
GS
[0.75 0 0 0.75 0 0] CT
0.149 GC
2 setlinecap
1 LJ
0.667 LW
N
73 136.23 M
77.34 136.23 L
S
GR
GS
[0.75 0 0 0.75 0 0] CT
0.149 GC
2 setlinecap
1 LJ
0.667 LW
N
73 93.605 M
77.34 93.605 L
S
GR
GS
[0.75 0 0 0.75 0 0] CT
0.149 GC
2 setlinecap
1 LJ
0.667 LW
N
73 50.98 M
77.34 50.98 L
S
GR
GS
[0.75 0 0 0.75 0 0] CT
0.149 GC
2 setlinecap
1 LJ
0.667 LW
N
507 349.355 M
502.66 349.355 L
S
GR
GS
[0.75 0 0 0.75 0 0] CT
0.149 GC
2 setlinecap
1 LJ
0.667 LW
N
507 306.73 M
502.66 306.73 L
S
GR
GS
[0.75 0 0 0.75 0 0] CT
0.149 GC
2 setlinecap
1 LJ
0.667 LW
N
507 264.105 M
502.66 264.105 L
S
GR
GS
[0.75 0 0 0.75 0 0] CT
0.149 GC
2 setlinecap
1 LJ
0.667 LW
N
507 221.48 M
502.66 221.48 L
S
GR
GS
[0.75 0 0 0.75 0 0] CT
0.149 GC
2 setlinecap
1 LJ
0.667 LW
N
507 178.855 M
502.66 178.855 L
S
GR
GS
[0.75 0 0 0.75 0 0] CT
0.149 GC
2 setlinecap
1 LJ
0.667 LW
N
507 136.23 M
502.66 136.23 L
S
GR
GS
[0.75 0 0 0.75 0 0] CT
0.149 GC
2 setlinecap
1 LJ
0.667 LW
N
507 93.605 M
502.66 93.605 L
S
GR
GS
[0.75 0 0 0.75 0 0] CT
0.149 GC
2 setlinecap
1 LJ
0.667 LW
N
507 50.98 M
502.66 50.98 L
S
GR
GS
[0.75 0 0 0.75 50.75 262.0166] CT
0.149 GC
/Helvetica 13.333 F
GS
[1 0 0 1 0 0] CT
-12 5.5 moveto 
1 -1 scale
(-5) t 
GR
GR
GS
[0.75 0 0 0.75 50.75 230.04785] CT
0.149 GC
/Helvetica 13.333 F
GS
[1 0 0 1 0 0] CT
-8 5.5 moveto 
1 -1 scale
(0) t 
GR
GR
GS
[0.75 0 0 0.75 50.75 198.0791] CT
0.149 GC
/Helvetica 13.333 F
GS
[1 0 0 1 0 0] CT
-8 5.5 moveto 
1 -1 scale
(5) t 
GR
GR
GS
[0.75 0 0 0.75 50.75 166.11035] CT
0.149 GC
/Helvetica 13.333 F
GS
[1 0 0 1 0 0] CT
-15 5.5 moveto 
1 -1 scale
(10) t 
GR
GR
GS
[0.75 0 0 0.75 50.75 134.1416] CT
0.149 GC
/Helvetica 13.333 F
GS
[1 0 0 1 0 0] CT
-15 5.5 moveto 
1 -1 scale
(15) t 
GR
GR
GS
[0.75 0 0 0.75 50.75 102.17285] CT
0.149 GC
/Helvetica 13.333 F
GS
[1 0 0 1 0 0] CT
-15 5.5 moveto 
1 -1 scale
(20) t 
GR
GR
GS
[0.75 0 0 0.75 50.75 70.2041] CT
0.149 GC
/Helvetica 13.333 F
GS
[1 0 0 1 0 0] CT
-15 5.5 moveto 
1 -1 scale
(25) t 
GR
GR
GS
[0.75 0 0 0.75 50.75 38.23535] CT
0.149 GC
/Helvetica 13.333 F
GS
[1 0 0 1 0 0] CT
-15 5.5 moveto 
1 -1 scale
(30) t 
GR
GR
GS
[0 -0.75 0.75 0 36.5 151.12487] CT
0.149 GC
/Helvetica 18.667 F
GS
[1 0 0 1 0 0] CT
-46 -5 moveto 
1 -1 scale
(Voltage / V) t 
GR
GR
GS
[0.75 0 0 0.75 0 0] CT
0 0.447 0.741 RC
1 LJ
2 LW
N
85.049 54.697 M
85.545 54.497 L
86.041 54.67 L
86.537 55.203 L
87.033 54.284 L
87.529 54.51 L
88.025 54.084 L
88.521 53.591 L
89.017 53.378 L
89.513 51.846 L
90.009 51.926 L
90.505 52.219 L
91.001 51.873 L
91.497 52.392 L
91.993 52.672 L
92.489 52.539 L
92.985 53.578 L
93.481 54.084 L
93.977 53.538 L
94.473 54.351 L
94.969 54.417 L
95.465 53.804 L
95.961 54.044 L
96.457 53.871 L
96.953 52.859 L
97.449 52.033 L
97.945 53.098 L
98.441 53.032 L
98.937 51.646 L
99.433 52.685 L
99.929 52.725 L
100.425 51.86 L
100.921 52.912 L
101.417 53.618 L
101.913 53.232 L
102.409 52.859 L
102.905 53.471 L
103.401 53.764 L
103.897 53.711 L
104.393 53.551 L
104.889 52.273 L
105.385 52.273 L
105.881 52.419 L
106.377 51.447 L
106.873 52.139 L
107.369 52.885 L
107.865 53.032 L
108.361 53.511 L
108.857 53.605 L
109.353 53.565 L
109.849 53.165 L
110.345 53.258 L
110.841 54.497 L
111.337 53.951 L
111.833 53.085 L
112.329 54.43 L
112.825 53.551 L
113.321 52.752 L
113.817 53.978 L
114.313 53.032 L
114.809 53.192 L
115.305 53.791 L
115.801 52.179 L
116.297 52.539 L
116.793 53.192 L
117.289 52.939 L
117.785 53.631 L
118.281 53.538 L
118.777 53.338 L
119.273 53.445 L
119.769 53.232 L
120.265 53.764 L
120.761 53.884 L
121.257 53.485 L
121.753 53.112 L
122.249 52.259 L
122.745 52.379 L
123.241 52.899 L
123.737 52.446 L
124.233 53.058 L
124.729 53.698 L
125.225 52.885 L
125.721 53.005 L
126.217 53.365 L
126.713 53.312 L
127.209 53.338 L
127.705 53.525 L
128.201 53.471 L
128.697 52.725 L
129.193 52.939 L
129.689 53.351 L
130.185 53.525 L
130.681 52.925 L
131.177 52.046 L
131.673 52.552 L
132.169 52.552 L
132.665 52.872 L
133.161 53.218 L
133.657 52.113 L
134.153 52.552 L
134.649 53.285 L
135.145 53.418 L
135.641 53.831 L
136.137 53.112 L
136.633 53.365 L
137.129 53.831 L
137.625 53.085 L
138.121 52.845 L
138.617 52.606 L
139.113 52.965 L
139.609 52.859 L
140.105 52.406 L
140.601 53.218 L
141.097 53.258 L
141.593 52.819 L
142.089 53.192 L
142.585 53.645 L
143.081 53.458 L
143.577 53.605 L
144.073 54.271 L
144.569 54.044 L
145.065 53.232 L
145.561 53.045 L
146.057 53.431 L
146.553 53.232 L
147.049 53.192 L
147.545 53.285 L
148.041 52.486 L
148.537 52.632 L
149.033 53.205 L
149.529 52.739 L
150.025 53.351 L
150.521 54.204 L
151.017 53.192 L
151.513 53.351 L
152.009 53.978 L
152.505 53.458 L
153.001 53.684 L
153.497 53.645 L
153.993 53.498 L
154.489 53.005 L
154.985 53.045 L
155.481 53.525 L
155.977 51.94 L
156.473 52.539 L
156.969 53.844 L
157.465 52.606 L
157.961 52.805 L
158.457 52.939 L
158.953 52.033 L
159.449 52.326 L
159.945 53.418 L
160.441 53.258 L
160.937 52.432 L
161.433 52.992 L
161.929 52.912 L
162.425 52.832 L
162.921 53.098 L
163.417 52.352 L
163.913 51.78 L
164.409 52.059 L
164.905 53.005 L
165.401 52.499 L
165.897 51.42 L
166.393 52.233 L
166.889 52.566 L
167.385 52.446 L
167.881 52.739 L
168.377 52.139 L
168.873 52.712 L
169.369 53.445 L
169.865 51.993 L
170.361 51.527 L
170.857 52.512 L
171.353 52.486 L
171.849 52.166 L
172.345 52.073 L
172.841 52.099 L
173.337 52.659 L
173.833 52.086 L
174.329 51.54 L
174.825 52.872 L
175.321 53.112 L
175.817 52.486 L
176.313 52.566 L
176.809 52.472 L
177.305 53.178 L
177.801 52.819 L
178.297 51.82 L
178.793 52.699 L
179.289 52.499 L
179.785 52.219 L
180.281 52.432 L
180.777 52.299 L
181.273 52.779 L
181.769 52.046 L
182.265 52.339 L
182.761 53.245 L
183.257 52.113 L
183.753 52.619 L
184.249 52.939 L
184.745 52.006 L
185.241 52.499 L
185.737 52.113 L
186.233 53.551 L
186.729 53.032 L
187.225 57.148 L
187.721 80.445 L
188.217 106.886 L
188.713 123.723 L
189.209 132.834 L
189.705 138.655 L
190.201 144.689 L
190.697 148.605 L
191.193 153.161 L
191.689 156.477 L
192.185 157.303 L
192.681 159.541 L
193.177 161.379 L
193.673 164.363 L
194.169 170.996 L
194.665 180.294 L
195.161 189.871 L
195.657 205.829 L
196.153 236.732 L
196.649 269.966 L
197.145 297.886 L
197.641 323.754 L
198.137 340.711 L
198.633 349.342 L
199.129 353.725 L
199.625 353.312 L
200.121 353.245 L
200.617 352.353 L
201.113 349.502 L
201.609 340.378 L
202.105 315.002 L
202.601 300.363 L
203.097 314.177 L
203.593 319.212 L
204.089 303.32 L
204.585 295.821 L
205.081 306.224 L
205.577 312.898 L
206.073 306.078 L
206.569 305.745 L
207.065 316.694 L
207.561 320.277 L
208.057 316.428 L
208.553 318.026 L
209.049 322.009 L
209.545 319.625 L
210.041 313.031 L
210.537 309.754 L
211.033 310.22 L
211.529 307.357 L
212.025 300.603 L
212.521 297.579 L
213.017 299.431 L
213.513 300.71 L
214.009 300.896 L
214.505 303.653 L
215.001 308.795 L
215.497 312.698 L
215.993 314.443 L
216.489 316.481 L
216.985 318.879 L
217.481 319.212 L
217.977 317.373 L
218.473 315.322 L
218.969 312.805 L
219.465 308.555 L
219.961 304.573 L
220.457 301.749 L
220.953 299.604 L
221.449 299.444 L
221.945 300.377 L
222.441 301.682 L
222.937 303.907 L
223.433 307.29 L
223.929 310.3 L
224.425 312.392 L
224.921 315.455 L
225.417 317.227 L
225.913 317.04 L
226.409 315.429 L
226.905 312.525 L
227.401 310.034 L
227.897 307.103 L
228.393 303.867 L
228.889 301.376 L
229.385 299.937 L
229.881 299.165 L
230.377 299.791 L
230.873 302.921 L
231.369 305.212 L
231.865 307.623 L
232.361 311.646 L
232.857 313.364 L
233.353 314.11 L
233.849 314.363 L
234.345 313.963 L
234.841 313.404 L
235.337 310.207 L
235.833 307.849 L
236.329 305.958 L
236.825 302.135 L
237.321 301.282 L
237.817 300.377 L
238.313 299.311 L
238.809 301.935 L
239.305 303.84 L
239.801 306.344 L
240.297 309.208 L
240.793 310.647 L
241.289 313.204 L
241.785 314.496 L
242.281 314.563 L
242.777 313.87 L
243.273 311.339 L
243.769 309.701 L
244.265 307.503 L
244.761 304.106 L
245.257 303.174 L
245.753 301.882 L
246.249 300.616 L
246.745 302.242 L
247.241 302.721 L
247.737 304.186 L
248.233 307.636 L
248.729 310.22 L
249.225 312.178 L
249.721 313.018 L
250.217 314.31 L
250.713 314.097 L
251.209 311.992 L
251.705 310.367 L
252.201 308.409 L
252.697 306.624 L
253.193 304.639 L
253.689 302.228 L
254.185 301.136 L
254.681 301.882 L
255.177 302.774 L
255.673 302.948 L
256.169 305.105 L
256.665 308.156 L
257.161 309.594 L
257.657 311.712 L
258.153 313.177 L
258.649 312.658 L
259.145 312.059 L
259.641 311.259 L
260.137 310.047 L
260.633 307.583 L
261.129 305.558 L
261.625 304.586 L
262.121 302.561 L
262.617 301.829 L
263.113 302.934 L
263.609 303.267 L
264.105 304.08 L
264.601 306.717 L
265.097 308.595 L
265.593 309.395 L
266.089 312.059 L
266.585 313.644 L
267.081 311.353 L
267.577 310.793 L
268.073 311.126 L
268.569 307.983 L
269.065 305.958 L
269.561 305.851 L
270.057 304.186 L
270.553 303.267 L
271.049 303.067 L
271.545 302.615 L
272.041 303.853 L
272.537 305.172 L
273.033 307.383 L
273.529 309.594 L
274.025 309.834 L
274.521 310.806 L
275.017 310.966 L
275.513 310.1 L
276.009 310.46 L
276.505 309.688 L
277.001 307.303 L
277.497 306.091 L
277.993 305.119 L
278.489 303.68 L
278.985 303.121 L
279.481 302.854 L
279.977 303.094 L
280.473 304.559 L
280.969 305.878 L
281.465 306.73 L
281.961 308.595 L
282.457 310.367 L
282.953 310.314 L
283.449 310.753 L
283.945 311.632 L
284.441 310.687 L
284.937 309.221 L
285.433 307.583 L
285.929 306.517 L
286.425 306.051 L
286.921 304.213 L
287.417 303.4 L
287.913 304.026 L
288.409 304.533 L
288.905 305.452 L
289.401 306.477 L
289.897 307.809 L
290.393 309.341 L
290.889 309.834 L
291.385 309.967 L
291.881 310.607 L
292.377 310.34 L
292.873 309.621 L
293.369 308.529 L
293.865 306.597 L
294.361 305.931 L
294.857 305.239 L
295.353 303.48 L
295.849 303.374 L
296.345 304.679 L
296.841 305.105 L
297.337 305.971 L
297.833 307.197 L
298.329 307.503 L
298.825 309.261 L
299.321 310.114 L
299.817 309.235 L
300.313 309.741 L
300.809 309.261 L
301.305 307.836 L
301.801 306.784 L
302.297 305.971 L
302.793 305.505 L
303.289 304.186 L
303.785 303.707 L
304.281 303.747 L
304.777 303.893 L
305.273 305.372 L
305.769 306.091 L
306.265 306.984 L
306.761 308.102 L
307.257 308.729 L
307.753 309.967 L
308.249 309.648 L
308.745 308.529 L
309.241 308.396 L
309.737 307.809 L
310.233 307.01 L
310.729 305.878 L
311.225 305.065 L
311.721 305.305 L
312.217 304.866 L
312.713 304.479 L
313.209 305.052 L
313.705 305.838 L
314.201 307.117 L
314.697 308.609 L
315.193 308.635 L
315.689 308.689 L
316.185 309.781 L
316.681 309.714 L
317.177 309.315 L
317.673 308.422 L
318.169 306.984 L
318.665 306.118 L
319.161 305.518 L
319.657 305.199 L
320.153 304.479 L
320.649 304.586 L
321.145 305.079 L
321.641 305.159 L
322.137 305.532 L
322.633 306.184 L
323.129 307.65 L
323.625 308.435 L
324.121 308.396 L
324.617 309.608 L
325.113 309.221 L
325.609 307.317 L
326.105 307.716 L
326.601 307.53 L
327.097 306.424 L
327.593 306.025 L
328.089 305.691 L
328.585 305.585 L
329.081 304.772 L
329.577 304.639 L
330.073 305.771 L
330.569 306.184 L
331.065 306.97 L
331.561 307.65 L
332.057 307.836 L
332.553 309.208 L
333.049 308.848 L
333.545 307.29 L
334.041 307.836 L
334.537 307.476 L
335.033 306.358 L
335.529 306.691 L
336.025 306.451 L
336.521 305.065 L
337.017 304.826 L
337.513 306.251 L
338.009 306.464 L
338.505 305.665 L
339.001 306.877 L
339.497 307.703 L
339.993 307.703 L
340.489 308.675 L
340.985 308.102 L
341.481 308.475 L
341.977 309.195 L
342.473 307.769 L
342.969 307.357 L
343.465 307.117 L
343.961 306.238 L
344.457 305.225 L
344.953 305.052 L
345.449 305.665 L
345.945 305.105 L
346.441 305.292 L
346.937 306.025 L
347.433 306.744 L
347.929 307.223 L
348.425 307.237 L
348.921 307.836 L
349.417 307.836 L
349.913 308.209 L
350.409 308.622 L
350.905 307.503 L
351.401 307.037 L
351.897 306.491 L
352.393 305.985 L
352.889 306.224 L
353.385 305.225 L
353.881 305.505 L
354.377 305.985 L
354.873 305.798 L
355.369 306.797 L
355.865 307.117 L
356.361 307.663 L
356.857 308.276 L
357.353 308.036 L
357.849 308.009 L
358.345 307.69 L
358.841 307.876 L
359.337 308.236 L
359.833 307.13 L
360.329 306.464 L
360.825 306.304 L
361.321 305.652 L
361.817 305.865 L
362.313 305.891 L
362.809 305.971 L
363.305 306.77 L
363.801 306.464 L
364.297 306.664 L
364.793 308.382 L
365.289 307.956 L
365.785 307.303 L
366.281 308.396 L
366.777 307.53 L
367.273 306.89 L
367.769 307.956 L
368.265 307.197 L
368.761 306.411 L
369.257 306.158 L
369.753 305.145 L
370.249 304.732 L
370.745 305.358 L
371.241 305.918 L
371.737 306.171 L
372.233 307.103 L
372.729 307.223 L
373.225 306.93 L
373.721 307.676 L
374.217 308.236 L
374.713 307.983 L
375.209 307.516 L
375.705 307.543 L
376.201 306.704 L
376.697 305.691 L
377.193 306.131 L
377.689 306.304 L
378.185 305.705 L
378.681 305.572 L
379.177 306.291 L
379.673 305.998 L
380.169 306.038 L
380.665 306.944 L
381.161 307.117 L
381.657 308.076 L
382.153 307.823 L
382.649 307.237 L
383.145 307.943 L
383.641 307.61 L
384.137 307.61 L
384.633 307.277 L
385.129 306.264 L
385.625 305.638 L
386.121 305.092 L
386.617 305.918 L
387.113 306.397 L
387.609 306.424 L
388.105 307.317 L
388.601 307.103 L
389.097 306.717 L
389.593 307.117 L
390.089 307.05 L
390.585 307.556 L
391.081 308.409 L
391.577 307.45 L
392.073 306.664 L
392.569 306.97 L
393.065 306.464 L
393.561 306.81 L
394.057 306.85 L
394.553 305.585 L
395.049 305.652 L
395.545 305.865 L
396.041 306.158 L
396.537 306.717 L
397.033 307.024 L
397.529 307.17 L
398.025 306.691 L
398.521 307.343 L
399.017 307.49 L
399.513 307.29 L
400.009 308.196 L
400.505 307.57 L
401.001 306.877 L
401.497 306.917 L
401.993 306.011 L
402.489 305.572 L
402.985 305.851 L
403.481 306.384 L
403.977 306.557 L
404.473 305.851 L
404.969 306.358 L
405.465 307.357 L
405.961 306.984 L
406.457 306.77 L
406.953 307.45 L
407.449 307.796 L
407.945 307.463 L
408.441 306.89 L
408.937 306.744 L
409.433 307.09 L
409.929 306.251 L
410.425 305.918 L
410.921 305.958 L
411.417 305.319 L
411.913 306.104 L
412.409 306.184 L
412.905 306.211 L
413.401 307.237 L
413.897 306.784 L
414.393 306.331 L
414.889 307.623 L
415.385 307.543 L
415.881 306.464 L
416.377 307.556 L
416.873 308.009 L
417.369 306.837 L
417.865 306.118 L
418.361 306.651 L
418.857 307.29 L
419.353 306.677 L
419.849 306.251 L
420.345 305.585 L
420.841 305.758 L
421.337 306.557 L
421.833 306.264 L
422.329 306.89 L
422.825 307.197 L
423.321 307.343 L
423.817 307.729 L
424.313 306.557 L
424.809 306.677 L
425.305 307.37 L
425.801 306.85 L
426.297 307.143 L
426.793 306.358 L
427.289 305.385 L
427.785 306.064 L
428.281 306.251 L
428.777 306.051 L
429.273 306.89 L
429.769 306.877 L
430.265 306.104 L
430.761 306.704 L
431.257 306.571 L
431.753 306.437 L
432.249 307.117 L
432.745 306.531 L
433.241 306.251 L
433.737 306.371 L
434.233 306.424 L
434.729 306.371 L
435.225 306.198 L
435.721 306.597 L
436.217 306.557 L
436.713 306.451 L
437.209 306.824 L
437.705 306.744 L
438.201 307.25 L
438.697 308.036 L
439.193 307.13 L
439.689 306.704 L
440.185 307.503 L
440.681 307.783 L
441.177 307.463 L
441.673 306.677 L
442.169 307.29 L
442.665 307.09 L
443.161 305.598 L
443.657 306.77 L
444.153 306.944 L
444.649 305.385 L
445.145 306.011 L
445.641 306.437 L
446.137 306.344 L
446.633 306.477 L
447.129 306.504 L
447.625 306.957 L
448.121 306.917 L
S
GR
%%Trailer
%%Pages: 1
%%EOF
