%!PS-Adobe-3.0 EPSF-3.0
%%Creator: (MATLAB, The Mathworks, Inc. Version 24.1.0.2603908 \(R2024a\) Update 3. Operating System: Windows 10)
%%Title: (C:/Users/lorde/Documents/MATLAB/Master Lab Course/Exercise 1/E1_1_bumblebee_fall.eps)
%%CreationDate: 2024-06-25T15:11:50
%%Pages: (atend)
%%BoundingBox:     0     0   420   315
%%LanguageLevel: 3
%%EndComments
%%BeginProlog
%%BeginResource: procset (Apache XML Graphics Std ProcSet) 1.2 0
%%Version: 1.2 0
%%Copyright: (Copyright 2001-2003,2010 The Apache Software Foundation. License terms: http://www.apache.org/licenses/LICENSE-2.0)
/bd{bind def}bind def
/ld{load def}bd
/GR/grestore ld
/GS/gsave ld
/RM/rmoveto ld
/C/curveto ld
/t/show ld
/L/lineto ld
/ML/setmiterlimit ld
/CT/concat ld
/f/fill ld
/N/newpath ld
/S/stroke ld
/CC/setcmykcolor ld
/A/ashow ld
/cp/closepath ld
/RC/setrgbcolor ld
/LJ/setlinejoin ld
/GC/setgray ld
/LW/setlinewidth ld
/M/moveto ld
/re {4 2 roll M
1 index 0 rlineto
0 exch rlineto
neg 0 rlineto
cp } bd
/_ctm matrix def
/_tm matrix def
/BT { _ctm currentmatrix pop matrix _tm copy pop 0 0 moveto } bd
/ET { _ctm setmatrix } bd
/iTm { _ctm setmatrix _tm concat } bd
/Tm { _tm astore pop iTm 0 0 moveto } bd
/ux 0.0 def
/uy 0.0 def
/F {
  /Tp exch def
  /Tf exch def
  Tf findfont Tp scalefont setfont
  /cf Tf def  /cs Tp def
} bd
/ULS {currentpoint /uy exch def /ux exch def} bd
/ULE {
  /Tcx currentpoint pop def
  gsave
  newpath
  cf findfont cs scalefont dup
  /FontMatrix get 0 get /Ts exch def /FontInfo get dup
  /UnderlinePosition get Ts mul /To exch def
  /UnderlineThickness get Ts mul /Tt exch def
  ux uy To add moveto  Tcx uy To add lineto
  Tt setlinewidth stroke
  grestore
} bd
/OLE {
  /Tcx currentpoint pop def
  gsave
  newpath
  cf findfont cs scalefont dup
  /FontMatrix get 0 get /Ts exch def /FontInfo get dup
  /UnderlinePosition get Ts mul /To exch def
  /UnderlineThickness get Ts mul /Tt exch def
  ux uy To add cs add moveto Tcx uy To add cs add lineto
  Tt setlinewidth stroke
  grestore
} bd
/SOE {
  /Tcx currentpoint pop def
  gsave
  newpath
  cf findfont cs scalefont dup
  /FontMatrix get 0 get /Ts exch def /FontInfo get dup
  /UnderlinePosition get Ts mul /To exch def
  /UnderlineThickness get Ts mul /Tt exch def
  ux uy To add cs 10 mul 26 idiv add moveto Tcx uy To add cs 10 mul 26 idiv add lineto
  Tt setlinewidth stroke
  grestore
} bd
/QT {
/Y22 exch store
/X22 exch store
/Y21 exch store
/X21 exch store
currentpoint
/Y21 load 2 mul add 3 div exch
/X21 load 2 mul add 3 div exch
/X21 load 2 mul /X22 load add 3 div
/Y21 load 2 mul /Y22 load add 3 div
/X22 load /Y22 load curveto
} bd
/SSPD {
dup length /d exch dict def
{
/v exch def
/k exch def
currentpagedevice k known {
/cpdv currentpagedevice k get def
v cpdv ne {
/upd false def
/nullv v type /nulltype eq def
/nullcpdv cpdv type /nulltype eq def
nullv nullcpdv or
{
/upd true def
} {
/sametype v type cpdv type eq def
sametype {
v type /arraytype eq {
/vlen v length def
/cpdvlen cpdv length def
vlen cpdvlen eq {
0 1 vlen 1 sub {
/i exch def
/obj v i get def
/cpdobj cpdv i get def
obj cpdobj ne {
/upd true def
exit
} if
} for
} {
/upd true def
} ifelse
} {
v type /dicttype eq {
v {
/dv exch def
/dk exch def
/cpddv cpdv dk get def
dv cpddv ne {
/upd true def
exit
} if
} forall
} {
/upd true def
} ifelse
} ifelse
} if
} ifelse
upd true eq {
d k v put
} if
} if
} if
} forall
d length 0 gt {
d setpagedevice
} if
} bd
/RE { % /NewFontName [NewEncodingArray] /FontName RE -
  findfont dup length dict begin
  {
    1 index /FID ne
    {def} {pop pop} ifelse
  } forall
  /Encoding exch def
  /FontName 1 index def
  currentdict definefont pop
  end
} bind def
%%EndResource
%%BeginResource: procset (Apache XML Graphics EPS ProcSet) 1.0 0
%%Version: 1.0 0
%%Copyright: (Copyright 2002-2003 The Apache Software Foundation. License terms: http://www.apache.org/licenses/LICENSE-2.0)
/BeginEPSF { %def
/b4_Inc_state save def         % Save state for cleanup
/dict_count countdictstack def % Count objects on dict stack
/op_count count 1 sub def      % Count objects on operand stack
userdict begin                 % Push userdict on dict stack
/showpage { } def              % Redefine showpage, { } = null proc
0 setgray 0 setlinecap         % Prepare graphics state
1 setlinewidth 0 setlinejoin
10 setmiterlimit [ ] 0 setdash newpath
/languagelevel where           % If level not equal to 1 then
{pop languagelevel             % set strokeadjust and
1 ne                           % overprint to their defaults.
{false setstrokeadjust false setoverprint
} if
} if
} bd
/EndEPSF { %def
count op_count sub {pop} repeat            % Clean up stacks
countdictstack dict_count sub {end} repeat
b4_Inc_state restore
} bd
%%EndResource
%FOPBeginFontDict
%%IncludeResource: font Courier-Oblique
%%IncludeResource: font Courier-BoldOblique
%%IncludeResource: font Courier-Bold
%%IncludeResource: font ZapfDingbats
%%IncludeResource: font Symbol
%%IncludeResource: font Helvetica
%%IncludeResource: font Helvetica-Oblique
%%IncludeResource: font Helvetica-Bold
%%IncludeResource: font Helvetica-BoldOblique
%%IncludeResource: font Times-Roman
%%IncludeResource: font Times-Italic
%%IncludeResource: font Times-Bold
%%IncludeResource: font Times-BoldItalic
%%IncludeResource: font Courier
%FOPEndFontDict
%%BeginResource: encoding WinAnsiEncoding
/WinAnsiEncoding [
/.notdef /.notdef /.notdef /.notdef /.notdef
/.notdef /.notdef /.notdef /.notdef /.notdef
/.notdef /.notdef /.notdef /.notdef /.notdef
/.notdef /.notdef /.notdef /.notdef /.notdef
/.notdef /.notdef /.notdef /.notdef /.notdef
/.notdef /.notdef /.notdef /.notdef /.notdef
/.notdef /.notdef /space /exclam /quotedbl
/numbersign /dollar /percent /ampersand /quotesingle
/parenleft /parenright /asterisk /plus /comma
/hyphen /period /slash /zero /one
/two /three /four /five /six
/seven /eight /nine /colon /semicolon
/less /equal /greater /question /at
/A /B /C /D /E
/F /G /H /I /J
/K /L /M /N /O
/P /Q /R /S /T
/U /V /W /X /Y
/Z /bracketleft /backslash /bracketright /asciicircum
/underscore /quoteleft /a /b /c
/d /e /f /g /h
/i /j /k /l /m
/n /o /p /q /r
/s /t /u /v /w
/x /y /z /braceleft /bar
/braceright /asciitilde /bullet /Euro /bullet
/quotesinglbase /florin /quotedblbase /ellipsis /dagger
/daggerdbl /circumflex /perthousand /Scaron /guilsinglleft
/OE /bullet /Zcaron /bullet /bullet
/quoteleft /quoteright /quotedblleft /quotedblright /bullet
/endash /emdash /asciitilde /trademark /scaron
/guilsinglright /oe /bullet /zcaron /Ydieresis
/space /exclamdown /cent /sterling /currency
/yen /brokenbar /section /dieresis /copyright
/ordfeminine /guillemotleft /logicalnot /sfthyphen /registered
/macron /degree /plusminus /twosuperior /threesuperior
/acute /mu /paragraph /middot /cedilla
/onesuperior /ordmasculine /guillemotright /onequarter /onehalf
/threequarters /questiondown /Agrave /Aacute /Acircumflex
/Atilde /Adieresis /Aring /AE /Ccedilla
/Egrave /Eacute /Ecircumflex /Edieresis /Igrave
/Iacute /Icircumflex /Idieresis /Eth /Ntilde
/Ograve /Oacute /Ocircumflex /Otilde /Odieresis
/multiply /Oslash /Ugrave /Uacute /Ucircumflex
/Udieresis /Yacute /Thorn /germandbls /agrave
/aacute /acircumflex /atilde /adieresis /aring
/ae /ccedilla /egrave /eacute /ecircumflex
/edieresis /igrave /iacute /icircumflex /idieresis
/eth /ntilde /ograve /oacute /ocircumflex
/otilde /odieresis /divide /oslash /ugrave
/uacute /ucircumflex /udieresis /yacute /thorn
/ydieresis
] def
%%EndResource
%FOPBeginFontReencode
/Courier-Oblique findfont
dup length dict begin
  {1 index /FID ne {def} {pop pop} ifelse} forall
  /Encoding WinAnsiEncoding def
  currentdict
end
/Courier-Oblique exch definefont pop
/Courier-BoldOblique findfont
dup length dict begin
  {1 index /FID ne {def} {pop pop} ifelse} forall
  /Encoding WinAnsiEncoding def
  currentdict
end
/Courier-BoldOblique exch definefont pop
/Courier-Bold findfont
dup length dict begin
  {1 index /FID ne {def} {pop pop} ifelse} forall
  /Encoding WinAnsiEncoding def
  currentdict
end
/Courier-Bold exch definefont pop
/Helvetica findfont
dup length dict begin
  {1 index /FID ne {def} {pop pop} ifelse} forall
  /Encoding WinAnsiEncoding def
  currentdict
end
/Helvetica exch definefont pop
/Helvetica-Oblique findfont
dup length dict begin
  {1 index /FID ne {def} {pop pop} ifelse} forall
  /Encoding WinAnsiEncoding def
  currentdict
end
/Helvetica-Oblique exch definefont pop
/Helvetica-Bold findfont
dup length dict begin
  {1 index /FID ne {def} {pop pop} ifelse} forall
  /Encoding WinAnsiEncoding def
  currentdict
end
/Helvetica-Bold exch definefont pop
/Helvetica-BoldOblique findfont
dup length dict begin
  {1 index /FID ne {def} {pop pop} ifelse} forall
  /Encoding WinAnsiEncoding def
  currentdict
end
/Helvetica-BoldOblique exch definefont pop
/Times-Roman findfont
dup length dict begin
  {1 index /FID ne {def} {pop pop} ifelse} forall
  /Encoding WinAnsiEncoding def
  currentdict
end
/Times-Roman exch definefont pop
/Times-Italic findfont
dup length dict begin
  {1 index /FID ne {def} {pop pop} ifelse} forall
  /Encoding WinAnsiEncoding def
  currentdict
end
/Times-Italic exch definefont pop
/Times-Bold findfont
dup length dict begin
  {1 index /FID ne {def} {pop pop} ifelse} forall
  /Encoding WinAnsiEncoding def
  currentdict
end
/Times-Bold exch definefont pop
/Times-BoldItalic findfont
dup length dict begin
  {1 index /FID ne {def} {pop pop} ifelse} forall
  /Encoding WinAnsiEncoding def
  currentdict
end
/Times-BoldItalic exch definefont pop
/Courier findfont
dup length dict begin
  {1 index /FID ne {def} {pop pop} ifelse} forall
  /Encoding WinAnsiEncoding def
  currentdict
end
/Courier exch definefont pop
%FOPEndFontReencode
%%EndProlog
%%Page: 1 1
%%PageBoundingBox: 0 0 420 315
%%BeginPageSetup
[1 0 0 -1 0 315] CT
%%EndPageSetup
GS
[0.75 0 0 0.75 0 0] CT
1 GC
N
0 0 560 420 re
f
GR
GS
[0.75 0 0 0.75 0 0] CT
1 GC
N
0 0 560 420 re
f
GR
GS
[0.75 0 0 0.75 0 0] CT
1 GC
N
73 372 M
507 372 L
507 31 L
73 31 L
cp
f
GR
GS
[0.75 0 0 0.75 0 0] CT
0.873 GC
1 LJ
0.667 LW
N
144.333 372 M
144.333 31 L
S
GR
GS
[0.75 0 0 0.75 0 0] CT
0.873 GC
1 LJ
0.667 LW
N
216.667 372 M
216.667 31 L
S
GR
GS
[0.75 0 0 0.75 0 0] CT
0.873 GC
1 LJ
0.667 LW
N
289 372 M
289 31 L
S
GR
GS
[0.75 0 0 0.75 0 0] CT
0.873 GC
1 LJ
0.667 LW
N
361.333 372 M
361.333 31 L
S
GR
GS
[0.75 0 0 0.75 0 0] CT
0.873 GC
1 LJ
0.667 LW
N
433.667 372 M
433.667 31 L
S
GR
GS
[0.75 0 0 0.75 0 0] CT
0.873 GC
1 LJ
0.667 LW
N
506 372 M
506 31 L
S
GR
GS
[0.75 0 0 0.75 0 0] CT
0.873 GC
1 LJ
0.667 LW
N
507 340.269 M
73 340.269 L
S
GR
GS
[0.75 0 0 0.75 0 0] CT
0.873 GC
1 LJ
0.667 LW
N
507 291.555 M
73 291.555 L
S
GR
GS
[0.75 0 0 0.75 0 0] CT
0.873 GC
1 LJ
0.667 LW
N
507 242.841 M
73 242.841 L
S
GR
GS
[0.75 0 0 0.75 0 0] CT
0.873 GC
1 LJ
0.667 LW
N
507 194.126 M
73 194.126 L
S
GR
GS
[0.75 0 0 0.75 0 0] CT
0.873 GC
1 LJ
0.667 LW
N
507 145.412 M
73 145.412 L
S
GR
GS
[0.75 0 0 0.75 0 0] CT
0.873 GC
1 LJ
0.667 LW
N
507 96.698 M
73 96.698 L
S
GR
GS
[0.75 0 0 0.75 0 0] CT
0.873 GC
1 LJ
0.667 LW
N
507 47.983 M
73 47.983 L
S
GR
GS
[0.75 0 0 0.75 0 0] CT
0.149 GC
2 setlinecap
1 LJ
0.667 LW
N
73 372 M
507 372 L
S
GR
GS
[0.75 0 0 0.75 0 0] CT
0.149 GC
2 setlinecap
1 LJ
0.667 LW
N
73 31 M
507 31 L
S
GR
GS
[0.75 0 0 0.75 0 0] CT
0.149 GC
2 setlinecap
1 LJ
0.667 LW
N
144.333 372 M
144.333 367.66 L
S
GR
GS
[0.75 0 0 0.75 0 0] CT
0.149 GC
2 setlinecap
1 LJ
0.667 LW
N
216.667 372 M
216.667 367.66 L
S
GR
GS
[0.75 0 0 0.75 0 0] CT
0.149 GC
2 setlinecap
1 LJ
0.667 LW
N
289 372 M
289 367.66 L
S
GR
GS
[0.75 0 0 0.75 0 0] CT
0.149 GC
2 setlinecap
1 LJ
0.667 LW
N
361.333 372 M
361.333 367.66 L
S
GR
GS
[0.75 0 0 0.75 0 0] CT
0.149 GC
2 setlinecap
1 LJ
0.667 LW
N
433.667 372 M
433.667 367.66 L
S
GR
GS
[0.75 0 0 0.75 0 0] CT
0.149 GC
2 setlinecap
1 LJ
0.667 LW
N
506 372 M
506 367.66 L
S
GR
GS
[0.75 0 0 0.75 0 0] CT
0.149 GC
2 setlinecap
1 LJ
0.667 LW
N
144.333 31 M
144.333 35.34 L
S
GR
GS
[0.75 0 0 0.75 0 0] CT
0.149 GC
2 setlinecap
1 LJ
0.667 LW
N
216.667 31 M
216.667 35.34 L
S
GR
GS
[0.75 0 0 0.75 0 0] CT
0.149 GC
2 setlinecap
1 LJ
0.667 LW
N
289 31 M
289 35.34 L
S
GR
GS
[0.75 0 0 0.75 0 0] CT
0.149 GC
2 setlinecap
1 LJ
0.667 LW
N
361.333 31 M
361.333 35.34 L
S
GR
GS
[0.75 0 0 0.75 0 0] CT
0.149 GC
2 setlinecap
1 LJ
0.667 LW
N
433.667 31 M
433.667 35.34 L
S
GR
GS
[0.75 0 0 0.75 0 0] CT
0.149 GC
2 setlinecap
1 LJ
0.667 LW
N
506 31 M
506 35.34 L
S
GR
GS
[0.75 0 0 0.75 108.25 282.99998] CT
0.149 GC
/Helvetica 13.333 F
GS
[1 0 0 1 0 0] CT
-11.5 14 moveto 
1 -1 scale
(500) t 
GR
GR
GS
[0.75 0 0 0.75 162.5 282.99998] CT
0.149 GC
/Helvetica 13.333 F
GS
[1 0 0 1 0 0] CT
-11.5 14 moveto 
1 -1 scale
(600) t 
GR
GR
GS
[0.75 0 0 0.75 216.75 282.99998] CT
0.149 GC
/Helvetica 13.333 F
GS
[1 0 0 1 0 0] CT
-11.5 14 moveto 
1 -1 scale
(700) t 
GR
GR
GS
[0.75 0 0 0.75 271.00001 282.99998] CT
0.149 GC
/Helvetica 13.333 F
GS
[1 0 0 1 0 0] CT
-11.5 14 moveto 
1 -1 scale
(800) t 
GR
GR
GS
[0.75 0 0 0.75 325.24999 282.99998] CT
0.149 GC
/Helvetica 13.333 F
GS
[1 0 0 1 0 0] CT
-11.5 14 moveto 
1 -1 scale
(900) t 
GR
GR
GS
[0.75 0 0 0.75 379.5 282.99998] CT
0.149 GC
/Helvetica 13.333 F
GS
[1 0 0 1 0 0] CT
-15 14 moveto 
1 -1 scale
(1000) t 
GR
GR
GS
[0.75 0 0 0.75 217.50014 297] CT
0.149 GC
/Helvetica 18.667 F
GS
[1 0 0 1 0 0] CT
-38.5 19 moveto 
1 -1 scale
(Time / ns) t 
GR
GR
GS
[0.75 0 0 0.75 0 0] CT
0.149 GC
2 setlinecap
1 LJ
0.667 LW
N
73 372 M
73 31 L
S
GR
GS
[0.75 0 0 0.75 0 0] CT
0.149 GC
2 setlinecap
1 LJ
0.667 LW
N
507 372 M
507 31 L
S
GR
GS
[0.75 0 0 0.75 0 0] CT
0.149 GC
2 setlinecap
1 LJ
0.667 LW
N
73 340.269 M
77.34 340.269 L
S
GR
GS
[0.75 0 0 0.75 0 0] CT
0.149 GC
2 setlinecap
1 LJ
0.667 LW
N
73 291.555 M
77.34 291.555 L
S
GR
GS
[0.75 0 0 0.75 0 0] CT
0.149 GC
2 setlinecap
1 LJ
0.667 LW
N
73 242.841 M
77.34 242.841 L
S
GR
GS
[0.75 0 0 0.75 0 0] CT
0.149 GC
2 setlinecap
1 LJ
0.667 LW
N
73 194.126 M
77.34 194.126 L
S
GR
GS
[0.75 0 0 0.75 0 0] CT
0.149 GC
2 setlinecap
1 LJ
0.667 LW
N
73 145.412 M
77.34 145.412 L
S
GR
GS
[0.75 0 0 0.75 0 0] CT
0.149 GC
2 setlinecap
1 LJ
0.667 LW
N
73 96.698 M
77.34 96.698 L
S
GR
GS
[0.75 0 0 0.75 0 0] CT
0.149 GC
2 setlinecap
1 LJ
0.667 LW
N
73 47.983 M
77.34 47.983 L
S
GR
GS
[0.75 0 0 0.75 0 0] CT
0.149 GC
2 setlinecap
1 LJ
0.667 LW
N
507 340.269 M
502.66 340.269 L
S
GR
GS
[0.75 0 0 0.75 0 0] CT
0.149 GC
2 setlinecap
1 LJ
0.667 LW
N
507 291.555 M
502.66 291.555 L
S
GR
GS
[0.75 0 0 0.75 0 0] CT
0.149 GC
2 setlinecap
1 LJ
0.667 LW
N
507 242.841 M
502.66 242.841 L
S
GR
GS
[0.75 0 0 0.75 0 0] CT
0.149 GC
2 setlinecap
1 LJ
0.667 LW
N
507 194.126 M
502.66 194.126 L
S
GR
GS
[0.75 0 0 0.75 0 0] CT
0.149 GC
2 setlinecap
1 LJ
0.667 LW
N
507 145.412 M
502.66 145.412 L
S
GR
GS
[0.75 0 0 0.75 0 0] CT
0.149 GC
2 setlinecap
1 LJ
0.667 LW
N
507 96.698 M
502.66 96.698 L
S
GR
GS
[0.75 0 0 0.75 0 0] CT
0.149 GC
2 setlinecap
1 LJ
0.667 LW
N
507 47.983 M
502.66 47.983 L
S
GR
GS
[0.75 0 0 0.75 50.75 255.20183] CT
0.149 GC
/Helvetica 13.333 F
GS
[1 0 0 1 0 0] CT
-20 5.5 moveto 
1 -1 scale
(-30) t 
GR
GR
GS
[0.75 0 0 0.75 50.75 218.66613] CT
0.149 GC
/Helvetica 13.333 F
GS
[1 0 0 1 0 0] CT
-20 5.5 moveto 
1 -1 scale
(-20) t 
GR
GR
GS
[0.75 0 0 0.75 50.75 182.13041] CT
0.149 GC
/Helvetica 13.333 F
GS
[1 0 0 1 0 0] CT
-20 5.5 moveto 
1 -1 scale
(-10) t 
GR
GR
GS
[0.75 0 0 0.75 50.75 145.59469] CT
0.149 GC
/Helvetica 13.333 F
GS
[1 0 0 1 0 0] CT
-8 5.5 moveto 
1 -1 scale
(0) t 
GR
GR
GS
[0.75 0 0 0.75 50.75 109.05898] CT
0.149 GC
/Helvetica 13.333 F
GS
[1 0 0 1 0 0] CT
-15 5.5 moveto 
1 -1 scale
(10) t 
GR
GR
GS
[0.75 0 0 0.75 50.75 72.52326] CT
0.149 GC
/Helvetica 13.333 F
GS
[1 0 0 1 0 0] CT
-15 5.5 moveto 
1 -1 scale
(20) t 
GR
GR
GS
[0.75 0 0 0.75 50.75 35.98755] CT
0.149 GC
/Helvetica 13.333 F
GS
[1 0 0 1 0 0] CT
-15 5.5 moveto 
1 -1 scale
(30) t 
GR
GR
GS
[0 -0.75 0.75 0 32.75 151.12487] CT
0.149 GC
/Helvetica 18.667 F
GS
[1 0 0 1 0 0] CT
-46 -5 moveto 
1 -1 scale
(Voltage / V) t 
GR
GR
GS
[0.75 0 0 0.75 0 0] CT
0 0.447 0.741 RC
1 LJ
2 LW
N
73.677 62.841 M
74.256 63.207 L
74.835 59.081 L
75.413 63.009 L
75.992 60.801 L
76.571 55.641 L
77.149 58.076 L
77.728 58.944 L
78.307 57.741 L
78.885 58.518 L
79.464 58.274 L
80.043 57.909 L
80.621 60.162 L
81.2 60.406 L
81.779 58.853 L
82.357 60.558 L
82.936 60.619 L
83.515 59.34 L
84.093 60.695 L
84.672 58.746 L
85.251 57.787 L
85.829 59.568 L
86.408 56.889 L
86.987 58.685 L
87.565 61.03 L
88.144 54.925 L
88.723 55.61 L
89.301 60.573 L
89.88 56.158 L
90.459 55.154 L
91.037 61.684 L
91.616 59.964 L
92.195 57.33 L
92.773 60.421 L
93.352 59.127 L
93.931 58.883 L
94.509 61.547 L
95.088 59.995 L
95.667 56.691 L
96.245 56.813 L
96.824 58.031 L
97.403 56.645 L
97.981 56.417 L
98.56 58.122 L
99.139 57.787 L
99.717 57.589 L
100.296 59.203 L
100.875 58.898 L
101.453 59.188 L
102.032 60.664 L
102.611 59.431 L
103.189 58.959 L
103.768 61.075 L
104.347 60.253 L
104.925 57.802 L
105.504 60.071 L
106.083 60.238 L
106.661 55.032 L
107.24 55.93 L
107.819 60.877 L
108.397 59.553 L
108.976 58.822 L
109.555 61.867 L
110.133 60.071 L
110.712 58.076 L
111.291 59.568 L
111.869 59.233 L
112.448 58.807 L
113.027 59.69 L
113.605 58.64 L
114.184 56.615 L
114.763 57.878 L
115.341 59.979 L
115.92 58.061 L
116.499 56.569 L
117.077 58.061 L
117.656 58.168 L
118.235 56.326 L
118.813 57.939 L
119.392 61.349 L
119.971 59.188 L
120.549 57.62 L
121.128 59.705 L
121.707 59.081 L
122.285 60.329 L
122.864 60.329 L
123.443 57.163 L
124.021 61.547 L
124.6 63.283 L
125.179 57.483 L
125.757 56.874 L
126.336 57.97 L
126.915 59.066 L
127.493 60.527 L
128.072 58.335 L
128.651 57.97 L
129.229 58.929 L
129.808 58.046 L
130.387 58.792 L
130.965 59.081 L
131.544 59.035 L
132.123 61.425 L
132.701 62.491 L
133.28 66.571 L
133.859 75.446 L
134.437 85.113 L
135.016 95.739 L
135.595 107.476 L
136.173 122.608 L
136.752 131.772 L
137.331 132.213 L
137.909 133.325 L
138.488 128.362 L
139.067 118.315 L
139.645 109.363 L
140.224 98.418 L
140.803 90.867 L
141.381 87.564 L
141.96 89.908 L
142.539 101.249 L
143.117 120.141 L
143.696 151.836 L
144.275 191.614 L
144.853 233.052 L
145.432 277.915 L
146.011 320.631 L
146.589 349.845 L
147.168 357.258 L
147.747 345.019 L
148.325 314.664 L
148.904 269.923 L
149.483 218.651 L
150.061 164.517 L
150.64 113.595 L
151.219 70.453 L
151.797 48.349 L
152.376 51.485 L
152.955 65.795 L
153.533 97.702 L
154.112 147.513 L
154.691 197.338 L
155.269 244.683 L
155.848 289.545 L
156.427 321.91 L
157.005 331.364 L
157.584 318.789 L
158.163 294.295 L
158.741 257.972 L
159.32 207.599 L
159.899 156.586 L
160.477 116.397 L
161.056 86.422 L
161.635 70.438 L
162.213 73.041 L
162.792 91.111 L
163.371 122.927 L
163.949 165.826 L
164.528 210.461 L
165.107 252.751 L
165.685 288.921 L
166.264 309.823 L
166.843 313.872 L
167.421 300.643 L
168 273.424 L
168.579 236.218 L
169.157 191.31 L
169.736 149.553 L
170.315 115.224 L
170.893 88.584 L
171.472 78.125 L
172.051 86.315 L
172.629 107.171 L
173.208 137.176 L
173.787 173.895 L
174.365 215.226 L
174.944 252.599 L
175.523 281.051 L
176.101 299.882 L
176.68 298.618 L
177.259 283.426 L
177.837 261.656 L
178.416 225.258 L
178.995 187.519 L
179.573 152.719 L
180.152 117.645 L
180.731 100.062 L
181.309 96.013 L
181.888 100.656 L
182.467 119.852 L
183.045 147.33 L
183.624 182.815 L
184.203 218.148 L
184.781 245.094 L
185.36 267.396 L
185.939 279.681 L
186.517 278.859 L
187.096 265.386 L
187.675 239.796 L
188.253 210.232 L
188.832 180.791 L
189.411 151.166 L
189.989 125.591 L
190.568 111.449 L
191.147 109.957 L
191.725 119.319 L
192.304 138.485 L
192.883 164.365 L
193.461 195.207 L
194.04 225.897 L
194.619 251.685 L
195.197 269.512 L
195.776 274.825 L
196.355 270.395 L
196.933 258.962 L
197.512 236.264 L
198.091 206.107 L
198.669 176.467 L
199.248 149.081 L
199.827 128.834 L
200.405 117.279 L
200.984 117.249 L
201.563 129.032 L
202.141 143.783 L
202.72 167.166 L
203.299 197.019 L
203.877 221.193 L
204.456 242.079 L
205.035 257.029 L
205.613 262.387 L
206.192 258.627 L
206.771 245.763 L
207.349 226.262 L
207.928 200.139 L
208.507 175.569 L
209.085 157.149 L
209.664 139.064 L
210.243 129.717 L
210.821 133.447 L
211.4 141.941 L
211.979 158.199 L
212.557 179.999 L
213.136 202.012 L
213.715 226.202 L
214.293 243.526 L
214.872 250.33 L
215.451 253.208 L
216.029 246.57 L
216.608 231.027 L
217.187 213.703 L
217.765 190.351 L
218.344 168.125 L
218.923 152.689 L
219.501 138.166 L
220.08 132.898 L
220.659 137.131 L
221.237 146.554 L
221.816 164.197 L
222.395 183.059 L
222.973 203.869 L
223.552 225.09 L
224.131 238.167 L
224.709 246.936 L
225.288 249.828 L
225.867 241.668 L
226.445 227.815 L
227.024 210.324 L
227.603 188.768 L
228.181 171.474 L
228.76 157.484 L
229.339 144.438 L
229.917 142.352 L
230.496 148.868 L
231.075 158.687 L
231.653 174.701 L
232.232 190.731 L
232.811 204.645 L
233.389 220.325 L
233.968 231.058 L
234.547 235.183 L
235.125 236.508 L
235.704 230.738 L
236.283 216.702 L
236.861 201.068 L
237.44 185.906 L
238.019 169.084 L
238.597 156.297 L
239.176 150.573 L
239.755 149.111 L
240.333 154.272 L
240.912 165.339 L
241.491 179.771 L
242.069 195.877 L
242.648 209.928 L
243.227 223.05 L
243.805 233.174 L
244.384 236.127 L
244.963 234.62 L
245.541 227.359 L
246.12 214.023 L
246.699 199.82 L
247.277 186.165 L
247.856 172.372 L
248.435 160.148 L
249.013 154.911 L
249.592 155.551 L
250.171 159.448 L
250.749 169.632 L
251.328 181.887 L
251.907 194.811 L
252.485 209.821 L
253.064 219.899 L
253.643 224.405 L
254.221 227.556 L
254.8 225.669 L
255.379 217.798 L
255.957 206.792 L
256.536 193.182 L
257.115 181.171 L
257.693 171.779 L
258.272 164 L
258.851 160.392 L
259.429 161.138 L
260.008 166.359 L
260.587 175.737 L
261.165 187.702 L
261.744 200.55 L
262.323 210.126 L
262.901 217.311 L
263.48 223.355 L
264.059 223.918 L
264.637 219.762 L
265.216 212.866 L
265.795 203.306 L
266.373 193.137 L
266.952 181.232 L
267.531 170.089 L
268.109 165.979 L
268.688 164.669 L
269.267 163.314 L
269.845 169.297 L
270.424 180.699 L
271.003 189.498 L
271.581 197.841 L
272.16 208.619 L
272.739 216.413 L
273.317 219.64 L
273.896 221.087 L
274.475 217.403 L
275.053 210.019 L
275.632 201.966 L
276.211 191.127 L
276.789 181.643 L
277.368 175.919 L
277.947 170.606 L
278.525 168.84 L
279.104 171.779 L
279.683 176.863 L
280.261 185.632 L
280.84 194.857 L
281.419 202.453 L
281.997 210.08 L
282.576 216.398 L
283.155 219.656 L
283.733 215.652 L
284.312 209.913 L
284.891 206.99 L
285.469 197.719 L
286.048 187.2 L
286.627 181.019 L
287.205 174.991 L
287.784 171.139 L
288.363 169.708 L
288.941 172.174 L
289.52 177.503 L
290.099 184.399 L
290.677 195.496 L
291.256 203.747 L
291.835 207.492 L
292.413 212.303 L
292.992 214.662 L
293.571 211.237 L
294.149 207.568 L
294.728 203.686 L
295.307 196.669 L
295.885 189.148 L
296.464 181.735 L
297.043 177.107 L
297.621 174.29 L
298.2 173.21 L
298.779 177.974 L
299.357 183.79 L
299.936 188.341 L
300.515 195.831 L
301.093 203.534 L
301.672 209.03 L
302.251 212.531 L
302.829 211.207 L
303.408 208.116 L
303.987 205.087 L
304.565 199.15 L
305.144 192.573 L
305.723 186.347 L
306.301 180.928 L
306.88 177.853 L
307.459 176.985 L
308.037 177.67 L
308.616 178.812 L
309.195 184.109 L
309.773 191.995 L
310.352 197.688 L
310.931 202.377 L
311.509 206.046 L
312.088 209.471 L
312.667 208.847 L
313.245 205.894 L
313.824 205.331 L
314.403 200.094 L
314.981 193.472 L
315.56 189.438 L
316.139 183.029 L
316.717 180.882 L
317.296 182.648 L
317.875 180.471 L
318.453 181.795 L
319.032 189.194 L
319.611 194.172 L
320.189 197.704 L
320.768 202.21 L
321.347 203.306 L
321.925 204.128 L
322.504 207.34 L
323.083 204.889 L
323.661 197.749 L
324.24 194.126 L
324.819 192.924 L
325.397 187.215 L
325.976 181.856 L
326.555 181.963 L
327.133 181.643 L
327.712 183.409 L
328.291 185.51 L
328.869 187.595 L
329.448 194.492 L
330.027 198.587 L
330.605 200.901 L
331.184 205.924 L
331.763 207.355 L
332.341 205.407 L
332.92 202.453 L
333.499 198.891 L
334.077 195.04 L
334.656 188.92 L
335.235 185.921 L
335.813 185.297 L
336.392 180.806 L
336.971 181.932 L
337.549 186.104 L
338.128 185.86 L
338.707 189.453 L
339.285 193.517 L
339.864 197.399 L
340.443 201.57 L
341.021 200.231 L
341.6 202.377 L
342.179 204.889 L
342.757 200.079 L
343.336 196.455 L
343.915 193.533 L
344.493 189.3 L
345.072 186.073 L
345.651 184.383 L
346.229 184.125 L
346.808 184.566 L
347.387 187.824 L
347.965 189.103 L
348.544 190.534 L
349.123 196.181 L
349.701 198.389 L
350.28 200.2 L
350.859 203.534 L
351.437 202.469 L
352.016 200.748 L
352.595 199.287 L
353.173 195.298 L
353.752 191.812 L
354.331 190.579 L
354.909 188.783 L
355.488 186.043 L
356.067 185.327 L
356.645 185.205 L
357.224 186.804 L
357.803 189.498 L
358.381 192.041 L
358.96 196.623 L
359.539 198.602 L
360.117 199.226 L
360.696 201.053 L
361.275 200.718 L
361.853 199.942 L
362.432 198.054 L
363.011 195.07 L
363.589 193.411 L
364.168 190.473 L
364.747 187.9 L
365.325 187.961 L
365.904 187.885 L
366.483 186.728 L
367.061 187.595 L
367.64 191.782 L
368.219 195.786 L
368.797 198.328 L
369.376 197.491 L
369.955 196.851 L
370.533 200.474 L
371.112 200.946 L
371.691 198.617 L
372.269 196.258 L
372.848 194.948 L
373.427 193.411 L
374.005 187.306 L
374.584 185.951 L
375.163 187.946 L
375.741 185.647 L
376.32 186.104 L
376.899 190.777 L
377.477 192.589 L
378.056 191.706 L
378.635 196.714 L
379.213 199.957 L
379.792 196.851 L
380.371 200.779 L
380.949 202.423 L
381.528 196.303 L
382.107 195.801 L
382.685 195.542 L
383.264 192.284 L
383.843 190.549 L
384.421 189.651 L
385 188.204 L
385.579 186.758 L
386.157 189.651 L
386.736 191.614 L
387.315 190.29 L
387.893 192.589 L
388.472 195.938 L
389.051 195.892 L
389.629 197.384 L
390.208 199.165 L
390.787 197.262 L
391.365 197.719 L
391.944 197.019 L
392.523 192.634 L
393.101 192.436 L
393.68 191.051 L
394.259 188.037 L
394.837 188.905 L
395.416 189.072 L
395.995 189.986 L
396.573 191.203 L
397.152 193.319 L
397.731 196.151 L
398.309 194.507 L
398.888 196.897 L
399.467 199.637 L
400.045 197.293 L
400.624 197.612 L
401.203 195.572 L
401.781 193.487 L
402.36 194.827 L
402.939 192.848 L
403.517 190.914 L
404.096 190.016 L
404.675 187.656 L
405.253 189.118 L
405.832 191.614 L
406.411 190.884 L
406.989 191.995 L
407.568 194.324 L
408.147 195.862 L
408.725 197.156 L
409.304 196.806 L
409.883 196.866 L
410.461 197.125 L
411.04 194.842 L
411.619 192.482 L
412.197 191.828 L
412.776 190.823 L
413.355 189.97 L
413.933 189.757 L
414.512 188.966 L
415.091 188.311 L
415.669 187.915 L
416.248 189.331 L
416.827 193.761 L
417.405 195.968 L
417.984 193.578 L
418.563 196.486 L
419.141 199.485 L
419.72 194.568 L
420.299 195.42 L
420.877 196.882 L
421.456 191.98 L
422.035 191.812 L
422.613 192.573 L
423.192 189.803 L
423.771 190.275 L
424.349 192.543 L
424.928 191.112 L
425.507 190.305 L
426.085 193.259 L
426.664 193.578 L
427.243 191.721 L
427.821 195.283 L
428.4 197.019 L
428.979 193.243 L
429.557 194.705 L
430.136 196.638 L
430.715 193.213 L
431.293 192.178 L
431.872 193.852 L
432.451 192.284 L
433.029 189.986 L
433.608 190.442 L
434.187 192.299 L
434.765 193.944 L
435.344 193.639 L
435.923 194.355 L
436.501 195.314 L
437.08 193.959 L
437.659 195.466 L
438.237 196.851 L
438.816 195.512 L
439.395 196.334 L
439.973 196.318 L
440.552 194.355 L
441.131 192.117 L
441.709 190.092 L
442.288 191.888 L
442.867 192.147 L
443.445 190.412 L
444.024 192.771 L
444.603 193.198 L
445.181 192.513 L
445.76 192.832 L
446.339 192.208 L
446.917 194.37 L
447.496 195.192 L
448.075 194.004 L
448.653 195.451 L
449.232 195.512 L
449.811 194.218 L
450.389 193.974 L
450.968 193.578 L
451.547 192.802 L
452.125 190.747 L
452.704 191.143 L
453.283 193.73 L
453.861 194.081 L
454.44 193.243 L
455.019 191.949 L
455.597 193.837 L
456.176 195.694 L
456.755 194.065 L
457.333 195.816 L
457.912 197.003 L
458.491 196.851 L
459.069 197.354 L
459.648 192.939 L
460.227 192.421 L
460.805 194.827 L
461.384 191.508 L
461.963 191.843 L
462.541 192.573 L
463.12 190.199 L
463.699 191.782 L
464.277 192.284 L
464.856 192.071 L
465.435 193.152 L
466.013 193.289 L
466.592 195.496 L
467.171 195.07 L
467.749 194.827 L
468.328 198.039 L
468.907 195.618 L
469.485 194.948 L
470.064 196.562 L
470.643 192.695 L
471.221 193.411 L
471.8 193.913 L
472.379 191.934 L
472.957 194.05 L
473.536 192.573 L
474.115 193.289 L
474.693 194.218 L
475.272 192.269 L
475.851 194.461 L
476.429 195.009 L
477.008 195.512 L
477.587 195.222 L
478.165 194.02 L
478.744 195.664 L
479.323 194.781 L
479.901 192.817 L
480.48 193.259 L
481.059 192.985 L
481.637 192.01 L
482.216 190.914 L
482.795 192.36 L
483.373 195.101 L
483.952 193.441 L
484.531 194.233 L
485.109 194.157 L
485.688 190.975 L
486.267 196.303 L
486.845 198.039 L
487.424 193.517 L
488.003 194.796 L
488.581 194.583 L
489.16 192.619 L
489.739 193.624 L
490.317 194.37 L
490.896 192.848 L
491.475 193.152 L
492.053 194.324 L
S
GR
%%Trailer
%%Pages: 1
%%EOF
