%!PS-Adobe-3.0 EPSF-3.0
%%Creator: (MATLAB, The Mathworks, Inc. Version 24.1.0.2603908 \(R2024a\) Update 3. Operating System: Windows 10)
%%Title: (C:/Users/lorde/Documents/MATLAB/Master Lab Course/Exercise 1/E1_1_spring_rise.eps)
%%CreationDate: 2024-06-25T15:16:12
%%Pages: (atend)
%%BoundingBox:     0     0   420   315
%%LanguageLevel: 3
%%EndComments
%%BeginProlog
%%BeginResource: procset (Apache XML Graphics Std ProcSet) 1.2 0
%%Version: 1.2 0
%%Copyright: (Copyright 2001-2003,2010 The Apache Software Foundation. License terms: http://www.apache.org/licenses/LICENSE-2.0)
/bd{bind def}bind def
/ld{load def}bd
/GR/grestore ld
/GS/gsave ld
/RM/rmoveto ld
/C/curveto ld
/t/show ld
/L/lineto ld
/ML/setmiterlimit ld
/CT/concat ld
/f/fill ld
/N/newpath ld
/S/stroke ld
/CC/setcmykcolor ld
/A/ashow ld
/cp/closepath ld
/RC/setrgbcolor ld
/LJ/setlinejoin ld
/GC/setgray ld
/LW/setlinewidth ld
/M/moveto ld
/re {4 2 roll M
1 index 0 rlineto
0 exch rlineto
neg 0 rlineto
cp } bd
/_ctm matrix def
/_tm matrix def
/BT { _ctm currentmatrix pop matrix _tm copy pop 0 0 moveto } bd
/ET { _ctm setmatrix } bd
/iTm { _ctm setmatrix _tm concat } bd
/Tm { _tm astore pop iTm 0 0 moveto } bd
/ux 0.0 def
/uy 0.0 def
/F {
  /Tp exch def
  /Tf exch def
  Tf findfont Tp scalefont setfont
  /cf Tf def  /cs Tp def
} bd
/ULS {currentpoint /uy exch def /ux exch def} bd
/ULE {
  /Tcx currentpoint pop def
  gsave
  newpath
  cf findfont cs scalefont dup
  /FontMatrix get 0 get /Ts exch def /FontInfo get dup
  /UnderlinePosition get Ts mul /To exch def
  /UnderlineThickness get Ts mul /Tt exch def
  ux uy To add moveto  Tcx uy To add lineto
  Tt setlinewidth stroke
  grestore
} bd
/OLE {
  /Tcx currentpoint pop def
  gsave
  newpath
  cf findfont cs scalefont dup
  /FontMatrix get 0 get /Ts exch def /FontInfo get dup
  /UnderlinePosition get Ts mul /To exch def
  /UnderlineThickness get Ts mul /Tt exch def
  ux uy To add cs add moveto Tcx uy To add cs add lineto
  Tt setlinewidth stroke
  grestore
} bd
/SOE {
  /Tcx currentpoint pop def
  gsave
  newpath
  cf findfont cs scalefont dup
  /FontMatrix get 0 get /Ts exch def /FontInfo get dup
  /UnderlinePosition get Ts mul /To exch def
  /UnderlineThickness get Ts mul /Tt exch def
  ux uy To add cs 10 mul 26 idiv add moveto Tcx uy To add cs 10 mul 26 idiv add lineto
  Tt setlinewidth stroke
  grestore
} bd
/QT {
/Y22 exch store
/X22 exch store
/Y21 exch store
/X21 exch store
currentpoint
/Y21 load 2 mul add 3 div exch
/X21 load 2 mul add 3 div exch
/X21 load 2 mul /X22 load add 3 div
/Y21 load 2 mul /Y22 load add 3 div
/X22 load /Y22 load curveto
} bd
/SSPD {
dup length /d exch dict def
{
/v exch def
/k exch def
currentpagedevice k known {
/cpdv currentpagedevice k get def
v cpdv ne {
/upd false def
/nullv v type /nulltype eq def
/nullcpdv cpdv type /nulltype eq def
nullv nullcpdv or
{
/upd true def
} {
/sametype v type cpdv type eq def
sametype {
v type /arraytype eq {
/vlen v length def
/cpdvlen cpdv length def
vlen cpdvlen eq {
0 1 vlen 1 sub {
/i exch def
/obj v i get def
/cpdobj cpdv i get def
obj cpdobj ne {
/upd true def
exit
} if
} for
} {
/upd true def
} ifelse
} {
v type /dicttype eq {
v {
/dv exch def
/dk exch def
/cpddv cpdv dk get def
dv cpddv ne {
/upd true def
exit
} if
} forall
} {
/upd true def
} ifelse
} ifelse
} if
} ifelse
upd true eq {
d k v put
} if
} if
} if
} forall
d length 0 gt {
d setpagedevice
} if
} bd
/RE { % /NewFontName [NewEncodingArray] /FontName RE -
  findfont dup length dict begin
  {
    1 index /FID ne
    {def} {pop pop} ifelse
  } forall
  /Encoding exch def
  /FontName 1 index def
  currentdict definefont pop
  end
} bind def
%%EndResource
%%BeginResource: procset (Apache XML Graphics EPS ProcSet) 1.0 0
%%Version: 1.0 0
%%Copyright: (Copyright 2002-2003 The Apache Software Foundation. License terms: http://www.apache.org/licenses/LICENSE-2.0)
/BeginEPSF { %def
/b4_Inc_state save def         % Save state for cleanup
/dict_count countdictstack def % Count objects on dict stack
/op_count count 1 sub def      % Count objects on operand stack
userdict begin                 % Push userdict on dict stack
/showpage { } def              % Redefine showpage, { } = null proc
0 setgray 0 setlinecap         % Prepare graphics state
1 setlinewidth 0 setlinejoin
10 setmiterlimit [ ] 0 setdash newpath
/languagelevel where           % If level not equal to 1 then
{pop languagelevel             % set strokeadjust and
1 ne                           % overprint to their defaults.
{false setstrokeadjust false setoverprint
} if
} if
} bd
/EndEPSF { %def
count op_count sub {pop} repeat            % Clean up stacks
countdictstack dict_count sub {end} repeat
b4_Inc_state restore
} bd
%%EndResource
%FOPBeginFontDict
%%IncludeResource: font Courier-Oblique
%%IncludeResource: font Courier-BoldOblique
%%IncludeResource: font Courier-Bold
%%IncludeResource: font ZapfDingbats
%%IncludeResource: font Symbol
%%IncludeResource: font Helvetica
%%IncludeResource: font Helvetica-Oblique
%%IncludeResource: font Helvetica-Bold
%%IncludeResource: font Helvetica-BoldOblique
%%IncludeResource: font Times-Roman
%%IncludeResource: font Times-Italic
%%IncludeResource: font Times-Bold
%%IncludeResource: font Times-BoldItalic
%%IncludeResource: font Courier
%FOPEndFontDict
%%BeginResource: encoding WinAnsiEncoding
/WinAnsiEncoding [
/.notdef /.notdef /.notdef /.notdef /.notdef
/.notdef /.notdef /.notdef /.notdef /.notdef
/.notdef /.notdef /.notdef /.notdef /.notdef
/.notdef /.notdef /.notdef /.notdef /.notdef
/.notdef /.notdef /.notdef /.notdef /.notdef
/.notdef /.notdef /.notdef /.notdef /.notdef
/.notdef /.notdef /space /exclam /quotedbl
/numbersign /dollar /percent /ampersand /quotesingle
/parenleft /parenright /asterisk /plus /comma
/hyphen /period /slash /zero /one
/two /three /four /five /six
/seven /eight /nine /colon /semicolon
/less /equal /greater /question /at
/A /B /C /D /E
/F /G /H /I /J
/K /L /M /N /O
/P /Q /R /S /T
/U /V /W /X /Y
/Z /bracketleft /backslash /bracketright /asciicircum
/underscore /quoteleft /a /b /c
/d /e /f /g /h
/i /j /k /l /m
/n /o /p /q /r
/s /t /u /v /w
/x /y /z /braceleft /bar
/braceright /asciitilde /bullet /Euro /bullet
/quotesinglbase /florin /quotedblbase /ellipsis /dagger
/daggerdbl /circumflex /perthousand /Scaron /guilsinglleft
/OE /bullet /Zcaron /bullet /bullet
/quoteleft /quoteright /quotedblleft /quotedblright /bullet
/endash /emdash /asciitilde /trademark /scaron
/guilsinglright /oe /bullet /zcaron /Ydieresis
/space /exclamdown /cent /sterling /currency
/yen /brokenbar /section /dieresis /copyright
/ordfeminine /guillemotleft /logicalnot /sfthyphen /registered
/macron /degree /plusminus /twosuperior /threesuperior
/acute /mu /paragraph /middot /cedilla
/onesuperior /ordmasculine /guillemotright /onequarter /onehalf
/threequarters /questiondown /Agrave /Aacute /Acircumflex
/Atilde /Adieresis /Aring /AE /Ccedilla
/Egrave /Eacute /Ecircumflex /Edieresis /Igrave
/Iacute /Icircumflex /Idieresis /Eth /Ntilde
/Ograve /Oacute /Ocircumflex /Otilde /Odieresis
/multiply /Oslash /Ugrave /Uacute /Ucircumflex
/Udieresis /Yacute /Thorn /germandbls /agrave
/aacute /acircumflex /atilde /adieresis /aring
/ae /ccedilla /egrave /eacute /ecircumflex
/edieresis /igrave /iacute /icircumflex /idieresis
/eth /ntilde /ograve /oacute /ocircumflex
/otilde /odieresis /divide /oslash /ugrave
/uacute /ucircumflex /udieresis /yacute /thorn
/ydieresis
] def
%%EndResource
%FOPBeginFontReencode
/Courier-Oblique findfont
dup length dict begin
  {1 index /FID ne {def} {pop pop} ifelse} forall
  /Encoding WinAnsiEncoding def
  currentdict
end
/Courier-Oblique exch definefont pop
/Courier-BoldOblique findfont
dup length dict begin
  {1 index /FID ne {def} {pop pop} ifelse} forall
  /Encoding WinAnsiEncoding def
  currentdict
end
/Courier-BoldOblique exch definefont pop
/Courier-Bold findfont
dup length dict begin
  {1 index /FID ne {def} {pop pop} ifelse} forall
  /Encoding WinAnsiEncoding def
  currentdict
end
/Courier-Bold exch definefont pop
/Helvetica findfont
dup length dict begin
  {1 index /FID ne {def} {pop pop} ifelse} forall
  /Encoding WinAnsiEncoding def
  currentdict
end
/Helvetica exch definefont pop
/Helvetica-Oblique findfont
dup length dict begin
  {1 index /FID ne {def} {pop pop} ifelse} forall
  /Encoding WinAnsiEncoding def
  currentdict
end
/Helvetica-Oblique exch definefont pop
/Helvetica-Bold findfont
dup length dict begin
  {1 index /FID ne {def} {pop pop} ifelse} forall
  /Encoding WinAnsiEncoding def
  currentdict
end
/Helvetica-Bold exch definefont pop
/Helvetica-BoldOblique findfont
dup length dict begin
  {1 index /FID ne {def} {pop pop} ifelse} forall
  /Encoding WinAnsiEncoding def
  currentdict
end
/Helvetica-BoldOblique exch definefont pop
/Times-Roman findfont
dup length dict begin
  {1 index /FID ne {def} {pop pop} ifelse} forall
  /Encoding WinAnsiEncoding def
  currentdict
end
/Times-Roman exch definefont pop
/Times-Italic findfont
dup length dict begin
  {1 index /FID ne {def} {pop pop} ifelse} forall
  /Encoding WinAnsiEncoding def
  currentdict
end
/Times-Italic exch definefont pop
/Times-Bold findfont
dup length dict begin
  {1 index /FID ne {def} {pop pop} ifelse} forall
  /Encoding WinAnsiEncoding def
  currentdict
end
/Times-Bold exch definefont pop
/Times-BoldItalic findfont
dup length dict begin
  {1 index /FID ne {def} {pop pop} ifelse} forall
  /Encoding WinAnsiEncoding def
  currentdict
end
/Times-BoldItalic exch definefont pop
/Courier findfont
dup length dict begin
  {1 index /FID ne {def} {pop pop} ifelse} forall
  /Encoding WinAnsiEncoding def
  currentdict
end
/Courier exch definefont pop
%FOPEndFontReencode
%%EndProlog
%%Page: 1 1
%%PageBoundingBox: 0 0 420 315
%%BeginPageSetup
[1 0 0 -1 0 315] CT
%%EndPageSetup
GS
[0.75 0 0 0.75 0 0] CT
1 GC
N
0 0 560 420 re
f
GR
GS
[0.75 0 0 0.75 0 0] CT
1 GC
N
0 0 560 420 re
f
GR
GS
[0.75 0 0 0.75 0 0] CT
1 GC
N
73 372 M
507 372 L
507 31 L
73 31 L
cp
f
GR
GS
[0.75 0 0 0.75 0 0] CT
0.873 GC
1 LJ
0.667 LW
N
73 372 M
73 31 L
S
GR
GS
[0.75 0 0 0.75 0 0] CT
0.873 GC
1 LJ
0.667 LW
N
145.333 372 M
145.333 31 L
S
GR
GS
[0.75 0 0 0.75 0 0] CT
0.873 GC
1 LJ
0.667 LW
N
217.667 372 M
217.667 31 L
S
GR
GS
[0.75 0 0 0.75 0 0] CT
0.873 GC
1 LJ
0.667 LW
N
290 372 M
290 31 L
S
GR
GS
[0.75 0 0 0.75 0 0] CT
0.873 GC
1 LJ
0.667 LW
N
362.333 372 M
362.333 31 L
S
GR
GS
[0.75 0 0 0.75 0 0] CT
0.873 GC
1 LJ
0.667 LW
N
434.667 372 M
434.667 31 L
S
GR
GS
[0.75 0 0 0.75 0 0] CT
0.873 GC
1 LJ
0.667 LW
N
507 372 M
507 31 L
S
GR
GS
[0.75 0 0 0.75 0 0] CT
0.873 GC
1 LJ
0.667 LW
N
507 372 M
73 372 L
S
GR
GS
[0.75 0 0 0.75 0 0] CT
0.873 GC
1 LJ
0.667 LW
N
507 334.111 M
73 334.111 L
S
GR
GS
[0.75 0 0 0.75 0 0] CT
0.873 GC
1 LJ
0.667 LW
N
507 296.222 M
73 296.222 L
S
GR
GS
[0.75 0 0 0.75 0 0] CT
0.873 GC
1 LJ
0.667 LW
N
507 258.333 M
73 258.333 L
S
GR
GS
[0.75 0 0 0.75 0 0] CT
0.873 GC
1 LJ
0.667 LW
N
507 220.444 M
73 220.444 L
S
GR
GS
[0.75 0 0 0.75 0 0] CT
0.873 GC
1 LJ
0.667 LW
N
507 182.556 M
73 182.556 L
S
GR
GS
[0.75 0 0 0.75 0 0] CT
0.873 GC
1 LJ
0.667 LW
N
507 144.667 M
73 144.667 L
S
GR
GS
[0.75 0 0 0.75 0 0] CT
0.873 GC
1 LJ
0.667 LW
N
507 106.778 M
73 106.778 L
S
GR
GS
[0.75 0 0 0.75 0 0] CT
0.873 GC
1 LJ
0.667 LW
N
507 68.889 M
73 68.889 L
S
GR
GS
[0.75 0 0 0.75 0 0] CT
0.873 GC
1 LJ
0.667 LW
N
507 31 M
73 31 L
S
GR
GS
[0.75 0 0 0.75 0 0] CT
0.149 GC
2 setlinecap
1 LJ
0.667 LW
N
73 372 M
507 372 L
S
GR
GS
[0.75 0 0 0.75 0 0] CT
0.149 GC
2 setlinecap
1 LJ
0.667 LW
N
73 31 M
507 31 L
S
GR
GS
[0.75 0 0 0.75 0 0] CT
0.149 GC
2 setlinecap
1 LJ
0.667 LW
N
73 372 M
73 367.66 L
S
GR
GS
[0.75 0 0 0.75 0 0] CT
0.149 GC
2 setlinecap
1 LJ
0.667 LW
N
145.333 372 M
145.333 367.66 L
S
GR
GS
[0.75 0 0 0.75 0 0] CT
0.149 GC
2 setlinecap
1 LJ
0.667 LW
N
217.667 372 M
217.667 367.66 L
S
GR
GS
[0.75 0 0 0.75 0 0] CT
0.149 GC
2 setlinecap
1 LJ
0.667 LW
N
290 372 M
290 367.66 L
S
GR
GS
[0.75 0 0 0.75 0 0] CT
0.149 GC
2 setlinecap
1 LJ
0.667 LW
N
362.333 372 M
362.333 367.66 L
S
GR
GS
[0.75 0 0 0.75 0 0] CT
0.149 GC
2 setlinecap
1 LJ
0.667 LW
N
434.667 372 M
434.667 367.66 L
S
GR
GS
[0.75 0 0 0.75 0 0] CT
0.149 GC
2 setlinecap
1 LJ
0.667 LW
N
507 372 M
507 367.66 L
S
GR
GS
[0.75 0 0 0.75 0 0] CT
0.149 GC
2 setlinecap
1 LJ
0.667 LW
N
73 31 M
73 35.34 L
S
GR
GS
[0.75 0 0 0.75 0 0] CT
0.149 GC
2 setlinecap
1 LJ
0.667 LW
N
145.333 31 M
145.333 35.34 L
S
GR
GS
[0.75 0 0 0.75 0 0] CT
0.149 GC
2 setlinecap
1 LJ
0.667 LW
N
217.667 31 M
217.667 35.34 L
S
GR
GS
[0.75 0 0 0.75 0 0] CT
0.149 GC
2 setlinecap
1 LJ
0.667 LW
N
290 31 M
290 35.34 L
S
GR
GS
[0.75 0 0 0.75 0 0] CT
0.149 GC
2 setlinecap
1 LJ
0.667 LW
N
362.333 31 M
362.333 35.34 L
S
GR
GS
[0.75 0 0 0.75 0 0] CT
0.149 GC
2 setlinecap
1 LJ
0.667 LW
N
434.667 31 M
434.667 35.34 L
S
GR
GS
[0.75 0 0 0.75 0 0] CT
0.149 GC
2 setlinecap
1 LJ
0.667 LW
N
507 31 M
507 35.34 L
S
GR
GS
[0.75 0 0 0.75 54.75 283.00001] CT
0.149 GC
/Helvetica 13.333 F
GS
[1 0 0 1 0 0] CT
-11.5 14 moveto 
1 -1 scale
(900) t 
GR
GR
GS
[0.75 0 0 0.75 109 283.00001] CT
0.149 GC
/Helvetica 13.333 F
GS
[1 0 0 1 0 0] CT
-15 14 moveto 
1 -1 scale
(1000) t 
GR
GR
GS
[0.75 0 0 0.75 163.25 283.00001] CT
0.149 GC
/Helvetica 13.333 F
GS
[1 0 0 1 0 0] CT
-15 14 moveto 
1 -1 scale
(1100) t 
GR
GR
GS
[0.75 0 0 0.75 217.5 283.00001] CT
0.149 GC
/Helvetica 13.333 F
GS
[1 0 0 1 0 0] CT
-15 14 moveto 
1 -1 scale
(1200) t 
GR
GR
GS
[0.75 0 0 0.75 271.75001 283.00001] CT
0.149 GC
/Helvetica 13.333 F
GS
[1 0 0 1 0 0] CT
-15 14 moveto 
1 -1 scale
(1300) t 
GR
GR
GS
[0.75 0 0 0.75 325.99999 283.00001] CT
0.149 GC
/Helvetica 13.333 F
GS
[1 0 0 1 0 0] CT
-15 14 moveto 
1 -1 scale
(1400) t 
GR
GR
GS
[0.75 0 0 0.75 380.25 283.00001] CT
0.149 GC
/Helvetica 13.333 F
GS
[1 0 0 1 0 0] CT
-15 14 moveto 
1 -1 scale
(1500) t 
GR
GR
GS
[0.75 0 0 0.75 217.50014 297] CT
0.149 GC
/Helvetica 18.667 F
GS
[1 0 0 1 0 0] CT
-38.5 19 moveto 
1 -1 scale
(Time / ns) t 
GR
GR
GS
[0.75 0 0 0.75 0 0] CT
0.149 GC
2 setlinecap
1 LJ
0.667 LW
N
73 372 M
73 31 L
S
GR
GS
[0.75 0 0 0.75 0 0] CT
0.149 GC
2 setlinecap
1 LJ
0.667 LW
N
507 372 M
507 31 L
S
GR
GS
[0.75 0 0 0.75 0 0] CT
0.149 GC
2 setlinecap
1 LJ
0.667 LW
N
73 372 M
77.34 372 L
S
GR
GS
[0.75 0 0 0.75 0 0] CT
0.149 GC
2 setlinecap
1 LJ
0.667 LW
N
73 334.111 M
77.34 334.111 L
S
GR
GS
[0.75 0 0 0.75 0 0] CT
0.149 GC
2 setlinecap
1 LJ
0.667 LW
N
73 296.222 M
77.34 296.222 L
S
GR
GS
[0.75 0 0 0.75 0 0] CT
0.149 GC
2 setlinecap
1 LJ
0.667 LW
N
73 258.333 M
77.34 258.333 L
S
GR
GS
[0.75 0 0 0.75 0 0] CT
0.149 GC
2 setlinecap
1 LJ
0.667 LW
N
73 220.444 M
77.34 220.444 L
S
GR
GS
[0.75 0 0 0.75 0 0] CT
0.149 GC
2 setlinecap
1 LJ
0.667 LW
N
73 182.556 M
77.34 182.556 L
S
GR
GS
[0.75 0 0 0.75 0 0] CT
0.149 GC
2 setlinecap
1 LJ
0.667 LW
N
73 144.667 M
77.34 144.667 L
S
GR
GS
[0.75 0 0 0.75 0 0] CT
0.149 GC
2 setlinecap
1 LJ
0.667 LW
N
73 106.778 M
77.34 106.778 L
S
GR
GS
[0.75 0 0 0.75 0 0] CT
0.149 GC
2 setlinecap
1 LJ
0.667 LW
N
73 68.889 M
77.34 68.889 L
S
GR
GS
[0.75 0 0 0.75 0 0] CT
0.149 GC
2 setlinecap
1 LJ
0.667 LW
N
73 31 M
77.34 31 L
S
GR
GS
[0.75 0 0 0.75 0 0] CT
0.149 GC
2 setlinecap
1 LJ
0.667 LW
N
507 372 M
502.66 372 L
S
GR
GS
[0.75 0 0 0.75 0 0] CT
0.149 GC
2 setlinecap
1 LJ
0.667 LW
N
507 334.111 M
502.66 334.111 L
S
GR
GS
[0.75 0 0 0.75 0 0] CT
0.149 GC
2 setlinecap
1 LJ
0.667 LW
N
507 296.222 M
502.66 296.222 L
S
GR
GS
[0.75 0 0 0.75 0 0] CT
0.149 GC
2 setlinecap
1 LJ
0.667 LW
N
507 258.333 M
502.66 258.333 L
S
GR
GS
[0.75 0 0 0.75 0 0] CT
0.149 GC
2 setlinecap
1 LJ
0.667 LW
N
507 220.444 M
502.66 220.444 L
S
GR
GS
[0.75 0 0 0.75 0 0] CT
0.149 GC
2 setlinecap
1 LJ
0.667 LW
N
507 182.556 M
502.66 182.556 L
S
GR
GS
[0.75 0 0 0.75 0 0] CT
0.149 GC
2 setlinecap
1 LJ
0.667 LW
N
507 144.667 M
502.66 144.667 L
S
GR
GS
[0.75 0 0 0.75 0 0] CT
0.149 GC
2 setlinecap
1 LJ
0.667 LW
N
507 106.778 M
502.66 106.778 L
S
GR
GS
[0.75 0 0 0.75 0 0] CT
0.149 GC
2 setlinecap
1 LJ
0.667 LW
N
507 68.889 M
502.66 68.889 L
S
GR
GS
[0.75 0 0 0.75 0 0] CT
0.149 GC
2 setlinecap
1 LJ
0.667 LW
N
507 31 M
502.66 31 L
S
GR
GS
[0.75 0 0 0.75 50.74999 279] CT
0.149 GC
/Helvetica 13.333 F
GS
[1 0 0 1 0 0] CT
-12 5.5 moveto 
1 -1 scale
(-5) t 
GR
GR
GS
[0.75 0 0 0.75 50.74999 250.58334] CT
0.149 GC
/Helvetica 13.333 F
GS
[1 0 0 1 0 0] CT
-8 5.5 moveto 
1 -1 scale
(0) t 
GR
GR
GS
[0.75 0 0 0.75 50.74999 222.16667] CT
0.149 GC
/Helvetica 13.333 F
GS
[1 0 0 1 0 0] CT
-8 5.5 moveto 
1 -1 scale
(5) t 
GR
GR
GS
[0.75 0 0 0.75 50.74999 193.75001] CT
0.149 GC
/Helvetica 13.333 F
GS
[1 0 0 1 0 0] CT
-15 5.5 moveto 
1 -1 scale
(10) t 
GR
GR
GS
[0.75 0 0 0.75 50.74999 165.33333] CT
0.149 GC
/Helvetica 13.333 F
GS
[1 0 0 1 0 0] CT
-15 5.5 moveto 
1 -1 scale
(15) t 
GR
GR
GS
[0.75 0 0 0.75 50.74999 136.91667] CT
0.149 GC
/Helvetica 13.333 F
GS
[1 0 0 1 0 0] CT
-15 5.5 moveto 
1 -1 scale
(20) t 
GR
GR
GS
[0.75 0 0 0.75 50.74999 108.5] CT
0.149 GC
/Helvetica 13.333 F
GS
[1 0 0 1 0 0] CT
-15 5.5 moveto 
1 -1 scale
(25) t 
GR
GR
GS
[0.75 0 0 0.75 50.74999 80.08333] CT
0.149 GC
/Helvetica 13.333 F
GS
[1 0 0 1 0 0] CT
-15 5.5 moveto 
1 -1 scale
(30) t 
GR
GR
GS
[0.75 0 0 0.75 50.74999 51.66666] CT
0.149 GC
/Helvetica 13.333 F
GS
[1 0 0 1 0 0] CT
-15 5.5 moveto 
1 -1 scale
(35) t 
GR
GR
GS
[0.75 0 0 0.75 50.74999 23.25] CT
0.149 GC
/Helvetica 13.333 F
GS
[1 0 0 1 0 0] CT
-15 5.5 moveto 
1 -1 scale
(40) t 
GR
GR
GS
[0 -0.75 0.75 0 36.5 151.12489] CT
0.149 GC
/Helvetica 18.667 F
GS
[1 0 0 1 0 0] CT
-46 -5 moveto 
1 -1 scale
(Voltage / V) t 
GR
GR
GS
[0.75 0 0 0.75 0 0] CT
0 0.447 0.741 RC
1 LJ
2 LW
N
90.975 335.958 M
91.554 336.148 L
92.132 336.219 L
92.711 338.279 L
93.289 338.468 L
93.868 338.729 L
94.447 337.426 L
95.026 336.953 L
95.604 335.39 L
96.183 338.326 L
96.761 338.847 L
97.34 338.066 L
97.919 338.658 L
98.497 334.845 L
99.076 336.527 L
99.655 334.585 L
100.234 336.361 L
100.812 333.661 L
101.391 335.958 L
101.969 337 L
102.548 338.539 L
103.127 335.982 L
103.706 336.29 L
104.284 337 L
104.863 334.727 L
105.441 336.195 L
106.02 335.224 L
106.599 334.443 L
107.177 336.479 L
107.756 337.663 L
108.335 335.721 L
108.914 337.095 L
109.492 335.224 L
110.071 333.614 L
110.649 335.035 L
111.228 337.545 L
111.807 337.876 L
112.386 337.521 L
112.964 336.171 L
113.543 336.266 L
114.121 338.681 L
114.7 338.184 L
115.279 337.64 L
115.857 337.071 L
116.436 339.487 L
117.015 337.308 L
117.594 335.177 L
118.172 336.1 L
118.751 335.437 L
119.329 335.011 L
119.908 337.095 L
120.487 337.355 L
121.066 334.727 L
121.644 336.195 L
122.223 336.574 L
122.801 336.384 L
123.38 335.082 L
123.959 338.468 L
124.537 335.342 L
125.116 337.332 L
125.695 336.171 L
126.274 337.853 L
126.852 335.603 L
127.431 336.266 L
128.009 336.029 L
128.588 335.84 L
129.167 335.721 L
129.746 337.45 L
130.324 334.869 L
130.903 336.692 L
131.481 337.332 L
132.06 336.432 L
132.639 337.758 L
133.217 335.414 L
133.796 336.716 L
134.375 336.621 L
134.954 340.386 L
135.532 337.332 L
136.111 337.403 L
136.689 339.605 L
137.268 336.527 L
137.847 337.521 L
138.426 334.845 L
139.004 332.619 L
139.583 325.61 L
140.161 314.835 L
140.74 316.469 L
141.319 309.365 L
141.898 296.506 L
142.476 284.761 L
143.055 266.764 L
143.634 250.021 L
144.212 233.492 L
144.791 207.752 L
145.369 168.797 L
145.948 133.442 L
146.527 104.149 L
147.106 85.607 L
147.684 72.796 L
148.263 63.419 L
148.841 72.536 L
149.42 117.789 L
149.999 127.356 L
150.577 92.806 L
151.156 85.939 L
151.735 121.744 L
152.314 139.575 L
152.892 126.835 L
153.471 121.436 L
154.049 139.836 L
154.628 149.498 L
155.207 134.224 L
155.786 123.473 L
156.364 123.994 L
156.943 127.048 L
157.521 117.292 L
158.1 107.133 L
158.679 108.175 L
159.258 110.851 L
159.836 108.388 L
160.415 109.051 L
160.994 116.96 L
161.572 120.299 L
162.151 126.598 L
162.73 131.311 L
163.308 131.974 L
163.887 134.721 L
164.465 136.165 L
165.044 131.429 L
165.623 128.09 L
166.201 124.23 L
166.78 119.115 L
167.359 110.827 L
167.938 106.091 L
168.516 104.102 L
169.095 105.239 L
169.674 104.907 L
170.252 106.636 L
170.831 114.829 L
171.41 119.163 L
171.988 126.243 L
172.567 130.719 L
173.145 133.939 L
173.724 133.489 L
174.303 131.998 L
174.881 130.885 L
175.46 126.527 L
176.039 124.23 L
176.617 119.139 L
177.196 114.569 L
177.775 111.822 L
178.354 110.661 L
178.932 108.577 L
179.511 109.454 L
180.09 113.55 L
180.668 119.4 L
181.247 121.199 L
181.825 124.491 L
182.404 128.706 L
182.983 134.673 L
183.561 130.435 L
184.14 131.713 L
184.719 126.835 L
185.298 125.485 L
185.876 120.915 L
186.455 117.837 L
187.034 111.514 L
187.612 113.693 L
188.191 110.898 L
188.77 110.993 L
189.348 110.969 L
189.927 116.653 L
190.505 121.531 L
191.084 125.462 L
191.663 126.575 L
192.241 128.706 L
192.82 128.517 L
193.399 131.737 L
193.977 127.782 L
194.556 127.522 L
195.135 124.964 L
195.714 120.631 L
196.292 117.292 L
196.871 114.924 L
197.45 111.064 L
198.028 107.038 L
198.607 109.43 L
199.185 113.574 L
199.764 115.326 L
200.343 116.439 L
200.921 121.412 L
201.5 125.012 L
202.079 127.285 L
202.658 127.238 L
203.236 128.422 L
203.815 127.617 L
204.394 124.799 L
204.972 122.289 L
205.551 118.523 L
206.13 117.197 L
206.708 114.853 L
207.287 111.632 L
207.865 112.674 L
208.444 112.461 L
209.023 117.268 L
209.601 114.356 L
210.18 119.423 L
210.759 123.686 L
211.337 121.176 L
211.916 124.278 L
212.495 126.362 L
213.074 127.569 L
213.652 126.125 L
214.231 123.804 L
214.81 122.833 L
215.388 117.86 L
215.967 114.711 L
216.545 114.19 L
217.124 112.153 L
217.703 113.432 L
218.281 115.776 L
218.86 114.758 L
219.439 118.121 L
220.018 122.786 L
220.596 125.888 L
221.175 127.238 L
221.754 128.209 L
222.332 131.477 L
222.911 127.948 L
223.49 125.912 L
224.068 125.13 L
224.647 119.589 L
225.225 118.879 L
225.804 116.274 L
226.383 117.955 L
226.961 112.816 L
227.54 114.237 L
228.119 113.527 L
228.697 117.481 L
229.276 117.41 L
229.855 120.086 L
230.434 122.999 L
231.012 125.509 L
231.591 125.77 L
232.17 123.615 L
232.748 124.586 L
233.327 124.017 L
233.905 122.146 L
234.484 118.334 L
235.063 113.243 L
235.641 112.343 L
236.22 115.8 L
236.799 115.516 L
237.378 113.503 L
237.956 116.676 L
238.535 117.126 L
239.114 118.097 L
239.692 119.826 L
240.271 122.218 L
240.85 121.531 L
241.428 124.065 L
242.007 125.343 L
242.585 123.994 L
243.164 119.873 L
243.743 120.347 L
244.321 117.008 L
244.9 116.724 L
245.479 113.574 L
246.057 112.722 L
246.636 112.414 L
247.215 114.498 L
247.794 115.682 L
248.372 118.736 L
248.951 120.347 L
249.53 120.252 L
250.108 125.107 L
250.687 122.478 L
251.265 126.054 L
251.844 125.935 L
252.423 120.655 L
253.001 121.625 L
253.58 119.66 L
254.159 117.102 L
254.738 118.026 L
255.316 114.877 L
255.895 114.64 L
256.474 114.379 L
257.052 117.245 L
257.631 118.642 L
258.21 119.897 L
258.788 121.981 L
259.367 120.939 L
259.945 122.644 L
260.524 122.265 L
261.103 123.402 L
261.681 124.799 L
262.26 121.483 L
262.839 119.068 L
263.418 117.884 L
263.996 114.971 L
264.575 118.002 L
265.154 116.463 L
265.732 115.516 L
266.311 114.995 L
266.89 116.463 L
267.468 116.439 L
268.047 119.755 L
268.625 123.473 L
269.204 120.939 L
269.783 122.952 L
270.361 125.059 L
270.94 123.094 L
271.519 119.542 L
272.098 118.144 L
272.676 119.092 L
273.255 118.855 L
273.834 115.137 L
274.412 117.529 L
274.991 113.385 L
275.57 117.221 L
276.148 116.582 L
276.727 114.45 L
277.305 117.197 L
277.884 117.055 L
278.463 114.782 L
279.041 119.471 L
279.62 120.868 L
280.199 121.247 L
280.777 121.625 L
281.356 120.797 L
281.935 118.594 L
282.514 116.321 L
283.092 118.902 L
283.671 117.647 L
284.25 115.184 L
284.828 117.055 L
285.407 114 L
285.985 114.19 L
286.564 120.536 L
287.143 117.15 L
287.721 117.6 L
288.3 118.192 L
288.879 119.873 L
289.457 120.844 L
290.036 120.015 L
290.615 121.602 L
291.194 121.649 L
291.772 121.128 L
292.351 121.933 L
292.93 112.958 L
293.508 114.829 L
294.087 114.474 L
294.665 117.695 L
295.244 115.35 L
295.823 115.208 L
296.401 118.31 L
296.98 117.813 L
297.559 119.897 L
298.138 120.844 L
298.716 119.707 L
299.295 120.678 L
299.874 122.596 L
300.452 121.389 L
301.031 119.163 L
301.61 118.452 L
302.188 117.434 L
302.767 116.487 L
303.345 118.31 L
303.924 115.326 L
304.503 114.213 L
305.081 118.713 L
305.66 119.021 L
306.239 117.552 L
306.818 118.429 L
307.396 116.203 L
307.975 119.139 L
308.554 119.068 L
309.132 120.56 L
309.711 121.318 L
310.29 120.063 L
310.868 119.707 L
311.447 116.51 L
312.025 116.866 L
312.604 115.966 L
313.183 114.805 L
313.761 115.611 L
314.34 116.842 L
314.919 115.398 L
315.497 116.274 L
316.076 117.766 L
316.655 119.589 L
317.234 117.174 L
317.812 122.36 L
318.391 117.221 L
318.97 117.008 L
319.548 119.4 L
320.127 118.215 L
320.705 119.21 L
321.284 114.166 L
321.863 118.618 L
322.441 114.166 L
323.02 113.598 L
323.599 115.066 L
324.177 113.527 L
324.756 116.132 L
325.335 117.505 L
325.914 116.842 L
326.492 116.795 L
327.071 120.015 L
327.65 117.079 L
328.228 119.826 L
328.807 119.802 L
329.385 118.405 L
329.964 116.368 L
330.543 117.41 L
331.121 117.6 L
331.7 116.818 L
332.279 117.079 L
332.858 117.197 L
333.436 114.45 L
334.015 116.629 L
334.594 114.498 L
335.172 114.711 L
335.751 117.008 L
336.33 120.418 L
336.908 117.316 L
337.487 118.95 L
338.065 116.795 L
338.644 116.795 L
339.223 116.984 L
339.801 118.5 L
340.38 118.05 L
340.959 115.895 L
341.538 116.368 L
342.116 117.552 L
342.695 116.747 L
343.274 120.37 L
343.852 113.693 L
344.431 116.037 L
345.01 116.203 L
345.588 117.292 L
346.167 117.197 L
346.745 117.813 L
347.324 119.494 L
347.903 118.642 L
348.481 119.636 L
349.06 118.594 L
349.639 119.613 L
350.217 119.021 L
350.796 116.416 L
351.375 118.5 L
351.954 116.463 L
352.532 116.132 L
353.111 116.25 L
353.69 115.35 L
354.268 116.818 L
354.847 118.642 L
355.425 118.76 L
356.004 117.623 L
356.583 116.013 L
357.161 118.002 L
357.74 118.405 L
358.319 119.826 L
358.897 116.889 L
359.476 118.239 L
360.055 114.569 L
360.634 114.569 L
361.212 120.039 L
361.791 116.842 L
362.37 119.352 L
362.948 114.237 L
363.527 118.239 L
364.105 118.807 L
364.684 117.908 L
365.263 118.547 L
365.841 120.205 L
366.42 119.257 L
366.999 117.955 L
367.578 120.512 L
368.156 119.376 L
368.735 118.144 L
369.314 115.966 L
369.892 114.758 L
370.471 117.718 L
371.05 114.924 L
371.628 114.285 L
372.207 115.753 L
372.785 116.984 L
373.364 115.776 L
373.943 117.126 L
374.521 119.897 L
375.1 117.031 L
375.679 118.215 L
376.258 117.979 L
376.836 121.176 L
377.415 117.931 L
377.994 118.571 L
378.572 116.818 L
379.151 117.102 L
379.73 117.363 L
380.308 114.711 L
380.887 118.618 L
381.465 117.15 L
382.044 116.629 L
382.623 115.374 L
383.201 116.155 L
383.78 116.439 L
384.359 115.705 L
384.938 119.044 L
385.516 116.96 L
386.095 117.813 L
386.674 116.582 L
387.252 118.476 L
387.831 116.534 L
388.41 119.707 L
388.988 116.155 L
389.567 112.698 L
390.145 118.689 L
390.724 117.742 L
391.303 115.587 L
391.881 115.279 L
392.46 116.013 L
393.039 113.598 L
393.617 117.529 L
394.196 118.618 L
394.775 117.695 L
395.354 117.079 L
395.932 117.387 L
396.511 116.439 L
397.09 115.753 L
397.668 115.255 L
398.247 118.121 L
398.825 115.966 L
399.404 115.658 L
399.983 116.653 L
400.561 116.179 L
401.14 115.682 L
401.719 115.516 L
402.297 118.121 L
402.876 118.168 L
403.455 115.847 L
404.034 115.184 L
404.612 114.829 L
405.191 116.747 L
405.77 118.736 L
406.348 116.108 L
406.927 119.163 L
407.505 118.784 L
408.084 115.54 L
408.663 114.332 L
409.241 115.966 L
409.82 115.8 L
410.399 114.427 L
410.978 112.651 L
411.556 115.208 L
412.135 117.766 L
412.714 117.718 L
413.292 115.918 L
413.871 117.316 L
414.45 117.6 L
415.028 115.871 L
415.607 117.102 L
416.185 117.647 L
416.764 117.434 L
417.343 115.516 L
417.921 114.119 L
418.5 113.835 L
419.079 116.345 L
419.658 115.942 L
420.236 113.503 L
420.815 114.924 L
421.394 117.268 L
421.972 116.534 L
422.551 117.695 L
423.13 118.263 L
423.708 121.602 L
424.287 116.013 L
424.865 116.226 L
425.444 117.387 L
426.023 115.587 L
426.601 113.977 L
427.18 113.148 L
427.759 114.948 L
428.337 114.356 L
428.916 116.061 L
429.495 115.824 L
430.074 117.481 L
430.652 115.942 L
431.231 116.463 L
431.81 114.924 L
432.388 117.055 L
432.967 117.102 L
433.545 117.884 L
434.124 115.019 L
434.703 118.239 L
435.281 117.505 L
435.86 118.334 L
436.439 115.895 L
437.017 115.066 L
437.596 117.647 L
438.175 114.853 L
438.754 118.429 L
439.332 117.979 L
439.911 116.013 L
440.49 114.782 L
441.068 113.432 L
441.647 117.387 L
442.225 116.818 L
442.804 117.031 L
443.383 113.858 L
443.961 116.866 L
444.54 117.268 L
445.119 114.569 L
445.698 118.855 L
446.276 117.15 L
446.855 116.629 L
S
GR
%%Trailer
%%Pages: 1
%%EOF
