%!PS-Adobe-3.0 EPSF-3.0
%%Creator: (MATLAB, The Mathworks, Inc. Version 24.1.0.2603908 \(R2024a\) Update 3. Operating System: Windows 10)
%%Title: (C:/Users/lorde/Documents/MATLAB/Master Lab Course/Exercise 1/E1_1_lowZ_rise.eps)
%%CreationDate: 2024-06-25T15:15:04
%%Pages: (atend)
%%BoundingBox:     0     0   420   315
%%LanguageLevel: 3
%%EndComments
%%BeginProlog
%%BeginResource: procset (Apache XML Graphics Std ProcSet) 1.2 0
%%Version: 1.2 0
%%Copyright: (Copyright 2001-2003,2010 The Apache Software Foundation. License terms: http://www.apache.org/licenses/LICENSE-2.0)
/bd{bind def}bind def
/ld{load def}bd
/GR/grestore ld
/GS/gsave ld
/RM/rmoveto ld
/C/curveto ld
/t/show ld
/L/lineto ld
/ML/setmiterlimit ld
/CT/concat ld
/f/fill ld
/N/newpath ld
/S/stroke ld
/CC/setcmykcolor ld
/A/ashow ld
/cp/closepath ld
/RC/setrgbcolor ld
/LJ/setlinejoin ld
/GC/setgray ld
/LW/setlinewidth ld
/M/moveto ld
/re {4 2 roll M
1 index 0 rlineto
0 exch rlineto
neg 0 rlineto
cp } bd
/_ctm matrix def
/_tm matrix def
/BT { _ctm currentmatrix pop matrix _tm copy pop 0 0 moveto } bd
/ET { _ctm setmatrix } bd
/iTm { _ctm setmatrix _tm concat } bd
/Tm { _tm astore pop iTm 0 0 moveto } bd
/ux 0.0 def
/uy 0.0 def
/F {
  /Tp exch def
  /Tf exch def
  Tf findfont Tp scalefont setfont
  /cf Tf def  /cs Tp def
} bd
/ULS {currentpoint /uy exch def /ux exch def} bd
/ULE {
  /Tcx currentpoint pop def
  gsave
  newpath
  cf findfont cs scalefont dup
  /FontMatrix get 0 get /Ts exch def /FontInfo get dup
  /UnderlinePosition get Ts mul /To exch def
  /UnderlineThickness get Ts mul /Tt exch def
  ux uy To add moveto  Tcx uy To add lineto
  Tt setlinewidth stroke
  grestore
} bd
/OLE {
  /Tcx currentpoint pop def
  gsave
  newpath
  cf findfont cs scalefont dup
  /FontMatrix get 0 get /Ts exch def /FontInfo get dup
  /UnderlinePosition get Ts mul /To exch def
  /UnderlineThickness get Ts mul /Tt exch def
  ux uy To add cs add moveto Tcx uy To add cs add lineto
  Tt setlinewidth stroke
  grestore
} bd
/SOE {
  /Tcx currentpoint pop def
  gsave
  newpath
  cf findfont cs scalefont dup
  /FontMatrix get 0 get /Ts exch def /FontInfo get dup
  /UnderlinePosition get Ts mul /To exch def
  /UnderlineThickness get Ts mul /Tt exch def
  ux uy To add cs 10 mul 26 idiv add moveto Tcx uy To add cs 10 mul 26 idiv add lineto
  Tt setlinewidth stroke
  grestore
} bd
/QT {
/Y22 exch store
/X22 exch store
/Y21 exch store
/X21 exch store
currentpoint
/Y21 load 2 mul add 3 div exch
/X21 load 2 mul add 3 div exch
/X21 load 2 mul /X22 load add 3 div
/Y21 load 2 mul /Y22 load add 3 div
/X22 load /Y22 load curveto
} bd
/SSPD {
dup length /d exch dict def
{
/v exch def
/k exch def
currentpagedevice k known {
/cpdv currentpagedevice k get def
v cpdv ne {
/upd false def
/nullv v type /nulltype eq def
/nullcpdv cpdv type /nulltype eq def
nullv nullcpdv or
{
/upd true def
} {
/sametype v type cpdv type eq def
sametype {
v type /arraytype eq {
/vlen v length def
/cpdvlen cpdv length def
vlen cpdvlen eq {
0 1 vlen 1 sub {
/i exch def
/obj v i get def
/cpdobj cpdv i get def
obj cpdobj ne {
/upd true def
exit
} if
} for
} {
/upd true def
} ifelse
} {
v type /dicttype eq {
v {
/dv exch def
/dk exch def
/cpddv cpdv dk get def
dv cpddv ne {
/upd true def
exit
} if
} forall
} {
/upd true def
} ifelse
} ifelse
} if
} ifelse
upd true eq {
d k v put
} if
} if
} if
} forall
d length 0 gt {
d setpagedevice
} if
} bd
/RE { % /NewFontName [NewEncodingArray] /FontName RE -
  findfont dup length dict begin
  {
    1 index /FID ne
    {def} {pop pop} ifelse
  } forall
  /Encoding exch def
  /FontName 1 index def
  currentdict definefont pop
  end
} bind def
%%EndResource
%%BeginResource: procset (Apache XML Graphics EPS ProcSet) 1.0 0
%%Version: 1.0 0
%%Copyright: (Copyright 2002-2003 The Apache Software Foundation. License terms: http://www.apache.org/licenses/LICENSE-2.0)
/BeginEPSF { %def
/b4_Inc_state save def         % Save state for cleanup
/dict_count countdictstack def % Count objects on dict stack
/op_count count 1 sub def      % Count objects on operand stack
userdict begin                 % Push userdict on dict stack
/showpage { } def              % Redefine showpage, { } = null proc
0 setgray 0 setlinecap         % Prepare graphics state
1 setlinewidth 0 setlinejoin
10 setmiterlimit [ ] 0 setdash newpath
/languagelevel where           % If level not equal to 1 then
{pop languagelevel             % set strokeadjust and
1 ne                           % overprint to their defaults.
{false setstrokeadjust false setoverprint
} if
} if
} bd
/EndEPSF { %def
count op_count sub {pop} repeat            % Clean up stacks
countdictstack dict_count sub {end} repeat
b4_Inc_state restore
} bd
%%EndResource
%FOPBeginFontDict
%%IncludeResource: font Courier-Oblique
%%IncludeResource: font Courier-BoldOblique
%%IncludeResource: font Courier-Bold
%%IncludeResource: font ZapfDingbats
%%IncludeResource: font Symbol
%%IncludeResource: font Helvetica
%%IncludeResource: font Helvetica-Oblique
%%IncludeResource: font Helvetica-Bold
%%IncludeResource: font Helvetica-BoldOblique
%%IncludeResource: font Times-Roman
%%IncludeResource: font Times-Italic
%%IncludeResource: font Times-Bold
%%IncludeResource: font Times-BoldItalic
%%IncludeResource: font Courier
%FOPEndFontDict
%%BeginResource: encoding WinAnsiEncoding
/WinAnsiEncoding [
/.notdef /.notdef /.notdef /.notdef /.notdef
/.notdef /.notdef /.notdef /.notdef /.notdef
/.notdef /.notdef /.notdef /.notdef /.notdef
/.notdef /.notdef /.notdef /.notdef /.notdef
/.notdef /.notdef /.notdef /.notdef /.notdef
/.notdef /.notdef /.notdef /.notdef /.notdef
/.notdef /.notdef /space /exclam /quotedbl
/numbersign /dollar /percent /ampersand /quotesingle
/parenleft /parenright /asterisk /plus /comma
/hyphen /period /slash /zero /one
/two /three /four /five /six
/seven /eight /nine /colon /semicolon
/less /equal /greater /question /at
/A /B /C /D /E
/F /G /H /I /J
/K /L /M /N /O
/P /Q /R /S /T
/U /V /W /X /Y
/Z /bracketleft /backslash /bracketright /asciicircum
/underscore /quoteleft /a /b /c
/d /e /f /g /h
/i /j /k /l /m
/n /o /p /q /r
/s /t /u /v /w
/x /y /z /braceleft /bar
/braceright /asciitilde /bullet /Euro /bullet
/quotesinglbase /florin /quotedblbase /ellipsis /dagger
/daggerdbl /circumflex /perthousand /Scaron /guilsinglleft
/OE /bullet /Zcaron /bullet /bullet
/quoteleft /quoteright /quotedblleft /quotedblright /bullet
/endash /emdash /asciitilde /trademark /scaron
/guilsinglright /oe /bullet /zcaron /Ydieresis
/space /exclamdown /cent /sterling /currency
/yen /brokenbar /section /dieresis /copyright
/ordfeminine /guillemotleft /logicalnot /sfthyphen /registered
/macron /degree /plusminus /twosuperior /threesuperior
/acute /mu /paragraph /middot /cedilla
/onesuperior /ordmasculine /guillemotright /onequarter /onehalf
/threequarters /questiondown /Agrave /Aacute /Acircumflex
/Atilde /Adieresis /Aring /AE /Ccedilla
/Egrave /Eacute /Ecircumflex /Edieresis /Igrave
/Iacute /Icircumflex /Idieresis /Eth /Ntilde
/Ograve /Oacute /Ocircumflex /Otilde /Odieresis
/multiply /Oslash /Ugrave /Uacute /Ucircumflex
/Udieresis /Yacute /Thorn /germandbls /agrave
/aacute /acircumflex /atilde /adieresis /aring
/ae /ccedilla /egrave /eacute /ecircumflex
/edieresis /igrave /iacute /icircumflex /idieresis
/eth /ntilde /ograve /oacute /ocircumflex
/otilde /odieresis /divide /oslash /ugrave
/uacute /ucircumflex /udieresis /yacute /thorn
/ydieresis
] def
%%EndResource
%FOPBeginFontReencode
/Courier-Oblique findfont
dup length dict begin
  {1 index /FID ne {def} {pop pop} ifelse} forall
  /Encoding WinAnsiEncoding def
  currentdict
end
/Courier-Oblique exch definefont pop
/Courier-BoldOblique findfont
dup length dict begin
  {1 index /FID ne {def} {pop pop} ifelse} forall
  /Encoding WinAnsiEncoding def
  currentdict
end
/Courier-BoldOblique exch definefont pop
/Courier-Bold findfont
dup length dict begin
  {1 index /FID ne {def} {pop pop} ifelse} forall
  /Encoding WinAnsiEncoding def
  currentdict
end
/Courier-Bold exch definefont pop
/Helvetica findfont
dup length dict begin
  {1 index /FID ne {def} {pop pop} ifelse} forall
  /Encoding WinAnsiEncoding def
  currentdict
end
/Helvetica exch definefont pop
/Helvetica-Oblique findfont
dup length dict begin
  {1 index /FID ne {def} {pop pop} ifelse} forall
  /Encoding WinAnsiEncoding def
  currentdict
end
/Helvetica-Oblique exch definefont pop
/Helvetica-Bold findfont
dup length dict begin
  {1 index /FID ne {def} {pop pop} ifelse} forall
  /Encoding WinAnsiEncoding def
  currentdict
end
/Helvetica-Bold exch definefont pop
/Helvetica-BoldOblique findfont
dup length dict begin
  {1 index /FID ne {def} {pop pop} ifelse} forall
  /Encoding WinAnsiEncoding def
  currentdict
end
/Helvetica-BoldOblique exch definefont pop
/Times-Roman findfont
dup length dict begin
  {1 index /FID ne {def} {pop pop} ifelse} forall
  /Encoding WinAnsiEncoding def
  currentdict
end
/Times-Roman exch definefont pop
/Times-Italic findfont
dup length dict begin
  {1 index /FID ne {def} {pop pop} ifelse} forall
  /Encoding WinAnsiEncoding def
  currentdict
end
/Times-Italic exch definefont pop
/Times-Bold findfont
dup length dict begin
  {1 index /FID ne {def} {pop pop} ifelse} forall
  /Encoding WinAnsiEncoding def
  currentdict
end
/Times-Bold exch definefont pop
/Times-BoldItalic findfont
dup length dict begin
  {1 index /FID ne {def} {pop pop} ifelse} forall
  /Encoding WinAnsiEncoding def
  currentdict
end
/Times-BoldItalic exch definefont pop
/Courier findfont
dup length dict begin
  {1 index /FID ne {def} {pop pop} ifelse} forall
  /Encoding WinAnsiEncoding def
  currentdict
end
/Courier exch definefont pop
%FOPEndFontReencode
%%EndProlog
%%Page: 1 1
%%PageBoundingBox: 0 0 420 315
%%BeginPageSetup
[1 0 0 -1 0 315] CT
%%EndPageSetup
GS
[0.75 0 0 0.75 0 0] CT
1 GC
N
0 0 560 420 re
f
GR
GS
[0.75 0 0 0.75 0 0] CT
1 GC
N
0 0 560 420 re
f
GR
GS
[0.75 0 0 0.75 0 0] CT
1 GC
N
73 372 M
507 372 L
507 31 L
73 31 L
cp
f
GR
GS
[0.75 0 0 0.75 0 0] CT
0.873 GC
1 LJ
0.667 LW
N
73 372 M
73 31 L
S
GR
GS
[0.75 0 0 0.75 0 0] CT
0.873 GC
1 LJ
0.667 LW
N
135 372 M
135 31 L
S
GR
GS
[0.75 0 0 0.75 0 0] CT
0.873 GC
1 LJ
0.667 LW
N
197 372 M
197 31 L
S
GR
GS
[0.75 0 0 0.75 0 0] CT
0.873 GC
1 LJ
0.667 LW
N
259 372 M
259 31 L
S
GR
GS
[0.75 0 0 0.75 0 0] CT
0.873 GC
1 LJ
0.667 LW
N
321 372 M
321 31 L
S
GR
GS
[0.75 0 0 0.75 0 0] CT
0.873 GC
1 LJ
0.667 LW
N
383 372 M
383 31 L
S
GR
GS
[0.75 0 0 0.75 0 0] CT
0.873 GC
1 LJ
0.667 LW
N
445 372 M
445 31 L
S
GR
GS
[0.75 0 0 0.75 0 0] CT
0.873 GC
1 LJ
0.667 LW
N
507 372 M
507 31 L
S
GR
GS
[0.75 0 0 0.75 0 0] CT
0.873 GC
1 LJ
0.667 LW
N
507 372 M
73 372 L
S
GR
GS
[0.75 0 0 0.75 0 0] CT
0.873 GC
1 LJ
0.667 LW
N
507 334.111 M
73 334.111 L
S
GR
GS
[0.75 0 0 0.75 0 0] CT
0.873 GC
1 LJ
0.667 LW
N
507 296.222 M
73 296.222 L
S
GR
GS
[0.75 0 0 0.75 0 0] CT
0.873 GC
1 LJ
0.667 LW
N
507 258.333 M
73 258.333 L
S
GR
GS
[0.75 0 0 0.75 0 0] CT
0.873 GC
1 LJ
0.667 LW
N
507 220.444 M
73 220.444 L
S
GR
GS
[0.75 0 0 0.75 0 0] CT
0.873 GC
1 LJ
0.667 LW
N
507 182.556 M
73 182.556 L
S
GR
GS
[0.75 0 0 0.75 0 0] CT
0.873 GC
1 LJ
0.667 LW
N
507 144.667 M
73 144.667 L
S
GR
GS
[0.75 0 0 0.75 0 0] CT
0.873 GC
1 LJ
0.667 LW
N
507 106.778 M
73 106.778 L
S
GR
GS
[0.75 0 0 0.75 0 0] CT
0.873 GC
1 LJ
0.667 LW
N
507 68.889 M
73 68.889 L
S
GR
GS
[0.75 0 0 0.75 0 0] CT
0.873 GC
1 LJ
0.667 LW
N
507 31 M
73 31 L
S
GR
GS
[0.75 0 0 0.75 0 0] CT
0.149 GC
2 setlinecap
1 LJ
0.667 LW
N
73 372 M
507 372 L
S
GR
GS
[0.75 0 0 0.75 0 0] CT
0.149 GC
2 setlinecap
1 LJ
0.667 LW
N
73 31 M
507 31 L
S
GR
GS
[0.75 0 0 0.75 0 0] CT
0.149 GC
2 setlinecap
1 LJ
0.667 LW
N
73 372 M
73 367.66 L
S
GR
GS
[0.75 0 0 0.75 0 0] CT
0.149 GC
2 setlinecap
1 LJ
0.667 LW
N
135 372 M
135 367.66 L
S
GR
GS
[0.75 0 0 0.75 0 0] CT
0.149 GC
2 setlinecap
1 LJ
0.667 LW
N
197 372 M
197 367.66 L
S
GR
GS
[0.75 0 0 0.75 0 0] CT
0.149 GC
2 setlinecap
1 LJ
0.667 LW
N
259 372 M
259 367.66 L
S
GR
GS
[0.75 0 0 0.75 0 0] CT
0.149 GC
2 setlinecap
1 LJ
0.667 LW
N
321 372 M
321 367.66 L
S
GR
GS
[0.75 0 0 0.75 0 0] CT
0.149 GC
2 setlinecap
1 LJ
0.667 LW
N
383 372 M
383 367.66 L
S
GR
GS
[0.75 0 0 0.75 0 0] CT
0.149 GC
2 setlinecap
1 LJ
0.667 LW
N
445 372 M
445 367.66 L
S
GR
GS
[0.75 0 0 0.75 0 0] CT
0.149 GC
2 setlinecap
1 LJ
0.667 LW
N
507 372 M
507 367.66 L
S
GR
GS
[0.75 0 0 0.75 0 0] CT
0.149 GC
2 setlinecap
1 LJ
0.667 LW
N
73 31 M
73 35.34 L
S
GR
GS
[0.75 0 0 0.75 0 0] CT
0.149 GC
2 setlinecap
1 LJ
0.667 LW
N
135 31 M
135 35.34 L
S
GR
GS
[0.75 0 0 0.75 0 0] CT
0.149 GC
2 setlinecap
1 LJ
0.667 LW
N
197 31 M
197 35.34 L
S
GR
GS
[0.75 0 0 0.75 0 0] CT
0.149 GC
2 setlinecap
1 LJ
0.667 LW
N
259 31 M
259 35.34 L
S
GR
GS
[0.75 0 0 0.75 0 0] CT
0.149 GC
2 setlinecap
1 LJ
0.667 LW
N
321 31 M
321 35.34 L
S
GR
GS
[0.75 0 0 0.75 0 0] CT
0.149 GC
2 setlinecap
1 LJ
0.667 LW
N
383 31 M
383 35.34 L
S
GR
GS
[0.75 0 0 0.75 0 0] CT
0.149 GC
2 setlinecap
1 LJ
0.667 LW
N
445 31 M
445 35.34 L
S
GR
GS
[0.75 0 0 0.75 0 0] CT
0.149 GC
2 setlinecap
1 LJ
0.667 LW
N
507 31 M
507 35.34 L
S
GR
GS
[0.75 0 0 0.75 54.75 283.00001] CT
0.149 GC
/Helvetica 13.333 F
GS
[1 0 0 1 0 0] CT
-11.5 14 moveto 
1 -1 scale
(800) t 
GR
GR
GS
[0.75 0 0 0.75 101.25 283.00001] CT
0.149 GC
/Helvetica 13.333 F
GS
[1 0 0 1 0 0] CT
-11.5 14 moveto 
1 -1 scale
(900) t 
GR
GR
GS
[0.75 0 0 0.75 147.75 283.00001] CT
0.149 GC
/Helvetica 13.333 F
GS
[1 0 0 1 0 0] CT
-15 14 moveto 
1 -1 scale
(1000) t 
GR
GR
GS
[0.75 0 0 0.75 194.25 283.00001] CT
0.149 GC
/Helvetica 13.333 F
GS
[1 0 0 1 0 0] CT
-15 14 moveto 
1 -1 scale
(1100) t 
GR
GR
GS
[0.75 0 0 0.75 240.75 283.00001] CT
0.149 GC
/Helvetica 13.333 F
GS
[1 0 0 1 0 0] CT
-15 14 moveto 
1 -1 scale
(1200) t 
GR
GR
GS
[0.75 0 0 0.75 287.25 283.00001] CT
0.149 GC
/Helvetica 13.333 F
GS
[1 0 0 1 0 0] CT
-15 14 moveto 
1 -1 scale
(1300) t 
GR
GR
GS
[0.75 0 0 0.75 333.75 283.00001] CT
0.149 GC
/Helvetica 13.333 F
GS
[1 0 0 1 0 0] CT
-15 14 moveto 
1 -1 scale
(1400) t 
GR
GR
GS
[0.75 0 0 0.75 380.25 283.00001] CT
0.149 GC
/Helvetica 13.333 F
GS
[1 0 0 1 0 0] CT
-15 14 moveto 
1 -1 scale
(1500) t 
GR
GR
GS
[0.75 0 0 0.75 217.50016 297] CT
0.149 GC
/Helvetica 18.667 F
GS
[1 0 0 1 0 0] CT
-38.5 19 moveto 
1 -1 scale
(Time / ns) t 
GR
GR
GS
[0.75 0 0 0.75 0 0] CT
0.149 GC
2 setlinecap
1 LJ
0.667 LW
N
73 372 M
73 31 L
S
GR
GS
[0.75 0 0 0.75 0 0] CT
0.149 GC
2 setlinecap
1 LJ
0.667 LW
N
507 372 M
507 31 L
S
GR
GS
[0.75 0 0 0.75 0 0] CT
0.149 GC
2 setlinecap
1 LJ
0.667 LW
N
73 372 M
77.34 372 L
S
GR
GS
[0.75 0 0 0.75 0 0] CT
0.149 GC
2 setlinecap
1 LJ
0.667 LW
N
73 334.111 M
77.34 334.111 L
S
GR
GS
[0.75 0 0 0.75 0 0] CT
0.149 GC
2 setlinecap
1 LJ
0.667 LW
N
73 296.222 M
77.34 296.222 L
S
GR
GS
[0.75 0 0 0.75 0 0] CT
0.149 GC
2 setlinecap
1 LJ
0.667 LW
N
73 258.333 M
77.34 258.333 L
S
GR
GS
[0.75 0 0 0.75 0 0] CT
0.149 GC
2 setlinecap
1 LJ
0.667 LW
N
73 220.444 M
77.34 220.444 L
S
GR
GS
[0.75 0 0 0.75 0 0] CT
0.149 GC
2 setlinecap
1 LJ
0.667 LW
N
73 182.556 M
77.34 182.556 L
S
GR
GS
[0.75 0 0 0.75 0 0] CT
0.149 GC
2 setlinecap
1 LJ
0.667 LW
N
73 144.667 M
77.34 144.667 L
S
GR
GS
[0.75 0 0 0.75 0 0] CT
0.149 GC
2 setlinecap
1 LJ
0.667 LW
N
73 106.778 M
77.34 106.778 L
S
GR
GS
[0.75 0 0 0.75 0 0] CT
0.149 GC
2 setlinecap
1 LJ
0.667 LW
N
73 68.889 M
77.34 68.889 L
S
GR
GS
[0.75 0 0 0.75 0 0] CT
0.149 GC
2 setlinecap
1 LJ
0.667 LW
N
73 31 M
77.34 31 L
S
GR
GS
[0.75 0 0 0.75 0 0] CT
0.149 GC
2 setlinecap
1 LJ
0.667 LW
N
507 372 M
502.66 372 L
S
GR
GS
[0.75 0 0 0.75 0 0] CT
0.149 GC
2 setlinecap
1 LJ
0.667 LW
N
507 334.111 M
502.66 334.111 L
S
GR
GS
[0.75 0 0 0.75 0 0] CT
0.149 GC
2 setlinecap
1 LJ
0.667 LW
N
507 296.222 M
502.66 296.222 L
S
GR
GS
[0.75 0 0 0.75 0 0] CT
0.149 GC
2 setlinecap
1 LJ
0.667 LW
N
507 258.333 M
502.66 258.333 L
S
GR
GS
[0.75 0 0 0.75 0 0] CT
0.149 GC
2 setlinecap
1 LJ
0.667 LW
N
507 220.444 M
502.66 220.444 L
S
GR
GS
[0.75 0 0 0.75 0 0] CT
0.149 GC
2 setlinecap
1 LJ
0.667 LW
N
507 182.556 M
502.66 182.556 L
S
GR
GS
[0.75 0 0 0.75 0 0] CT
0.149 GC
2 setlinecap
1 LJ
0.667 LW
N
507 144.667 M
502.66 144.667 L
S
GR
GS
[0.75 0 0 0.75 0 0] CT
0.149 GC
2 setlinecap
1 LJ
0.667 LW
N
507 106.778 M
502.66 106.778 L
S
GR
GS
[0.75 0 0 0.75 0 0] CT
0.149 GC
2 setlinecap
1 LJ
0.667 LW
N
507 68.889 M
502.66 68.889 L
S
GR
GS
[0.75 0 0 0.75 0 0] CT
0.149 GC
2 setlinecap
1 LJ
0.667 LW
N
507 31 M
502.66 31 L
S
GR
GS
[0.75 0 0 0.75 50.74999 279] CT
0.149 GC
/Helvetica 13.333 F
GS
[1 0 0 1 0 0] CT
-12 5.5 moveto 
1 -1 scale
(-5) t 
GR
GR
GS
[0.75 0 0 0.75 50.74999 250.58334] CT
0.149 GC
/Helvetica 13.333 F
GS
[1 0 0 1 0 0] CT
-8 5.5 moveto 
1 -1 scale
(0) t 
GR
GR
GS
[0.75 0 0 0.75 50.74999 222.16667] CT
0.149 GC
/Helvetica 13.333 F
GS
[1 0 0 1 0 0] CT
-8 5.5 moveto 
1 -1 scale
(5) t 
GR
GR
GS
[0.75 0 0 0.75 50.74999 193.75001] CT
0.149 GC
/Helvetica 13.333 F
GS
[1 0 0 1 0 0] CT
-15 5.5 moveto 
1 -1 scale
(10) t 
GR
GR
GS
[0.75 0 0 0.75 50.74999 165.33333] CT
0.149 GC
/Helvetica 13.333 F
GS
[1 0 0 1 0 0] CT
-15 5.5 moveto 
1 -1 scale
(15) t 
GR
GR
GS
[0.75 0 0 0.75 50.74999 136.91667] CT
0.149 GC
/Helvetica 13.333 F
GS
[1 0 0 1 0 0] CT
-15 5.5 moveto 
1 -1 scale
(20) t 
GR
GR
GS
[0.75 0 0 0.75 50.74999 108.5] CT
0.149 GC
/Helvetica 13.333 F
GS
[1 0 0 1 0 0] CT
-15 5.5 moveto 
1 -1 scale
(25) t 
GR
GR
GS
[0.75 0 0 0.75 50.74999 80.08333] CT
0.149 GC
/Helvetica 13.333 F
GS
[1 0 0 1 0 0] CT
-15 5.5 moveto 
1 -1 scale
(30) t 
GR
GR
GS
[0.75 0 0 0.75 50.74999 51.66666] CT
0.149 GC
/Helvetica 13.333 F
GS
[1 0 0 1 0 0] CT
-15 5.5 moveto 
1 -1 scale
(35) t 
GR
GR
GS
[0.75 0 0 0.75 50.74999 23.25] CT
0.149 GC
/Helvetica 13.333 F
GS
[1 0 0 1 0 0] CT
-15 5.5 moveto 
1 -1 scale
(40) t 
GR
GR
GS
[0 -0.75 0.75 0 36.5 151.12489] CT
0.149 GC
/Helvetica 18.667 F
GS
[1 0 0 1 0 0] CT
-46 -5 moveto 
1 -1 scale
(Voltage / V) t 
GR
GR
GS
[0.75 0 0 0.75 0 0] CT
0 0.447 0.741 RC
1 LJ
2 LW
N
127.209 334.194 M
127.705 334.123 L
128.201 334.573 L
128.697 335.271 L
129.193 334.466 L
129.689 334.087 L
130.185 334.798 L
130.681 335.046 L
131.177 334.762 L
131.673 334.064 L
132.169 334.608 L
132.665 334.431 L
133.161 333.105 L
133.657 334.147 L
134.153 334.301 L
134.649 332.915 L
135.145 333.472 L
135.641 333.851 L
136.137 333.768 L
136.633 333.886 L
137.129 333.91 L
137.625 334.312 L
138.121 334.277 L
138.617 334.881 L
139.113 335.342 L
139.609 334.206 L
140.105 334.052 L
140.601 334.123 L
141.097 333.282 L
141.593 333.981 L
142.089 334.36 L
142.585 333.614 L
143.081 334.099 L
143.577 334.301 L
144.073 334.372 L
144.569 334.36 L
145.065 333.614 L
145.561 334.301 L
146.057 334.23 L
146.553 333.507 L
147.049 334.549 L
147.545 334.845 L
148.041 334.218 L
148.537 334.158 L
149.033 334.312 L
149.529 333.661 L
150.025 333.045 L
150.521 333.732 L
151.017 333.732 L
151.513 333.661 L
152.009 334.324 L
152.505 334.419 L
153.001 334.431 L
153.497 333.981 L
153.993 334.478 L
154.489 335.414 L
154.985 333.969 L
155.481 334.005 L
155.977 334.798 L
156.473 334.064 L
156.969 334.502 L
157.465 334.123 L
157.961 333.945 L
158.457 334.656 L
158.953 333.495 L
159.449 333.507 L
159.945 334.301 L
160.441 333.507 L
160.937 333.993 L
161.433 334.466 L
161.929 333.555 L
162.425 333.732 L
162.921 334.431 L
163.417 334.585 L
163.913 334.005 L
164.409 334.123 L
164.905 334.999 L
165.401 334.383 L
165.897 333.993 L
166.393 333.862 L
166.889 334.111 L
167.385 335.035 L
167.881 334.005 L
168.377 333.732 L
168.873 334.443 L
169.369 334.289 L
169.865 334.372 L
170.361 334.395 L
170.857 334.715 L
171.353 334.431 L
171.849 334.23 L
172.345 334.774 L
172.841 334.466 L
173.337 334.798 L
173.833 335.07 L
174.329 334.265 L
174.825 335.046 L
175.321 334.964 L
175.817 333.602 L
176.313 334.869 L
176.809 335.449 L
177.305 334.62 L
177.801 334.833 L
178.297 335.437 L
178.793 335.532 L
179.289 335.046 L
179.785 334.916 L
180.281 335.189 L
180.777 335.212 L
181.273 335.141 L
181.769 334.265 L
182.265 334.194 L
182.761 335.65 L
183.257 334.668 L
183.753 334.147 L
184.249 334.502 L
184.745 333.744 L
185.241 335.011 L
185.737 335.011 L
186.233 334.312 L
186.729 334.916 L
187.225 333.969 L
187.721 334.561 L
188.217 335.342 L
188.713 334.383 L
189.209 335.023 L
189.705 335.686 L
190.201 334.822 L
190.697 334.727 L
191.193 333.993 L
191.689 330.275 L
192.185 324.438 L
192.681 318.068 L
193.177 314.208 L
193.673 309.815 L
194.169 300.828 L
194.665 288.988 L
195.161 274.59 L
195.657 258.925 L
196.153 240.431 L
196.649 218.597 L
197.145 189.068 L
197.641 147.224 L
198.137 113.325 L
198.633 91.563 L
199.129 70.985 L
199.625 62.957 L
200.121 56.35 L
200.617 72.098 L
201.113 123.958 L
201.609 124.337 L
202.105 78.74 L
202.601 79.403 L
203.097 115.042 L
203.593 123.496 L
204.089 99.899 L
204.585 94.594 L
205.081 117.967 L
205.577 124.455 L
206.073 107.382 L
206.569 100.716 L
207.065 109.584 L
207.561 110.839 L
208.057 98.809 L
208.553 92.202 L
209.049 99.389 L
209.545 104.564 L
210.041 98.655 L
210.537 95.293 L
211.033 102.515 L
211.529 108.897 L
212.025 108.187 L
212.521 107.275 L
213.017 111.431 L
213.513 115.386 L
214.009 111.313 L
214.505 106.103 L
215.001 106.15 L
215.497 105.333 L
215.993 102.089 L
216.489 99.981 L
216.985 99.283 L
217.481 99.413 L
217.977 99.07 L
218.473 97.921 L
218.969 99.839 L
219.465 103.889 L
219.961 106.541 L
220.457 107.914 L
220.953 109.951 L
221.449 113.361 L
221.945 114.77 L
222.441 114.427 L
222.937 114.213 L
223.433 113.314 L
223.929 112.272 L
224.425 109.738 L
224.921 105.937 L
225.417 104.327 L
225.913 103.983 L
226.409 102.255 L
226.905 101.675 L
227.401 103.676 L
227.897 105.061 L
228.393 106.576 L
228.889 109.158 L
229.385 111.324 L
229.881 113.444 L
230.377 114.178 L
230.873 113.621 L
231.369 112.07 L
231.865 110.46 L
232.361 109.844 L
232.857 107.749 L
233.353 105.842 L
233.849 104.824 L
234.345 103.735 L
234.841 103.545 L
235.337 104.398 L
235.833 106.79 L
236.329 108.388 L
236.825 109.904 L
237.321 112.343 L
237.817 112.84 L
238.313 113.621 L
238.809 114.178 L
239.305 112.473 L
239.801 111.111 L
240.297 109.43 L
240.793 107.026 L
241.289 105.286 L
241.785 104.22 L
242.281 103.51 L
242.777 102.574 L
243.273 102.243 L
243.769 103.19 L
244.265 104.575 L
244.761 106.363 L
245.257 108.057 L
245.753 109.181 L
246.249 110.496 L
246.745 111.253 L
247.241 111.277 L
247.737 111.467 L
248.233 111.348 L
248.729 110.211 L
249.225 108.364 L
249.721 107.63 L
250.217 106.174 L
250.713 104.54 L
251.209 104.943 L
251.705 104.753 L
252.201 105.096 L
252.697 106.399 L
253.193 107.097 L
253.689 108.222 L
254.185 110.294 L
254.681 111.253 L
255.177 110.425 L
255.673 111.301 L
256.169 111.703 L
256.665 109.69 L
257.161 108.767 L
257.657 107.832 L
258.153 106.399 L
258.649 105.558 L
259.145 105.203 L
259.641 105.416 L
260.137 105.89 L
260.633 107.263 L
261.129 107.843 L
261.625 108.838 L
262.121 111.242 L
262.617 112.165 L
263.113 112.698 L
263.609 113.029 L
264.105 112.698 L
264.601 112.118 L
265.097 110.839 L
265.593 109.939 L
266.089 108.187 L
266.585 107.015 L
267.081 106.896 L
267.577 105.807 L
268.073 106.198 L
268.569 106.411 L
269.065 107.015 L
269.561 108.554 L
270.057 108.483 L
270.553 109.276 L
271.049 110.152 L
271.545 110.543 L
272.041 111.419 L
272.537 111.028 L
273.033 110.33 L
273.529 110.2 L
274.025 108.874 L
274.521 107.689 L
275.017 108.21 L
275.513 107.476 L
276.009 105.854 L
276.505 105.594 L
277.001 106.233 L
277.497 107.701 L
277.993 108.424 L
278.489 108.672 L
278.985 109.762 L
279.481 110.259 L
279.977 110.354 L
280.473 110.354 L
280.969 110.022 L
281.465 109.572 L
281.961 108.281 L
282.457 107.441 L
282.953 107.453 L
283.449 106.505 L
283.945 105.286 L
284.441 105.369 L
284.937 106.032 L
285.433 106.363 L
285.929 107.275 L
286.425 108.388 L
286.921 109.027 L
287.417 110.448 L
287.913 111.194 L
288.409 110.318 L
288.905 110.863 L
289.401 111.419 L
289.897 110.164 L
290.393 109.312 L
290.889 109.004 L
291.385 108.577 L
291.881 107.311 L
292.377 106.801 L
292.873 107.654 L
293.369 107.536 L
293.865 107.607 L
294.361 108.353 L
294.857 108.353 L
295.353 109.051 L
295.849 110.484 L
296.345 110.555 L
296.841 110.721 L
297.337 111.171 L
297.833 110.507 L
298.329 109.454 L
298.825 108.921 L
299.321 108.791 L
299.817 107.843 L
300.313 107.5 L
300.809 107.903 L
301.305 107.547 L
301.801 107.37 L
302.297 108.353 L
302.793 109.193 L
303.289 108.554 L
303.785 109.454 L
304.281 110.792 L
304.777 110.46 L
305.273 111.005 L
305.769 110.519 L
306.265 109.312 L
306.761 109.312 L
307.257 108.613 L
307.753 108.033 L
308.249 107.417 L
308.745 106.825 L
309.241 107.169 L
309.737 107.204 L
310.233 107.654 L
310.729 108.116 L
311.225 108.435 L
311.721 109.027 L
312.217 109.288 L
312.713 109.821 L
313.209 110.389 L
313.705 110.069 L
314.201 109.122 L
314.697 108.506 L
315.193 109.051 L
315.689 108.98 L
316.185 107.346 L
316.681 107.263 L
317.177 108.104 L
317.673 107.701 L
318.169 107.393 L
318.665 107.725 L
319.161 108.092 L
319.657 108.53 L
320.153 108.625 L
320.649 108.649 L
321.145 109.43 L
321.641 109.134 L
322.137 108.755 L
322.633 109.098 L
323.129 108.838 L
323.625 108.826 L
324.121 108.447 L
324.617 108.388 L
325.113 107.5 L
325.609 106.719 L
326.105 107.761 L
326.601 107.003 L
327.097 107.216 L
327.593 108.376 L
328.089 108.199 L
328.585 109.418 L
329.081 110.01 L
329.577 109.158 L
330.073 109.087 L
330.569 109.738 L
331.065 109.998 L
331.561 109.264 L
332.057 108.566 L
332.553 108.447 L
333.049 108.281 L
333.545 107.618 L
334.041 107.465 L
334.537 107.512 L
335.033 107.713 L
335.529 108.66 L
336.025 108.128 L
336.521 108.27 L
337.017 109.773 L
337.513 109.217 L
338.009 109.288 L
338.505 109.998 L
339.001 108.589 L
339.497 108.116 L
339.993 109.205 L
340.489 108.684 L
340.985 107.571 L
341.481 107.832 L
341.977 107.678 L
342.473 107.062 L
342.969 107.796 L
343.465 108.151 L
343.961 107.595 L
344.457 108.116 L
344.953 108.601 L
345.449 108.293 L
345.945 108.66 L
346.441 108.921 L
346.937 108.116 L
347.433 108.151 L
347.929 108.435 L
348.425 108.009 L
348.921 107.855 L
349.417 107.512 L
349.913 108.187 L
350.409 107.725 L
350.905 106.671 L
351.401 107.938 L
351.897 107.82 L
352.393 107.547 L
352.889 108.483 L
353.385 108.21 L
353.881 108.779 L
354.377 109.631 L
354.873 108.885 L
355.369 109.027 L
355.865 109.809 L
356.361 108.992 L
356.857 108.601 L
357.353 109.181 L
357.849 108.057 L
358.345 107.571 L
358.841 108.057 L
359.337 107.63 L
359.833 108.542 L
360.329 109.098 L
360.825 108.696 L
361.321 108.708 L
361.817 108.341 L
362.313 109.051 L
362.809 110.022 L
363.305 109.702 L
363.801 109.205 L
364.297 108.791 L
364.793 108.649 L
365.289 108.364 L
365.785 108.033 L
366.281 107.914 L
366.777 108.163 L
367.273 108.731 L
367.769 108.246 L
368.265 107.689 L
368.761 108.057 L
369.257 108.4 L
369.753 108.305 L
370.249 108.53 L
370.745 109.205 L
371.241 108.838 L
371.737 108.684 L
372.233 109.276 L
372.729 108.862 L
373.225 108.187 L
373.721 108.376 L
374.217 108.613 L
374.713 107.761 L
375.209 107.607 L
375.705 108.151 L
376.201 108.021 L
376.697 107.843 L
377.193 108.009 L
377.689 108.4 L
378.185 108.388 L
378.681 109.087 L
379.177 109.986 L
379.673 108.814 L
380.169 108.329 L
380.665 109.17 L
381.161 108.341 L
381.657 108.684 L
382.153 109.548 L
382.649 107.914 L
383.145 107.808 L
383.641 108.104 L
384.137 107.417 L
384.633 108.163 L
385.129 108.222 L
385.625 108.033 L
386.121 108.021 L
386.617 108.589 L
387.113 109.264 L
387.609 108.412 L
388.105 108.589 L
388.601 108.874 L
389.097 108.4 L
389.593 108.495 L
390.089 108.104 L
390.585 107.642 L
391.081 108.281 L
391.577 108.234 L
392.073 107.642 L
392.569 108.246 L
393.065 108.447 L
393.561 108.092 L
394.057 108.329 L
394.553 108.826 L
395.049 109.075 L
395.545 108.862 L
396.041 108.435 L
396.537 108.802 L
397.033 109.158 L
397.529 108.483 L
398.025 108.364 L
398.521 108.139 L
399.017 108.258 L
399.513 108.708 L
400.009 107.832 L
400.505 108.424 L
401.001 108.708 L
401.497 107.453 L
401.993 108.435 L
402.489 108.317 L
402.985 107.63 L
403.481 108.731 L
403.977 108.222 L
404.473 108.495 L
404.969 109.181 L
405.465 108.412 L
405.961 108.08 L
406.457 108.139 L
406.953 108.85 L
407.449 108.708 L
407.945 107.962 L
408.441 108.104 L
408.937 107.832 L
409.433 107.666 L
409.929 108.128 L
410.425 107.938 L
410.921 107.275 L
411.417 108.009 L
411.913 108.909 L
412.409 108.66 L
412.905 108.826 L
413.401 108.874 L
413.897 108.625 L
414.393 108.305 L
414.889 107.962 L
415.385 108.057 L
415.881 108.021 L
416.377 108.092 L
416.873 108.151 L
417.369 107.808 L
417.865 108.53 L
418.361 108.897 L
418.857 107.488 L
419.353 107.607 L
419.849 108.518 L
420.345 108.838 L
420.841 109.158 L
421.337 109.3 L
421.833 108.483 L
422.329 107.985 L
422.825 109.146 L
423.321 108.163 L
423.817 107.701 L
424.313 109.004 L
424.809 107.441 L
425.305 106.944 L
425.801 108.388 L
426.297 107.571 L
426.793 107.334 L
427.289 108.021 L
427.785 107.974 L
428.281 108.353 L
428.777 108.151 L
429.273 109.134 L
429.769 109.537 L
430.265 107.654 L
430.761 108.222 L
431.257 108.341 L
431.753 107.121 L
432.249 107.666 L
432.745 107.678 L
433.241 107.204 L
433.737 107.607 L
434.233 108.376 L
434.729 107.938 L
435.225 108.116 L
435.721 109.43 L
436.217 108.672 L
436.713 108.21 L
437.209 108.447 L
437.705 107.938 L
438.201 107.678 L
438.697 107.82 L
439.193 108.542 L
439.689 108.412 L
440.185 108.199 L
440.681 107.524 L
441.177 106.198 L
441.673 107.618 L
442.169 108.187 L
442.665 107.393 L
443.161 107.796 L
443.657 107.607 L
444.153 107.867 L
444.649 108.021 L
445.145 108.424 L
445.641 108.909 L
446.137 107.618 L
446.633 107.867 L
447.129 108.684 L
447.625 107.37 L
448.121 107.926 L
448.617 108.66 L
S
GR
%%Trailer
%%Pages: 1
%%EOF
