%!PS-Adobe-3.0 EPSF-3.0
%%Creator: (MATLAB, The Mathworks, Inc. Version 24.1.0.2603908 \(R2024a\) Update 3. Operating System: Windows 10)
%%Title: (C:/Users/lorde/Documents/MATLAB/Master Lab Course/Exercise 1/E1_1_hvProbe_rise.eps)
%%CreationDate: 2024-06-25T15:14:00
%%Pages: (atend)
%%BoundingBox:     0     0   420   315
%%LanguageLevel: 3
%%EndComments
%%BeginProlog
%%BeginResource: procset (Apache XML Graphics Std ProcSet) 1.2 0
%%Version: 1.2 0
%%Copyright: (Copyright 2001-2003,2010 The Apache Software Foundation. License terms: http://www.apache.org/licenses/LICENSE-2.0)
/bd{bind def}bind def
/ld{load def}bd
/GR/grestore ld
/GS/gsave ld
/RM/rmoveto ld
/C/curveto ld
/t/show ld
/L/lineto ld
/ML/setmiterlimit ld
/CT/concat ld
/f/fill ld
/N/newpath ld
/S/stroke ld
/CC/setcmykcolor ld
/A/ashow ld
/cp/closepath ld
/RC/setrgbcolor ld
/LJ/setlinejoin ld
/GC/setgray ld
/LW/setlinewidth ld
/M/moveto ld
/re {4 2 roll M
1 index 0 rlineto
0 exch rlineto
neg 0 rlineto
cp } bd
/_ctm matrix def
/_tm matrix def
/BT { _ctm currentmatrix pop matrix _tm copy pop 0 0 moveto } bd
/ET { _ctm setmatrix } bd
/iTm { _ctm setmatrix _tm concat } bd
/Tm { _tm astore pop iTm 0 0 moveto } bd
/ux 0.0 def
/uy 0.0 def
/F {
  /Tp exch def
  /Tf exch def
  Tf findfont Tp scalefont setfont
  /cf Tf def  /cs Tp def
} bd
/ULS {currentpoint /uy exch def /ux exch def} bd
/ULE {
  /Tcx currentpoint pop def
  gsave
  newpath
  cf findfont cs scalefont dup
  /FontMatrix get 0 get /Ts exch def /FontInfo get dup
  /UnderlinePosition get Ts mul /To exch def
  /UnderlineThickness get Ts mul /Tt exch def
  ux uy To add moveto  Tcx uy To add lineto
  Tt setlinewidth stroke
  grestore
} bd
/OLE {
  /Tcx currentpoint pop def
  gsave
  newpath
  cf findfont cs scalefont dup
  /FontMatrix get 0 get /Ts exch def /FontInfo get dup
  /UnderlinePosition get Ts mul /To exch def
  /UnderlineThickness get Ts mul /Tt exch def
  ux uy To add cs add moveto Tcx uy To add cs add lineto
  Tt setlinewidth stroke
  grestore
} bd
/SOE {
  /Tcx currentpoint pop def
  gsave
  newpath
  cf findfont cs scalefont dup
  /FontMatrix get 0 get /Ts exch def /FontInfo get dup
  /UnderlinePosition get Ts mul /To exch def
  /UnderlineThickness get Ts mul /Tt exch def
  ux uy To add cs 10 mul 26 idiv add moveto Tcx uy To add cs 10 mul 26 idiv add lineto
  Tt setlinewidth stroke
  grestore
} bd
/QT {
/Y22 exch store
/X22 exch store
/Y21 exch store
/X21 exch store
currentpoint
/Y21 load 2 mul add 3 div exch
/X21 load 2 mul add 3 div exch
/X21 load 2 mul /X22 load add 3 div
/Y21 load 2 mul /Y22 load add 3 div
/X22 load /Y22 load curveto
} bd
/SSPD {
dup length /d exch dict def
{
/v exch def
/k exch def
currentpagedevice k known {
/cpdv currentpagedevice k get def
v cpdv ne {
/upd false def
/nullv v type /nulltype eq def
/nullcpdv cpdv type /nulltype eq def
nullv nullcpdv or
{
/upd true def
} {
/sametype v type cpdv type eq def
sametype {
v type /arraytype eq {
/vlen v length def
/cpdvlen cpdv length def
vlen cpdvlen eq {
0 1 vlen 1 sub {
/i exch def
/obj v i get def
/cpdobj cpdv i get def
obj cpdobj ne {
/upd true def
exit
} if
} for
} {
/upd true def
} ifelse
} {
v type /dicttype eq {
v {
/dv exch def
/dk exch def
/cpddv cpdv dk get def
dv cpddv ne {
/upd true def
exit
} if
} forall
} {
/upd true def
} ifelse
} ifelse
} if
} ifelse
upd true eq {
d k v put
} if
} if
} if
} forall
d length 0 gt {
d setpagedevice
} if
} bd
/RE { % /NewFontName [NewEncodingArray] /FontName RE -
  findfont dup length dict begin
  {
    1 index /FID ne
    {def} {pop pop} ifelse
  } forall
  /Encoding exch def
  /FontName 1 index def
  currentdict definefont pop
  end
} bind def
%%EndResource
%%BeginResource: procset (Apache XML Graphics EPS ProcSet) 1.0 0
%%Version: 1.0 0
%%Copyright: (Copyright 2002-2003 The Apache Software Foundation. License terms: http://www.apache.org/licenses/LICENSE-2.0)
/BeginEPSF { %def
/b4_Inc_state save def         % Save state for cleanup
/dict_count countdictstack def % Count objects on dict stack
/op_count count 1 sub def      % Count objects on operand stack
userdict begin                 % Push userdict on dict stack
/showpage { } def              % Redefine showpage, { } = null proc
0 setgray 0 setlinecap         % Prepare graphics state
1 setlinewidth 0 setlinejoin
10 setmiterlimit [ ] 0 setdash newpath
/languagelevel where           % If level not equal to 1 then
{pop languagelevel             % set strokeadjust and
1 ne                           % overprint to their defaults.
{false setstrokeadjust false setoverprint
} if
} if
} bd
/EndEPSF { %def
count op_count sub {pop} repeat            % Clean up stacks
countdictstack dict_count sub {end} repeat
b4_Inc_state restore
} bd
%%EndResource
%FOPBeginFontDict
%%IncludeResource: font Courier-Oblique
%%IncludeResource: font Courier-BoldOblique
%%IncludeResource: font Courier-Bold
%%IncludeResource: font ZapfDingbats
%%IncludeResource: font Symbol
%%IncludeResource: font Helvetica
%%IncludeResource: font Helvetica-Oblique
%%IncludeResource: font Helvetica-Bold
%%IncludeResource: font Helvetica-BoldOblique
%%IncludeResource: font Times-Roman
%%IncludeResource: font Times-Italic
%%IncludeResource: font Times-Bold
%%IncludeResource: font Times-BoldItalic
%%IncludeResource: font Courier
%FOPEndFontDict
%%BeginResource: encoding WinAnsiEncoding
/WinAnsiEncoding [
/.notdef /.notdef /.notdef /.notdef /.notdef
/.notdef /.notdef /.notdef /.notdef /.notdef
/.notdef /.notdef /.notdef /.notdef /.notdef
/.notdef /.notdef /.notdef /.notdef /.notdef
/.notdef /.notdef /.notdef /.notdef /.notdef
/.notdef /.notdef /.notdef /.notdef /.notdef
/.notdef /.notdef /space /exclam /quotedbl
/numbersign /dollar /percent /ampersand /quotesingle
/parenleft /parenright /asterisk /plus /comma
/hyphen /period /slash /zero /one
/two /three /four /five /six
/seven /eight /nine /colon /semicolon
/less /equal /greater /question /at
/A /B /C /D /E
/F /G /H /I /J
/K /L /M /N /O
/P /Q /R /S /T
/U /V /W /X /Y
/Z /bracketleft /backslash /bracketright /asciicircum
/underscore /quoteleft /a /b /c
/d /e /f /g /h
/i /j /k /l /m
/n /o /p /q /r
/s /t /u /v /w
/x /y /z /braceleft /bar
/braceright /asciitilde /bullet /Euro /bullet
/quotesinglbase /florin /quotedblbase /ellipsis /dagger
/daggerdbl /circumflex /perthousand /Scaron /guilsinglleft
/OE /bullet /Zcaron /bullet /bullet
/quoteleft /quoteright /quotedblleft /quotedblright /bullet
/endash /emdash /asciitilde /trademark /scaron
/guilsinglright /oe /bullet /zcaron /Ydieresis
/space /exclamdown /cent /sterling /currency
/yen /brokenbar /section /dieresis /copyright
/ordfeminine /guillemotleft /logicalnot /sfthyphen /registered
/macron /degree /plusminus /twosuperior /threesuperior
/acute /mu /paragraph /middot /cedilla
/onesuperior /ordmasculine /guillemotright /onequarter /onehalf
/threequarters /questiondown /Agrave /Aacute /Acircumflex
/Atilde /Adieresis /Aring /AE /Ccedilla
/Egrave /Eacute /Ecircumflex /Edieresis /Igrave
/Iacute /Icircumflex /Idieresis /Eth /Ntilde
/Ograve /Oacute /Ocircumflex /Otilde /Odieresis
/multiply /Oslash /Ugrave /Uacute /Ucircumflex
/Udieresis /Yacute /Thorn /germandbls /agrave
/aacute /acircumflex /atilde /adieresis /aring
/ae /ccedilla /egrave /eacute /ecircumflex
/edieresis /igrave /iacute /icircumflex /idieresis
/eth /ntilde /ograve /oacute /ocircumflex
/otilde /odieresis /divide /oslash /ugrave
/uacute /ucircumflex /udieresis /yacute /thorn
/ydieresis
] def
%%EndResource
%FOPBeginFontReencode
/Courier-Oblique findfont
dup length dict begin
  {1 index /FID ne {def} {pop pop} ifelse} forall
  /Encoding WinAnsiEncoding def
  currentdict
end
/Courier-Oblique exch definefont pop
/Courier-BoldOblique findfont
dup length dict begin
  {1 index /FID ne {def} {pop pop} ifelse} forall
  /Encoding WinAnsiEncoding def
  currentdict
end
/Courier-BoldOblique exch definefont pop
/Courier-Bold findfont
dup length dict begin
  {1 index /FID ne {def} {pop pop} ifelse} forall
  /Encoding WinAnsiEncoding def
  currentdict
end
/Courier-Bold exch definefont pop
/Helvetica findfont
dup length dict begin
  {1 index /FID ne {def} {pop pop} ifelse} forall
  /Encoding WinAnsiEncoding def
  currentdict
end
/Helvetica exch definefont pop
/Helvetica-Oblique findfont
dup length dict begin
  {1 index /FID ne {def} {pop pop} ifelse} forall
  /Encoding WinAnsiEncoding def
  currentdict
end
/Helvetica-Oblique exch definefont pop
/Helvetica-Bold findfont
dup length dict begin
  {1 index /FID ne {def} {pop pop} ifelse} forall
  /Encoding WinAnsiEncoding def
  currentdict
end
/Helvetica-Bold exch definefont pop
/Helvetica-BoldOblique findfont
dup length dict begin
  {1 index /FID ne {def} {pop pop} ifelse} forall
  /Encoding WinAnsiEncoding def
  currentdict
end
/Helvetica-BoldOblique exch definefont pop
/Times-Roman findfont
dup length dict begin
  {1 index /FID ne {def} {pop pop} ifelse} forall
  /Encoding WinAnsiEncoding def
  currentdict
end
/Times-Roman exch definefont pop
/Times-Italic findfont
dup length dict begin
  {1 index /FID ne {def} {pop pop} ifelse} forall
  /Encoding WinAnsiEncoding def
  currentdict
end
/Times-Italic exch definefont pop
/Times-Bold findfont
dup length dict begin
  {1 index /FID ne {def} {pop pop} ifelse} forall
  /Encoding WinAnsiEncoding def
  currentdict
end
/Times-Bold exch definefont pop
/Times-BoldItalic findfont
dup length dict begin
  {1 index /FID ne {def} {pop pop} ifelse} forall
  /Encoding WinAnsiEncoding def
  currentdict
end
/Times-BoldItalic exch definefont pop
/Courier findfont
dup length dict begin
  {1 index /FID ne {def} {pop pop} ifelse} forall
  /Encoding WinAnsiEncoding def
  currentdict
end
/Courier exch definefont pop
%FOPEndFontReencode
%%EndProlog
%%Page: 1 1
%%PageBoundingBox: 0 0 420 315
%%BeginPageSetup
[1 0 0 -1 0 315] CT
%%EndPageSetup
GS
[0.75 0 0 0.75 0 0] CT
1 GC
N
0 0 560 420 re
f
GR
GS
[0.75 0 0 0.75 0 0] CT
1 GC
N
0 0 560 420 re
f
GR
GS
[0.75 0 0 0.75 0 0] CT
1 GC
N
73 372 M
507 372 L
507 31 L
73 31 L
cp
f
GR
GS
[0.75 0 0 0.75 0 0] CT
0.873 GC
1 LJ
0.667 LW
N
73 372 M
73 31 L
S
GR
GS
[0.75 0 0 0.75 0 0] CT
0.873 GC
1 LJ
0.667 LW
N
135 372 M
135 31 L
S
GR
GS
[0.75 0 0 0.75 0 0] CT
0.873 GC
1 LJ
0.667 LW
N
197 372 M
197 31 L
S
GR
GS
[0.75 0 0 0.75 0 0] CT
0.873 GC
1 LJ
0.667 LW
N
259 372 M
259 31 L
S
GR
GS
[0.75 0 0 0.75 0 0] CT
0.873 GC
1 LJ
0.667 LW
N
321 372 M
321 31 L
S
GR
GS
[0.75 0 0 0.75 0 0] CT
0.873 GC
1 LJ
0.667 LW
N
383 372 M
383 31 L
S
GR
GS
[0.75 0 0 0.75 0 0] CT
0.873 GC
1 LJ
0.667 LW
N
445 372 M
445 31 L
S
GR
GS
[0.75 0 0 0.75 0 0] CT
0.873 GC
1 LJ
0.667 LW
N
507 372 M
507 31 L
S
GR
GS
[0.75 0 0 0.75 0 0] CT
0.873 GC
1 LJ
0.667 LW
N
507 372 M
73 372 L
S
GR
GS
[0.75 0 0 0.75 0 0] CT
0.873 GC
1 LJ
0.667 LW
N
507 334.111 M
73 334.111 L
S
GR
GS
[0.75 0 0 0.75 0 0] CT
0.873 GC
1 LJ
0.667 LW
N
507 296.222 M
73 296.222 L
S
GR
GS
[0.75 0 0 0.75 0 0] CT
0.873 GC
1 LJ
0.667 LW
N
507 258.333 M
73 258.333 L
S
GR
GS
[0.75 0 0 0.75 0 0] CT
0.873 GC
1 LJ
0.667 LW
N
507 220.444 M
73 220.444 L
S
GR
GS
[0.75 0 0 0.75 0 0] CT
0.873 GC
1 LJ
0.667 LW
N
507 182.556 M
73 182.556 L
S
GR
GS
[0.75 0 0 0.75 0 0] CT
0.873 GC
1 LJ
0.667 LW
N
507 144.667 M
73 144.667 L
S
GR
GS
[0.75 0 0 0.75 0 0] CT
0.873 GC
1 LJ
0.667 LW
N
507 106.778 M
73 106.778 L
S
GR
GS
[0.75 0 0 0.75 0 0] CT
0.873 GC
1 LJ
0.667 LW
N
507 68.889 M
73 68.889 L
S
GR
GS
[0.75 0 0 0.75 0 0] CT
0.873 GC
1 LJ
0.667 LW
N
507 31 M
73 31 L
S
GR
GS
[0.75 0 0 0.75 0 0] CT
0.149 GC
2 setlinecap
1 LJ
0.667 LW
N
73 372 M
507 372 L
S
GR
GS
[0.75 0 0 0.75 0 0] CT
0.149 GC
2 setlinecap
1 LJ
0.667 LW
N
73 31 M
507 31 L
S
GR
GS
[0.75 0 0 0.75 0 0] CT
0.149 GC
2 setlinecap
1 LJ
0.667 LW
N
73 372 M
73 367.66 L
S
GR
GS
[0.75 0 0 0.75 0 0] CT
0.149 GC
2 setlinecap
1 LJ
0.667 LW
N
135 372 M
135 367.66 L
S
GR
GS
[0.75 0 0 0.75 0 0] CT
0.149 GC
2 setlinecap
1 LJ
0.667 LW
N
197 372 M
197 367.66 L
S
GR
GS
[0.75 0 0 0.75 0 0] CT
0.149 GC
2 setlinecap
1 LJ
0.667 LW
N
259 372 M
259 367.66 L
S
GR
GS
[0.75 0 0 0.75 0 0] CT
0.149 GC
2 setlinecap
1 LJ
0.667 LW
N
321 372 M
321 367.66 L
S
GR
GS
[0.75 0 0 0.75 0 0] CT
0.149 GC
2 setlinecap
1 LJ
0.667 LW
N
383 372 M
383 367.66 L
S
GR
GS
[0.75 0 0 0.75 0 0] CT
0.149 GC
2 setlinecap
1 LJ
0.667 LW
N
445 372 M
445 367.66 L
S
GR
GS
[0.75 0 0 0.75 0 0] CT
0.149 GC
2 setlinecap
1 LJ
0.667 LW
N
507 372 M
507 367.66 L
S
GR
GS
[0.75 0 0 0.75 0 0] CT
0.149 GC
2 setlinecap
1 LJ
0.667 LW
N
73 31 M
73 35.34 L
S
GR
GS
[0.75 0 0 0.75 0 0] CT
0.149 GC
2 setlinecap
1 LJ
0.667 LW
N
135 31 M
135 35.34 L
S
GR
GS
[0.75 0 0 0.75 0 0] CT
0.149 GC
2 setlinecap
1 LJ
0.667 LW
N
197 31 M
197 35.34 L
S
GR
GS
[0.75 0 0 0.75 0 0] CT
0.149 GC
2 setlinecap
1 LJ
0.667 LW
N
259 31 M
259 35.34 L
S
GR
GS
[0.75 0 0 0.75 0 0] CT
0.149 GC
2 setlinecap
1 LJ
0.667 LW
N
321 31 M
321 35.34 L
S
GR
GS
[0.75 0 0 0.75 0 0] CT
0.149 GC
2 setlinecap
1 LJ
0.667 LW
N
383 31 M
383 35.34 L
S
GR
GS
[0.75 0 0 0.75 0 0] CT
0.149 GC
2 setlinecap
1 LJ
0.667 LW
N
445 31 M
445 35.34 L
S
GR
GS
[0.75 0 0 0.75 0 0] CT
0.149 GC
2 setlinecap
1 LJ
0.667 LW
N
507 31 M
507 35.34 L
S
GR
GS
[0.75 0 0 0.75 54.75 283.00001] CT
0.149 GC
/Helvetica 13.333 F
GS
[1 0 0 1 0 0] CT
-11.5 14 moveto 
1 -1 scale
(800) t 
GR
GR
GS
[0.75 0 0 0.75 101.25 283.00001] CT
0.149 GC
/Helvetica 13.333 F
GS
[1 0 0 1 0 0] CT
-11.5 14 moveto 
1 -1 scale
(900) t 
GR
GR
GS
[0.75 0 0 0.75 147.75 283.00001] CT
0.149 GC
/Helvetica 13.333 F
GS
[1 0 0 1 0 0] CT
-15 14 moveto 
1 -1 scale
(1000) t 
GR
GR
GS
[0.75 0 0 0.75 194.25 283.00001] CT
0.149 GC
/Helvetica 13.333 F
GS
[1 0 0 1 0 0] CT
-15 14 moveto 
1 -1 scale
(1100) t 
GR
GR
GS
[0.75 0 0 0.75 240.75 283.00001] CT
0.149 GC
/Helvetica 13.333 F
GS
[1 0 0 1 0 0] CT
-15 14 moveto 
1 -1 scale
(1200) t 
GR
GR
GS
[0.75 0 0 0.75 287.25 283.00001] CT
0.149 GC
/Helvetica 13.333 F
GS
[1 0 0 1 0 0] CT
-15 14 moveto 
1 -1 scale
(1300) t 
GR
GR
GS
[0.75 0 0 0.75 333.75 283.00001] CT
0.149 GC
/Helvetica 13.333 F
GS
[1 0 0 1 0 0] CT
-15 14 moveto 
1 -1 scale
(1400) t 
GR
GR
GS
[0.75 0 0 0.75 380.25 283.00001] CT
0.149 GC
/Helvetica 13.333 F
GS
[1 0 0 1 0 0] CT
-15 14 moveto 
1 -1 scale
(1500) t 
GR
GR
GS
[0.75 0 0 0.75 217.50016 297] CT
0.149 GC
/Helvetica 18.667 F
GS
[1 0 0 1 0 0] CT
-38.5 19 moveto 
1 -1 scale
(Time / ns) t 
GR
GR
GS
[0.75 0 0 0.75 0 0] CT
0.149 GC
2 setlinecap
1 LJ
0.667 LW
N
73 372 M
73 31 L
S
GR
GS
[0.75 0 0 0.75 0 0] CT
0.149 GC
2 setlinecap
1 LJ
0.667 LW
N
507 372 M
507 31 L
S
GR
GS
[0.75 0 0 0.75 0 0] CT
0.149 GC
2 setlinecap
1 LJ
0.667 LW
N
73 372 M
77.34 372 L
S
GR
GS
[0.75 0 0 0.75 0 0] CT
0.149 GC
2 setlinecap
1 LJ
0.667 LW
N
73 334.111 M
77.34 334.111 L
S
GR
GS
[0.75 0 0 0.75 0 0] CT
0.149 GC
2 setlinecap
1 LJ
0.667 LW
N
73 296.222 M
77.34 296.222 L
S
GR
GS
[0.75 0 0 0.75 0 0] CT
0.149 GC
2 setlinecap
1 LJ
0.667 LW
N
73 258.333 M
77.34 258.333 L
S
GR
GS
[0.75 0 0 0.75 0 0] CT
0.149 GC
2 setlinecap
1 LJ
0.667 LW
N
73 220.444 M
77.34 220.444 L
S
GR
GS
[0.75 0 0 0.75 0 0] CT
0.149 GC
2 setlinecap
1 LJ
0.667 LW
N
73 182.556 M
77.34 182.556 L
S
GR
GS
[0.75 0 0 0.75 0 0] CT
0.149 GC
2 setlinecap
1 LJ
0.667 LW
N
73 144.667 M
77.34 144.667 L
S
GR
GS
[0.75 0 0 0.75 0 0] CT
0.149 GC
2 setlinecap
1 LJ
0.667 LW
N
73 106.778 M
77.34 106.778 L
S
GR
GS
[0.75 0 0 0.75 0 0] CT
0.149 GC
2 setlinecap
1 LJ
0.667 LW
N
73 68.889 M
77.34 68.889 L
S
GR
GS
[0.75 0 0 0.75 0 0] CT
0.149 GC
2 setlinecap
1 LJ
0.667 LW
N
73 31 M
77.34 31 L
S
GR
GS
[0.75 0 0 0.75 0 0] CT
0.149 GC
2 setlinecap
1 LJ
0.667 LW
N
507 372 M
502.66 372 L
S
GR
GS
[0.75 0 0 0.75 0 0] CT
0.149 GC
2 setlinecap
1 LJ
0.667 LW
N
507 334.111 M
502.66 334.111 L
S
GR
GS
[0.75 0 0 0.75 0 0] CT
0.149 GC
2 setlinecap
1 LJ
0.667 LW
N
507 296.222 M
502.66 296.222 L
S
GR
GS
[0.75 0 0 0.75 0 0] CT
0.149 GC
2 setlinecap
1 LJ
0.667 LW
N
507 258.333 M
502.66 258.333 L
S
GR
GS
[0.75 0 0 0.75 0 0] CT
0.149 GC
2 setlinecap
1 LJ
0.667 LW
N
507 220.444 M
502.66 220.444 L
S
GR
GS
[0.75 0 0 0.75 0 0] CT
0.149 GC
2 setlinecap
1 LJ
0.667 LW
N
507 182.556 M
502.66 182.556 L
S
GR
GS
[0.75 0 0 0.75 0 0] CT
0.149 GC
2 setlinecap
1 LJ
0.667 LW
N
507 144.667 M
502.66 144.667 L
S
GR
GS
[0.75 0 0 0.75 0 0] CT
0.149 GC
2 setlinecap
1 LJ
0.667 LW
N
507 106.778 M
502.66 106.778 L
S
GR
GS
[0.75 0 0 0.75 0 0] CT
0.149 GC
2 setlinecap
1 LJ
0.667 LW
N
507 68.889 M
502.66 68.889 L
S
GR
GS
[0.75 0 0 0.75 0 0] CT
0.149 GC
2 setlinecap
1 LJ
0.667 LW
N
507 31 M
502.66 31 L
S
GR
GS
[0.75 0 0 0.75 50.74999 279] CT
0.149 GC
/Helvetica 13.333 F
GS
[1 0 0 1 0 0] CT
-12 5.5 moveto 
1 -1 scale
(-5) t 
GR
GR
GS
[0.75 0 0 0.75 50.74999 250.58334] CT
0.149 GC
/Helvetica 13.333 F
GS
[1 0 0 1 0 0] CT
-8 5.5 moveto 
1 -1 scale
(0) t 
GR
GR
GS
[0.75 0 0 0.75 50.74999 222.16667] CT
0.149 GC
/Helvetica 13.333 F
GS
[1 0 0 1 0 0] CT
-8 5.5 moveto 
1 -1 scale
(5) t 
GR
GR
GS
[0.75 0 0 0.75 50.74999 193.75001] CT
0.149 GC
/Helvetica 13.333 F
GS
[1 0 0 1 0 0] CT
-15 5.5 moveto 
1 -1 scale
(10) t 
GR
GR
GS
[0.75 0 0 0.75 50.74999 165.33333] CT
0.149 GC
/Helvetica 13.333 F
GS
[1 0 0 1 0 0] CT
-15 5.5 moveto 
1 -1 scale
(15) t 
GR
GR
GS
[0.75 0 0 0.75 50.74999 136.91667] CT
0.149 GC
/Helvetica 13.333 F
GS
[1 0 0 1 0 0] CT
-15 5.5 moveto 
1 -1 scale
(20) t 
GR
GR
GS
[0.75 0 0 0.75 50.74999 108.5] CT
0.149 GC
/Helvetica 13.333 F
GS
[1 0 0 1 0 0] CT
-15 5.5 moveto 
1 -1 scale
(25) t 
GR
GR
GS
[0.75 0 0 0.75 50.74999 80.08333] CT
0.149 GC
/Helvetica 13.333 F
GS
[1 0 0 1 0 0] CT
-15 5.5 moveto 
1 -1 scale
(30) t 
GR
GR
GS
[0.75 0 0 0.75 50.74999 51.66666] CT
0.149 GC
/Helvetica 13.333 F
GS
[1 0 0 1 0 0] CT
-15 5.5 moveto 
1 -1 scale
(35) t 
GR
GR
GS
[0.75 0 0 0.75 50.74999 23.25] CT
0.149 GC
/Helvetica 13.333 F
GS
[1 0 0 1 0 0] CT
-15 5.5 moveto 
1 -1 scale
(40) t 
GR
GR
GS
[0 -0.75 0.75 0 36.5 151.12489] CT
0.149 GC
/Helvetica 18.667 F
GS
[1 0 0 1 0 0] CT
-46 -5 moveto 
1 -1 scale
(Voltage / V) t 
GR
GR
GS
[0.75 0 0 0.75 0 0] CT
0 0.447 0.741 RC
1 LJ
2 LW
N
107.371 334.585 M
107.867 334.567 L
108.363 334.792 L
108.859 334.549 L
109.355 334.206 L
109.851 334.17 L
110.347 334.117 L
110.843 333.774 L
111.339 333.519 L
111.835 333.685 L
112.331 333.91 L
112.827 333.898 L
113.323 333.726 L
113.819 333.738 L
114.315 334.046 L
114.811 334.662 L
115.307 334.822 L
115.803 334.543 L
116.299 334.756 L
116.795 334.614 L
117.291 334.342 L
117.787 334.354 L
118.283 333.993 L
118.779 334.064 L
119.275 333.833 L
119.771 333.466 L
120.267 333.762 L
120.763 333.436 L
121.259 333.572 L
121.755 333.797 L
122.251 333.561 L
122.747 334.277 L
123.243 334.543 L
123.739 334.241 L
124.235 334.502 L
124.731 334.454 L
125.227 334.271 L
125.723 334.443 L
126.219 334.135 L
126.715 333.679 L
127.211 333.501 L
127.707 333.383 L
128.203 333.626 L
128.699 333.857 L
129.195 333.543 L
129.691 333.555 L
130.187 334.141 L
130.683 334.194 L
131.179 334.04 L
131.675 334.07 L
132.171 334.253 L
132.667 334.597 L
133.163 334.36 L
133.659 333.868 L
134.155 334.158 L
134.651 334.354 L
135.147 333.709 L
135.643 333.691 L
136.139 333.774 L
136.635 333.259 L
137.131 333.608 L
137.627 333.851 L
138.123 333.495 L
138.619 333.916 L
139.115 334.064 L
139.611 333.886 L
140.107 334.449 L
140.603 334.366 L
141.099 333.839 L
141.595 334.17 L
142.091 334.389 L
142.587 333.898 L
143.083 333.809 L
143.579 333.88 L
144.075 333.549 L
144.571 333.561 L
145.067 333.436 L
145.563 333.312 L
146.059 333.602 L
146.555 333.851 L
147.051 334.105 L
147.547 334.188 L
148.043 334.318 L
148.539 334.277 L
149.035 334.176 L
149.531 334.259 L
150.027 334.135 L
150.523 333.975 L
151.019 334.052 L
151.515 334.253 L
152.011 334.117 L
152.507 333.667 L
153.003 333.336 L
153.499 333.442 L
153.995 333.803 L
154.491 334.058 L
154.987 333.892 L
155.483 333.685 L
155.979 334.247 L
156.475 334.531 L
156.971 334.389 L
157.467 334.822 L
157.963 334.679 L
158.459 334.259 L
158.955 334.36 L
159.451 334.235 L
159.947 334.206 L
160.443 334.005 L
160.939 333.957 L
161.435 333.91 L
161.931 333.418 L
162.427 333.851 L
162.923 334.058 L
163.419 333.643 L
163.915 334.253 L
164.411 334.312 L
164.907 334.235 L
165.403 334.928 L
165.899 334.561 L
166.395 334.561 L
166.891 334.531 L
167.387 333.857 L
167.883 334.324 L
168.379 334.383 L
168.875 334.141 L
169.371 334.265 L
169.867 334.058 L
170.363 334.218 L
170.859 334.117 L
171.355 334.005 L
171.851 334.478 L
172.347 334.585 L
172.843 334.561 L
173.339 334.81 L
173.835 334.437 L
174.331 334.283 L
174.827 334.81 L
175.323 334.597 L
175.819 334.602 L
176.315 334.857 L
176.811 334.756 L
177.307 334.555 L
177.803 334.147 L
178.299 334.218 L
178.795 334.289 L
179.291 334.164 L
179.787 334.437 L
180.283 334.253 L
180.779 334.23 L
181.275 334.709 L
181.771 334.585 L
182.267 334.597 L
182.763 334.816 L
183.259 334.591 L
183.755 334.608 L
184.251 334.668 L
184.747 334.715 L
185.243 334.674 L
185.739 334.49 L
186.235 334.62 L
186.731 334.182 L
187.227 334.164 L
187.723 334.81 L
188.219 334.549 L
188.715 334.709 L
189.211 334.898 L
189.707 334.851 L
190.203 335.479 L
190.699 334.964 L
191.195 334.822 L
191.691 335.165 L
192.187 330.245 L
192.683 321.904 L
193.179 316.22 L
193.675 311.33 L
194.171 304.41 L
194.667 294.079 L
195.163 279.533 L
195.659 263.312 L
196.155 244.06 L
196.651 222.919 L
197.147 193.638 L
197.643 149.237 L
198.139 112.858 L
198.635 88.65 L
199.131 67.51 L
199.627 61.228 L
200.123 54.959 L
200.619 70.02 L
201.115 123.733 L
201.611 128.333 L
202.107 81.138 L
202.603 77.509 L
203.099 114.723 L
203.595 124.26 L
204.091 99.028 L
204.587 94.458 L
205.083 118.156 L
205.579 121.998 L
206.075 104.226 L
206.571 100.064 L
207.067 111.028 L
207.563 112.141 L
208.059 98.442 L
208.555 92.315 L
209.051 101.823 L
209.547 106.434 L
210.043 97.684 L
210.539 93.836 L
211.035 103.184 L
211.531 109.726 L
212.027 106.6 L
212.523 105.884 L
213.019 111.431 L
213.515 114.652 L
214.011 111.928 L
214.507 108.003 L
215.003 106.938 L
215.499 106.908 L
215.995 103.545 L
216.491 98.916 L
216.987 98.235 L
217.483 98.407 L
217.979 96.506 L
218.475 96.323 L
218.971 99.111 L
219.467 102.409 L
219.963 104.599 L
220.459 107.547 L
220.955 110.969 L
221.451 112.881 L
221.947 114.663 L
222.443 114.918 L
222.939 113.408 L
223.435 112.929 L
223.931 111.153 L
224.427 107.589 L
224.923 105.694 L
225.419 104.422 L
225.915 102.426 L
226.411 101.681 L
226.907 102.61 L
227.403 103.534 L
227.899 104.658 L
228.395 106.541 L
228.891 108.323 L
229.387 110.081 L
229.883 112.112 L
230.379 112.852 L
230.875 112.585 L
231.371 112.479 L
231.867 111.413 L
232.363 109.614 L
232.859 107.832 L
233.355 106.559 L
233.851 105.333 L
234.347 104.137 L
234.843 104.173 L
235.339 104.806 L
235.835 105.925 L
236.331 107.245 L
236.827 108.536 L
237.323 110.241 L
237.819 111.691 L
238.315 112.674 L
238.811 112.893 L
239.307 112.645 L
239.803 112.041 L
240.299 110.431 L
240.795 108.566 L
241.291 106.618 L
241.787 104.149 L
242.283 102.634 L
242.779 102.125 L
243.275 101.426 L
243.771 101.805 L
244.267 103.054 L
244.763 103.978 L
245.259 105.387 L
245.755 107.447 L
246.251 109.412 L
246.747 110.608 L
247.243 111.727 L
247.739 112.266 L
248.235 110.762 L
248.731 109.856 L
249.227 109.537 L
249.723 107.317 L
250.219 105.582 L
250.715 105.114 L
251.211 104.06 L
251.707 103.634 L
252.203 104.203 L
252.699 104.747 L
253.195 105.979 L
253.691 107.583 L
254.187 109.022 L
254.683 109.998 L
255.179 110.851 L
255.675 111.668 L
256.171 111.461 L
256.667 110.644 L
257.163 109.294 L
257.659 108.015 L
258.155 106.576 L
258.651 105.363 L
259.147 105.108 L
259.643 104.102 L
260.139 104.386 L
260.635 105.979 L
261.131 106.221 L
261.627 107.802 L
262.123 109.91 L
262.619 110.602 L
263.115 112.076 L
263.611 112.71 L
264.107 112.236 L
264.603 112.177 L
265.099 111.354 L
265.595 110.223 L
266.091 108.791 L
266.587 107.382 L
267.083 106.28 L
267.579 105.168 L
268.075 104.741 L
268.571 104.51 L
269.067 104.984 L
269.563 106.517 L
270.059 107.494 L
270.555 107.962 L
271.051 109.016 L
271.547 110.129 L
272.043 110.324 L
272.539 110.584 L
273.035 110.934 L
273.531 110.099 L
274.027 108.897 L
274.523 108.175 L
275.019 107.322 L
275.515 106.239 L
276.011 105.464 L
276.507 105.185 L
277.003 105.209 L
277.499 105.404 L
277.995 106.292 L
278.491 107.547 L
278.987 108.341 L
279.483 109.181 L
279.979 109.898 L
280.475 109.904 L
280.971 109.904 L
281.467 109.714 L
281.963 108.72 L
282.459 107.885 L
282.955 107.293 L
283.451 106.026 L
283.947 105.28 L
284.443 105.108 L
284.939 104.889 L
285.435 105.292 L
285.931 105.724 L
286.427 106.582 L
286.923 107.968 L
287.419 108.945 L
287.915 109.785 L
288.411 110.49 L
288.907 110.573 L
289.403 110.579 L
289.899 110.957 L
290.395 110.454 L
290.891 109.051 L
291.387 108.116 L
291.883 107.766 L
292.379 107.068 L
292.875 106.138 L
293.371 106.221 L
293.867 106.63 L
294.363 106.511 L
294.859 107.399 L
295.355 108.702 L
295.851 108.933 L
296.347 109.489 L
296.843 110.164 L
297.339 110.271 L
297.835 110.235 L
298.331 109.945 L
298.827 109.489 L
299.323 108.702 L
299.819 107.897 L
300.315 107.441 L
300.811 107.157 L
301.307 107.133 L
301.803 107.163 L
302.299 107.062 L
302.795 107.453 L
303.291 108.068 L
303.787 108.489 L
304.283 109.365 L
304.779 109.998 L
305.275 109.856 L
305.771 109.821 L
306.267 109.785 L
306.763 109.258 L
307.259 108.364 L
307.755 107.944 L
308.251 107.388 L
308.747 106.18 L
309.243 106.186 L
309.739 106.434 L
310.235 105.777 L
310.731 106.05 L
311.227 106.79 L
311.723 107.257 L
312.219 107.932 L
312.715 108.572 L
313.211 108.879 L
313.707 109.205 L
314.203 109.744 L
314.699 109.11 L
315.195 108.613 L
315.691 108.767 L
316.187 107.837 L
316.683 107.222 L
317.179 106.855 L
317.675 106.257 L
318.171 106.204 L
318.667 106.239 L
319.163 106.707 L
319.659 107.009 L
320.155 107.382 L
320.651 108.459 L
321.147 108.317 L
321.643 108.424 L
322.139 109.211 L
322.635 108.767 L
323.131 108.542 L
323.627 108.601 L
324.123 107.855 L
324.619 107.228 L
325.115 107.192 L
325.611 106.813 L
326.107 106.393 L
326.603 106.719 L
327.099 107.24 L
327.595 106.938 L
328.091 107.311 L
328.587 108.773 L
329.083 108.589 L
329.579 108.566 L
330.075 109.548 L
330.571 109.217 L
331.067 109.241 L
331.563 109.306 L
332.059 108.512 L
332.555 107.944 L
333.051 107.601 L
333.547 107.666 L
334.043 106.861 L
334.539 106.322 L
335.035 106.843 L
335.531 106.547 L
336.027 106.476 L
336.523 107.322 L
337.019 107.814 L
337.515 107.956 L
338.011 108.382 L
338.507 108.554 L
339.003 108.542 L
339.499 108.814 L
339.995 108.619 L
340.491 107.985 L
340.987 107.695 L
341.483 107.571 L
341.979 107.186 L
342.475 106.642 L
342.971 106.517 L
343.467 106.778 L
343.963 106.819 L
344.459 106.985 L
344.955 107.228 L
345.451 107.476 L
345.947 108.062 L
346.443 108.139 L
346.939 107.755 L
347.435 107.968 L
347.931 107.885 L
348.427 107.518 L
348.923 107.82 L
349.419 107.755 L
349.915 106.955 L
350.411 106.612 L
350.907 106.801 L
351.403 106.529 L
351.899 106.576 L
352.395 107.186 L
352.891 107.299 L
353.387 107.541 L
353.883 108.045 L
354.379 108.003 L
354.875 108.098 L
355.371 108.512 L
355.867 108.335 L
356.363 108.418 L
356.859 108.53 L
357.355 107.985 L
357.851 107.689 L
358.347 107.707 L
358.843 107.571 L
359.339 107.139 L
359.835 107.216 L
360.331 107.476 L
360.827 107.08 L
361.323 107.405 L
361.819 107.997 L
362.315 107.743 L
362.811 108.205 L
363.307 108.731 L
363.803 108.015 L
364.299 108.216 L
364.795 108.785 L
365.291 108.205 L
365.787 108.27 L
366.283 108.205 L
366.779 107.482 L
367.275 107.334 L
367.771 107.251 L
368.267 107.311 L
368.763 107.228 L
369.259 107.281 L
369.755 107.695 L
370.251 107.192 L
370.747 107.506 L
371.243 108.471 L
371.739 108.128 L
372.235 108.311 L
372.731 108.4 L
373.227 107.684 L
373.723 107.743 L
374.219 107.849 L
374.715 107.518 L
375.211 107.257 L
375.707 107.21 L
376.203 107.097 L
376.699 107.038 L
377.195 107.293 L
377.691 107.086 L
378.187 107.038 L
378.683 107.417 L
379.179 107.494 L
379.675 107.595 L
380.171 107.766 L
380.667 108.264 L
381.163 108.205 L
381.659 107.749 L
382.155 108.068 L
382.651 107.707 L
383.147 107.198 L
383.643 107.476 L
384.139 107.364 L
384.635 107.062 L
385.131 107.133 L
385.627 107.322 L
386.123 107.441 L
386.619 107.447 L
387.115 107.796 L
387.611 107.997 L
388.107 107.808 L
388.603 108.382 L
389.099 108.305 L
389.595 107.701 L
390.091 107.944 L
390.587 107.784 L
391.083 107.903 L
391.579 107.843 L
392.075 107.311 L
392.571 107.494 L
393.067 107.405 L
393.563 107.346 L
394.059 107.447 L
394.555 107.169 L
395.051 107.577 L
395.547 108.057 L
396.043 107.707 L
396.539 108.045 L
397.035 108.264 L
397.531 107.837 L
398.027 108.175 L
398.523 108.157 L
399.019 107.796 L
399.515 107.914 L
400.011 107.536 L
400.507 107.026 L
401.003 107.133 L
401.499 107.115 L
401.995 106.713 L
402.491 106.861 L
402.987 107.352 L
403.483 107.482 L
403.979 107.743 L
404.475 107.808 L
404.971 107.707 L
405.467 107.607 L
405.963 107.648 L
406.459 107.879 L
406.955 107.429 L
407.451 107.512 L
407.947 107.808 L
408.443 106.967 L
408.939 106.831 L
409.435 107.429 L
409.931 107.192 L
410.427 106.884 L
410.923 107.127 L
411.419 107.251 L
411.915 107.411 L
412.411 107.654 L
412.907 107.512 L
413.403 107.465 L
413.899 107.737 L
414.395 107.613 L
414.891 107.346 L
415.387 107.583 L
415.883 107.814 L
416.379 107.559 L
416.875 107.192 L
417.371 107.062 L
417.867 106.766 L
418.363 106.76 L
418.859 107.228 L
419.355 107.21 L
419.851 107.405 L
420.347 107.689 L
420.843 107.388 L
421.339 107.506 L
421.835 107.962 L
422.331 107.873 L
422.827 107.701 L
423.323 107.861 L
423.819 107.719 L
424.315 107.222 L
424.811 107.163 L
425.307 107.595 L
425.803 107.388 L
426.299 107.151 L
426.795 107.553 L
427.291 107.275 L
427.787 107.115 L
428.283 107.423 L
428.779 107.21 L
429.275 107.317 L
429.771 107.713 L
430.267 108.045 L
430.763 107.63 L
431.259 107.322 L
431.755 108.027 L
432.251 107.618 L
432.747 107.24 L
433.243 107.524 L
433.739 107.169 L
434.235 107.257 L
434.731 107.269 L
435.227 106.896 L
435.723 107.021 L
436.219 107.228 L
436.715 107.275 L
437.211 107.364 L
437.707 107.559 L
438.203 107.411 L
438.699 107.097 L
439.195 107.488 L
439.691 107.607 L
440.187 107.299 L
440.683 107.553 L
441.179 107.453 L
441.675 107.222 L
442.171 107.109 L
442.667 106.813 L
443.163 107.074 L
443.659 107.222 L
444.155 107.305 L
444.651 107.802 L
445.147 107.5 L
445.643 107.151 L
446.139 107.506 L
446.635 107.257 L
447.131 107.607 L
447.627 108.246 L
448.123 107.766 L
448.619 107.512 L
449.115 107.447 L
449.611 107.186 L
450.107 107.192 L
450.603 107.275 L
451.099 107.192 L
451.595 107.092 L
452.091 107.251 L
452.587 107.317 L
453.083 107.328 L
453.579 107.666 L
454.075 107.808 L
454.571 107.731 L
455.067 107.34 L
455.563 107.245 L
456.059 107.636 L
456.555 107.299 L
457.051 107.47 L
457.547 107.684 L
458.043 107.115 L
458.539 107.447 L
459.035 107.399 L
459.531 106.902 L
460.027 107.228 L
460.523 107.47 L
461.019 107.133 L
461.515 107.133 L
462.011 107.607 L
462.507 107.169 L
463.003 107.287 L
463.499 108.057 L
463.995 107.5 L
S
GR
%%Trailer
%%Pages: 1
%%EOF
