%!PS-Adobe-3.0 EPSF-3.0
%%Creator: (MATLAB, The Mathworks, Inc. Version 24.1.0.2603908 \(R2024a\) Update 3. Operating System: Windows 10)
%%Title: (C:/Users/lorde/Documents/MATLAB/Master Lab Course/Exercise 1/E1_1_spring_fall.eps)
%%CreationDate: 2024-06-25T15:15:52
%%Pages: (atend)
%%BoundingBox:     0     0   420   315
%%LanguageLevel: 3
%%EndComments
%%BeginProlog
%%BeginResource: procset (Apache XML Graphics Std ProcSet) 1.2 0
%%Version: 1.2 0
%%Copyright: (Copyright 2001-2003,2010 The Apache Software Foundation. License terms: http://www.apache.org/licenses/LICENSE-2.0)
/bd{bind def}bind def
/ld{load def}bd
/GR/grestore ld
/GS/gsave ld
/RM/rmoveto ld
/C/curveto ld
/t/show ld
/L/lineto ld
/ML/setmiterlimit ld
/CT/concat ld
/f/fill ld
/N/newpath ld
/S/stroke ld
/CC/setcmykcolor ld
/A/ashow ld
/cp/closepath ld
/RC/setrgbcolor ld
/LJ/setlinejoin ld
/GC/setgray ld
/LW/setlinewidth ld
/M/moveto ld
/re {4 2 roll M
1 index 0 rlineto
0 exch rlineto
neg 0 rlineto
cp } bd
/_ctm matrix def
/_tm matrix def
/BT { _ctm currentmatrix pop matrix _tm copy pop 0 0 moveto } bd
/ET { _ctm setmatrix } bd
/iTm { _ctm setmatrix _tm concat } bd
/Tm { _tm astore pop iTm 0 0 moveto } bd
/ux 0.0 def
/uy 0.0 def
/F {
  /Tp exch def
  /Tf exch def
  Tf findfont Tp scalefont setfont
  /cf Tf def  /cs Tp def
} bd
/ULS {currentpoint /uy exch def /ux exch def} bd
/ULE {
  /Tcx currentpoint pop def
  gsave
  newpath
  cf findfont cs scalefont dup
  /FontMatrix get 0 get /Ts exch def /FontInfo get dup
  /UnderlinePosition get Ts mul /To exch def
  /UnderlineThickness get Ts mul /Tt exch def
  ux uy To add moveto  Tcx uy To add lineto
  Tt setlinewidth stroke
  grestore
} bd
/OLE {
  /Tcx currentpoint pop def
  gsave
  newpath
  cf findfont cs scalefont dup
  /FontMatrix get 0 get /Ts exch def /FontInfo get dup
  /UnderlinePosition get Ts mul /To exch def
  /UnderlineThickness get Ts mul /Tt exch def
  ux uy To add cs add moveto Tcx uy To add cs add lineto
  Tt setlinewidth stroke
  grestore
} bd
/SOE {
  /Tcx currentpoint pop def
  gsave
  newpath
  cf findfont cs scalefont dup
  /FontMatrix get 0 get /Ts exch def /FontInfo get dup
  /UnderlinePosition get Ts mul /To exch def
  /UnderlineThickness get Ts mul /Tt exch def
  ux uy To add cs 10 mul 26 idiv add moveto Tcx uy To add cs 10 mul 26 idiv add lineto
  Tt setlinewidth stroke
  grestore
} bd
/QT {
/Y22 exch store
/X22 exch store
/Y21 exch store
/X21 exch store
currentpoint
/Y21 load 2 mul add 3 div exch
/X21 load 2 mul add 3 div exch
/X21 load 2 mul /X22 load add 3 div
/Y21 load 2 mul /Y22 load add 3 div
/X22 load /Y22 load curveto
} bd
/SSPD {
dup length /d exch dict def
{
/v exch def
/k exch def
currentpagedevice k known {
/cpdv currentpagedevice k get def
v cpdv ne {
/upd false def
/nullv v type /nulltype eq def
/nullcpdv cpdv type /nulltype eq def
nullv nullcpdv or
{
/upd true def
} {
/sametype v type cpdv type eq def
sametype {
v type /arraytype eq {
/vlen v length def
/cpdvlen cpdv length def
vlen cpdvlen eq {
0 1 vlen 1 sub {
/i exch def
/obj v i get def
/cpdobj cpdv i get def
obj cpdobj ne {
/upd true def
exit
} if
} for
} {
/upd true def
} ifelse
} {
v type /dicttype eq {
v {
/dv exch def
/dk exch def
/cpddv cpdv dk get def
dv cpddv ne {
/upd true def
exit
} if
} forall
} {
/upd true def
} ifelse
} ifelse
} if
} ifelse
upd true eq {
d k v put
} if
} if
} if
} forall
d length 0 gt {
d setpagedevice
} if
} bd
/RE { % /NewFontName [NewEncodingArray] /FontName RE -
  findfont dup length dict begin
  {
    1 index /FID ne
    {def} {pop pop} ifelse
  } forall
  /Encoding exch def
  /FontName 1 index def
  currentdict definefont pop
  end
} bind def
%%EndResource
%%BeginResource: procset (Apache XML Graphics EPS ProcSet) 1.0 0
%%Version: 1.0 0
%%Copyright: (Copyright 2002-2003 The Apache Software Foundation. License terms: http://www.apache.org/licenses/LICENSE-2.0)
/BeginEPSF { %def
/b4_Inc_state save def         % Save state for cleanup
/dict_count countdictstack def % Count objects on dict stack
/op_count count 1 sub def      % Count objects on operand stack
userdict begin                 % Push userdict on dict stack
/showpage { } def              % Redefine showpage, { } = null proc
0 setgray 0 setlinecap         % Prepare graphics state
1 setlinewidth 0 setlinejoin
10 setmiterlimit [ ] 0 setdash newpath
/languagelevel where           % If level not equal to 1 then
{pop languagelevel             % set strokeadjust and
1 ne                           % overprint to their defaults.
{false setstrokeadjust false setoverprint
} if
} if
} bd
/EndEPSF { %def
count op_count sub {pop} repeat            % Clean up stacks
countdictstack dict_count sub {end} repeat
b4_Inc_state restore
} bd
%%EndResource
%FOPBeginFontDict
%%IncludeResource: font Courier-Oblique
%%IncludeResource: font Courier-BoldOblique
%%IncludeResource: font Courier-Bold
%%IncludeResource: font ZapfDingbats
%%IncludeResource: font Symbol
%%IncludeResource: font Helvetica
%%IncludeResource: font Helvetica-Oblique
%%IncludeResource: font Helvetica-Bold
%%IncludeResource: font Helvetica-BoldOblique
%%IncludeResource: font Times-Roman
%%IncludeResource: font Times-Italic
%%IncludeResource: font Times-Bold
%%IncludeResource: font Times-BoldItalic
%%IncludeResource: font Courier
%FOPEndFontDict
%%BeginResource: encoding WinAnsiEncoding
/WinAnsiEncoding [
/.notdef /.notdef /.notdef /.notdef /.notdef
/.notdef /.notdef /.notdef /.notdef /.notdef
/.notdef /.notdef /.notdef /.notdef /.notdef
/.notdef /.notdef /.notdef /.notdef /.notdef
/.notdef /.notdef /.notdef /.notdef /.notdef
/.notdef /.notdef /.notdef /.notdef /.notdef
/.notdef /.notdef /space /exclam /quotedbl
/numbersign /dollar /percent /ampersand /quotesingle
/parenleft /parenright /asterisk /plus /comma
/hyphen /period /slash /zero /one
/two /three /four /five /six
/seven /eight /nine /colon /semicolon
/less /equal /greater /question /at
/A /B /C /D /E
/F /G /H /I /J
/K /L /M /N /O
/P /Q /R /S /T
/U /V /W /X /Y
/Z /bracketleft /backslash /bracketright /asciicircum
/underscore /quoteleft /a /b /c
/d /e /f /g /h
/i /j /k /l /m
/n /o /p /q /r
/s /t /u /v /w
/x /y /z /braceleft /bar
/braceright /asciitilde /bullet /Euro /bullet
/quotesinglbase /florin /quotedblbase /ellipsis /dagger
/daggerdbl /circumflex /perthousand /Scaron /guilsinglleft
/OE /bullet /Zcaron /bullet /bullet
/quoteleft /quoteright /quotedblleft /quotedblright /bullet
/endash /emdash /asciitilde /trademark /scaron
/guilsinglright /oe /bullet /zcaron /Ydieresis
/space /exclamdown /cent /sterling /currency
/yen /brokenbar /section /dieresis /copyright
/ordfeminine /guillemotleft /logicalnot /sfthyphen /registered
/macron /degree /plusminus /twosuperior /threesuperior
/acute /mu /paragraph /middot /cedilla
/onesuperior /ordmasculine /guillemotright /onequarter /onehalf
/threequarters /questiondown /Agrave /Aacute /Acircumflex
/Atilde /Adieresis /Aring /AE /Ccedilla
/Egrave /Eacute /Ecircumflex /Edieresis /Igrave
/Iacute /Icircumflex /Idieresis /Eth /Ntilde
/Ograve /Oacute /Ocircumflex /Otilde /Odieresis
/multiply /Oslash /Ugrave /Uacute /Ucircumflex
/Udieresis /Yacute /Thorn /germandbls /agrave
/aacute /acircumflex /atilde /adieresis /aring
/ae /ccedilla /egrave /eacute /ecircumflex
/edieresis /igrave /iacute /icircumflex /idieresis
/eth /ntilde /ograve /oacute /ocircumflex
/otilde /odieresis /divide /oslash /ugrave
/uacute /ucircumflex /udieresis /yacute /thorn
/ydieresis
] def
%%EndResource
%FOPBeginFontReencode
/Courier-Oblique findfont
dup length dict begin
  {1 index /FID ne {def} {pop pop} ifelse} forall
  /Encoding WinAnsiEncoding def
  currentdict
end
/Courier-Oblique exch definefont pop
/Courier-BoldOblique findfont
dup length dict begin
  {1 index /FID ne {def} {pop pop} ifelse} forall
  /Encoding WinAnsiEncoding def
  currentdict
end
/Courier-BoldOblique exch definefont pop
/Courier-Bold findfont
dup length dict begin
  {1 index /FID ne {def} {pop pop} ifelse} forall
  /Encoding WinAnsiEncoding def
  currentdict
end
/Courier-Bold exch definefont pop
/Helvetica findfont
dup length dict begin
  {1 index /FID ne {def} {pop pop} ifelse} forall
  /Encoding WinAnsiEncoding def
  currentdict
end
/Helvetica exch definefont pop
/Helvetica-Oblique findfont
dup length dict begin
  {1 index /FID ne {def} {pop pop} ifelse} forall
  /Encoding WinAnsiEncoding def
  currentdict
end
/Helvetica-Oblique exch definefont pop
/Helvetica-Bold findfont
dup length dict begin
  {1 index /FID ne {def} {pop pop} ifelse} forall
  /Encoding WinAnsiEncoding def
  currentdict
end
/Helvetica-Bold exch definefont pop
/Helvetica-BoldOblique findfont
dup length dict begin
  {1 index /FID ne {def} {pop pop} ifelse} forall
  /Encoding WinAnsiEncoding def
  currentdict
end
/Helvetica-BoldOblique exch definefont pop
/Times-Roman findfont
dup length dict begin
  {1 index /FID ne {def} {pop pop} ifelse} forall
  /Encoding WinAnsiEncoding def
  currentdict
end
/Times-Roman exch definefont pop
/Times-Italic findfont
dup length dict begin
  {1 index /FID ne {def} {pop pop} ifelse} forall
  /Encoding WinAnsiEncoding def
  currentdict
end
/Times-Italic exch definefont pop
/Times-Bold findfont
dup length dict begin
  {1 index /FID ne {def} {pop pop} ifelse} forall
  /Encoding WinAnsiEncoding def
  currentdict
end
/Times-Bold exch definefont pop
/Times-BoldItalic findfont
dup length dict begin
  {1 index /FID ne {def} {pop pop} ifelse} forall
  /Encoding WinAnsiEncoding def
  currentdict
end
/Times-BoldItalic exch definefont pop
/Courier findfont
dup length dict begin
  {1 index /FID ne {def} {pop pop} ifelse} forall
  /Encoding WinAnsiEncoding def
  currentdict
end
/Courier exch definefont pop
%FOPEndFontReencode
%%EndProlog
%%Page: 1 1
%%PageBoundingBox: 0 0 420 315
%%BeginPageSetup
[1 0 0 -1 0 315] CT
%%EndPageSetup
GS
[0.75 0 0 0.75 0 0] CT
1 GC
N
0 0 560 420 re
f
GR
GS
[0.75 0 0 0.75 0 0] CT
1 GC
N
0 0 560 420 re
f
GR
GS
[0.75 0 0 0.75 0 0] CT
1 GC
N
73 372 M
507 372 L
507 31 L
73 31 L
cp
f
GR
GS
[0.75 0 0 0.75 0 0] CT
0.873 GC
1 LJ
0.667 LW
N
73 372 M
73 31 L
S
GR
GS
[0.75 0 0 0.75 0 0] CT
0.873 GC
1 LJ
0.667 LW
N
145.333 372 M
145.333 31 L
S
GR
GS
[0.75 0 0 0.75 0 0] CT
0.873 GC
1 LJ
0.667 LW
N
217.667 372 M
217.667 31 L
S
GR
GS
[0.75 0 0 0.75 0 0] CT
0.873 GC
1 LJ
0.667 LW
N
290 372 M
290 31 L
S
GR
GS
[0.75 0 0 0.75 0 0] CT
0.873 GC
1 LJ
0.667 LW
N
362.333 372 M
362.333 31 L
S
GR
GS
[0.75 0 0 0.75 0 0] CT
0.873 GC
1 LJ
0.667 LW
N
434.667 372 M
434.667 31 L
S
GR
GS
[0.75 0 0 0.75 0 0] CT
0.873 GC
1 LJ
0.667 LW
N
507 372 M
507 31 L
S
GR
GS
[0.75 0 0 0.75 0 0] CT
0.873 GC
1 LJ
0.667 LW
N
507 372 M
73 372 L
S
GR
GS
[0.75 0 0 0.75 0 0] CT
0.873 GC
1 LJ
0.667 LW
N
507 329.375 M
73 329.375 L
S
GR
GS
[0.75 0 0 0.75 0 0] CT
0.873 GC
1 LJ
0.667 LW
N
507 286.75 M
73 286.75 L
S
GR
GS
[0.75 0 0 0.75 0 0] CT
0.873 GC
1 LJ
0.667 LW
N
507 244.125 M
73 244.125 L
S
GR
GS
[0.75 0 0 0.75 0 0] CT
0.873 GC
1 LJ
0.667 LW
N
507 201.5 M
73 201.5 L
S
GR
GS
[0.75 0 0 0.75 0 0] CT
0.873 GC
1 LJ
0.667 LW
N
507 158.875 M
73 158.875 L
S
GR
GS
[0.75 0 0 0.75 0 0] CT
0.873 GC
1 LJ
0.667 LW
N
507 116.25 M
73 116.25 L
S
GR
GS
[0.75 0 0 0.75 0 0] CT
0.873 GC
1 LJ
0.667 LW
N
507 73.625 M
73 73.625 L
S
GR
GS
[0.75 0 0 0.75 0 0] CT
0.873 GC
1 LJ
0.667 LW
N
507 31 M
73 31 L
S
GR
GS
[0.75 0 0 0.75 0 0] CT
0.149 GC
2 setlinecap
1 LJ
0.667 LW
N
73 372 M
507 372 L
S
GR
GS
[0.75 0 0 0.75 0 0] CT
0.149 GC
2 setlinecap
1 LJ
0.667 LW
N
73 31 M
507 31 L
S
GR
GS
[0.75 0 0 0.75 0 0] CT
0.149 GC
2 setlinecap
1 LJ
0.667 LW
N
73 372 M
73 367.66 L
S
GR
GS
[0.75 0 0 0.75 0 0] CT
0.149 GC
2 setlinecap
1 LJ
0.667 LW
N
145.333 372 M
145.333 367.66 L
S
GR
GS
[0.75 0 0 0.75 0 0] CT
0.149 GC
2 setlinecap
1 LJ
0.667 LW
N
217.667 372 M
217.667 367.66 L
S
GR
GS
[0.75 0 0 0.75 0 0] CT
0.149 GC
2 setlinecap
1 LJ
0.667 LW
N
290 372 M
290 367.66 L
S
GR
GS
[0.75 0 0 0.75 0 0] CT
0.149 GC
2 setlinecap
1 LJ
0.667 LW
N
362.333 372 M
362.333 367.66 L
S
GR
GS
[0.75 0 0 0.75 0 0] CT
0.149 GC
2 setlinecap
1 LJ
0.667 LW
N
434.667 372 M
434.667 367.66 L
S
GR
GS
[0.75 0 0 0.75 0 0] CT
0.149 GC
2 setlinecap
1 LJ
0.667 LW
N
507 372 M
507 367.66 L
S
GR
GS
[0.75 0 0 0.75 0 0] CT
0.149 GC
2 setlinecap
1 LJ
0.667 LW
N
73 31 M
73 35.34 L
S
GR
GS
[0.75 0 0 0.75 0 0] CT
0.149 GC
2 setlinecap
1 LJ
0.667 LW
N
145.333 31 M
145.333 35.34 L
S
GR
GS
[0.75 0 0 0.75 0 0] CT
0.149 GC
2 setlinecap
1 LJ
0.667 LW
N
217.667 31 M
217.667 35.34 L
S
GR
GS
[0.75 0 0 0.75 0 0] CT
0.149 GC
2 setlinecap
1 LJ
0.667 LW
N
290 31 M
290 35.34 L
S
GR
GS
[0.75 0 0 0.75 0 0] CT
0.149 GC
2 setlinecap
1 LJ
0.667 LW
N
362.333 31 M
362.333 35.34 L
S
GR
GS
[0.75 0 0 0.75 0 0] CT
0.149 GC
2 setlinecap
1 LJ
0.667 LW
N
434.667 31 M
434.667 35.34 L
S
GR
GS
[0.75 0 0 0.75 0 0] CT
0.149 GC
2 setlinecap
1 LJ
0.667 LW
N
507 31 M
507 35.34 L
S
GR
GS
[0.75 0 0 0.75 54.75 283.00001] CT
0.149 GC
/Helvetica 13.333 F
GS
[1 0 0 1 0 0] CT
-11.5 14 moveto 
1 -1 scale
(400) t 
GR
GR
GS
[0.75 0 0 0.75 109 283.00001] CT
0.149 GC
/Helvetica 13.333 F
GS
[1 0 0 1 0 0] CT
-11.5 14 moveto 
1 -1 scale
(500) t 
GR
GR
GS
[0.75 0 0 0.75 163.25 283.00001] CT
0.149 GC
/Helvetica 13.333 F
GS
[1 0 0 1 0 0] CT
-11.5 14 moveto 
1 -1 scale
(600) t 
GR
GR
GS
[0.75 0 0 0.75 217.5 283.00001] CT
0.149 GC
/Helvetica 13.333 F
GS
[1 0 0 1 0 0] CT
-11.5 14 moveto 
1 -1 scale
(700) t 
GR
GR
GS
[0.75 0 0 0.75 271.75001 283.00001] CT
0.149 GC
/Helvetica 13.333 F
GS
[1 0 0 1 0 0] CT
-11.5 14 moveto 
1 -1 scale
(800) t 
GR
GR
GS
[0.75 0 0 0.75 325.99999 283.00001] CT
0.149 GC
/Helvetica 13.333 F
GS
[1 0 0 1 0 0] CT
-11.5 14 moveto 
1 -1 scale
(900) t 
GR
GR
GS
[0.75 0 0 0.75 380.25 283.00001] CT
0.149 GC
/Helvetica 13.333 F
GS
[1 0 0 1 0 0] CT
-15 14 moveto 
1 -1 scale
(1000) t 
GR
GR
GS
[0.75 0 0 0.75 217.50016 297] CT
0.149 GC
/Helvetica 18.667 F
GS
[1 0 0 1 0 0] CT
-38.5 19 moveto 
1 -1 scale
(Time / ns) t 
GR
GR
GS
[0.75 0 0 0.75 0 0] CT
0.149 GC
2 setlinecap
1 LJ
0.667 LW
N
73 372 M
73 31 L
S
GR
GS
[0.75 0 0 0.75 0 0] CT
0.149 GC
2 setlinecap
1 LJ
0.667 LW
N
507 372 M
507 31 L
S
GR
GS
[0.75 0 0 0.75 0 0] CT
0.149 GC
2 setlinecap
1 LJ
0.667 LW
N
73 372 M
77.34 372 L
S
GR
GS
[0.75 0 0 0.75 0 0] CT
0.149 GC
2 setlinecap
1 LJ
0.667 LW
N
73 329.375 M
77.34 329.375 L
S
GR
GS
[0.75 0 0 0.75 0 0] CT
0.149 GC
2 setlinecap
1 LJ
0.667 LW
N
73 286.75 M
77.34 286.75 L
S
GR
GS
[0.75 0 0 0.75 0 0] CT
0.149 GC
2 setlinecap
1 LJ
0.667 LW
N
73 244.125 M
77.34 244.125 L
S
GR
GS
[0.75 0 0 0.75 0 0] CT
0.149 GC
2 setlinecap
1 LJ
0.667 LW
N
73 201.5 M
77.34 201.5 L
S
GR
GS
[0.75 0 0 0.75 0 0] CT
0.149 GC
2 setlinecap
1 LJ
0.667 LW
N
73 158.875 M
77.34 158.875 L
S
GR
GS
[0.75 0 0 0.75 0 0] CT
0.149 GC
2 setlinecap
1 LJ
0.667 LW
N
73 116.25 M
77.34 116.25 L
S
GR
GS
[0.75 0 0 0.75 0 0] CT
0.149 GC
2 setlinecap
1 LJ
0.667 LW
N
73 73.625 M
77.34 73.625 L
S
GR
GS
[0.75 0 0 0.75 0 0] CT
0.149 GC
2 setlinecap
1 LJ
0.667 LW
N
73 31 M
77.34 31 L
S
GR
GS
[0.75 0 0 0.75 0 0] CT
0.149 GC
2 setlinecap
1 LJ
0.667 LW
N
507 372 M
502.66 372 L
S
GR
GS
[0.75 0 0 0.75 0 0] CT
0.149 GC
2 setlinecap
1 LJ
0.667 LW
N
507 329.375 M
502.66 329.375 L
S
GR
GS
[0.75 0 0 0.75 0 0] CT
0.149 GC
2 setlinecap
1 LJ
0.667 LW
N
507 286.75 M
502.66 286.75 L
S
GR
GS
[0.75 0 0 0.75 0 0] CT
0.149 GC
2 setlinecap
1 LJ
0.667 LW
N
507 244.125 M
502.66 244.125 L
S
GR
GS
[0.75 0 0 0.75 0 0] CT
0.149 GC
2 setlinecap
1 LJ
0.667 LW
N
507 201.5 M
502.66 201.5 L
S
GR
GS
[0.75 0 0 0.75 0 0] CT
0.149 GC
2 setlinecap
1 LJ
0.667 LW
N
507 158.875 M
502.66 158.875 L
S
GR
GS
[0.75 0 0 0.75 0 0] CT
0.149 GC
2 setlinecap
1 LJ
0.667 LW
N
507 116.25 M
502.66 116.25 L
S
GR
GS
[0.75 0 0 0.75 0 0] CT
0.149 GC
2 setlinecap
1 LJ
0.667 LW
N
507 73.625 M
502.66 73.625 L
S
GR
GS
[0.75 0 0 0.75 0 0] CT
0.149 GC
2 setlinecap
1 LJ
0.667 LW
N
507 31 M
502.66 31 L
S
GR
GS
[0.75 0 0 0.75 50.75 279] CT
0.149 GC
/Helvetica 13.333 F
GS
[1 0 0 1 0 0] CT
-20 5.5 moveto 
1 -1 scale
(-10) t 
GR
GR
GS
[0.75 0 0 0.75 50.75 247.03125] CT
0.149 GC
/Helvetica 13.333 F
GS
[1 0 0 1 0 0] CT
-12 5.5 moveto 
1 -1 scale
(-5) t 
GR
GR
GS
[0.75 0 0 0.75 50.75 215.0625] CT
0.149 GC
/Helvetica 13.333 F
GS
[1 0 0 1 0 0] CT
-8 5.5 moveto 
1 -1 scale
(0) t 
GR
GR
GS
[0.75 0 0 0.75 50.75 183.09375] CT
0.149 GC
/Helvetica 13.333 F
GS
[1 0 0 1 0 0] CT
-8 5.5 moveto 
1 -1 scale
(5) t 
GR
GR
GS
[0.75 0 0 0.75 50.75 151.125] CT
0.149 GC
/Helvetica 13.333 F
GS
[1 0 0 1 0 0] CT
-15 5.5 moveto 
1 -1 scale
(10) t 
GR
GR
GS
[0.75 0 0 0.75 50.75 119.15625] CT
0.149 GC
/Helvetica 13.333 F
GS
[1 0 0 1 0 0] CT
-15 5.5 moveto 
1 -1 scale
(15) t 
GR
GR
GS
[0.75 0 0 0.75 50.75 87.1875] CT
0.149 GC
/Helvetica 13.333 F
GS
[1 0 0 1 0 0] CT
-15 5.5 moveto 
1 -1 scale
(20) t 
GR
GR
GS
[0.75 0 0 0.75 50.75 55.21875] CT
0.149 GC
/Helvetica 13.333 F
GS
[1 0 0 1 0 0] CT
-15 5.5 moveto 
1 -1 scale
(25) t 
GR
GR
GS
[0.75 0 0 0.75 50.75 23.25] CT
0.149 GC
/Helvetica 13.333 F
GS
[1 0 0 1 0 0] CT
-15 5.5 moveto 
1 -1 scale
(30) t 
GR
GR
GS
[0 -0.75 0.75 0 32.74999 151.12487] CT
0.149 GC
/Helvetica 18.667 F
GS
[1 0 0 1 0 0] CT
-46 -5 moveto 
1 -1 scale
(Voltage / V) t 
GR
GR
GS
[0.75 0 0 0.75 0 0] CT
0 0.447 0.741 RC
1 LJ
2 LW
N
77.087 42.136 M
77.666 43.228 L
78.244 41.55 L
78.823 42.562 L
79.402 43.894 L
79.98 43.042 L
80.559 40.75 L
81.137 42.562 L
81.716 42.455 L
82.295 43.601 L
82.873 43.015 L
83.452 43.175 L
84.031 41.736 L
84.609 40.91 L
85.188 42.615 L
85.767 43.121 L
86.346 45.146 L
86.924 45.306 L
87.503 40.564 L
88.082 45.066 L
88.66 41.07 L
89.239 42.828 L
89.817 42.376 L
90.396 43.734 L
90.975 43.814 L
91.553 39.498 L
92.132 41.683 L
92.711 43.681 L
93.289 43.281 L
93.868 45.386 L
94.447 44.693 L
95.026 42.828 L
95.604 41.896 L
96.183 43.095 L
96.762 44.613 L
97.34 44.374 L
97.919 42.429 L
98.497 42.269 L
99.076 40.138 L
99.655 44.027 L
100.233 42.642 L
100.812 41.257 L
101.391 43.628 L
101.969 46.318 L
102.548 42.935 L
103.127 39.498 L
103.706 42.003 L
104.284 43.681 L
104.863 43.574 L
105.442 41.736 L
106.02 41.123 L
106.599 39.898 L
107.177 41.789 L
107.756 44.454 L
108.335 41.523 L
108.913 44.16 L
109.492 41.044 L
110.071 42.882 L
110.649 43.734 L
111.228 44.107 L
111.807 43.175 L
112.386 44.107 L
112.964 42.136 L
113.543 42.349 L
114.122 44.214 L
114.7 43.441 L
115.279 43.201 L
115.857 40.83 L
116.436 44.507 L
117.015 42.589 L
117.593 40.324 L
118.172 41.203 L
118.751 44.16 L
119.329 43.095 L
119.908 42.402 L
120.487 43.095 L
121.066 40.724 L
121.644 42.482 L
122.223 43.201 L
122.802 45.759 L
123.38 43.601 L
123.959 46.505 L
124.537 42.695 L
125.116 40.084 L
125.695 42.162 L
126.273 39.152 L
126.852 39.498 L
127.431 40.644 L
128.009 41.789 L
128.588 42.988 L
129.167 42.615 L
129.746 42.482 L
130.324 41.257 L
130.903 42.296 L
131.482 40.244 L
132.06 42.908 L
132.639 44.64 L
133.217 41.656 L
133.796 51.54 L
134.375 77.861 L
134.953 96.056 L
135.532 109.43 L
136.111 114.359 L
136.689 124.562 L
137.268 130.796 L
137.847 134.872 L
138.426 138.282 L
139.004 144.196 L
139.583 147.286 L
140.161 148.938 L
140.74 146.008 L
141.319 149.817 L
141.898 149.071 L
142.476 153.307 L
143.055 158.555 L
143.633 176.804 L
144.212 191.723 L
144.791 224.118 L
145.369 257.685 L
145.948 290.719 L
146.527 323.114 L
147.106 338.166 L
147.684 345.679 L
148.263 347.464 L
148.842 351.14 L
149.42 351.94 L
149.999 344.214 L
150.577 338.033 L
151.156 316.374 L
151.735 281.502 L
152.313 270.02 L
152.892 274.948 L
153.471 265.011 L
154.049 249.506 L
154.628 252.224 L
155.207 261.361 L
155.786 268.981 L
156.364 271.671 L
156.943 284.432 L
157.521 300.31 L
158.1 310.727 L
158.679 311.925 L
159.258 310.593 L
159.836 313.55 L
160.415 308.409 L
160.994 293.49 L
161.572 285.924 L
162.151 277.319 L
162.729 270.499 L
163.308 259.896 L
163.887 259.284 L
164.466 260.855 L
165.044 261.974 L
165.623 271.938 L
166.201 282.328 L
166.78 290.693 L
167.359 302.228 L
167.938 309.181 L
168.516 314.296 L
169.095 314.883 L
169.674 309.261 L
170.252 299.671 L
170.831 293.543 L
171.409 284.592 L
171.988 274.362 L
172.567 265.544 L
173.146 260.323 L
173.724 262.88 L
174.303 263.972 L
174.881 267.702 L
175.46 275.614 L
176.039 283.899 L
176.617 295.834 L
177.196 299.111 L
177.775 308.595 L
178.354 308.435 L
178.932 307.476 L
179.511 308.009 L
180.089 299.671 L
180.668 290.187 L
181.247 282.86 L
181.826 274.202 L
182.404 265.544 L
182.983 262.214 L
183.561 263.226 L
184.14 269.114 L
184.719 271.538 L
185.298 278.332 L
185.876 284.938 L
186.455 296.021 L
187.034 303.134 L
187.612 304.892 L
188.191 310.913 L
188.769 305.798 L
189.348 301.722 L
189.927 292.424 L
190.506 290.426 L
191.084 281.076 L
191.663 274.362 L
192.241 270.499 L
192.82 266.983 L
193.399 269.487 L
193.977 272.737 L
194.556 279.77 L
195.135 286.244 L
195.714 290.346 L
196.292 299.165 L
196.871 302.654 L
197.449 304.359 L
198.028 307.769 L
198.607 299.91 L
199.186 299.697 L
199.764 293.437 L
200.343 287.443 L
200.921 275.614 L
201.5 273.723 L
202.079 268.181 L
202.658 270.819 L
203.236 269.647 L
203.815 273.51 L
204.394 280.037 L
204.972 285.658 L
205.551 294.183 L
206.129 299.165 L
206.708 304.413 L
207.287 302.521 L
207.866 304.706 L
208.444 299.804 L
209.023 297.726 L
209.601 289.148 L
210.18 281.262 L
210.759 278.731 L
211.337 274.202 L
211.916 270.313 L
212.495 269.46 L
213.074 271.085 L
213.652 280.116 L
214.231 281.635 L
214.809 287.656 L
215.388 296.261 L
215.967 298.499 L
216.546 298.072 L
217.124 302.708 L
217.703 299.484 L
218.281 298.259 L
218.86 292.877 L
219.439 288.242 L
220.018 281.102 L
220.596 276.706 L
221.175 272.657 L
221.754 272.018 L
222.332 274.202 L
222.911 275.561 L
223.489 276.946 L
224.068 285.018 L
224.647 287.416 L
225.226 296.687 L
225.804 297.646 L
226.383 300.79 L
226.961 298.871 L
227.54 298.632 L
228.119 295.914 L
228.697 290.613 L
229.276 286.457 L
229.855 281.582 L
230.434 277.666 L
231.012 271.618 L
231.591 275.907 L
232.169 276.254 L
232.748 278.092 L
233.327 283.74 L
233.906 288.615 L
234.484 291.332 L
235.063 291.945 L
235.641 296.5 L
236.22 300.417 L
236.799 299.431 L
237.378 295.888 L
237.956 291.572 L
238.535 290.48 L
239.114 285.684 L
239.692 279.317 L
240.271 278.092 L
240.849 277.239 L
241.428 277.346 L
242.007 277.239 L
242.586 278.971 L
243.164 283.686 L
243.743 289.414 L
244.321 293.783 L
244.9 294.396 L
245.479 298.898 L
246.057 298.658 L
246.636 301.749 L
247.215 292.744 L
247.794 291.865 L
248.372 289.148 L
248.951 284.565 L
249.529 281.076 L
250.108 277.053 L
250.687 276.547 L
251.266 277.719 L
251.844 281.022 L
252.423 281.768 L
253.001 285.631 L
253.58 285.178 L
254.159 292.638 L
254.738 296.181 L
255.316 297.859 L
255.895 296.527 L
256.474 296.634 L
257.052 294.156 L
257.631 289.76 L
258.21 285.818 L
258.788 280.383 L
259.367 278.784 L
259.945 280.516 L
260.524 279.157 L
261.103 281.262 L
261.681 283.127 L
262.26 284.859 L
262.839 289.307 L
263.418 291.092 L
263.996 293.064 L
264.575 293.357 L
265.154 293.41 L
265.732 292.851 L
266.311 291.226 L
266.889 293.037 L
267.468 289.201 L
268.047 287.256 L
268.626 279.957 L
269.204 279.877 L
269.783 282.061 L
270.361 280.916 L
270.94 281.662 L
271.519 282.727 L
272.098 287.416 L
272.676 288.881 L
273.255 292.904 L
273.834 295.115 L
274.412 296.74 L
274.991 292.238 L
275.569 296.154 L
276.148 294.795 L
276.727 291.918 L
277.306 287.389 L
277.884 288.695 L
278.463 287.256 L
279.041 282.967 L
279.62 278.838 L
280.199 281.608 L
280.777 281.608 L
281.356 285.578 L
281.935 288.189 L
282.514 288.535 L
283.092 292.957 L
283.671 295.541 L
284.249 295.142 L
284.828 294.982 L
285.407 296.128 L
285.986 292.265 L
286.564 288.668 L
287.143 288.721 L
287.721 284.006 L
288.3 283.606 L
288.879 283.287 L
289.457 280.596 L
290.036 282.807 L
290.615 283.473 L
291.194 286.59 L
291.772 288.801 L
292.351 290.879 L
292.93 294.183 L
293.508 292.105 L
294.087 294.263 L
294.665 296.794 L
295.244 290.799 L
295.823 291.359 L
296.401 291.599 L
296.98 286.404 L
297.559 282.514 L
298.138 283.26 L
298.716 285.152 L
299.295 282.221 L
299.874 284.059 L
300.452 286.777 L
301.031 287.762 L
301.609 290.613 L
302.188 293.703 L
302.767 293.197 L
303.346 291.892 L
303.924 295.275 L
304.503 291.039 L
305.081 290.293 L
305.66 287.949 L
306.239 289.467 L
306.818 288.242 L
307.396 284.459 L
307.975 282.541 L
308.554 284.619 L
309.132 282.727 L
309.711 286.617 L
310.289 285.738 L
310.868 290.453 L
311.447 289.441 L
312.026 292.398 L
312.604 293.81 L
313.183 292.291 L
313.761 294.076 L
314.34 293.357 L
314.919 292.691 L
315.497 288.748 L
316.076 288.881 L
316.655 286.111 L
317.234 283.367 L
317.812 283.5 L
318.391 283.18 L
318.969 283.526 L
319.548 286.564 L
320.127 288.562 L
320.706 286.857 L
321.284 292.531 L
321.863 292.451 L
322.441 292.158 L
323.02 293.224 L
323.599 289.654 L
324.177 288.242 L
324.756 292.051 L
325.335 286.91 L
325.914 285.445 L
326.492 287.869 L
327.071 282.487 L
327.65 285.764 L
328.228 285.072 L
328.807 287.389 L
329.385 287.096 L
329.964 289.094 L
330.543 287.656 L
331.121 290.933 L
331.7 292.691 L
332.279 293.996 L
332.858 289.974 L
333.436 293.197 L
334.015 291.385 L
334.594 288.748 L
335.172 286.27 L
335.751 288.721 L
336.329 286.324 L
336.908 283.553 L
337.487 285.791 L
338.066 283.42 L
338.644 286.004 L
339.223 284.992 L
339.801 284.406 L
340.38 286.963 L
340.959 288.908 L
341.538 290.906 L
342.116 292.664 L
342.695 291.039 L
343.274 292.371 L
343.852 289.521 L
344.431 290.346 L
345.009 289.467 L
345.588 287.23 L
346.167 287.443 L
346.746 286.723 L
347.324 287.123 L
347.903 283.899 L
348.481 287.416 L
349.06 287.469 L
349.639 289.787 L
350.217 290.107 L
350.796 288.881 L
351.375 290.16 L
351.954 295.461 L
352.532 292.851 L
353.111 288.242 L
353.689 287.203 L
354.268 288.189 L
354.847 287.549 L
355.426 288.615 L
356.004 286.111 L
356.583 283.447 L
357.161 287.789 L
357.74 289.601 L
358.319 287.309 L
358.897 290.346 L
359.476 290.453 L
360.055 289.254 L
360.634 292.345 L
361.212 290.24 L
361.791 292.078 L
362.369 288.215 L
362.948 289.68 L
363.527 290.719 L
364.105 287.043 L
364.684 287.922 L
365.263 286.99 L
365.841 288.935 L
366.42 286.857 L
366.999 290.107 L
367.578 287.096 L
368.156 286.35 L
368.735 288.162 L
369.314 289.974 L
369.892 291.918 L
370.471 290.373 L
371.049 289.228 L
371.628 290.693 L
372.207 289.867 L
372.786 290.4 L
373.364 289.148 L
373.943 286.83 L
374.521 288.055 L
375.1 285.791 L
375.679 286.217 L
376.258 287.363 L
376.836 286.857 L
377.415 291.998 L
377.994 288.881 L
378.572 288.242 L
379.151 291.359 L
379.729 289.414 L
380.308 289.787 L
380.887 291.732 L
381.466 289.387 L
382.044 291.412 L
382.623 290.16 L
383.201 290.506 L
383.78 288.508 L
384.359 287.709 L
384.938 285.977 L
385.516 284.272 L
386.095 285.285 L
386.674 284.539 L
387.252 290.826 L
387.831 288.668 L
388.409 288.295 L
388.988 291.385 L
389.567 294.742 L
390.146 292.185 L
390.724 290.879 L
391.303 290.24 L
391.881 289.601 L
392.46 289.068 L
393.039 290 L
393.617 286.244 L
394.196 284.805 L
394.775 283.846 L
395.354 284.885 L
395.932 284.459 L
396.511 289.521 L
397.089 288.535 L
397.668 289.094 L
398.247 289.334 L
398.826 292.105 L
399.404 294.183 L
399.983 289.76 L
400.561 292.558 L
401.14 288.828 L
401.719 289.521 L
402.297 291.119 L
402.876 285.178 L
403.455 286.35 L
404.034 287.07 L
404.612 285.711 L
405.191 285.977 L
405.77 289.307 L
406.348 287.363 L
406.927 287.389 L
407.506 289.574 L
408.084 286.723 L
408.663 288.215 L
409.241 289.601 L
409.82 291.572 L
410.399 289.014 L
410.978 290.586 L
411.556 287.496 L
412.135 286.057 L
412.714 285.844 L
413.292 286.963 L
413.871 288.535 L
414.449 287.656 L
415.028 287.682 L
415.607 289.068 L
416.186 286.564 L
416.764 288.295 L
417.343 287.869 L
417.921 289.734 L
418.5 290.4 L
419.079 290.48 L
419.658 291.092 L
420.236 289.734 L
420.815 289.734 L
421.394 289.84 L
421.972 287.523 L
422.551 288.428 L
423.129 286.67 L
423.708 288.615 L
424.287 288.935 L
424.866 286.67 L
425.444 288.189 L
426.023 288.748 L
426.601 289.387 L
427.18 289.707 L
427.759 291.785 L
428.337 290.213 L
428.916 290.133 L
429.495 292.691 L
430.074 290.213 L
430.652 289.601 L
431.231 290.187 L
431.809 289.414 L
432.388 287.123 L
432.967 288.615 L
433.546 290.346 L
434.124 286.99 L
434.703 285.604 L
435.281 289.361 L
435.86 288.695 L
436.439 289.92 L
437.017 289.494 L
437.596 292.238 L
438.175 287.762 L
438.754 291.679 L
439.332 289.92 L
439.911 292.771 L
440.49 290.053 L
441.068 289.387 L
441.647 290.64 L
442.225 289.467 L
442.804 286.217 L
443.383 289.974 L
443.961 286.297 L
444.54 287.096 L
445.119 289.281 L
445.698 290.986 L
446.276 290.506 L
446.855 290.959 L
447.434 293.677 L
448.012 290.16 L
448.591 291.545 L
449.169 290.613 L
449.748 288.135 L
450.327 291.412 L
450.906 287.389 L
451.484 286.83 L
452.063 289.307 L
452.641 288.828 L
453.22 289.041 L
453.799 289.121 L
454.378 291.439 L
454.956 291.652 L
455.535 291.945 L
456.114 290.48 L
456.692 289.947 L
457.271 288.189 L
457.849 291.492 L
458.428 292.078 L
459.007 291.199 L
459.586 291.865 L
460.164 287.576 L
460.743 289.467 L
461.321 287.283 L
461.9 289.281 L
462.479 286.244 L
463.057 288.828 L
463.636 290 L
464.215 291.732 L
464.794 288.855 L
465.372 289.201 L
465.951 290 L
466.529 287.443 L
467.108 289.094 L
467.687 288.002 L
468.266 287.123 L
468.844 289.414 L
469.423 290.746 L
470.001 288.562 L
470.58 290.107 L
471.159 288.002 L
471.737 286.191 L
472.316 287.789 L
S
GR
%%Trailer
%%Pages: 1
%%EOF
