%!PS-Adobe-3.0 EPSF-3.0
%%Creator: (MATLAB, The Mathworks, Inc. Version 24.1.0.2603908 \(R2024a\) Update 3. Operating System: Windows 10)
%%Title: (C:/Users/lorde/Documents/MATLAB/Master Lab Course/Exercise 1/E1_1_hvProbe_fall.eps)
%%CreationDate: 2024-06-25T15:13:11
%%Pages: (atend)
%%BoundingBox:     0     0   420   315
%%LanguageLevel: 3
%%EndComments
%%BeginProlog
%%BeginResource: procset (Apache XML Graphics Std ProcSet) 1.2 0
%%Version: 1.2 0
%%Copyright: (Copyright 2001-2003,2010 The Apache Software Foundation. License terms: http://www.apache.org/licenses/LICENSE-2.0)
/bd{bind def}bind def
/ld{load def}bd
/GR/grestore ld
/GS/gsave ld
/RM/rmoveto ld
/C/curveto ld
/t/show ld
/L/lineto ld
/ML/setmiterlimit ld
/CT/concat ld
/f/fill ld
/N/newpath ld
/S/stroke ld
/CC/setcmykcolor ld
/A/ashow ld
/cp/closepath ld
/RC/setrgbcolor ld
/LJ/setlinejoin ld
/GC/setgray ld
/LW/setlinewidth ld
/M/moveto ld
/re {4 2 roll M
1 index 0 rlineto
0 exch rlineto
neg 0 rlineto
cp } bd
/_ctm matrix def
/_tm matrix def
/BT { _ctm currentmatrix pop matrix _tm copy pop 0 0 moveto } bd
/ET { _ctm setmatrix } bd
/iTm { _ctm setmatrix _tm concat } bd
/Tm { _tm astore pop iTm 0 0 moveto } bd
/ux 0.0 def
/uy 0.0 def
/F {
  /Tp exch def
  /Tf exch def
  Tf findfont Tp scalefont setfont
  /cf Tf def  /cs Tp def
} bd
/ULS {currentpoint /uy exch def /ux exch def} bd
/ULE {
  /Tcx currentpoint pop def
  gsave
  newpath
  cf findfont cs scalefont dup
  /FontMatrix get 0 get /Ts exch def /FontInfo get dup
  /UnderlinePosition get Ts mul /To exch def
  /UnderlineThickness get Ts mul /Tt exch def
  ux uy To add moveto  Tcx uy To add lineto
  Tt setlinewidth stroke
  grestore
} bd
/OLE {
  /Tcx currentpoint pop def
  gsave
  newpath
  cf findfont cs scalefont dup
  /FontMatrix get 0 get /Ts exch def /FontInfo get dup
  /UnderlinePosition get Ts mul /To exch def
  /UnderlineThickness get Ts mul /Tt exch def
  ux uy To add cs add moveto Tcx uy To add cs add lineto
  Tt setlinewidth stroke
  grestore
} bd
/SOE {
  /Tcx currentpoint pop def
  gsave
  newpath
  cf findfont cs scalefont dup
  /FontMatrix get 0 get /Ts exch def /FontInfo get dup
  /UnderlinePosition get Ts mul /To exch def
  /UnderlineThickness get Ts mul /Tt exch def
  ux uy To add cs 10 mul 26 idiv add moveto Tcx uy To add cs 10 mul 26 idiv add lineto
  Tt setlinewidth stroke
  grestore
} bd
/QT {
/Y22 exch store
/X22 exch store
/Y21 exch store
/X21 exch store
currentpoint
/Y21 load 2 mul add 3 div exch
/X21 load 2 mul add 3 div exch
/X21 load 2 mul /X22 load add 3 div
/Y21 load 2 mul /Y22 load add 3 div
/X22 load /Y22 load curveto
} bd
/SSPD {
dup length /d exch dict def
{
/v exch def
/k exch def
currentpagedevice k known {
/cpdv currentpagedevice k get def
v cpdv ne {
/upd false def
/nullv v type /nulltype eq def
/nullcpdv cpdv type /nulltype eq def
nullv nullcpdv or
{
/upd true def
} {
/sametype v type cpdv type eq def
sametype {
v type /arraytype eq {
/vlen v length def
/cpdvlen cpdv length def
vlen cpdvlen eq {
0 1 vlen 1 sub {
/i exch def
/obj v i get def
/cpdobj cpdv i get def
obj cpdobj ne {
/upd true def
exit
} if
} for
} {
/upd true def
} ifelse
} {
v type /dicttype eq {
v {
/dv exch def
/dk exch def
/cpddv cpdv dk get def
dv cpddv ne {
/upd true def
exit
} if
} forall
} {
/upd true def
} ifelse
} ifelse
} if
} ifelse
upd true eq {
d k v put
} if
} if
} if
} forall
d length 0 gt {
d setpagedevice
} if
} bd
/RE { % /NewFontName [NewEncodingArray] /FontName RE -
  findfont dup length dict begin
  {
    1 index /FID ne
    {def} {pop pop} ifelse
  } forall
  /Encoding exch def
  /FontName 1 index def
  currentdict definefont pop
  end
} bind def
%%EndResource
%%BeginResource: procset (Apache XML Graphics EPS ProcSet) 1.0 0
%%Version: 1.0 0
%%Copyright: (Copyright 2002-2003 The Apache Software Foundation. License terms: http://www.apache.org/licenses/LICENSE-2.0)
/BeginEPSF { %def
/b4_Inc_state save def         % Save state for cleanup
/dict_count countdictstack def % Count objects on dict stack
/op_count count 1 sub def      % Count objects on operand stack
userdict begin                 % Push userdict on dict stack
/showpage { } def              % Redefine showpage, { } = null proc
0 setgray 0 setlinecap         % Prepare graphics state
1 setlinewidth 0 setlinejoin
10 setmiterlimit [ ] 0 setdash newpath
/languagelevel where           % If level not equal to 1 then
{pop languagelevel             % set strokeadjust and
1 ne                           % overprint to their defaults.
{false setstrokeadjust false setoverprint
} if
} if
} bd
/EndEPSF { %def
count op_count sub {pop} repeat            % Clean up stacks
countdictstack dict_count sub {end} repeat
b4_Inc_state restore
} bd
%%EndResource
%FOPBeginFontDict
%%IncludeResource: font Courier-Oblique
%%IncludeResource: font Courier-BoldOblique
%%IncludeResource: font Courier-Bold
%%IncludeResource: font ZapfDingbats
%%IncludeResource: font Symbol
%%IncludeResource: font Helvetica
%%IncludeResource: font Helvetica-Oblique
%%IncludeResource: font Helvetica-Bold
%%IncludeResource: font Helvetica-BoldOblique
%%IncludeResource: font Times-Roman
%%IncludeResource: font Times-Italic
%%IncludeResource: font Times-Bold
%%IncludeResource: font Times-BoldItalic
%%IncludeResource: font Courier
%FOPEndFontDict
%%BeginResource: encoding WinAnsiEncoding
/WinAnsiEncoding [
/.notdef /.notdef /.notdef /.notdef /.notdef
/.notdef /.notdef /.notdef /.notdef /.notdef
/.notdef /.notdef /.notdef /.notdef /.notdef
/.notdef /.notdef /.notdef /.notdef /.notdef
/.notdef /.notdef /.notdef /.notdef /.notdef
/.notdef /.notdef /.notdef /.notdef /.notdef
/.notdef /.notdef /space /exclam /quotedbl
/numbersign /dollar /percent /ampersand /quotesingle
/parenleft /parenright /asterisk /plus /comma
/hyphen /period /slash /zero /one
/two /three /four /five /six
/seven /eight /nine /colon /semicolon
/less /equal /greater /question /at
/A /B /C /D /E
/F /G /H /I /J
/K /L /M /N /O
/P /Q /R /S /T
/U /V /W /X /Y
/Z /bracketleft /backslash /bracketright /asciicircum
/underscore /quoteleft /a /b /c
/d /e /f /g /h
/i /j /k /l /m
/n /o /p /q /r
/s /t /u /v /w
/x /y /z /braceleft /bar
/braceright /asciitilde /bullet /Euro /bullet
/quotesinglbase /florin /quotedblbase /ellipsis /dagger
/daggerdbl /circumflex /perthousand /Scaron /guilsinglleft
/OE /bullet /Zcaron /bullet /bullet
/quoteleft /quoteright /quotedblleft /quotedblright /bullet
/endash /emdash /asciitilde /trademark /scaron
/guilsinglright /oe /bullet /zcaron /Ydieresis
/space /exclamdown /cent /sterling /currency
/yen /brokenbar /section /dieresis /copyright
/ordfeminine /guillemotleft /logicalnot /sfthyphen /registered
/macron /degree /plusminus /twosuperior /threesuperior
/acute /mu /paragraph /middot /cedilla
/onesuperior /ordmasculine /guillemotright /onequarter /onehalf
/threequarters /questiondown /Agrave /Aacute /Acircumflex
/Atilde /Adieresis /Aring /AE /Ccedilla
/Egrave /Eacute /Ecircumflex /Edieresis /Igrave
/Iacute /Icircumflex /Idieresis /Eth /Ntilde
/Ograve /Oacute /Ocircumflex /Otilde /Odieresis
/multiply /Oslash /Ugrave /Uacute /Ucircumflex
/Udieresis /Yacute /Thorn /germandbls /agrave
/aacute /acircumflex /atilde /adieresis /aring
/ae /ccedilla /egrave /eacute /ecircumflex
/edieresis /igrave /iacute /icircumflex /idieresis
/eth /ntilde /ograve /oacute /ocircumflex
/otilde /odieresis /divide /oslash /ugrave
/uacute /ucircumflex /udieresis /yacute /thorn
/ydieresis
] def
%%EndResource
%FOPBeginFontReencode
/Courier-Oblique findfont
dup length dict begin
  {1 index /FID ne {def} {pop pop} ifelse} forall
  /Encoding WinAnsiEncoding def
  currentdict
end
/Courier-Oblique exch definefont pop
/Courier-BoldOblique findfont
dup length dict begin
  {1 index /FID ne {def} {pop pop} ifelse} forall
  /Encoding WinAnsiEncoding def
  currentdict
end
/Courier-BoldOblique exch definefont pop
/Courier-Bold findfont
dup length dict begin
  {1 index /FID ne {def} {pop pop} ifelse} forall
  /Encoding WinAnsiEncoding def
  currentdict
end
/Courier-Bold exch definefont pop
/Helvetica findfont
dup length dict begin
  {1 index /FID ne {def} {pop pop} ifelse} forall
  /Encoding WinAnsiEncoding def
  currentdict
end
/Helvetica exch definefont pop
/Helvetica-Oblique findfont
dup length dict begin
  {1 index /FID ne {def} {pop pop} ifelse} forall
  /Encoding WinAnsiEncoding def
  currentdict
end
/Helvetica-Oblique exch definefont pop
/Helvetica-Bold findfont
dup length dict begin
  {1 index /FID ne {def} {pop pop} ifelse} forall
  /Encoding WinAnsiEncoding def
  currentdict
end
/Helvetica-Bold exch definefont pop
/Helvetica-BoldOblique findfont
dup length dict begin
  {1 index /FID ne {def} {pop pop} ifelse} forall
  /Encoding WinAnsiEncoding def
  currentdict
end
/Helvetica-BoldOblique exch definefont pop
/Times-Roman findfont
dup length dict begin
  {1 index /FID ne {def} {pop pop} ifelse} forall
  /Encoding WinAnsiEncoding def
  currentdict
end
/Times-Roman exch definefont pop
/Times-Italic findfont
dup length dict begin
  {1 index /FID ne {def} {pop pop} ifelse} forall
  /Encoding WinAnsiEncoding def
  currentdict
end
/Times-Italic exch definefont pop
/Times-Bold findfont
dup length dict begin
  {1 index /FID ne {def} {pop pop} ifelse} forall
  /Encoding WinAnsiEncoding def
  currentdict
end
/Times-Bold exch definefont pop
/Times-BoldItalic findfont
dup length dict begin
  {1 index /FID ne {def} {pop pop} ifelse} forall
  /Encoding WinAnsiEncoding def
  currentdict
end
/Times-BoldItalic exch definefont pop
/Courier findfont
dup length dict begin
  {1 index /FID ne {def} {pop pop} ifelse} forall
  /Encoding WinAnsiEncoding def
  currentdict
end
/Courier exch definefont pop
%FOPEndFontReencode
%%EndProlog
%%Page: 1 1
%%PageBoundingBox: 0 0 420 315
%%BeginPageSetup
[1 0 0 -1 0 315] CT
%%EndPageSetup
GS
[0.75 0 0 0.75 0 0] CT
1 GC
N
0 0 560 420 re
f
GR
GS
[0.75 0 0 0.75 0 0] CT
1 GC
N
0 0 560 420 re
f
GR
GS
[0.75 0 0 0.75 0 0] CT
1 GC
N
73 372 M
507 372 L
507 31 L
73 31 L
cp
f
GR
GS
[0.75 0 0 0.75 0 0] CT
0.873 GC
1 LJ
0.667 LW
N
73 372 M
73 31 L
S
GR
GS
[0.75 0 0 0.75 0 0] CT
0.873 GC
1 LJ
0.667 LW
N
145.333 372 M
145.333 31 L
S
GR
GS
[0.75 0 0 0.75 0 0] CT
0.873 GC
1 LJ
0.667 LW
N
217.667 372 M
217.667 31 L
S
GR
GS
[0.75 0 0 0.75 0 0] CT
0.873 GC
1 LJ
0.667 LW
N
290 372 M
290 31 L
S
GR
GS
[0.75 0 0 0.75 0 0] CT
0.873 GC
1 LJ
0.667 LW
N
362.333 372 M
362.333 31 L
S
GR
GS
[0.75 0 0 0.75 0 0] CT
0.873 GC
1 LJ
0.667 LW
N
434.667 372 M
434.667 31 L
S
GR
GS
[0.75 0 0 0.75 0 0] CT
0.873 GC
1 LJ
0.667 LW
N
507 372 M
507 31 L
S
GR
GS
[0.75 0 0 0.75 0 0] CT
0.873 GC
1 LJ
0.667 LW
N
507 372 M
73 372 L
S
GR
GS
[0.75 0 0 0.75 0 0] CT
0.873 GC
1 LJ
0.667 LW
N
507 334.111 M
73 334.111 L
S
GR
GS
[0.75 0 0 0.75 0 0] CT
0.873 GC
1 LJ
0.667 LW
N
507 296.222 M
73 296.222 L
S
GR
GS
[0.75 0 0 0.75 0 0] CT
0.873 GC
1 LJ
0.667 LW
N
507 258.333 M
73 258.333 L
S
GR
GS
[0.75 0 0 0.75 0 0] CT
0.873 GC
1 LJ
0.667 LW
N
507 220.444 M
73 220.444 L
S
GR
GS
[0.75 0 0 0.75 0 0] CT
0.873 GC
1 LJ
0.667 LW
N
507 182.556 M
73 182.556 L
S
GR
GS
[0.75 0 0 0.75 0 0] CT
0.873 GC
1 LJ
0.667 LW
N
507 144.667 M
73 144.667 L
S
GR
GS
[0.75 0 0 0.75 0 0] CT
0.873 GC
1 LJ
0.667 LW
N
507 106.778 M
73 106.778 L
S
GR
GS
[0.75 0 0 0.75 0 0] CT
0.873 GC
1 LJ
0.667 LW
N
507 68.889 M
73 68.889 L
S
GR
GS
[0.75 0 0 0.75 0 0] CT
0.873 GC
1 LJ
0.667 LW
N
507 31 M
73 31 L
S
GR
GS
[0.75 0 0 0.75 0 0] CT
0.149 GC
2 setlinecap
1 LJ
0.667 LW
N
73 372 M
507 372 L
S
GR
GS
[0.75 0 0 0.75 0 0] CT
0.149 GC
2 setlinecap
1 LJ
0.667 LW
N
73 31 M
507 31 L
S
GR
GS
[0.75 0 0 0.75 0 0] CT
0.149 GC
2 setlinecap
1 LJ
0.667 LW
N
73 372 M
73 367.66 L
S
GR
GS
[0.75 0 0 0.75 0 0] CT
0.149 GC
2 setlinecap
1 LJ
0.667 LW
N
145.333 372 M
145.333 367.66 L
S
GR
GS
[0.75 0 0 0.75 0 0] CT
0.149 GC
2 setlinecap
1 LJ
0.667 LW
N
217.667 372 M
217.667 367.66 L
S
GR
GS
[0.75 0 0 0.75 0 0] CT
0.149 GC
2 setlinecap
1 LJ
0.667 LW
N
290 372 M
290 367.66 L
S
GR
GS
[0.75 0 0 0.75 0 0] CT
0.149 GC
2 setlinecap
1 LJ
0.667 LW
N
362.333 372 M
362.333 367.66 L
S
GR
GS
[0.75 0 0 0.75 0 0] CT
0.149 GC
2 setlinecap
1 LJ
0.667 LW
N
434.667 372 M
434.667 367.66 L
S
GR
GS
[0.75 0 0 0.75 0 0] CT
0.149 GC
2 setlinecap
1 LJ
0.667 LW
N
507 372 M
507 367.66 L
S
GR
GS
[0.75 0 0 0.75 0 0] CT
0.149 GC
2 setlinecap
1 LJ
0.667 LW
N
73 31 M
73 35.34 L
S
GR
GS
[0.75 0 0 0.75 0 0] CT
0.149 GC
2 setlinecap
1 LJ
0.667 LW
N
145.333 31 M
145.333 35.34 L
S
GR
GS
[0.75 0 0 0.75 0 0] CT
0.149 GC
2 setlinecap
1 LJ
0.667 LW
N
217.667 31 M
217.667 35.34 L
S
GR
GS
[0.75 0 0 0.75 0 0] CT
0.149 GC
2 setlinecap
1 LJ
0.667 LW
N
290 31 M
290 35.34 L
S
GR
GS
[0.75 0 0 0.75 0 0] CT
0.149 GC
2 setlinecap
1 LJ
0.667 LW
N
362.333 31 M
362.333 35.34 L
S
GR
GS
[0.75 0 0 0.75 0 0] CT
0.149 GC
2 setlinecap
1 LJ
0.667 LW
N
434.667 31 M
434.667 35.34 L
S
GR
GS
[0.75 0 0 0.75 0 0] CT
0.149 GC
2 setlinecap
1 LJ
0.667 LW
N
507 31 M
507 35.34 L
S
GR
GS
[0.75 0 0 0.75 54.75 283.00001] CT
0.149 GC
/Helvetica 13.333 F
GS
[1 0 0 1 0 0] CT
-11.5 14 moveto 
1 -1 scale
(300) t 
GR
GR
GS
[0.75 0 0 0.75 109 283.00001] CT
0.149 GC
/Helvetica 13.333 F
GS
[1 0 0 1 0 0] CT
-11.5 14 moveto 
1 -1 scale
(400) t 
GR
GR
GS
[0.75 0 0 0.75 163.25 283.00001] CT
0.149 GC
/Helvetica 13.333 F
GS
[1 0 0 1 0 0] CT
-11.5 14 moveto 
1 -1 scale
(500) t 
GR
GR
GS
[0.75 0 0 0.75 217.5 283.00001] CT
0.149 GC
/Helvetica 13.333 F
GS
[1 0 0 1 0 0] CT
-11.5 14 moveto 
1 -1 scale
(600) t 
GR
GR
GS
[0.75 0 0 0.75 271.75001 283.00001] CT
0.149 GC
/Helvetica 13.333 F
GS
[1 0 0 1 0 0] CT
-11.5 14 moveto 
1 -1 scale
(700) t 
GR
GR
GS
[0.75 0 0 0.75 325.99999 283.00001] CT
0.149 GC
/Helvetica 13.333 F
GS
[1 0 0 1 0 0] CT
-11.5 14 moveto 
1 -1 scale
(800) t 
GR
GR
GS
[0.75 0 0 0.75 380.25 283.00001] CT
0.149 GC
/Helvetica 13.333 F
GS
[1 0 0 1 0 0] CT
-11.5 14 moveto 
1 -1 scale
(900) t 
GR
GR
GS
[0.75 0 0 0.75 217.50016 297] CT
0.149 GC
/Helvetica 18.667 F
GS
[1 0 0 1 0 0] CT
-38.5 19 moveto 
1 -1 scale
(Time / ns) t 
GR
GR
GS
[0.75 0 0 0.75 0 0] CT
0.149 GC
2 setlinecap
1 LJ
0.667 LW
N
73 372 M
73 31 L
S
GR
GS
[0.75 0 0 0.75 0 0] CT
0.149 GC
2 setlinecap
1 LJ
0.667 LW
N
507 372 M
507 31 L
S
GR
GS
[0.75 0 0 0.75 0 0] CT
0.149 GC
2 setlinecap
1 LJ
0.667 LW
N
73 372 M
77.34 372 L
S
GR
GS
[0.75 0 0 0.75 0 0] CT
0.149 GC
2 setlinecap
1 LJ
0.667 LW
N
73 334.111 M
77.34 334.111 L
S
GR
GS
[0.75 0 0 0.75 0 0] CT
0.149 GC
2 setlinecap
1 LJ
0.667 LW
N
73 296.222 M
77.34 296.222 L
S
GR
GS
[0.75 0 0 0.75 0 0] CT
0.149 GC
2 setlinecap
1 LJ
0.667 LW
N
73 258.333 M
77.34 258.333 L
S
GR
GS
[0.75 0 0 0.75 0 0] CT
0.149 GC
2 setlinecap
1 LJ
0.667 LW
N
73 220.444 M
77.34 220.444 L
S
GR
GS
[0.75 0 0 0.75 0 0] CT
0.149 GC
2 setlinecap
1 LJ
0.667 LW
N
73 182.556 M
77.34 182.556 L
S
GR
GS
[0.75 0 0 0.75 0 0] CT
0.149 GC
2 setlinecap
1 LJ
0.667 LW
N
73 144.667 M
77.34 144.667 L
S
GR
GS
[0.75 0 0 0.75 0 0] CT
0.149 GC
2 setlinecap
1 LJ
0.667 LW
N
73 106.778 M
77.34 106.778 L
S
GR
GS
[0.75 0 0 0.75 0 0] CT
0.149 GC
2 setlinecap
1 LJ
0.667 LW
N
73 68.889 M
77.34 68.889 L
S
GR
GS
[0.75 0 0 0.75 0 0] CT
0.149 GC
2 setlinecap
1 LJ
0.667 LW
N
73 31 M
77.34 31 L
S
GR
GS
[0.75 0 0 0.75 0 0] CT
0.149 GC
2 setlinecap
1 LJ
0.667 LW
N
507 372 M
502.66 372 L
S
GR
GS
[0.75 0 0 0.75 0 0] CT
0.149 GC
2 setlinecap
1 LJ
0.667 LW
N
507 334.111 M
502.66 334.111 L
S
GR
GS
[0.75 0 0 0.75 0 0] CT
0.149 GC
2 setlinecap
1 LJ
0.667 LW
N
507 296.222 M
502.66 296.222 L
S
GR
GS
[0.75 0 0 0.75 0 0] CT
0.149 GC
2 setlinecap
1 LJ
0.667 LW
N
507 258.333 M
502.66 258.333 L
S
GR
GS
[0.75 0 0 0.75 0 0] CT
0.149 GC
2 setlinecap
1 LJ
0.667 LW
N
507 220.444 M
502.66 220.444 L
S
GR
GS
[0.75 0 0 0.75 0 0] CT
0.149 GC
2 setlinecap
1 LJ
0.667 LW
N
507 182.556 M
502.66 182.556 L
S
GR
GS
[0.75 0 0 0.75 0 0] CT
0.149 GC
2 setlinecap
1 LJ
0.667 LW
N
507 144.667 M
502.66 144.667 L
S
GR
GS
[0.75 0 0 0.75 0 0] CT
0.149 GC
2 setlinecap
1 LJ
0.667 LW
N
507 106.778 M
502.66 106.778 L
S
GR
GS
[0.75 0 0 0.75 0 0] CT
0.149 GC
2 setlinecap
1 LJ
0.667 LW
N
507 68.889 M
502.66 68.889 L
S
GR
GS
[0.75 0 0 0.75 0 0] CT
0.149 GC
2 setlinecap
1 LJ
0.667 LW
N
507 31 M
502.66 31 L
S
GR
GS
[0.75 0 0 0.75 50.75 279] CT
0.149 GC
/Helvetica 13.333 F
GS
[1 0 0 1 0 0] CT
-20 5.5 moveto 
1 -1 scale
(-10) t 
GR
GR
GS
[0.75 0 0 0.75 50.75 250.58334] CT
0.149 GC
/Helvetica 13.333 F
GS
[1 0 0 1 0 0] CT
-12 5.5 moveto 
1 -1 scale
(-5) t 
GR
GR
GS
[0.75 0 0 0.75 50.75 222.16667] CT
0.149 GC
/Helvetica 13.333 F
GS
[1 0 0 1 0 0] CT
-8 5.5 moveto 
1 -1 scale
(0) t 
GR
GR
GS
[0.75 0 0 0.75 50.75 193.75001] CT
0.149 GC
/Helvetica 13.333 F
GS
[1 0 0 1 0 0] CT
-8 5.5 moveto 
1 -1 scale
(5) t 
GR
GR
GS
[0.75 0 0 0.75 50.75 165.33333] CT
0.149 GC
/Helvetica 13.333 F
GS
[1 0 0 1 0 0] CT
-15 5.5 moveto 
1 -1 scale
(10) t 
GR
GR
GS
[0.75 0 0 0.75 50.75 136.91667] CT
0.149 GC
/Helvetica 13.333 F
GS
[1 0 0 1 0 0] CT
-15 5.5 moveto 
1 -1 scale
(15) t 
GR
GR
GS
[0.75 0 0 0.75 50.75 108.5] CT
0.149 GC
/Helvetica 13.333 F
GS
[1 0 0 1 0 0] CT
-15 5.5 moveto 
1 -1 scale
(20) t 
GR
GR
GS
[0.75 0 0 0.75 50.75 80.08333] CT
0.149 GC
/Helvetica 13.333 F
GS
[1 0 0 1 0 0] CT
-15 5.5 moveto 
1 -1 scale
(25) t 
GR
GR
GS
[0.75 0 0 0.75 50.75 51.66666] CT
0.149 GC
/Helvetica 13.333 F
GS
[1 0 0 1 0 0] CT
-15 5.5 moveto 
1 -1 scale
(30) t 
GR
GR
GS
[0.75 0 0 0.75 50.75 23.25] CT
0.149 GC
/Helvetica 13.333 F
GS
[1 0 0 1 0 0] CT
-15 5.5 moveto 
1 -1 scale
(35) t 
GR
GR
GS
[0 -0.75 0.75 0 32.74999 151.12489] CT
0.149 GC
/Helvetica 18.667 F
GS
[1 0 0 1 0 0] CT
-46 -5 moveto 
1 -1 scale
(Voltage / V) t 
GR
GR
GS
[0.75 0 0 0.75 0 0] CT
0 0.447 0.741 RC
1 LJ
2 LW
N
88.796 71.192 M
89.374 71.517 L
89.953 71.725 L
90.532 71.174 L
91.11 70.724 L
91.689 70.647 L
92.268 70.262 L
92.846 69.913 L
93.425 69.599 L
94.004 69.386 L
94.582 69.315 L
95.161 69.297 L
95.74 69.546 L
96.318 69.878 L
96.897 70.103 L
97.476 70.322 L
98.054 70.464 L
98.633 70.564 L
99.212 70.884 L
99.79 70.789 L
100.369 70.493 L
100.948 70.499 L
101.526 70.404 L
102.105 70.114 L
102.684 69.842 L
103.262 69.753 L
103.841 69.404 L
104.42 69.001 L
104.998 69.297 L
105.577 69.445 L
106.156 69.445 L
106.734 69.765 L
107.313 69.647 L
107.892 70.02 L
108.47 70.854 L
109.049 70.86 L
109.628 70.813 L
110.206 71.032 L
110.785 70.724 L
111.364 70.091 L
111.942 70.191 L
112.521 70.416 L
113.1 69.688 L
113.678 69.392 L
114.257 69.706 L
114.836 69.558 L
115.414 69.919 L
115.993 70.179 L
116.572 70.091 L
117.15 70.718 L
117.729 70.89 L
118.308 70.813 L
118.886 70.914 L
119.465 70.996 L
120.044 71.156 L
120.622 70.795 L
121.201 70.736 L
121.78 70.6 L
122.358 69.895 L
122.937 69.611 L
123.516 69.943 L
124.094 70.085 L
124.673 69.552 L
125.252 69.801 L
125.83 69.966 L
126.409 69.966 L
126.988 70.777 L
127.566 70.801 L
128.145 70.44 L
128.724 70.7 L
129.302 71.068 L
129.881 70.73 L
130.46 70.576 L
131.038 70.7 L
131.617 70.067 L
132.196 69.848 L
132.774 69.552 L
133.353 69.232 L
133.932 69.7 L
134.51 69.688 L
135.089 69.659 L
135.668 69.978 L
136.246 70.316 L
136.825 70.529 L
137.404 70.251 L
137.982 70.606 L
138.561 70.937 L
139.14 70.274 L
139.718 70.15 L
140.297 70.345 L
140.876 69.984 L
141.454 69.801 L
142.033 69.872 L
142.612 69.872 L
143.19 69.197 L
143.769 68.812 L
144.348 69.357 L
144.926 69.321 L
145.505 69.339 L
146.084 69.996 L
146.662 70.239 L
147.241 70.114 L
147.82 70.103 L
148.398 70.268 L
148.977 70.369 L
149.556 70.623 L
150.134 70.304 L
150.713 69.659 L
151.292 70.091 L
151.87 70.12 L
152.449 69.617 L
153.028 69.848 L
153.606 69.807 L
154.185 69.457 L
154.764 69.872 L
155.342 70.162 L
155.921 69.913 L
156.5 70.197 L
157.078 70.552 L
157.657 70.517 L
158.236 70.547 L
158.814 70.594 L
159.393 70.345 L
159.972 69.854 L
160.55 70.274 L
161.129 70.446 L
161.708 69.653 L
162.286 69.528 L
162.865 69.706 L
163.444 69.688 L
164.022 69.558 L
164.601 69.842 L
165.18 70.103 L
165.758 70.008 L
166.337 70.458 L
166.916 70.612 L
167.494 70.582 L
168.073 70.789 L
168.652 70.41 L
169.23 70.363 L
169.809 70.428 L
170.388 69.753 L
170.966 69.688 L
171.545 69.966 L
172.124 69.718 L
172.702 69.7 L
173.281 69.73 L
173.86 69.635 L
174.438 69.582 L
175.017 69.883 L
175.596 70.387 L
176.174 70.02 L
176.753 69.99 L
177.332 70.541 L
177.91 69.824 L
178.489 69.439 L
179.068 70.221 L
179.646 69.96 L
180.225 69.286 L
180.804 69.404 L
181.382 69.451 L
181.961 69.404 L
182.54 69.481 L
183.118 69.428 L
183.697 69.167 L
184.276 69.416 L
184.854 69.889 L
185.433 69.878 L
186.012 69.949 L
186.59 69.943 L
187.169 69.706 L
187.748 69.641 L
188.326 69.818 L
188.905 69.487 L
189.484 69.226 L
190.062 69.659 L
190.641 69.493 L
191.22 69.333 L
191.798 69.469 L
192.377 69.457 L
192.956 69.487 L
193.534 69.516 L
194.113 69.883 L
194.692 69.564 L
195.27 69.511 L
195.849 70.085 L
196.428 69.404 L
197.006 69.576 L
197.585 70.043 L
198.164 69.522 L
198.742 69.647 L
199.321 69.404 L
199.9 69.209 L
200.478 69.434 L
201.057 69.463 L
201.636 69.54 L
202.214 69.197 L
202.793 69.457 L
203.372 69.392 L
203.95 68.924 L
204.529 69.203 L
205.108 69.451 L
205.686 70.298 L
206.265 70.292 L
206.844 80.433 L
207.422 105.576 L
208.001 125.035 L
208.58 135.621 L
209.158 143.826 L
209.737 147.721 L
210.316 151.037 L
210.894 154.358 L
211.473 156.756 L
212.052 159.491 L
212.63 161.249 L
213.209 161.823 L
213.788 162.545 L
214.366 163.812 L
214.945 165.95 L
215.524 170.029 L
216.102 177.63 L
216.681 187.884 L
217.26 202.305 L
217.838 224.772 L
218.417 253.846 L
218.996 285.43 L
219.574 311.774 L
220.153 326.966 L
220.732 332.974 L
221.31 334.727 L
221.889 334.502 L
222.468 334.135 L
223.046 334.591 L
223.625 332.027 L
224.204 329.908 L
224.782 319.352 L
225.361 294.446 L
225.94 290.308 L
226.518 307.192 L
227.097 304.102 L
227.676 287.857 L
228.254 289.1 L
228.833 300.692 L
229.412 300.834 L
229.99 294.819 L
230.569 298.377 L
231.148 306.95 L
231.726 307.92 L
232.305 304.161 L
232.884 305.369 L
233.462 308.601 L
234.041 304.978 L
234.62 297.939 L
235.198 296.216 L
235.777 296.536 L
236.356 292.623 L
236.934 288.289 L
237.513 288.337 L
238.092 291.101 L
238.67 292.191 L
239.249 291.972 L
239.828 295.311 L
240.406 300.704 L
240.985 303.155 L
241.564 303.972 L
242.142 305.647 L
242.721 306.523 L
243.3 305.428 L
243.878 302.847 L
244.457 300.118 L
245.036 297.679 L
245.614 294.695 L
246.193 291.646 L
246.772 289.675 L
247.35 289.278 L
247.929 289.379 L
248.508 290.059 L
249.086 292.806 L
249.665 295.974 L
250.244 298.436 L
250.822 301.183 L
251.401 303.433 L
251.98 304.552 L
252.558 304.558 L
253.137 303.522 L
253.716 301.615 L
254.294 299.088 L
254.873 297.039 L
255.452 294.683 L
256.03 292.06 L
256.609 291.143 L
257.188 290.657 L
257.766 290.598 L
258.345 292.398 L
258.924 294.298 L
259.502 296.216 L
260.081 298.442 L
260.66 300.242 L
261.238 302.367 L
261.817 303.255 L
262.396 302.172 L
262.974 301.319 L
263.553 300.058 L
264.132 297.501 L
264.71 295.044 L
265.289 293.333 L
265.868 291.504 L
266.446 290.231 L
267.025 290.509 L
267.604 290.971 L
268.182 292.214 L
268.761 294.576 L
269.34 296.879 L
269.918 298.898 L
270.497 300.313 L
271.076 301.527 L
271.654 302.237 L
272.233 301.811 L
272.812 300.757 L
273.39 299.028 L
273.969 296.802 L
274.548 294.884 L
275.126 293.333 L
275.705 291.735 L
276.284 290.793 L
276.862 291.285 L
277.441 292.137 L
278.02 293.173 L
278.598 295.234 L
279.177 297.258 L
279.756 299.034 L
280.334 301.106 L
280.913 302.148 L
281.492 301.906 L
282.07 301.213 L
282.649 300.13 L
283.228 298.537 L
283.806 296.601 L
284.385 294.908 L
284.964 293.31 L
285.542 291.93 L
286.121 291.533 L
286.7 291.533 L
287.278 292.54 L
287.857 294.464 L
288.436 295.76 L
289.014 297.383 L
289.593 299.017 L
290.172 300.094 L
290.75 301.58 L
291.329 301.408 L
291.908 300.224 L
292.486 299.697 L
293.065 297.643 L
293.644 295.689 L
294.222 294.565 L
294.801 292.747 L
295.38 292.09 L
295.958 292.031 L
296.537 292.202 L
297.116 293.458 L
297.694 294.795 L
298.273 296.423 L
298.852 298.034 L
299.43 299.224 L
300.009 299.721 L
300.588 300.141 L
301.166 300.591 L
301.745 299.555 L
302.324 298.306 L
302.902 297.134 L
303.481 295.713 L
304.06 294.778 L
304.638 293.463 L
305.217 292.51 L
305.796 292.611 L
306.374 293.173 L
306.953 294.156 L
307.532 295.299 L
308.11 296.264 L
308.689 297.388 L
309.268 298.993 L
309.846 300.076 L
310.425 299.839 L
311.004 299.407 L
311.582 299.005 L
312.161 297.921 L
312.74 296.5 L
313.318 295.044 L
313.897 294.275 L
314.476 293.635 L
315.054 292.392 L
315.633 292.694 L
316.212 293.629 L
316.79 294.144 L
317.369 295.559 L
317.948 296.903 L
318.526 298.241 L
319.105 298.969 L
319.684 299.324 L
320.262 300.07 L
320.841 299.354 L
321.42 298.567 L
321.998 298.016 L
322.577 296.548 L
323.156 295.263 L
323.734 294.351 L
324.313 293.682 L
324.892 293.173 L
325.47 293.434 L
326.049 294.322 L
326.628 294.742 L
327.206 295.642 L
327.785 296.873 L
328.364 297.732 L
328.942 298.626 L
329.521 298.839 L
330.1 298.726 L
330.678 298.614 L
331.257 297.738 L
331.836 296.909 L
332.414 296.169 L
332.993 294.961 L
333.572 294.162 L
334.15 293.641 L
334.729 293.304 L
335.308 293.511 L
335.886 294.239 L
336.465 295.287 L
337.044 296.199 L
337.622 297.092 L
338.201 297.832 L
338.78 298.436 L
339.358 298.869 L
339.937 298.803 L
340.516 298.484 L
341.094 297.844 L
341.673 296.838 L
342.252 295.885 L
342.83 294.997 L
343.409 294.209 L
343.988 293.878 L
344.566 293.742 L
345.145 293.931 L
345.724 294.582 L
346.302 295.595 L
346.881 296.684 L
347.46 297.223 L
348.038 297.838 L
348.617 298.342 L
349.196 298.365 L
349.774 298.407 L
350.353 297.773 L
350.932 297.306 L
351.51 296.962 L
352.089 295.689 L
352.668 294.896 L
353.246 294.594 L
353.825 294.215 L
354.404 294.162 L
354.982 294.458 L
355.561 295.163 L
356.14 295.802 L
356.718 296.305 L
357.297 296.986 L
357.876 297.424 L
358.454 298.087 L
359.033 298.265 L
359.612 297.708 L
360.19 297.465 L
360.769 296.873 L
361.348 296.246 L
361.926 295.577 L
362.505 294.79 L
363.084 294.837 L
363.662 294.547 L
364.241 294.008 L
364.82 294.872 L
365.398 295.666 L
365.977 295.95 L
366.556 296.773 L
367.134 297.081 L
367.713 297.448 L
368.292 297.886 L
368.87 297.649 L
369.449 297.685 L
370.028 297.353 L
370.606 296.66 L
371.185 296.11 L
371.764 295.281 L
372.342 294.89 L
372.921 294.47 L
373.5 294.458 L
374.078 294.754 L
374.657 294.642 L
375.236 295.393 L
375.814 296.045 L
376.393 296.702 L
376.972 297.448 L
377.55 297.371 L
378.129 297.501 L
378.708 297.365 L
379.286 296.939 L
379.865 297.069 L
380.444 296.483 L
381.022 295.672 L
381.601 295.63 L
382.18 295.009 L
382.758 294.529 L
383.337 294.647 L
383.916 294.707 L
384.494 295.127 L
385.073 295.695 L
385.652 296.122 L
386.23 296.72 L
386.809 297.406 L
387.388 297.525 L
387.966 297.501 L
388.545 297.454 L
389.124 296.962 L
389.702 296.53 L
390.281 296.009 L
390.86 295.429 L
391.438 295.299 L
392.017 294.92 L
392.596 294.736 L
393.174 295.026 L
393.753 294.878 L
394.332 295.234 L
394.91 295.867 L
395.489 296.216 L
396.068 296.749 L
396.646 297.229 L
397.225 297.72 L
397.804 297.643 L
398.382 297.11 L
398.961 296.998 L
399.54 296.785 L
400.118 296.412 L
400.697 295.92 L
401.276 295.275 L
401.854 295.186 L
402.433 295.015 L
403.012 295.08 L
403.59 295.476 L
404.169 295.192 L
404.748 295.612 L
405.326 296.305 L
405.905 296.358 L
406.484 297.057 L
407.062 297.667 L
407.641 297.495 L
408.22 297.081 L
408.798 296.607 L
409.377 296.305 L
409.956 295.974 L
410.534 295.571 L
411.113 295.387 L
411.692 295.091 L
412.27 294.79 L
412.849 294.861 L
413.428 295.133 L
414.006 295.535 L
414.585 296.305 L
415.164 296.737 L
415.742 296.85 L
416.321 297.217 L
416.9 297.205 L
417.478 296.826 L
418.057 296.95 L
418.636 296.672 L
419.214 295.855 L
419.793 296.033 L
420.372 295.642 L
420.95 295.068 L
421.529 295.535 L
422.108 295.245 L
422.686 294.92 L
423.265 295.245 L
423.844 295.719 L
424.422 296.276 L
425.001 296.352 L
425.58 296.625 L
426.158 297.051 L
426.737 296.814 L
427.316 296.873 L
427.894 296.796 L
428.473 296.382 L
429.052 296.418 L
429.63 295.79 L
430.209 295.281 L
430.788 295.476 L
431.366 294.961 L
431.945 295.091 L
432.524 295.695 L
433.102 295.358 L
433.681 295.476 L
434.26 296.199 L
434.838 296.382 L
435.417 296.927 L
435.996 297.495 L
436.574 296.791 L
437.153 296.868 L
437.732 296.885 L
438.31 296.382 L
438.889 296.66 L
439.468 295.879 L
440.046 295.524 L
440.625 295.873 L
441.204 295.299 L
441.782 295.37 L
442.361 295.66 L
442.94 295.849 L
443.518 296.311 L
444.097 296.725 L
444.676 297.004 L
445.254 296.755 L
445.833 296.767 L
446.412 297.087 L
446.99 297.027 L
447.569 296.915 L
448.148 296.619 L
448.726 295.908 L
449.305 295.778 L
449.884 295.607 L
450.462 295.305 L
451.041 295.82 L
451.62 295.5 L
452.198 295.435 L
452.777 296.204 L
453.356 295.944 L
453.934 296.199 L
454.513 296.826 L
455.092 296.796 L
455.67 296.844 L
456.249 296.554 L
456.828 296.595 L
457.406 296.891 L
457.985 296.524 L
458.564 296.258 L
459.142 295.849 L
459.721 295.541 L
460.3 295.749 L
460.878 295.666 L
461.457 295.666 L
462.036 295.76 L
462.614 295.903 L
463.193 296.447 L
463.772 296.512 L
464.35 296.524 L
464.929 296.909 L
465.508 296.95 L
466.086 296.72 L
466.665 296.654 L
467.244 296.495 L
467.822 296.122 L
468.401 296.056 L
468.98 295.802 L
469.558 295.601 L
470.137 295.719 L
470.716 295.524 L
471.294 295.565 L
471.873 295.968 L
472.452 296.216 L
473.03 296.222 L
473.609 296.382 L
474.188 296.767 L
474.766 296.696 L
475.345 296.678 L
475.924 296.903 L
476.502 296.66 L
477.081 296.317 L
477.66 296.281 L
478.238 296.228 L
478.817 295.885 L
479.396 295.63 L
479.974 295.796 L
480.553 296.021 L
481.132 296.009 L
481.71 295.837 L
482.289 295.849 L
482.868 296.157 L
483.446 296.773 L
484.025 296.933 L
484.604 296.654 L
485.182 296.868 L
485.761 296.725 L
486.34 296.453 L
486.918 296.465 L
487.497 296.104 L
488.076 296.175 L
488.654 295.944 L
489.233 295.577 L
489.812 295.873 L
490.39 295.547 L
490.969 295.684 L
491.548 295.908 L
S
GR
%%Trailer
%%Pages: 1
%%EOF
