%!PS-Adobe-3.0 EPSF-3.0
%%Creator: (MATLAB, The Mathworks, Inc. Version 24.1.0.2603908 \(R2024a\) Update 3. Operating System: Windows 10)
%%Title: (C:/Users/lorde/Documents/MATLAB/Master Lab Course/Exercise 1/E1_1_bumblebee_rise.eps)
%%CreationDate: 2024-06-25T15:12:20
%%Pages: (atend)
%%BoundingBox:     0     0   420   315
%%LanguageLevel: 3
%%EndComments
%%BeginProlog
%%BeginResource: procset (Apache XML Graphics Std ProcSet) 1.2 0
%%Version: 1.2 0
%%Copyright: (Copyright 2001-2003,2010 The Apache Software Foundation. License terms: http://www.apache.org/licenses/LICENSE-2.0)
/bd{bind def}bind def
/ld{load def}bd
/GR/grestore ld
/GS/gsave ld
/RM/rmoveto ld
/C/curveto ld
/t/show ld
/L/lineto ld
/ML/setmiterlimit ld
/CT/concat ld
/f/fill ld
/N/newpath ld
/S/stroke ld
/CC/setcmykcolor ld
/A/ashow ld
/cp/closepath ld
/RC/setrgbcolor ld
/LJ/setlinejoin ld
/GC/setgray ld
/LW/setlinewidth ld
/M/moveto ld
/re {4 2 roll M
1 index 0 rlineto
0 exch rlineto
neg 0 rlineto
cp } bd
/_ctm matrix def
/_tm matrix def
/BT { _ctm currentmatrix pop matrix _tm copy pop 0 0 moveto } bd
/ET { _ctm setmatrix } bd
/iTm { _ctm setmatrix _tm concat } bd
/Tm { _tm astore pop iTm 0 0 moveto } bd
/ux 0.0 def
/uy 0.0 def
/F {
  /Tp exch def
  /Tf exch def
  Tf findfont Tp scalefont setfont
  /cf Tf def  /cs Tp def
} bd
/ULS {currentpoint /uy exch def /ux exch def} bd
/ULE {
  /Tcx currentpoint pop def
  gsave
  newpath
  cf findfont cs scalefont dup
  /FontMatrix get 0 get /Ts exch def /FontInfo get dup
  /UnderlinePosition get Ts mul /To exch def
  /UnderlineThickness get Ts mul /Tt exch def
  ux uy To add moveto  Tcx uy To add lineto
  Tt setlinewidth stroke
  grestore
} bd
/OLE {
  /Tcx currentpoint pop def
  gsave
  newpath
  cf findfont cs scalefont dup
  /FontMatrix get 0 get /Ts exch def /FontInfo get dup
  /UnderlinePosition get Ts mul /To exch def
  /UnderlineThickness get Ts mul /Tt exch def
  ux uy To add cs add moveto Tcx uy To add cs add lineto
  Tt setlinewidth stroke
  grestore
} bd
/SOE {
  /Tcx currentpoint pop def
  gsave
  newpath
  cf findfont cs scalefont dup
  /FontMatrix get 0 get /Ts exch def /FontInfo get dup
  /UnderlinePosition get Ts mul /To exch def
  /UnderlineThickness get Ts mul /Tt exch def
  ux uy To add cs 10 mul 26 idiv add moveto Tcx uy To add cs 10 mul 26 idiv add lineto
  Tt setlinewidth stroke
  grestore
} bd
/QT {
/Y22 exch store
/X22 exch store
/Y21 exch store
/X21 exch store
currentpoint
/Y21 load 2 mul add 3 div exch
/X21 load 2 mul add 3 div exch
/X21 load 2 mul /X22 load add 3 div
/Y21 load 2 mul /Y22 load add 3 div
/X22 load /Y22 load curveto
} bd
/SSPD {
dup length /d exch dict def
{
/v exch def
/k exch def
currentpagedevice k known {
/cpdv currentpagedevice k get def
v cpdv ne {
/upd false def
/nullv v type /nulltype eq def
/nullcpdv cpdv type /nulltype eq def
nullv nullcpdv or
{
/upd true def
} {
/sametype v type cpdv type eq def
sametype {
v type /arraytype eq {
/vlen v length def
/cpdvlen cpdv length def
vlen cpdvlen eq {
0 1 vlen 1 sub {
/i exch def
/obj v i get def
/cpdobj cpdv i get def
obj cpdobj ne {
/upd true def
exit
} if
} for
} {
/upd true def
} ifelse
} {
v type /dicttype eq {
v {
/dv exch def
/dk exch def
/cpddv cpdv dk get def
dv cpddv ne {
/upd true def
exit
} if
} forall
} {
/upd true def
} ifelse
} ifelse
} if
} ifelse
upd true eq {
d k v put
} if
} if
} if
} forall
d length 0 gt {
d setpagedevice
} if
} bd
/RE { % /NewFontName [NewEncodingArray] /FontName RE -
  findfont dup length dict begin
  {
    1 index /FID ne
    {def} {pop pop} ifelse
  } forall
  /Encoding exch def
  /FontName 1 index def
  currentdict definefont pop
  end
} bind def
%%EndResource
%%BeginResource: procset (Apache XML Graphics EPS ProcSet) 1.0 0
%%Version: 1.0 0
%%Copyright: (Copyright 2002-2003 The Apache Software Foundation. License terms: http://www.apache.org/licenses/LICENSE-2.0)
/BeginEPSF { %def
/b4_Inc_state save def         % Save state for cleanup
/dict_count countdictstack def % Count objects on dict stack
/op_count count 1 sub def      % Count objects on operand stack
userdict begin                 % Push userdict on dict stack
/showpage { } def              % Redefine showpage, { } = null proc
0 setgray 0 setlinecap         % Prepare graphics state
1 setlinewidth 0 setlinejoin
10 setmiterlimit [ ] 0 setdash newpath
/languagelevel where           % If level not equal to 1 then
{pop languagelevel             % set strokeadjust and
1 ne                           % overprint to their defaults.
{false setstrokeadjust false setoverprint
} if
} if
} bd
/EndEPSF { %def
count op_count sub {pop} repeat            % Clean up stacks
countdictstack dict_count sub {end} repeat
b4_Inc_state restore
} bd
%%EndResource
%FOPBeginFontDict
%%IncludeResource: font Courier-Oblique
%%IncludeResource: font Courier-BoldOblique
%%IncludeResource: font Courier-Bold
%%IncludeResource: font ZapfDingbats
%%IncludeResource: font Symbol
%%IncludeResource: font Helvetica
%%IncludeResource: font Helvetica-Oblique
%%IncludeResource: font Helvetica-Bold
%%IncludeResource: font Helvetica-BoldOblique
%%IncludeResource: font Times-Roman
%%IncludeResource: font Times-Italic
%%IncludeResource: font Times-Bold
%%IncludeResource: font Times-BoldItalic
%%IncludeResource: font Courier
%FOPEndFontDict
%%BeginResource: encoding WinAnsiEncoding
/WinAnsiEncoding [
/.notdef /.notdef /.notdef /.notdef /.notdef
/.notdef /.notdef /.notdef /.notdef /.notdef
/.notdef /.notdef /.notdef /.notdef /.notdef
/.notdef /.notdef /.notdef /.notdef /.notdef
/.notdef /.notdef /.notdef /.notdef /.notdef
/.notdef /.notdef /.notdef /.notdef /.notdef
/.notdef /.notdef /space /exclam /quotedbl
/numbersign /dollar /percent /ampersand /quotesingle
/parenleft /parenright /asterisk /plus /comma
/hyphen /period /slash /zero /one
/two /three /four /five /six
/seven /eight /nine /colon /semicolon
/less /equal /greater /question /at
/A /B /C /D /E
/F /G /H /I /J
/K /L /M /N /O
/P /Q /R /S /T
/U /V /W /X /Y
/Z /bracketleft /backslash /bracketright /asciicircum
/underscore /quoteleft /a /b /c
/d /e /f /g /h
/i /j /k /l /m
/n /o /p /q /r
/s /t /u /v /w
/x /y /z /braceleft /bar
/braceright /asciitilde /bullet /Euro /bullet
/quotesinglbase /florin /quotedblbase /ellipsis /dagger
/daggerdbl /circumflex /perthousand /Scaron /guilsinglleft
/OE /bullet /Zcaron /bullet /bullet
/quoteleft /quoteright /quotedblleft /quotedblright /bullet
/endash /emdash /asciitilde /trademark /scaron
/guilsinglright /oe /bullet /zcaron /Ydieresis
/space /exclamdown /cent /sterling /currency
/yen /brokenbar /section /dieresis /copyright
/ordfeminine /guillemotleft /logicalnot /sfthyphen /registered
/macron /degree /plusminus /twosuperior /threesuperior
/acute /mu /paragraph /middot /cedilla
/onesuperior /ordmasculine /guillemotright /onequarter /onehalf
/threequarters /questiondown /Agrave /Aacute /Acircumflex
/Atilde /Adieresis /Aring /AE /Ccedilla
/Egrave /Eacute /Ecircumflex /Edieresis /Igrave
/Iacute /Icircumflex /Idieresis /Eth /Ntilde
/Ograve /Oacute /Ocircumflex /Otilde /Odieresis
/multiply /Oslash /Ugrave /Uacute /Ucircumflex
/Udieresis /Yacute /Thorn /germandbls /agrave
/aacute /acircumflex /atilde /adieresis /aring
/ae /ccedilla /egrave /eacute /ecircumflex
/edieresis /igrave /iacute /icircumflex /idieresis
/eth /ntilde /ograve /oacute /ocircumflex
/otilde /odieresis /divide /oslash /ugrave
/uacute /ucircumflex /udieresis /yacute /thorn
/ydieresis
] def
%%EndResource
%FOPBeginFontReencode
/Courier-Oblique findfont
dup length dict begin
  {1 index /FID ne {def} {pop pop} ifelse} forall
  /Encoding WinAnsiEncoding def
  currentdict
end
/Courier-Oblique exch definefont pop
/Courier-BoldOblique findfont
dup length dict begin
  {1 index /FID ne {def} {pop pop} ifelse} forall
  /Encoding WinAnsiEncoding def
  currentdict
end
/Courier-BoldOblique exch definefont pop
/Courier-Bold findfont
dup length dict begin
  {1 index /FID ne {def} {pop pop} ifelse} forall
  /Encoding WinAnsiEncoding def
  currentdict
end
/Courier-Bold exch definefont pop
/Helvetica findfont
dup length dict begin
  {1 index /FID ne {def} {pop pop} ifelse} forall
  /Encoding WinAnsiEncoding def
  currentdict
end
/Helvetica exch definefont pop
/Helvetica-Oblique findfont
dup length dict begin
  {1 index /FID ne {def} {pop pop} ifelse} forall
  /Encoding WinAnsiEncoding def
  currentdict
end
/Helvetica-Oblique exch definefont pop
/Helvetica-Bold findfont
dup length dict begin
  {1 index /FID ne {def} {pop pop} ifelse} forall
  /Encoding WinAnsiEncoding def
  currentdict
end
/Helvetica-Bold exch definefont pop
/Helvetica-BoldOblique findfont
dup length dict begin
  {1 index /FID ne {def} {pop pop} ifelse} forall
  /Encoding WinAnsiEncoding def
  currentdict
end
/Helvetica-BoldOblique exch definefont pop
/Times-Roman findfont
dup length dict begin
  {1 index /FID ne {def} {pop pop} ifelse} forall
  /Encoding WinAnsiEncoding def
  currentdict
end
/Times-Roman exch definefont pop
/Times-Italic findfont
dup length dict begin
  {1 index /FID ne {def} {pop pop} ifelse} forall
  /Encoding WinAnsiEncoding def
  currentdict
end
/Times-Italic exch definefont pop
/Times-Bold findfont
dup length dict begin
  {1 index /FID ne {def} {pop pop} ifelse} forall
  /Encoding WinAnsiEncoding def
  currentdict
end
/Times-Bold exch definefont pop
/Times-BoldItalic findfont
dup length dict begin
  {1 index /FID ne {def} {pop pop} ifelse} forall
  /Encoding WinAnsiEncoding def
  currentdict
end
/Times-BoldItalic exch definefont pop
/Courier findfont
dup length dict begin
  {1 index /FID ne {def} {pop pop} ifelse} forall
  /Encoding WinAnsiEncoding def
  currentdict
end
/Courier exch definefont pop
%FOPEndFontReencode
%%EndProlog
%%Page: 1 1
%%PageBoundingBox: 0 0 420 315
%%BeginPageSetup
[1 0 0 -1 0 315] CT
%%EndPageSetup
GS
[0.75 0 0 0.75 0 0] CT
1 GC
N
0 0 560 420 re
f
GR
GS
[0.75 0 0 0.75 0 0] CT
1 GC
N
0 0 560 420 re
f
GR
GS
[0.75 0 0 0.75 0 0] CT
1 GC
N
73 372 M
507 372 L
507 31 L
73 31 L
cp
f
GR
GS
[0.75 0 0 0.75 0 0] CT
0.873 GC
1 LJ
0.667 LW
N
73 372 M
73 31 L
S
GR
GS
[0.75 0 0 0.75 0 0] CT
0.873 GC
1 LJ
0.667 LW
N
145.333 372 M
145.333 31 L
S
GR
GS
[0.75 0 0 0.75 0 0] CT
0.873 GC
1 LJ
0.667 LW
N
217.667 372 M
217.667 31 L
S
GR
GS
[0.75 0 0 0.75 0 0] CT
0.873 GC
1 LJ
0.667 LW
N
290 372 M
290 31 L
S
GR
GS
[0.75 0 0 0.75 0 0] CT
0.873 GC
1 LJ
0.667 LW
N
362.333 372 M
362.333 31 L
S
GR
GS
[0.75 0 0 0.75 0 0] CT
0.873 GC
1 LJ
0.667 LW
N
434.667 372 M
434.667 31 L
S
GR
GS
[0.75 0 0 0.75 0 0] CT
0.873 GC
1 LJ
0.667 LW
N
507 372 M
507 31 L
S
GR
GS
[0.75 0 0 0.75 0 0] CT
0.873 GC
1 LJ
0.667 LW
N
507 347.89 M
73 347.89 L
S
GR
GS
[0.75 0 0 0.75 0 0] CT
0.873 GC
1 LJ
0.667 LW
N
507 313.79 M
73 313.79 L
S
GR
GS
[0.75 0 0 0.75 0 0] CT
0.873 GC
1 LJ
0.667 LW
N
507 279.69 M
73 279.69 L
S
GR
GS
[0.75 0 0 0.75 0 0] CT
0.873 GC
1 LJ
0.667 LW
N
507 245.59 M
73 245.59 L
S
GR
GS
[0.75 0 0 0.75 0 0] CT
0.873 GC
1 LJ
0.667 LW
N
507 211.49 M
73 211.49 L
S
GR
GS
[0.75 0 0 0.75 0 0] CT
0.873 GC
1 LJ
0.667 LW
N
507 177.39 M
73 177.39 L
S
GR
GS
[0.75 0 0 0.75 0 0] CT
0.873 GC
1 LJ
0.667 LW
N
507 143.29 M
73 143.29 L
S
GR
GS
[0.75 0 0 0.75 0 0] CT
0.873 GC
1 LJ
0.667 LW
N
507 109.19 M
73 109.19 L
S
GR
GS
[0.75 0 0 0.75 0 0] CT
0.873 GC
1 LJ
0.667 LW
N
507 75.09 M
73 75.09 L
S
GR
GS
[0.75 0 0 0.75 0 0] CT
0.873 GC
1 LJ
0.667 LW
N
507 40.99 M
73 40.99 L
S
GR
GS
[0.75 0 0 0.75 0 0] CT
0.149 GC
2 setlinecap
1 LJ
0.667 LW
N
73 372 M
507 372 L
S
GR
GS
[0.75 0 0 0.75 0 0] CT
0.149 GC
2 setlinecap
1 LJ
0.667 LW
N
73 31 M
507 31 L
S
GR
GS
[0.75 0 0 0.75 0 0] CT
0.149 GC
2 setlinecap
1 LJ
0.667 LW
N
73 372 M
73 367.66 L
S
GR
GS
[0.75 0 0 0.75 0 0] CT
0.149 GC
2 setlinecap
1 LJ
0.667 LW
N
145.333 372 M
145.333 367.66 L
S
GR
GS
[0.75 0 0 0.75 0 0] CT
0.149 GC
2 setlinecap
1 LJ
0.667 LW
N
217.667 372 M
217.667 367.66 L
S
GR
GS
[0.75 0 0 0.75 0 0] CT
0.149 GC
2 setlinecap
1 LJ
0.667 LW
N
290 372 M
290 367.66 L
S
GR
GS
[0.75 0 0 0.75 0 0] CT
0.149 GC
2 setlinecap
1 LJ
0.667 LW
N
362.333 372 M
362.333 367.66 L
S
GR
GS
[0.75 0 0 0.75 0 0] CT
0.149 GC
2 setlinecap
1 LJ
0.667 LW
N
434.667 372 M
434.667 367.66 L
S
GR
GS
[0.75 0 0 0.75 0 0] CT
0.149 GC
2 setlinecap
1 LJ
0.667 LW
N
507 372 M
507 367.66 L
S
GR
GS
[0.75 0 0 0.75 0 0] CT
0.149 GC
2 setlinecap
1 LJ
0.667 LW
N
73 31 M
73 35.34 L
S
GR
GS
[0.75 0 0 0.75 0 0] CT
0.149 GC
2 setlinecap
1 LJ
0.667 LW
N
145.333 31 M
145.333 35.34 L
S
GR
GS
[0.75 0 0 0.75 0 0] CT
0.149 GC
2 setlinecap
1 LJ
0.667 LW
N
217.667 31 M
217.667 35.34 L
S
GR
GS
[0.75 0 0 0.75 0 0] CT
0.149 GC
2 setlinecap
1 LJ
0.667 LW
N
290 31 M
290 35.34 L
S
GR
GS
[0.75 0 0 0.75 0 0] CT
0.149 GC
2 setlinecap
1 LJ
0.667 LW
N
362.333 31 M
362.333 35.34 L
S
GR
GS
[0.75 0 0 0.75 0 0] CT
0.149 GC
2 setlinecap
1 LJ
0.667 LW
N
434.667 31 M
434.667 35.34 L
S
GR
GS
[0.75 0 0 0.75 0 0] CT
0.149 GC
2 setlinecap
1 LJ
0.667 LW
N
507 31 M
507 35.34 L
S
GR
GS
[0.75 0 0 0.75 54.75 283.00001] CT
0.149 GC
/Helvetica 13.333 F
GS
[1 0 0 1 0 0] CT
-11.5 14 moveto 
1 -1 scale
(900) t 
GR
GR
GS
[0.75 0 0 0.75 109 283.00001] CT
0.149 GC
/Helvetica 13.333 F
GS
[1 0 0 1 0 0] CT
-15 14 moveto 
1 -1 scale
(1000) t 
GR
GR
GS
[0.75 0 0 0.75 163.25 283.00001] CT
0.149 GC
/Helvetica 13.333 F
GS
[1 0 0 1 0 0] CT
-15 14 moveto 
1 -1 scale
(1100) t 
GR
GR
GS
[0.75 0 0 0.75 217.5 283.00001] CT
0.149 GC
/Helvetica 13.333 F
GS
[1 0 0 1 0 0] CT
-15 14 moveto 
1 -1 scale
(1200) t 
GR
GR
GS
[0.75 0 0 0.75 271.75001 283.00001] CT
0.149 GC
/Helvetica 13.333 F
GS
[1 0 0 1 0 0] CT
-15 14 moveto 
1 -1 scale
(1300) t 
GR
GR
GS
[0.75 0 0 0.75 325.99999 283.00001] CT
0.149 GC
/Helvetica 13.333 F
GS
[1 0 0 1 0 0] CT
-15 14 moveto 
1 -1 scale
(1400) t 
GR
GR
GS
[0.75 0 0 0.75 380.25 283.00001] CT
0.149 GC
/Helvetica 13.333 F
GS
[1 0 0 1 0 0] CT
-15 14 moveto 
1 -1 scale
(1500) t 
GR
GR
GS
[0.75 0 0 0.75 217.50014 297] CT
0.149 GC
/Helvetica 18.667 F
GS
[1 0 0 1 0 0] CT
-38.5 19 moveto 
1 -1 scale
(Time / ns) t 
GR
GR
GS
[0.75 0 0 0.75 0 0] CT
0.149 GC
2 setlinecap
1 LJ
0.667 LW
N
73 372 M
73 31 L
S
GR
GS
[0.75 0 0 0.75 0 0] CT
0.149 GC
2 setlinecap
1 LJ
0.667 LW
N
507 372 M
507 31 L
S
GR
GS
[0.75 0 0 0.75 0 0] CT
0.149 GC
2 setlinecap
1 LJ
0.667 LW
N
73 347.89 M
77.34 347.89 L
S
GR
GS
[0.75 0 0 0.75 0 0] CT
0.149 GC
2 setlinecap
1 LJ
0.667 LW
N
73 313.79 M
77.34 313.79 L
S
GR
GS
[0.75 0 0 0.75 0 0] CT
0.149 GC
2 setlinecap
1 LJ
0.667 LW
N
73 279.69 M
77.34 279.69 L
S
GR
GS
[0.75 0 0 0.75 0 0] CT
0.149 GC
2 setlinecap
1 LJ
0.667 LW
N
73 245.59 M
77.34 245.59 L
S
GR
GS
[0.75 0 0 0.75 0 0] CT
0.149 GC
2 setlinecap
1 LJ
0.667 LW
N
73 211.49 M
77.34 211.49 L
S
GR
GS
[0.75 0 0 0.75 0 0] CT
0.149 GC
2 setlinecap
1 LJ
0.667 LW
N
73 177.39 M
77.34 177.39 L
S
GR
GS
[0.75 0 0 0.75 0 0] CT
0.149 GC
2 setlinecap
1 LJ
0.667 LW
N
73 143.29 M
77.34 143.29 L
S
GR
GS
[0.75 0 0 0.75 0 0] CT
0.149 GC
2 setlinecap
1 LJ
0.667 LW
N
73 109.19 M
77.34 109.19 L
S
GR
GS
[0.75 0 0 0.75 0 0] CT
0.149 GC
2 setlinecap
1 LJ
0.667 LW
N
73 75.09 M
77.34 75.09 L
S
GR
GS
[0.75 0 0 0.75 0 0] CT
0.149 GC
2 setlinecap
1 LJ
0.667 LW
N
73 40.99 M
77.34 40.99 L
S
GR
GS
[0.75 0 0 0.75 0 0] CT
0.149 GC
2 setlinecap
1 LJ
0.667 LW
N
507 347.89 M
502.66 347.89 L
S
GR
GS
[0.75 0 0 0.75 0 0] CT
0.149 GC
2 setlinecap
1 LJ
0.667 LW
N
507 313.79 M
502.66 313.79 L
S
GR
GS
[0.75 0 0 0.75 0 0] CT
0.149 GC
2 setlinecap
1 LJ
0.667 LW
N
507 279.69 M
502.66 279.69 L
S
GR
GS
[0.75 0 0 0.75 0 0] CT
0.149 GC
2 setlinecap
1 LJ
0.667 LW
N
507 245.59 M
502.66 245.59 L
S
GR
GS
[0.75 0 0 0.75 0 0] CT
0.149 GC
2 setlinecap
1 LJ
0.667 LW
N
507 211.49 M
502.66 211.49 L
S
GR
GS
[0.75 0 0 0.75 0 0] CT
0.149 GC
2 setlinecap
1 LJ
0.667 LW
N
507 177.39 M
502.66 177.39 L
S
GR
GS
[0.75 0 0 0.75 0 0] CT
0.149 GC
2 setlinecap
1 LJ
0.667 LW
N
507 143.29 M
502.66 143.29 L
S
GR
GS
[0.75 0 0 0.75 0 0] CT
0.149 GC
2 setlinecap
1 LJ
0.667 LW
N
507 109.19 M
502.66 109.19 L
S
GR
GS
[0.75 0 0 0.75 0 0] CT
0.149 GC
2 setlinecap
1 LJ
0.667 LW
N
507 75.09 M
502.66 75.09 L
S
GR
GS
[0.75 0 0 0.75 0 0] CT
0.149 GC
2 setlinecap
1 LJ
0.667 LW
N
507 40.99 M
502.66 40.99 L
S
GR
GS
[0.75 0 0 0.75 50.74999 260.91767] CT
0.149 GC
/Helvetica 13.333 F
GS
[1 0 0 1 0 0] CT
-8 5.5 moveto 
1 -1 scale
(0) t 
GR
GR
GS
[0.75 0 0 0.75 50.74999 235.34267] CT
0.149 GC
/Helvetica 13.333 F
GS
[1 0 0 1 0 0] CT
-8 5.5 moveto 
1 -1 scale
(5) t 
GR
GR
GS
[0.75 0 0 0.75 50.74999 209.76768] CT
0.149 GC
/Helvetica 13.333 F
GS
[1 0 0 1 0 0] CT
-15 5.5 moveto 
1 -1 scale
(10) t 
GR
GR
GS
[0.75 0 0 0.75 50.74999 184.19268] CT
0.149 GC
/Helvetica 13.333 F
GS
[1 0 0 1 0 0] CT
-15 5.5 moveto 
1 -1 scale
(15) t 
GR
GR
GS
[0.75 0 0 0.75 50.74999 158.61768] CT
0.149 GC
/Helvetica 13.333 F
GS
[1 0 0 1 0 0] CT
-15 5.5 moveto 
1 -1 scale
(20) t 
GR
GR
GS
[0.75 0 0 0.75 50.74999 133.04267] CT
0.149 GC
/Helvetica 13.333 F
GS
[1 0 0 1 0 0] CT
-15 5.5 moveto 
1 -1 scale
(25) t 
GR
GR
GS
[0.75 0 0 0.75 50.74999 107.46768] CT
0.149 GC
/Helvetica 13.333 F
GS
[1 0 0 1 0 0] CT
-15 5.5 moveto 
1 -1 scale
(30) t 
GR
GR
GS
[0.75 0 0 0.75 50.74999 81.89267] CT
0.149 GC
/Helvetica 13.333 F
GS
[1 0 0 1 0 0] CT
-15 5.5 moveto 
1 -1 scale
(35) t 
GR
GR
GS
[0.75 0 0 0.75 50.74999 56.31767] CT
0.149 GC
/Helvetica 13.333 F
GS
[1 0 0 1 0 0] CT
-15 5.5 moveto 
1 -1 scale
(40) t 
GR
GR
GS
[0.75 0 0 0.75 50.74999 30.74268] CT
0.149 GC
/Helvetica 13.333 F
GS
[1 0 0 1 0 0] CT
-15 5.5 moveto 
1 -1 scale
(45) t 
GR
GR
GS
[0 -0.75 0.75 0 36.5 151.12487] CT
0.149 GC
/Helvetica 18.667 F
GS
[1 0 0 1 0 0] CT
-46 -5 moveto 
1 -1 scale
(Voltage / V) t 
GR
GR
GS
[0.75 0 0 0.75 0 0] CT
0 0.447 0.741 RC
1 LJ
2 LW
N
101.875 345.716 M
102.453 342.392 L
103.032 344.608 L
103.611 345.311 L
104.189 345.013 L
104.768 346.526 L
105.347 346.718 L
105.925 349.808 L
106.504 349.212 L
107.083 348.871 L
107.661 353.368 L
108.24 349.979 L
108.819 349.041 L
109.397 351.3 L
109.976 345.887 L
110.555 346.889 L
111.133 347.592 L
111.712 344.821 L
112.291 347.784 L
112.869 345.716 L
113.448 346.718 L
114.027 348.018 L
114.605 345.29 L
115.184 348.359 L
115.763 349.126 L
116.341 349.83 L
116.92 349.425 L
117.499 347.741 L
118.077 350.043 L
118.656 348.807 L
119.235 346.057 L
119.813 346.675 L
120.392 346.292 L
120.971 344.928 L
121.549 343.393 L
122.128 345.418 L
122.707 349.254 L
123.285 346.931 L
123.864 348.039 L
124.443 347.933 L
125.021 343.479 L
125.6 350.938 L
126.179 353.368 L
126.757 347.038 L
127.336 348.828 L
127.915 348.53 L
128.493 345.78 L
129.072 347.187 L
129.651 348.231 L
130.229 346.1 L
130.808 346.526 L
131.387 348.167 L
131.965 345.802 L
132.544 347.08 L
133.123 347.954 L
133.701 346.164 L
134.28 346.675 L
134.859 348.359 L
135.437 349.702 L
136.016 347.251 L
136.595 347.954 L
137.173 351.258 L
137.752 349.361 L
138.331 348.53 L
138.909 345.546 L
139.488 337.468 L
140.067 327.068 L
140.645 312.98 L
141.224 302.665 L
141.803 289.878 L
142.381 272.487 L
142.96 259.742 L
143.539 243.033 L
144.117 227.73 L
144.696 217.266 L
145.275 195.548 L
145.853 166.883 L
146.432 142.523 L
147.011 115.499 L
147.589 83.466 L
148.168 57.763 L
148.747 47.192 L
149.325 54.673 L
149.904 71.851 L
150.483 103.521 L
151.061 149.727 L
151.64 186.704 L
152.219 221.187 L
152.797 253.05 L
153.376 263.514 L
153.955 263.28 L
154.533 250.172 L
155.112 219.653 L
155.691 186.938 L
156.269 149.236 L
156.848 109.041 L
157.427 82.699 L
158.005 72.064 L
158.584 68.867 L
159.163 73.492 L
159.741 98.577 L
160.32 133.188 L
160.899 159.893 L
161.477 192.075 L
162.056 227.517 L
162.635 247.487 L
163.213 252.389 L
163.792 250.364 L
164.371 236.703 L
164.949 205.778 L
165.528 174.982 L
166.107 144.377 L
166.685 107.272 L
167.264 84.553 L
167.843 75.431 L
168.421 68.995 L
169 79.608 L
169.579 103.521 L
170.157 128.585 L
170.736 160.958 L
171.315 194.419 L
171.893 219.653 L
172.472 236.809 L
173.051 244.333 L
173.629 240.092 L
174.208 223.617 L
174.787 200.834 L
175.365 175.238 L
175.944 142.651 L
176.523 116.223 L
177.101 101.923 L
177.68 87.004 L
178.259 85.363 L
178.837 98.278 L
179.416 114.476 L
179.995 143.354 L
180.573 171.913 L
181.152 193.14 L
181.731 214.41 L
182.309 229.307 L
182.888 233.804 L
183.467 225.855 L
184.045 211.682 L
184.624 189.773 L
185.203 160.255 L
185.781 138.41 L
186.36 116.522 L
186.939 96.339 L
187.517 94.826 L
188.096 95.422 L
188.675 100.964 L
189.253 126.794 L
189.832 149.471 L
190.411 168.503 L
190.989 195.016 L
191.568 210.574 L
192.147 219.248 L
192.725 224.448 L
193.304 216.797 L
193.883 203.306 L
194.461 182.335 L
195.04 161.747 L
195.619 142.736 L
196.197 119.612 L
196.776 109.19 L
197.355 106.547 L
197.933 102.2 L
198.512 112.835 L
199.091 135.021 L
199.669 150.366 L
200.248 168.418 L
200.827 187.492 L
201.405 198.958 L
201.984 212.108 L
202.563 211.831 L
203.141 201.26 L
203.72 194.781 L
204.299 176.836 L
204.877 153.669 L
205.456 138.346 L
206.035 125.089 L
206.613 111.769 L
207.192 106.313 L
207.771 112.856 L
208.349 122.852 L
208.928 135.575 L
209.507 156.12 L
210.085 174.598 L
210.664 184.359 L
211.243 197.04 L
211.821 207.782 L
212.4 205.139 L
212.979 199.022 L
213.557 190.796 L
214.136 174.236 L
214.715 156.717 L
215.293 142.502 L
215.872 128.521 L
216.451 117.758 L
217.029 117.907 L
217.608 122.447 L
218.187 127.114 L
218.765 141.585 L
219.344 154.565 L
219.923 165.562 L
220.501 185.638 L
221.08 197.999 L
221.659 197.552 L
222.237 197.253 L
222.816 194.227 L
223.395 179.287 L
223.973 162.258 L
224.552 152.348 L
225.131 139.177 L
225.709 126.539 L
226.288 124.642 L
226.867 122.127 L
227.445 121.999 L
228.024 132.719 L
228.603 146.253 L
229.181 162.599 L
229.76 173.469 L
230.339 181.461 L
230.917 194.973 L
231.496 196.316 L
232.075 192.501 L
232.653 188.324 L
233.232 175.877 L
233.811 166.073 L
234.389 154.415 L
234.968 143.951 L
235.547 133.486 L
236.125 120.742 L
236.704 126.794 L
237.283 134.978 L
237.861 137.11 L
238.44 149.471 L
239.019 158.955 L
239.597 168.268 L
240.176 180.694 L
240.755 186.555 L
241.333 188.792 L
241.912 186.874 L
242.491 182.313 L
243.069 176.367 L
243.648 165.05 L
244.227 150.323 L
244.805 142.203 L
245.384 138.388 L
245.963 131.803 L
246.541 132.122 L
247.12 136.896 L
247.699 143.482 L
248.277 155.673 L
248.856 165.285 L
249.435 172.851 L
250.013 181.567 L
250.592 187.407 L
251.171 186.938 L
251.749 182.804 L
252.328 177.028 L
252.907 168.801 L
253.485 159.488 L
254.064 152.092 L
254.643 144.271 L
255.221 136.278 L
255.8 136.577 L
256.379 136.939 L
256.957 137.983 L
257.536 146.466 L
258.115 152.54 L
258.693 161.278 L
259.272 170.037 L
259.851 173.341 L
260.429 181.717 L
261.008 184.636 L
261.587 177.156 L
262.165 172.957 L
262.744 169.654 L
263.323 158.998 L
263.901 149.002 L
264.48 147.233 L
265.059 144.548 L
265.637 139.475 L
266.216 140.157 L
266.795 145.294 L
267.373 150.11 L
267.952 157.74 L
268.531 166.798 L
269.109 169.313 L
269.688 174.428 L
270.267 180.182 L
270.845 176.644 L
271.424 173.383 L
272.003 171.103 L
272.581 166.947 L
273.16 158.827 L
273.739 151.112 L
274.317 149.641 L
274.896 142.672 L
275.475 137.365 L
276.053 141.926 L
276.632 145.443 L
277.211 150.941 L
277.789 158.273 L
278.368 163.196 L
278.947 168.098 L
279.525 172.51 L
280.104 176.815 L
280.683 176.431 L
281.261 171.018 L
281.84 167.927 L
282.419 165.54 L
282.997 156.483 L
283.576 148.661 L
284.155 149.343 L
284.733 143.567 L
285.312 139.902 L
285.891 149.258 L
286.469 151.304 L
287.048 149.045 L
287.627 156.717 L
288.205 165.093 L
288.784 168.311 L
289.363 171.039 L
289.941 172.957 L
290.52 170.698 L
291.099 167.48 L
291.677 165.945 L
292.256 160.98 L
292.835 151.602 L
293.413 149.663 L
293.992 151.559 L
294.571 145.358 L
295.149 146.295 L
295.728 151.517 L
296.307 149.897 L
296.885 155.609 L
297.464 164.006 L
298.043 167.416 L
298.621 170.101 L
299.2 168.673 L
299.779 168.567 L
300.357 172.915 L
300.936 170.634 L
301.515 161.491 L
302.093 159.743 L
302.672 161.044 L
303.251 155.502 L
303.829 151.581 L
304.408 147.51 L
304.987 144.995 L
305.565 149.599 L
306.144 150.877 L
306.723 152.519 L
307.301 160.937 L
307.88 163.878 L
308.459 165.306 L
309.037 172.574 L
309.616 171.316 L
310.195 164.347 L
310.773 163.921 L
311.352 164.496 L
311.931 161.491 L
312.509 156.184 L
313.088 151.837 L
313.667 149.513 L
314.245 147.745 L
314.824 150.643 L
315.403 152.028 L
315.981 152.156 L
316.56 159.893 L
317.139 160.766 L
317.717 161.193 L
318.296 172.062 L
318.875 170.954 L
319.453 166.031 L
320.032 168.609 L
320.611 164.517 L
321.189 161.47 L
321.768 158.976 L
322.347 150.451 L
322.925 149.663 L
323.504 152.561 L
324.083 149.812 L
324.661 150.238 L
325.24 153.009 L
325.819 154.991 L
326.397 157.719 L
326.976 158.976 L
327.555 163.814 L
328.133 168.652 L
328.712 165.093 L
329.291 164.24 L
329.869 167.757 L
330.448 161.257 L
331.027 154.863 L
331.605 159.104 L
332.184 158.06 L
332.763 151.41 L
333.341 152.22 L
333.92 153.648 L
334.499 150.153 L
335.077 153.946 L
335.656 160.404 L
336.235 157.548 L
336.813 160.788 L
337.392 167.182 L
337.971 164.539 L
338.549 165.604 L
339.128 167.885 L
339.707 163.686 L
340.285 161.448 L
340.864 160.234 L
341.443 158.358 L
342.021 157.548 L
342.6 153.264 L
343.179 152.987 L
343.757 151.879 L
344.336 145.741 L
344.915 152.348 L
345.493 160.404 L
346.072 157.399 L
346.651 160.447 L
347.229 165.924 L
347.808 161.555 L
348.387 161.534 L
348.965 168.396 L
349.544 164.283 L
350.123 158.507 L
350.701 161.235 L
351.28 158.593 L
351.859 155.417 L
352.437 157.506 L
353.016 153.819 L
353.595 150.281 L
354.173 153.883 L
354.752 155.588 L
355.331 156.973 L
355.909 159.168 L
356.488 161.171 L
357.067 165.647 L
357.645 165.136 L
358.224 160.17 L
358.803 162.962 L
359.381 166.286 L
359.96 158.209 L
360.539 154.842 L
361.117 159.147 L
361.696 156.845 L
362.275 155.929 L
362.853 157.101 L
363.432 154.437 L
364.011 157.229 L
364.589 156.717 L
365.168 154.799 L
365.747 162.301 L
366.325 162.322 L
366.904 160.83 L
367.483 165.967 L
368.061 163.09 L
368.64 162.173 L
369.219 164.795 L
369.797 159.04 L
370.376 159.339 L
370.955 159.893 L
371.533 153.158 L
372.112 156.248 L
372.691 156.632 L
373.269 150.792 L
373.848 156.781 L
374.427 161.47 L
375.005 156.312 L
375.584 157.719 L
376.163 162.599 L
376.741 159.637 L
377.32 160.404 L
377.899 165.37 L
378.477 164.24 L
379.056 160.234 L
379.635 155.907 L
380.213 157.399 L
380.792 161.235 L
381.371 157.463 L
381.949 154.778 L
382.528 156.27 L
383.107 154.778 L
383.685 153.627 L
384.264 155.438 L
384.843 160.127 L
385.421 165.945 L
386 163.153 L
386.579 158.038 L
387.157 163.58 L
387.736 165.903 L
388.315 160.788 L
388.893 160.191 L
389.472 160.298 L
390.051 159.168 L
390.629 158.017 L
391.208 156.291 L
391.787 154.565 L
392.365 153.328 L
392.944 156.184 L
393.523 158.635 L
394.101 157.719 L
394.68 158.337 L
395.259 160.681 L
395.837 161.406 L
396.416 161.065 L
396.995 160.34 L
397.573 157.527 L
398.152 161.491 L
398.731 162.706 L
399.309 154.245 L
399.888 158.337 L
400.467 163.004 L
401.045 155.886 L
401.624 154.074 L
402.203 157.761 L
402.781 156.184 L
403.36 152.902 L
403.939 158.593 L
404.517 161.086 L
405.096 157.25 L
405.675 162.557 L
406.253 166.137 L
406.832 163.303 L
407.411 165.498 L
407.989 164.837 L
408.568 159.36 L
409.147 158.507 L
409.725 160.34 L
410.304 156.93 L
410.883 153.009 L
411.461 156.674 L
412.04 156.547 L
412.619 154.266 L
413.197 157.932 L
413.776 157.825 L
414.355 157.911 L
414.933 161.15 L
415.512 160.276 L
416.091 158.976 L
416.669 159.402 L
417.248 159.061 L
417.827 159.125 L
418.405 159.722 L
418.984 160.553 L
419.563 159.339 L
420.141 156.248 L
420.72 157.975 L
421.299 158.124 L
421.877 154.586 L
422.456 156.419 L
423.035 157.57 L
423.613 157.015 L
424.192 158.294 L
424.771 157.591 L
425.349 158.678 L
425.928 161.129 L
426.507 160.937 L
427.085 160.83 L
427.664 160.873 L
428.243 161.214 L
428.821 159.253 L
429.4 157.57 L
429.979 159.402 L
430.557 157.207 L
431.136 154.543 L
431.715 154.692 L
432.293 157.335 L
432.872 161.278 L
433.451 159.125 L
434.029 159.829 L
434.608 160.34 L
435.187 158.848 L
435.765 164.795 L
436.344 160.148 L
436.923 155.396 L
437.501 162.962 L
438.08 159.53 L
438.659 154.394 L
439.237 158.87 L
439.816 159.807 L
440.395 157.783 L
440.973 156.291 L
441.552 156.483 L
442.131 159.381 L
442.709 159.999 L
443.288 159.232 L
443.867 159.53 L
444.445 156.909 L
445.024 157.676 L
445.603 161.811 L
446.181 160.766 L
446.76 159.914 L
447.339 158.316 L
447.917 155.822 L
448.496 158.379 L
449.075 159.68 L
449.653 157.42 L
450.232 157.761 L
450.811 158.316 L
451.389 157.186 L
451.968 157.975 L
452.547 159.488 L
453.125 157.186 L
453.704 156.312 L
454.283 160.958 L
454.861 161.321 L
455.44 159.061 L
456.019 159.829 L
456.597 159.68 L
457.176 161.619 L
457.755 161.47 L
458.333 157.378 L
458.912 158.827 L
459.491 158.72 L
460.069 156.291 L
460.648 158.614 L
461.227 158.593 L
461.805 157.57 L
462.384 160.447 L
462.963 159.999 L
463.541 155.865 L
464.12 159.36 L
464.699 161.171 L
465.277 153.435 L
465.856 156.014 L
466.435 162.194 L
467.013 158.017 L
467.592 155.609 L
468.171 157.932 L
468.749 159.552 L
469.328 157.506 L
469.907 156.163 L
470.485 158.06 L
471.064 157.612 L
471.643 156.845 L
472.221 158.209 L
472.8 160.276 L
473.379 160.362 L
473.957 159.402 L
474.536 160.425 L
475.115 158.763 L
475.693 158.678 L
476.272 163.004 L
476.851 159.381 L
477.429 154.607 L
478.008 159.658 L
478.587 159.53 L
479.165 154.735 L
479.744 158.742 L
480.323 159.573 L
480.901 154.33 L
481.48 157.506 L
482.059 160.894 L
482.637 156.547 L
483.216 157.122 L
483.795 159.914 L
484.373 158.827 L
484.952 158.87 L
S
GR
%%Trailer
%%Pages: 1
%%EOF
