%!PS-Adobe-3.0 EPSF-3.0
%%Creator: (MATLAB, The Mathworks, Inc. Version 24.1.0.2603908 \(R2024a\) Update 3. Operating System: Windows 10)
%%Title: (C:/Users/lorde/Documents/MATLAB/Master Lab Course/Exercise 1/E1_2_E1DUT1HS30V_fall.eps)
%%CreationDate: 2024-06-25T15:54:35
%%Pages: (atend)
%%BoundingBox:     0     0   420   315
%%LanguageLevel: 3
%%EndComments
%%BeginProlog
%%BeginResource: procset (Apache XML Graphics Std ProcSet) 1.2 0
%%Version: 1.2 0
%%Copyright: (Copyright 2001-2003,2010 The Apache Software Foundation. License terms: http://www.apache.org/licenses/LICENSE-2.0)
/bd{bind def}bind def
/ld{load def}bd
/GR/grestore ld
/GS/gsave ld
/RM/rmoveto ld
/C/curveto ld
/t/show ld
/L/lineto ld
/ML/setmiterlimit ld
/CT/concat ld
/f/fill ld
/N/newpath ld
/S/stroke ld
/CC/setcmykcolor ld
/A/ashow ld
/cp/closepath ld
/RC/setrgbcolor ld
/LJ/setlinejoin ld
/GC/setgray ld
/LW/setlinewidth ld
/M/moveto ld
/re {4 2 roll M
1 index 0 rlineto
0 exch rlineto
neg 0 rlineto
cp } bd
/_ctm matrix def
/_tm matrix def
/BT { _ctm currentmatrix pop matrix _tm copy pop 0 0 moveto } bd
/ET { _ctm setmatrix } bd
/iTm { _ctm setmatrix _tm concat } bd
/Tm { _tm astore pop iTm 0 0 moveto } bd
/ux 0.0 def
/uy 0.0 def
/F {
  /Tp exch def
  /Tf exch def
  Tf findfont Tp scalefont setfont
  /cf Tf def  /cs Tp def
} bd
/ULS {currentpoint /uy exch def /ux exch def} bd
/ULE {
  /Tcx currentpoint pop def
  gsave
  newpath
  cf findfont cs scalefont dup
  /FontMatrix get 0 get /Ts exch def /FontInfo get dup
  /UnderlinePosition get Ts mul /To exch def
  /UnderlineThickness get Ts mul /Tt exch def
  ux uy To add moveto  Tcx uy To add lineto
  Tt setlinewidth stroke
  grestore
} bd
/OLE {
  /Tcx currentpoint pop def
  gsave
  newpath
  cf findfont cs scalefont dup
  /FontMatrix get 0 get /Ts exch def /FontInfo get dup
  /UnderlinePosition get Ts mul /To exch def
  /UnderlineThickness get Ts mul /Tt exch def
  ux uy To add cs add moveto Tcx uy To add cs add lineto
  Tt setlinewidth stroke
  grestore
} bd
/SOE {
  /Tcx currentpoint pop def
  gsave
  newpath
  cf findfont cs scalefont dup
  /FontMatrix get 0 get /Ts exch def /FontInfo get dup
  /UnderlinePosition get Ts mul /To exch def
  /UnderlineThickness get Ts mul /Tt exch def
  ux uy To add cs 10 mul 26 idiv add moveto Tcx uy To add cs 10 mul 26 idiv add lineto
  Tt setlinewidth stroke
  grestore
} bd
/QT {
/Y22 exch store
/X22 exch store
/Y21 exch store
/X21 exch store
currentpoint
/Y21 load 2 mul add 3 div exch
/X21 load 2 mul add 3 div exch
/X21 load 2 mul /X22 load add 3 div
/Y21 load 2 mul /Y22 load add 3 div
/X22 load /Y22 load curveto
} bd
/SSPD {
dup length /d exch dict def
{
/v exch def
/k exch def
currentpagedevice k known {
/cpdv currentpagedevice k get def
v cpdv ne {
/upd false def
/nullv v type /nulltype eq def
/nullcpdv cpdv type /nulltype eq def
nullv nullcpdv or
{
/upd true def
} {
/sametype v type cpdv type eq def
sametype {
v type /arraytype eq {
/vlen v length def
/cpdvlen cpdv length def
vlen cpdvlen eq {
0 1 vlen 1 sub {
/i exch def
/obj v i get def
/cpdobj cpdv i get def
obj cpdobj ne {
/upd true def
exit
} if
} for
} {
/upd true def
} ifelse
} {
v type /dicttype eq {
v {
/dv exch def
/dk exch def
/cpddv cpdv dk get def
dv cpddv ne {
/upd true def
exit
} if
} forall
} {
/upd true def
} ifelse
} ifelse
} if
} ifelse
upd true eq {
d k v put
} if
} if
} if
} forall
d length 0 gt {
d setpagedevice
} if
} bd
/RE { % /NewFontName [NewEncodingArray] /FontName RE -
  findfont dup length dict begin
  {
    1 index /FID ne
    {def} {pop pop} ifelse
  } forall
  /Encoding exch def
  /FontName 1 index def
  currentdict definefont pop
  end
} bind def
%%EndResource
%%BeginResource: procset (Apache XML Graphics EPS ProcSet) 1.0 0
%%Version: 1.0 0
%%Copyright: (Copyright 2002-2003 The Apache Software Foundation. License terms: http://www.apache.org/licenses/LICENSE-2.0)
/BeginEPSF { %def
/b4_Inc_state save def         % Save state for cleanup
/dict_count countdictstack def % Count objects on dict stack
/op_count count 1 sub def      % Count objects on operand stack
userdict begin                 % Push userdict on dict stack
/showpage { } def              % Redefine showpage, { } = null proc
0 setgray 0 setlinecap         % Prepare graphics state
1 setlinewidth 0 setlinejoin
10 setmiterlimit [ ] 0 setdash newpath
/languagelevel where           % If level not equal to 1 then
{pop languagelevel             % set strokeadjust and
1 ne                           % overprint to their defaults.
{false setstrokeadjust false setoverprint
} if
} if
} bd
/EndEPSF { %def
count op_count sub {pop} repeat            % Clean up stacks
countdictstack dict_count sub {end} repeat
b4_Inc_state restore
} bd
%%EndResource
%FOPBeginFontDict
%%IncludeResource: font Courier-Oblique
%%IncludeResource: font Courier-BoldOblique
%%IncludeResource: font Courier-Bold
%%IncludeResource: font ZapfDingbats
%%IncludeResource: font Symbol
%%IncludeResource: font Helvetica
%%IncludeResource: font Helvetica-Oblique
%%IncludeResource: font Helvetica-Bold
%%IncludeResource: font Helvetica-BoldOblique
%%IncludeResource: font Times-Roman
%%IncludeResource: font Times-Italic
%%IncludeResource: font Times-Bold
%%IncludeResource: font Times-BoldItalic
%%IncludeResource: font Courier
%FOPEndFontDict
%%BeginResource: encoding WinAnsiEncoding
/WinAnsiEncoding [
/.notdef /.notdef /.notdef /.notdef /.notdef
/.notdef /.notdef /.notdef /.notdef /.notdef
/.notdef /.notdef /.notdef /.notdef /.notdef
/.notdef /.notdef /.notdef /.notdef /.notdef
/.notdef /.notdef /.notdef /.notdef /.notdef
/.notdef /.notdef /.notdef /.notdef /.notdef
/.notdef /.notdef /space /exclam /quotedbl
/numbersign /dollar /percent /ampersand /quotesingle
/parenleft /parenright /asterisk /plus /comma
/hyphen /period /slash /zero /one
/two /three /four /five /six
/seven /eight /nine /colon /semicolon
/less /equal /greater /question /at
/A /B /C /D /E
/F /G /H /I /J
/K /L /M /N /O
/P /Q /R /S /T
/U /V /W /X /Y
/Z /bracketleft /backslash /bracketright /asciicircum
/underscore /quoteleft /a /b /c
/d /e /f /g /h
/i /j /k /l /m
/n /o /p /q /r
/s /t /u /v /w
/x /y /z /braceleft /bar
/braceright /asciitilde /bullet /Euro /bullet
/quotesinglbase /florin /quotedblbase /ellipsis /dagger
/daggerdbl /circumflex /perthousand /Scaron /guilsinglleft
/OE /bullet /Zcaron /bullet /bullet
/quoteleft /quoteright /quotedblleft /quotedblright /bullet
/endash /emdash /asciitilde /trademark /scaron
/guilsinglright /oe /bullet /zcaron /Ydieresis
/space /exclamdown /cent /sterling /currency
/yen /brokenbar /section /dieresis /copyright
/ordfeminine /guillemotleft /logicalnot /sfthyphen /registered
/macron /degree /plusminus /twosuperior /threesuperior
/acute /mu /paragraph /middot /cedilla
/onesuperior /ordmasculine /guillemotright /onequarter /onehalf
/threequarters /questiondown /Agrave /Aacute /Acircumflex
/Atilde /Adieresis /Aring /AE /Ccedilla
/Egrave /Eacute /Ecircumflex /Edieresis /Igrave
/Iacute /Icircumflex /Idieresis /Eth /Ntilde
/Ograve /Oacute /Ocircumflex /Otilde /Odieresis
/multiply /Oslash /Ugrave /Uacute /Ucircumflex
/Udieresis /Yacute /Thorn /germandbls /agrave
/aacute /acircumflex /atilde /adieresis /aring
/ae /ccedilla /egrave /eacute /ecircumflex
/edieresis /igrave /iacute /icircumflex /idieresis
/eth /ntilde /ograve /oacute /ocircumflex
/otilde /odieresis /divide /oslash /ugrave
/uacute /ucircumflex /udieresis /yacute /thorn
/ydieresis
] def
%%EndResource
%FOPBeginFontReencode
/Courier-Oblique findfont
dup length dict begin
  {1 index /FID ne {def} {pop pop} ifelse} forall
  /Encoding WinAnsiEncoding def
  currentdict
end
/Courier-Oblique exch definefont pop
/Courier-BoldOblique findfont
dup length dict begin
  {1 index /FID ne {def} {pop pop} ifelse} forall
  /Encoding WinAnsiEncoding def
  currentdict
end
/Courier-BoldOblique exch definefont pop
/Courier-Bold findfont
dup length dict begin
  {1 index /FID ne {def} {pop pop} ifelse} forall
  /Encoding WinAnsiEncoding def
  currentdict
end
/Courier-Bold exch definefont pop
/Helvetica findfont
dup length dict begin
  {1 index /FID ne {def} {pop pop} ifelse} forall
  /Encoding WinAnsiEncoding def
  currentdict
end
/Helvetica exch definefont pop
/Helvetica-Oblique findfont
dup length dict begin
  {1 index /FID ne {def} {pop pop} ifelse} forall
  /Encoding WinAnsiEncoding def
  currentdict
end
/Helvetica-Oblique exch definefont pop
/Helvetica-Bold findfont
dup length dict begin
  {1 index /FID ne {def} {pop pop} ifelse} forall
  /Encoding WinAnsiEncoding def
  currentdict
end
/Helvetica-Bold exch definefont pop
/Helvetica-BoldOblique findfont
dup length dict begin
  {1 index /FID ne {def} {pop pop} ifelse} forall
  /Encoding WinAnsiEncoding def
  currentdict
end
/Helvetica-BoldOblique exch definefont pop
/Times-Roman findfont
dup length dict begin
  {1 index /FID ne {def} {pop pop} ifelse} forall
  /Encoding WinAnsiEncoding def
  currentdict
end
/Times-Roman exch definefont pop
/Times-Italic findfont
dup length dict begin
  {1 index /FID ne {def} {pop pop} ifelse} forall
  /Encoding WinAnsiEncoding def
  currentdict
end
/Times-Italic exch definefont pop
/Times-Bold findfont
dup length dict begin
  {1 index /FID ne {def} {pop pop} ifelse} forall
  /Encoding WinAnsiEncoding def
  currentdict
end
/Times-Bold exch definefont pop
/Times-BoldItalic findfont
dup length dict begin
  {1 index /FID ne {def} {pop pop} ifelse} forall
  /Encoding WinAnsiEncoding def
  currentdict
end
/Times-BoldItalic exch definefont pop
/Courier findfont
dup length dict begin
  {1 index /FID ne {def} {pop pop} ifelse} forall
  /Encoding WinAnsiEncoding def
  currentdict
end
/Courier exch definefont pop
%FOPEndFontReencode
%%EndProlog
%%Page: 1 1
%%PageBoundingBox: 0 0 420 315
%%BeginPageSetup
[1 0 0 -1 0 315] CT
%%EndPageSetup
GS
[0.75 0 0 0.75 0 0] CT
1 GC
N
0 0 560 420 re
f
GR
GS
[0.75 0 0 0.75 0 0] CT
1 GC
N
0 0 560 420 re
f
GR
GS
[0.75 0 0 0.75 0 0] CT
1 GC
N
73 372 M
506 372 L
506 31 L
73 31 L
cp
f
GR
GS
[0.75 0 0 0.75 0 0] CT
0.775 GC
[1 3] 0 setdash
2 LJ
0.667 LW
N
83.825 372 M
83.825 31 L
S
GR
GS
[0.75 0 0 0.75 0 0] CT
0.775 GC
[1 3] 0 setdash
2 LJ
0.667 LW
N
94.65 372 M
94.65 31 L
S
GR
GS
[0.75 0 0 0.75 0 0] CT
0.775 GC
[1 3] 0 setdash
2 LJ
0.667 LW
N
105.475 372 M
105.475 31 L
S
GR
GS
[0.75 0 0 0.75 0 0] CT
0.775 GC
[1 3] 0 setdash
2 LJ
0.667 LW
N
116.3 372 M
116.3 31 L
S
GR
GS
[0.75 0 0 0.75 0 0] CT
0.775 GC
[1 3] 0 setdash
2 LJ
0.667 LW
N
137.95 372 M
137.95 31 L
S
GR
GS
[0.75 0 0 0.75 0 0] CT
0.775 GC
[1 3] 0 setdash
2 LJ
0.667 LW
N
148.775 372 M
148.775 31 L
S
GR
GS
[0.75 0 0 0.75 0 0] CT
0.775 GC
[1 3] 0 setdash
2 LJ
0.667 LW
N
159.6 372 M
159.6 31 L
S
GR
GS
[0.75 0 0 0.75 0 0] CT
0.775 GC
[1 3] 0 setdash
2 LJ
0.667 LW
N
170.425 372 M
170.425 31 L
S
GR
GS
[0.75 0 0 0.75 0 0] CT
0.775 GC
[1 3] 0 setdash
2 LJ
0.667 LW
N
192.075 372 M
192.075 31 L
S
GR
GS
[0.75 0 0 0.75 0 0] CT
0.775 GC
[1 3] 0 setdash
2 LJ
0.667 LW
N
202.9 372 M
202.9 31 L
S
GR
GS
[0.75 0 0 0.75 0 0] CT
0.775 GC
[1 3] 0 setdash
2 LJ
0.667 LW
N
213.725 372 M
213.725 31 L
S
GR
GS
[0.75 0 0 0.75 0 0] CT
0.775 GC
[1 3] 0 setdash
2 LJ
0.667 LW
N
224.55 372 M
224.55 31 L
S
GR
GS
[0.75 0 0 0.75 0 0] CT
0.775 GC
[1 3] 0 setdash
2 LJ
0.667 LW
N
246.2 372 M
246.2 31 L
S
GR
GS
[0.75 0 0 0.75 0 0] CT
0.775 GC
[1 3] 0 setdash
2 LJ
0.667 LW
N
257.025 372 M
257.025 31 L
S
GR
GS
[0.75 0 0 0.75 0 0] CT
0.775 GC
[1 3] 0 setdash
2 LJ
0.667 LW
N
267.85 372 M
267.85 31 L
S
GR
GS
[0.75 0 0 0.75 0 0] CT
0.775 GC
[1 3] 0 setdash
2 LJ
0.667 LW
N
278.675 372 M
278.675 31 L
S
GR
GS
[0.75 0 0 0.75 0 0] CT
0.775 GC
[1 3] 0 setdash
2 LJ
0.667 LW
N
300.325 372 M
300.325 31 L
S
GR
GS
[0.75 0 0 0.75 0 0] CT
0.775 GC
[1 3] 0 setdash
2 LJ
0.667 LW
N
311.15 372 M
311.15 31 L
S
GR
GS
[0.75 0 0 0.75 0 0] CT
0.775 GC
[1 3] 0 setdash
2 LJ
0.667 LW
N
321.975 372 M
321.975 31 L
S
GR
GS
[0.75 0 0 0.75 0 0] CT
0.775 GC
[1 3] 0 setdash
2 LJ
0.667 LW
N
332.8 372 M
332.8 31 L
S
GR
GS
[0.75 0 0 0.75 0 0] CT
0.775 GC
[1 3] 0 setdash
2 LJ
0.667 LW
N
354.45 372 M
354.45 31 L
S
GR
GS
[0.75 0 0 0.75 0 0] CT
0.775 GC
[1 3] 0 setdash
2 LJ
0.667 LW
N
365.275 372 M
365.275 31 L
S
GR
GS
[0.75 0 0 0.75 0 0] CT
0.775 GC
[1 3] 0 setdash
2 LJ
0.667 LW
N
376.1 372 M
376.1 31 L
S
GR
GS
[0.75 0 0 0.75 0 0] CT
0.775 GC
[1 3] 0 setdash
2 LJ
0.667 LW
N
386.925 372 M
386.925 31 L
S
GR
GS
[0.75 0 0 0.75 0 0] CT
0.775 GC
[1 3] 0 setdash
2 LJ
0.667 LW
N
408.575 372 M
408.575 31 L
S
GR
GS
[0.75 0 0 0.75 0 0] CT
0.775 GC
[1 3] 0 setdash
2 LJ
0.667 LW
N
419.4 372 M
419.4 31 L
S
GR
GS
[0.75 0 0 0.75 0 0] CT
0.775 GC
[1 3] 0 setdash
2 LJ
0.667 LW
N
430.225 372 M
430.225 31 L
S
GR
GS
[0.75 0 0 0.75 0 0] CT
0.775 GC
[1 3] 0 setdash
2 LJ
0.667 LW
N
441.05 372 M
441.05 31 L
S
GR
GS
[0.75 0 0 0.75 0 0] CT
0.775 GC
[1 3] 0 setdash
2 LJ
0.667 LW
N
462.7 372 M
462.7 31 L
S
GR
GS
[0.75 0 0 0.75 0 0] CT
0.775 GC
[1 3] 0 setdash
2 LJ
0.667 LW
N
473.525 372 M
473.525 31 L
S
GR
GS
[0.75 0 0 0.75 0 0] CT
0.775 GC
[1 3] 0 setdash
2 LJ
0.667 LW
N
484.35 372 M
484.35 31 L
S
GR
GS
[0.75 0 0 0.75 0 0] CT
0.775 GC
[1 3] 0 setdash
2 LJ
0.667 LW
N
495.175 372 M
495.175 31 L
S
GR
GS
[0.75 0 0 0.75 0 0] CT
0.873 GC
1 LJ
0.667 LW
N
73 372 M
73 31 L
S
GR
GS
[0.75 0 0 0.75 0 0] CT
0.873 GC
1 LJ
0.667 LW
N
127.125 372 M
127.125 31 L
S
GR
GS
[0.75 0 0 0.75 0 0] CT
0.873 GC
1 LJ
0.667 LW
N
181.25 372 M
181.25 31 L
S
GR
GS
[0.75 0 0 0.75 0 0] CT
0.873 GC
1 LJ
0.667 LW
N
235.375 372 M
235.375 31 L
S
GR
GS
[0.75 0 0 0.75 0 0] CT
0.873 GC
1 LJ
0.667 LW
N
289.5 372 M
289.5 31 L
S
GR
GS
[0.75 0 0 0.75 0 0] CT
0.873 GC
1 LJ
0.667 LW
N
343.625 372 M
343.625 31 L
S
GR
GS
[0.75 0 0 0.75 0 0] CT
0.873 GC
1 LJ
0.667 LW
N
397.75 372 M
397.75 31 L
S
GR
GS
[0.75 0 0 0.75 0 0] CT
0.873 GC
1 LJ
0.667 LW
N
451.875 372 M
451.875 31 L
S
GR
GS
[0.75 0 0 0.75 0 0] CT
0.873 GC
1 LJ
0.667 LW
N
506 372 M
506 31 L
S
GR
GS
[0.75 0 0 0.75 0 0] CT
0.749 0.861 0.935 RC
[1 3] 0 setdash
2 LJ
0.667 LW
N
506 370.063 M
73 370.063 L
S
GR
GS
[0.75 0 0 0.75 0 0] CT
0.749 0.861 0.935 RC
[1 3] 0 setdash
2 LJ
0.667 LW
N
506 342.938 M
73 342.938 L
S
GR
GS
[0.75 0 0 0.75 0 0] CT
0.749 0.861 0.935 RC
[1 3] 0 setdash
2 LJ
0.667 LW
N
506 329.375 M
73 329.375 L
S
GR
GS
[0.75 0 0 0.75 0 0] CT
0.749 0.861 0.935 RC
[1 3] 0 setdash
2 LJ
0.667 LW
N
506 315.813 M
73 315.813 L
S
GR
GS
[0.75 0 0 0.75 0 0] CT
0.749 0.861 0.935 RC
[1 3] 0 setdash
2 LJ
0.667 LW
N
506 288.688 M
73 288.688 L
S
GR
GS
[0.75 0 0 0.75 0 0] CT
0.749 0.861 0.935 RC
[1 3] 0 setdash
2 LJ
0.667 LW
N
506 275.125 M
73 275.125 L
S
GR
GS
[0.75 0 0 0.75 0 0] CT
0.749 0.861 0.935 RC
[1 3] 0 setdash
2 LJ
0.667 LW
N
506 261.563 M
73 261.563 L
S
GR
GS
[0.75 0 0 0.75 0 0] CT
0.749 0.861 0.935 RC
[1 3] 0 setdash
2 LJ
0.667 LW
N
506 234.438 M
73 234.438 L
S
GR
GS
[0.75 0 0 0.75 0 0] CT
0.749 0.861 0.935 RC
[1 3] 0 setdash
2 LJ
0.667 LW
N
506 220.875 M
73 220.875 L
S
GR
GS
[0.75 0 0 0.75 0 0] CT
0.749 0.861 0.935 RC
[1 3] 0 setdash
2 LJ
0.667 LW
N
506 207.313 M
73 207.313 L
S
GR
GS
[0.75 0 0 0.75 0 0] CT
0.749 0.861 0.935 RC
[1 3] 0 setdash
2 LJ
0.667 LW
N
506 180.188 M
73 180.188 L
S
GR
GS
[0.75 0 0 0.75 0 0] CT
0.749 0.861 0.935 RC
[1 3] 0 setdash
2 LJ
0.667 LW
N
506 166.625 M
73 166.625 L
S
GR
GS
[0.75 0 0 0.75 0 0] CT
0.749 0.861 0.935 RC
[1 3] 0 setdash
2 LJ
0.667 LW
N
506 153.063 M
73 153.063 L
S
GR
GS
[0.75 0 0 0.75 0 0] CT
0.749 0.861 0.935 RC
[1 3] 0 setdash
2 LJ
0.667 LW
N
506 125.938 M
73 125.938 L
S
GR
GS
[0.75 0 0 0.75 0 0] CT
0.749 0.861 0.935 RC
[1 3] 0 setdash
2 LJ
0.667 LW
N
506 112.375 M
73 112.375 L
S
GR
GS
[0.75 0 0 0.75 0 0] CT
0.749 0.861 0.935 RC
[1 3] 0 setdash
2 LJ
0.667 LW
N
506 98.813 M
73 98.813 L
S
GR
GS
[0.75 0 0 0.75 0 0] CT
0.749 0.861 0.935 RC
[1 3] 0 setdash
2 LJ
0.667 LW
N
506 71.688 M
73 71.688 L
S
GR
GS
[0.75 0 0 0.75 0 0] CT
0.749 0.861 0.935 RC
[1 3] 0 setdash
2 LJ
0.667 LW
N
506 58.125 M
73 58.125 L
S
GR
GS
[0.75 0 0 0.75 0 0] CT
0.749 0.861 0.935 RC
[1 3] 0 setdash
2 LJ
0.667 LW
N
506 44.563 M
73 44.563 L
S
GR
GS
[0.75 0 0 0.75 0 0] CT
0.851 0.918 0.961 RC
1 LJ
0.667 LW
N
506 356.5 M
73 356.5 L
S
GR
GS
[0.75 0 0 0.75 0 0] CT
0.851 0.918 0.961 RC
1 LJ
0.667 LW
N
506 302.25 M
73 302.25 L
S
GR
GS
[0.75 0 0 0.75 0 0] CT
0.851 0.918 0.961 RC
1 LJ
0.667 LW
N
506 248 M
73 248 L
S
GR
GS
[0.75 0 0 0.75 0 0] CT
0.851 0.918 0.961 RC
1 LJ
0.667 LW
N
506 193.75 M
73 193.75 L
S
GR
GS
[0.75 0 0 0.75 0 0] CT
0.851 0.918 0.961 RC
1 LJ
0.667 LW
N
506 139.5 M
73 139.5 L
S
GR
GS
[0.75 0 0 0.75 0 0] CT
0.851 0.918 0.961 RC
1 LJ
0.667 LW
N
506 85.25 M
73 85.25 L
S
GR
GS
[0.75 0 0 0.75 0 0] CT
0.851 0.918 0.961 RC
1 LJ
0.667 LW
N
506 31 M
73 31 L
S
GR
GS
[0.75 0 0 0.75 0 0] CT
0.149 GC
2 setlinecap
1 LJ
0.667 LW
N
73 372 M
506 372 L
S
GR
GS
[0.75 0 0 0.75 0 0] CT
0.149 GC
2 setlinecap
1 LJ
0.667 LW
N
73 31 M
506 31 L
S
GR
GS
[0.75 0 0 0.75 0 0] CT
0.149 GC
2 setlinecap
1 LJ
0.667 LW
N
73 372 M
73 367.67 L
S
GR
GS
[0.75 0 0 0.75 0 0] CT
0.149 GC
2 setlinecap
1 LJ
0.667 LW
N
127.125 372 M
127.125 367.67 L
S
GR
GS
[0.75 0 0 0.75 0 0] CT
0.149 GC
2 setlinecap
1 LJ
0.667 LW
N
181.25 372 M
181.25 367.67 L
S
GR
GS
[0.75 0 0 0.75 0 0] CT
0.149 GC
2 setlinecap
1 LJ
0.667 LW
N
235.375 372 M
235.375 367.67 L
S
GR
GS
[0.75 0 0 0.75 0 0] CT
0.149 GC
2 setlinecap
1 LJ
0.667 LW
N
289.5 372 M
289.5 367.67 L
S
GR
GS
[0.75 0 0 0.75 0 0] CT
0.149 GC
2 setlinecap
1 LJ
0.667 LW
N
343.625 372 M
343.625 367.67 L
S
GR
GS
[0.75 0 0 0.75 0 0] CT
0.149 GC
2 setlinecap
1 LJ
0.667 LW
N
397.75 372 M
397.75 367.67 L
S
GR
GS
[0.75 0 0 0.75 0 0] CT
0.149 GC
2 setlinecap
1 LJ
0.667 LW
N
451.875 372 M
451.875 367.67 L
S
GR
GS
[0.75 0 0 0.75 0 0] CT
0.149 GC
2 setlinecap
1 LJ
0.667 LW
N
506 372 M
506 367.67 L
S
GR
GS
[0.75 0 0 0.75 0 0] CT
0.149 GC
2 setlinecap
1 LJ
0.667 LW
N
73 31 M
73 35.33 L
S
GR
GS
[0.75 0 0 0.75 0 0] CT
0.149 GC
2 setlinecap
1 LJ
0.667 LW
N
127.125 31 M
127.125 35.33 L
S
GR
GS
[0.75 0 0 0.75 0 0] CT
0.149 GC
2 setlinecap
1 LJ
0.667 LW
N
181.25 31 M
181.25 35.33 L
S
GR
GS
[0.75 0 0 0.75 0 0] CT
0.149 GC
2 setlinecap
1 LJ
0.667 LW
N
235.375 31 M
235.375 35.33 L
S
GR
GS
[0.75 0 0 0.75 0 0] CT
0.149 GC
2 setlinecap
1 LJ
0.667 LW
N
289.5 31 M
289.5 35.33 L
S
GR
GS
[0.75 0 0 0.75 0 0] CT
0.149 GC
2 setlinecap
1 LJ
0.667 LW
N
343.625 31 M
343.625 35.33 L
S
GR
GS
[0.75 0 0 0.75 0 0] CT
0.149 GC
2 setlinecap
1 LJ
0.667 LW
N
397.75 31 M
397.75 35.33 L
S
GR
GS
[0.75 0 0 0.75 0 0] CT
0.149 GC
2 setlinecap
1 LJ
0.667 LW
N
451.875 31 M
451.875 35.33 L
S
GR
GS
[0.75 0 0 0.75 0 0] CT
0.149 GC
2 setlinecap
1 LJ
0.667 LW
N
506 31 M
506 35.33 L
S
GR
GS
[0.75 0 0 0.75 54.75 283.00001] CT
0.149 GC
/Helvetica 13.333 F
GS
[1 0 0 1 0 0] CT
-4 14 moveto 
1 -1 scale
(0) t 
GR
GR
GS
[0.75 0 0 0.75 95.34375 283.00001] CT
0.149 GC
/Helvetica 13.333 F
GS
[1 0 0 1 0 0] CT
-7.5 14 moveto 
1 -1 scale
(10) t 
GR
GR
GS
[0.75 0 0 0.75 135.9375 283.00001] CT
0.149 GC
/Helvetica 13.333 F
GS
[1 0 0 1 0 0] CT
-7.5 14 moveto 
1 -1 scale
(20) t 
GR
GR
GS
[0.75 0 0 0.75 176.53125 283.00001] CT
0.149 GC
/Helvetica 13.333 F
GS
[1 0 0 1 0 0] CT
-7.5 14 moveto 
1 -1 scale
(30) t 
GR
GR
GS
[0.75 0 0 0.75 217.125 283.00001] CT
0.149 GC
/Helvetica 13.333 F
GS
[1 0 0 1 0 0] CT
-7.5 14 moveto 
1 -1 scale
(40) t 
GR
GR
GS
[0.75 0 0 0.75 257.71875 283.00001] CT
0.149 GC
/Helvetica 13.333 F
GS
[1 0 0 1 0 0] CT
-7.5 14 moveto 
1 -1 scale
(50) t 
GR
GR
GS
[0.75 0 0 0.75 298.3125 283.00001] CT
0.149 GC
/Helvetica 13.333 F
GS
[1 0 0 1 0 0] CT
-7.5 14 moveto 
1 -1 scale
(60) t 
GR
GR
GS
[0.75 0 0 0.75 338.90625 283.00001] CT
0.149 GC
/Helvetica 13.333 F
GS
[1 0 0 1 0 0] CT
-7.5 14 moveto 
1 -1 scale
(70) t 
GR
GR
GS
[0.75 0 0 0.75 379.5 283.00001] CT
0.149 GC
/Helvetica 13.333 F
GS
[1 0 0 1 0 0] CT
-7.5 14 moveto 
1 -1 scale
(80) t 
GR
GR
GS
[0.75 0 0 0.75 217.12516 296.74999] CT
0.149 GC
/Helvetica 18.667 F
GS
[1 0 0 1 0 0] CT
-38.5 19 moveto 
1 -1 scale
(Time / ns) t 
GR
GR
GS
[0.75 0 0 0.75 0 0] CT
0 0.447 0.741 RC
2 setlinecap
1 LJ
0.667 LW
N
73 372 M
73 31 L
S
GR
GS
[0.75 0 0 0.75 0 0] CT
0 0.447 0.741 RC
2 setlinecap
1 LJ
0.667 LW
N
73 356.5 M
77.33 356.5 L
S
GR
GS
[0.75 0 0 0.75 0 0] CT
0 0.447 0.741 RC
2 setlinecap
1 LJ
0.667 LW
N
73 302.25 M
77.33 302.25 L
S
GR
GS
[0.75 0 0 0.75 0 0] CT
0 0.447 0.741 RC
2 setlinecap
1 LJ
0.667 LW
N
73 248 M
77.33 248 L
S
GR
GS
[0.75 0 0 0.75 0 0] CT
0 0.447 0.741 RC
2 setlinecap
1 LJ
0.667 LW
N
73 193.75 M
77.33 193.75 L
S
GR
GS
[0.75 0 0 0.75 0 0] CT
0 0.447 0.741 RC
2 setlinecap
1 LJ
0.667 LW
N
73 139.5 M
77.33 139.5 L
S
GR
GS
[0.75 0 0 0.75 0 0] CT
0 0.447 0.741 RC
2 setlinecap
1 LJ
0.667 LW
N
73 85.25 M
77.33 85.25 L
S
GR
GS
[0.75 0 0 0.75 0 0] CT
0 0.447 0.741 RC
2 setlinecap
1 LJ
0.667 LW
N
73 31 M
77.33 31 L
S
GR
GS
[0.75 0 0 0.75 50.75 267.375] CT
0 0.447 0.741 RC
/Helvetica 13.333 F
GS
[1 0 0 1 0 0] CT
-12 5.5 moveto 
1 -1 scale
(-8) t 
GR
GR
GS
[0.75 0 0 0.75 50.75 226.6875] CT
0 0.447 0.741 RC
/Helvetica 13.333 F
GS
[1 0 0 1 0 0] CT
-12 5.5 moveto 
1 -1 scale
(-6) t 
GR
GR
GS
[0.75 0 0 0.75 50.75 186] CT
0 0.447 0.741 RC
/Helvetica 13.333 F
GS
[1 0 0 1 0 0] CT
-12 5.5 moveto 
1 -1 scale
(-4) t 
GR
GR
GS
[0.75 0 0 0.75 50.75 145.3125] CT
0 0.447 0.741 RC
/Helvetica 13.333 F
GS
[1 0 0 1 0 0] CT
-12 5.5 moveto 
1 -1 scale
(-2) t 
GR
GR
GS
[0.75 0 0 0.75 50.75 104.625] CT
0 0.447 0.741 RC
/Helvetica 13.333 F
GS
[1 0 0 1 0 0] CT
-8 5.5 moveto 
1 -1 scale
(0) t 
GR
GR
GS
[0.75 0 0 0.75 50.75 63.9375] CT
0 0.447 0.741 RC
/Helvetica 13.333 F
GS
[1 0 0 1 0 0] CT
-8 5.5 moveto 
1 -1 scale
(2) t 
GR
GR
GS
[0.75 0 0 0.75 50.75 23.25] CT
0 0.447 0.741 RC
/Helvetica 13.333 F
GS
[1 0 0 1 0 0] CT
-8 5.5 moveto 
1 -1 scale
(4) t 
GR
GR
GS
[0 -0.75 0.75 0 38.75 151.12487] CT
0 0.447 0.741 RC
/Helvetica 18.667 F
GS
[1 0 0 1 0 0] CT
-46 -5 moveto 
1 -1 scale
(Voltage / V) t 
GR
GR
GS
[0.75 0 0 0.75 0 0] CT
0.851 0.325 0.098 RC
2 setlinecap
1 LJ
0.667 LW
N
506 372 M
506 31 L
S
GR
GS
[0.75 0 0 0.75 0 0] CT
0.851 0.325 0.098 RC
2 setlinecap
1 LJ
0.667 LW
N
506 372 M
501.67 372 L
S
GR
GS
[0.75 0 0 0.75 0 0] CT
0.851 0.325 0.098 RC
2 setlinecap
1 LJ
0.667 LW
N
506 325.5 M
501.67 325.5 L
S
GR
GS
[0.75 0 0 0.75 0 0] CT
0.851 0.325 0.098 RC
2 setlinecap
1 LJ
0.667 LW
N
506 279 M
501.67 279 L
S
GR
GS
[0.75 0 0 0.75 0 0] CT
0.851 0.325 0.098 RC
2 setlinecap
1 LJ
0.667 LW
N
506 232.5 M
501.67 232.5 L
S
GR
GS
[0.75 0 0 0.75 0 0] CT
0.851 0.325 0.098 RC
2 setlinecap
1 LJ
0.667 LW
N
506 186 M
501.67 186 L
S
GR
GS
[0.75 0 0 0.75 0 0] CT
0.851 0.325 0.098 RC
2 setlinecap
1 LJ
0.667 LW
N
506 139.5 M
501.67 139.5 L
S
GR
GS
[0.75 0 0 0.75 0 0] CT
0.851 0.325 0.098 RC
2 setlinecap
1 LJ
0.667 LW
N
506 93 M
501.67 93 L
S
GR
GS
[0.75 0 0 0.75 0 0] CT
0.851 0.325 0.098 RC
2 setlinecap
1 LJ
0.667 LW
N
506 46.5 M
501.67 46.5 L
S
GR
GS
[0.75 0 0 0.75 383.50001 279] CT
0.851 0.325 0.098 RC
/Helvetica 13.333 F
GS
[1 0 0 1 0 0] CT
0 5.5 moveto 
1 -1 scale
(-25) t 
GR
GR
GS
[0.75 0 0 0.75 383.50001 244.125] CT
0.851 0.325 0.098 RC
/Helvetica 13.333 F
GS
[1 0 0 1 0 0] CT
0 5.5 moveto 
1 -1 scale
(-20) t 
GR
GR
GS
[0.75 0 0 0.75 383.50001 209.25] CT
0.851 0.325 0.098 RC
/Helvetica 13.333 F
GS
[1 0 0 1 0 0] CT
0 5.5 moveto 
1 -1 scale
(-15) t 
GR
GR
GS
[0.75 0 0 0.75 383.50001 174.375] CT
0.851 0.325 0.098 RC
/Helvetica 13.333 F
GS
[1 0 0 1 0 0] CT
0 5.5 moveto 
1 -1 scale
(-10) t 
GR
GR
GS
[0.75 0 0 0.75 383.50001 139.5] CT
0.851 0.325 0.098 RC
/Helvetica 13.333 F
GS
[1 0 0 1 0 0] CT
0 5.5 moveto 
1 -1 scale
(-5) t 
GR
GR
GS
[0.75 0 0 0.75 383.50001 104.625] CT
0.851 0.325 0.098 RC
/Helvetica 13.333 F
GS
[1 0 0 1 0 0] CT
0 5.5 moveto 
1 -1 scale
(0) t 
GR
GR
GS
[0.75 0 0 0.75 383.50001 69.75] CT
0.851 0.325 0.098 RC
/Helvetica 13.333 F
GS
[1 0 0 1 0 0] CT
0 5.5 moveto 
1 -1 scale
(5) t 
GR
GR
GS
[0.75 0 0 0.75 383.50001 34.875] CT
0.851 0.325 0.098 RC
/Helvetica 13.333 F
GS
[1 0 0 1 0 0] CT
0 5.5 moveto 
1 -1 scale
(10) t 
GR
GR
GS
[0 -0.75 0.75 0 402.24998 151.12487] CT
0.851 0.325 0.098 RC
/Helvetica 18.667 F
GS
[1 0 0 1 0 0] CT
-50.5 19 moveto 
1 -1 scale
(Charge / nC) t 
GR
GR
GS
[0.75 0 0 0.75 0 0] CT
N
73 31 M
507 31 L
507 372 L
73 372 L
73 31 L
cp
clip
0 0.447 0.741 RC
1 LJ
2 LW
N
73 138.83 M
77.33 140.204 L
81.66 141.797 L
85.99 142.653 L
90.32 140.839 L
94.65 137.881 L
98.98 136.737 L
103.31 139.941 L
107.64 142.891 L
111.97 140.263 L
116.3 137.144 L
120.63 138.042 L
124.96 141.424 L
129.29 141.67 L
133.62 148.222 L
137.95 177.111 L
142.28 205.744 L
146.61 209.135 L
150.94 194.182 L
155.27 179.069 L
159.6 173.889 L
163.93 163.082 L
168.26 154.47 L
172.59 148.087 L
176.92 131.32 L
181.25 169.405 L
185.58 203.964 L
189.91 147.663 L
194.24 129.472 L
198.57 166.261 L
202.9 174.712 L
207.23 164.463 L
211.56 145.807 L
215.89 151.003 L
220.22 157.089 L
224.55 172.864 L
228.88 241.015 L
233.21 186.791 L
237.54 49.733 L
241.87 133.855 L
246.2 262.232 L
250.53 164.633 L
254.86 70.755 L
259.19 114.825 L
263.52 154.342 L
267.85 172.313 L
272.18 162.709 L
276.51 105.772 L
280.84 108.493 L
285.17 166.574 L
289.5 164.548 L
293.83 129.642 L
298.16 123.844 L
302.49 134.516 L
306.82 149.689 L
311.15 150.418 L
315.48 131.329 L
319.81 126.251 L
324.14 140.992 L
328.47 148.061 L
332.8 141.585 L
337.13 135.016 L
341.46 135.974 L
345.79 140.788 L
350.12 143.128 L
354.45 140.517 L
358.78 136.355 L
363.11 137.576 L
367.44 140.102 L
371.77 138.779 L
376.1 137.228 L
380.43 136.101 L
384.76 137.466 L
389.09 139.678 L
393.42 139.042 L
397.75 139.059 L
402.08 140.399 L
406.41 141.831 L
410.74 141.628 L
415.07 140.916 L
419.4 141.823 L
423.73 141.28 L
428.06 140.627 L
432.39 141.043 L
436.72 140.738 L
441.05 140.568 L
445.38 140.627 L
449.71 141.441 L
454.04 141.772 L
458.37 139.483 L
462.7 138.457 L
467.03 140.771 L
471.36 141.161 L
475.69 138.89 L
480.02 139.695 L
484.35 142.153 L
488.68 141.238 L
493.01 140.365 L
497.34 142.407 L
501.67 142.475 L
S
GR
GS
[0.75 0 0 0.75 0 0] CT
0.851 0.325 0.098 RC
1 LJ
2 LW
N
73 139.5 M
77.33 139.505 L
81.66 139.916 L
85.99 140.664 L
90.32 141.28 L
94.65 141.241 L
98.98 140.64 L
103.31 140.322 L
107.64 140.847 L
111.97 141.417 L
116.3 141.198 L
120.63 140.675 L
124.96 140.739 L
129.29 141.301 L
133.62 142.795 L
137.95 149.149 L
142.28 163.392 L
146.61 182.027 L
150.94 199.076 L
155.27 212.002 L
159.6 222.144 L
163.93 230.095 L
168.26 235.382 L
172.59 238.612 L
176.92 238.668 L
181.25 241.648 L
185.58 254.59 L
189.91 264.55 L
194.24 264.294 L
198.57 266.589 L
202.9 275.088 L
207.23 283.341 L
211.56 287.629 L
215.89 290.072 L
220.22 294.061 L
224.55 301.049 L
228.88 319.547 L
233.21 339.955 L
237.54 334.129 L
241.87 321.044 L
246.2 337.102 L
250.53 357.38 L
254.86 351.399 L
259.19 338.587 L
263.52 337.239 L
267.85 343.775 L
272.18 351.457 L
276.51 350.015 L
280.84 341.137 L
285.17 340.597 L
289.5 347.746 L
293.83 349.829 L
298.16 346.33 L
302.49 343.499 L
306.82 344.213 L
311.15 347.107 L
315.48 347.484 L
319.81 344.546 L
324.14 342.934 L
328.47 344.313 L
332.8 345.773 L
337.13 345.444 L
341.46 344.345 L
345.79 344.038 L
350.12 344.713 L
354.45 345.35 L
358.78 345.058 L
363.11 344.363 L
367.44 344.181 L
371.77 344.165 L
376.1 343.755 L
380.43 342.977 L
384.76 342.232 L
389.09 341.977 L
393.42 341.939 L
397.75 341.816 L
402.08 341.878 L
406.41 342.321 L
410.74 342.933 L
415.07 343.419 L
419.4 343.931 L
423.73 344.494 L
428.06 344.893 L
432.39 345.259 L
436.72 345.64 L
441.05 345.957 L
445.38 346.258 L
449.71 346.678 L
454.04 347.256 L
458.37 347.565 L
462.7 347.42 L
467.03 347.451 L
471.36 347.854 L
475.69 347.998 L
480.02 347.941 L
484.35 348.332 L
488.68 348.934 L
493.01 349.291 L
497.34 349.808 L
501.67 350.615 L
S
GR
GS
[0.75 0 0 0.75 0 0] CT
1 GC
N
496 78 M
496 42 L
404 42 L
404 78 L
cp
f
GR
GS
[0.75 0 0 0.75 338.25 38.89726] CT
/Helvetica 12 F
GS
[1 0 0 1 0 0] CT
0 5 moveto 
1 -1 scale
(Voltage) t 
GR
GR
GS
[0.75 0 0 0.75 0 0] CT
0 0.447 0.741 RC
1 LJ
2 LW
N
408 51.863 M
448 51.863 L
S
GR
GS
[0.75 0 0 0.75 338.25 51.10274] CT
/Helvetica 12 F
GS
[1 0 0 1 0 0] CT
0 5 moveto 
1 -1 scale
(Charge) t 
GR
GR
GS
[0.75 0 0 0.75 0 0] CT
0.851 0.325 0.098 RC
1 LJ
2 LW
N
408 68.137 M
448 68.137 L
S
GR
GS
[0.75 0 0 0.75 0 0] CT
0.149 GC
10.0 ML
0.667 LW
N
404 78 M
404 42 L
496 42 L
496 78 L
cp
S
GR
%%Trailer
%%Pages: 1
%%EOF
