%!PS-Adobe-3.0 EPSF-3.0
%%Creator: (MATLAB, The Mathworks, Inc. Version 24.1.0.2603908 \(R2024a\) Update 3. Operating System: Windows 10)
%%Title: (C:/Users/lorde/Documents/MATLAB/Master Lab Course/Exercise 1/E1_2_E1DUT1LS30V_rise.eps)
%%CreationDate: 2024-06-25T15:56:17
%%Pages: (atend)
%%BoundingBox:     0     0   420   315
%%LanguageLevel: 3
%%EndComments
%%BeginProlog
%%BeginResource: procset (Apache XML Graphics Std ProcSet) 1.2 0
%%Version: 1.2 0
%%Copyright: (Copyright 2001-2003,2010 The Apache Software Foundation. License terms: http://www.apache.org/licenses/LICENSE-2.0)
/bd{bind def}bind def
/ld{load def}bd
/GR/grestore ld
/GS/gsave ld
/RM/rmoveto ld
/C/curveto ld
/t/show ld
/L/lineto ld
/ML/setmiterlimit ld
/CT/concat ld
/f/fill ld
/N/newpath ld
/S/stroke ld
/CC/setcmykcolor ld
/A/ashow ld
/cp/closepath ld
/RC/setrgbcolor ld
/LJ/setlinejoin ld
/GC/setgray ld
/LW/setlinewidth ld
/M/moveto ld
/re {4 2 roll M
1 index 0 rlineto
0 exch rlineto
neg 0 rlineto
cp } bd
/_ctm matrix def
/_tm matrix def
/BT { _ctm currentmatrix pop matrix _tm copy pop 0 0 moveto } bd
/ET { _ctm setmatrix } bd
/iTm { _ctm setmatrix _tm concat } bd
/Tm { _tm astore pop iTm 0 0 moveto } bd
/ux 0.0 def
/uy 0.0 def
/F {
  /Tp exch def
  /Tf exch def
  Tf findfont Tp scalefont setfont
  /cf Tf def  /cs Tp def
} bd
/ULS {currentpoint /uy exch def /ux exch def} bd
/ULE {
  /Tcx currentpoint pop def
  gsave
  newpath
  cf findfont cs scalefont dup
  /FontMatrix get 0 get /Ts exch def /FontInfo get dup
  /UnderlinePosition get Ts mul /To exch def
  /UnderlineThickness get Ts mul /Tt exch def
  ux uy To add moveto  Tcx uy To add lineto
  Tt setlinewidth stroke
  grestore
} bd
/OLE {
  /Tcx currentpoint pop def
  gsave
  newpath
  cf findfont cs scalefont dup
  /FontMatrix get 0 get /Ts exch def /FontInfo get dup
  /UnderlinePosition get Ts mul /To exch def
  /UnderlineThickness get Ts mul /Tt exch def
  ux uy To add cs add moveto Tcx uy To add cs add lineto
  Tt setlinewidth stroke
  grestore
} bd
/SOE {
  /Tcx currentpoint pop def
  gsave
  newpath
  cf findfont cs scalefont dup
  /FontMatrix get 0 get /Ts exch def /FontInfo get dup
  /UnderlinePosition get Ts mul /To exch def
  /UnderlineThickness get Ts mul /Tt exch def
  ux uy To add cs 10 mul 26 idiv add moveto Tcx uy To add cs 10 mul 26 idiv add lineto
  Tt setlinewidth stroke
  grestore
} bd
/QT {
/Y22 exch store
/X22 exch store
/Y21 exch store
/X21 exch store
currentpoint
/Y21 load 2 mul add 3 div exch
/X21 load 2 mul add 3 div exch
/X21 load 2 mul /X22 load add 3 div
/Y21 load 2 mul /Y22 load add 3 div
/X22 load /Y22 load curveto
} bd
/SSPD {
dup length /d exch dict def
{
/v exch def
/k exch def
currentpagedevice k known {
/cpdv currentpagedevice k get def
v cpdv ne {
/upd false def
/nullv v type /nulltype eq def
/nullcpdv cpdv type /nulltype eq def
nullv nullcpdv or
{
/upd true def
} {
/sametype v type cpdv type eq def
sametype {
v type /arraytype eq {
/vlen v length def
/cpdvlen cpdv length def
vlen cpdvlen eq {
0 1 vlen 1 sub {
/i exch def
/obj v i get def
/cpdobj cpdv i get def
obj cpdobj ne {
/upd true def
exit
} if
} for
} {
/upd true def
} ifelse
} {
v type /dicttype eq {
v {
/dv exch def
/dk exch def
/cpddv cpdv dk get def
dv cpddv ne {
/upd true def
exit
} if
} forall
} {
/upd true def
} ifelse
} ifelse
} if
} ifelse
upd true eq {
d k v put
} if
} if
} if
} forall
d length 0 gt {
d setpagedevice
} if
} bd
/RE { % /NewFontName [NewEncodingArray] /FontName RE -
  findfont dup length dict begin
  {
    1 index /FID ne
    {def} {pop pop} ifelse
  } forall
  /Encoding exch def
  /FontName 1 index def
  currentdict definefont pop
  end
} bind def
%%EndResource
%%BeginResource: procset (Apache XML Graphics EPS ProcSet) 1.0 0
%%Version: 1.0 0
%%Copyright: (Copyright 2002-2003 The Apache Software Foundation. License terms: http://www.apache.org/licenses/LICENSE-2.0)
/BeginEPSF { %def
/b4_Inc_state save def         % Save state for cleanup
/dict_count countdictstack def % Count objects on dict stack
/op_count count 1 sub def      % Count objects on operand stack
userdict begin                 % Push userdict on dict stack
/showpage { } def              % Redefine showpage, { } = null proc
0 setgray 0 setlinecap         % Prepare graphics state
1 setlinewidth 0 setlinejoin
10 setmiterlimit [ ] 0 setdash newpath
/languagelevel where           % If level not equal to 1 then
{pop languagelevel             % set strokeadjust and
1 ne                           % overprint to their defaults.
{false setstrokeadjust false setoverprint
} if
} if
} bd
/EndEPSF { %def
count op_count sub {pop} repeat            % Clean up stacks
countdictstack dict_count sub {end} repeat
b4_Inc_state restore
} bd
%%EndResource
%FOPBeginFontDict
%%IncludeResource: font Courier-Oblique
%%IncludeResource: font Courier-BoldOblique
%%IncludeResource: font Courier-Bold
%%IncludeResource: font ZapfDingbats
%%IncludeResource: font Symbol
%%IncludeResource: font Helvetica
%%IncludeResource: font Helvetica-Oblique
%%IncludeResource: font Helvetica-Bold
%%IncludeResource: font Helvetica-BoldOblique
%%IncludeResource: font Times-Roman
%%IncludeResource: font Times-Italic
%%IncludeResource: font Times-Bold
%%IncludeResource: font Times-BoldItalic
%%IncludeResource: font Courier
%FOPEndFontDict
%%BeginResource: encoding WinAnsiEncoding
/WinAnsiEncoding [
/.notdef /.notdef /.notdef /.notdef /.notdef
/.notdef /.notdef /.notdef /.notdef /.notdef
/.notdef /.notdef /.notdef /.notdef /.notdef
/.notdef /.notdef /.notdef /.notdef /.notdef
/.notdef /.notdef /.notdef /.notdef /.notdef
/.notdef /.notdef /.notdef /.notdef /.notdef
/.notdef /.notdef /space /exclam /quotedbl
/numbersign /dollar /percent /ampersand /quotesingle
/parenleft /parenright /asterisk /plus /comma
/hyphen /period /slash /zero /one
/two /three /four /five /six
/seven /eight /nine /colon /semicolon
/less /equal /greater /question /at
/A /B /C /D /E
/F /G /H /I /J
/K /L /M /N /O
/P /Q /R /S /T
/U /V /W /X /Y
/Z /bracketleft /backslash /bracketright /asciicircum
/underscore /quoteleft /a /b /c
/d /e /f /g /h
/i /j /k /l /m
/n /o /p /q /r
/s /t /u /v /w
/x /y /z /braceleft /bar
/braceright /asciitilde /bullet /Euro /bullet
/quotesinglbase /florin /quotedblbase /ellipsis /dagger
/daggerdbl /circumflex /perthousand /Scaron /guilsinglleft
/OE /bullet /Zcaron /bullet /bullet
/quoteleft /quoteright /quotedblleft /quotedblright /bullet
/endash /emdash /asciitilde /trademark /scaron
/guilsinglright /oe /bullet /zcaron /Ydieresis
/space /exclamdown /cent /sterling /currency
/yen /brokenbar /section /dieresis /copyright
/ordfeminine /guillemotleft /logicalnot /sfthyphen /registered
/macron /degree /plusminus /twosuperior /threesuperior
/acute /mu /paragraph /middot /cedilla
/onesuperior /ordmasculine /guillemotright /onequarter /onehalf
/threequarters /questiondown /Agrave /Aacute /Acircumflex
/Atilde /Adieresis /Aring /AE /Ccedilla
/Egrave /Eacute /Ecircumflex /Edieresis /Igrave
/Iacute /Icircumflex /Idieresis /Eth /Ntilde
/Ograve /Oacute /Ocircumflex /Otilde /Odieresis
/multiply /Oslash /Ugrave /Uacute /Ucircumflex
/Udieresis /Yacute /Thorn /germandbls /agrave
/aacute /acircumflex /atilde /adieresis /aring
/ae /ccedilla /egrave /eacute /ecircumflex
/edieresis /igrave /iacute /icircumflex /idieresis
/eth /ntilde /ograve /oacute /ocircumflex
/otilde /odieresis /divide /oslash /ugrave
/uacute /ucircumflex /udieresis /yacute /thorn
/ydieresis
] def
%%EndResource
%FOPBeginFontReencode
/Courier-Oblique findfont
dup length dict begin
  {1 index /FID ne {def} {pop pop} ifelse} forall
  /Encoding WinAnsiEncoding def
  currentdict
end
/Courier-Oblique exch definefont pop
/Courier-BoldOblique findfont
dup length dict begin
  {1 index /FID ne {def} {pop pop} ifelse} forall
  /Encoding WinAnsiEncoding def
  currentdict
end
/Courier-BoldOblique exch definefont pop
/Courier-Bold findfont
dup length dict begin
  {1 index /FID ne {def} {pop pop} ifelse} forall
  /Encoding WinAnsiEncoding def
  currentdict
end
/Courier-Bold exch definefont pop
/Helvetica findfont
dup length dict begin
  {1 index /FID ne {def} {pop pop} ifelse} forall
  /Encoding WinAnsiEncoding def
  currentdict
end
/Helvetica exch definefont pop
/Helvetica-Oblique findfont
dup length dict begin
  {1 index /FID ne {def} {pop pop} ifelse} forall
  /Encoding WinAnsiEncoding def
  currentdict
end
/Helvetica-Oblique exch definefont pop
/Helvetica-Bold findfont
dup length dict begin
  {1 index /FID ne {def} {pop pop} ifelse} forall
  /Encoding WinAnsiEncoding def
  currentdict
end
/Helvetica-Bold exch definefont pop
/Helvetica-BoldOblique findfont
dup length dict begin
  {1 index /FID ne {def} {pop pop} ifelse} forall
  /Encoding WinAnsiEncoding def
  currentdict
end
/Helvetica-BoldOblique exch definefont pop
/Times-Roman findfont
dup length dict begin
  {1 index /FID ne {def} {pop pop} ifelse} forall
  /Encoding WinAnsiEncoding def
  currentdict
end
/Times-Roman exch definefont pop
/Times-Italic findfont
dup length dict begin
  {1 index /FID ne {def} {pop pop} ifelse} forall
  /Encoding WinAnsiEncoding def
  currentdict
end
/Times-Italic exch definefont pop
/Times-Bold findfont
dup length dict begin
  {1 index /FID ne {def} {pop pop} ifelse} forall
  /Encoding WinAnsiEncoding def
  currentdict
end
/Times-Bold exch definefont pop
/Times-BoldItalic findfont
dup length dict begin
  {1 index /FID ne {def} {pop pop} ifelse} forall
  /Encoding WinAnsiEncoding def
  currentdict
end
/Times-BoldItalic exch definefont pop
/Courier findfont
dup length dict begin
  {1 index /FID ne {def} {pop pop} ifelse} forall
  /Encoding WinAnsiEncoding def
  currentdict
end
/Courier exch definefont pop
%FOPEndFontReencode
%%EndProlog
%%Page: 1 1
%%PageBoundingBox: 0 0 420 315
%%BeginPageSetup
[1 0 0 -1 0 315] CT
%%EndPageSetup
GS
[0.75 0 0 0.75 0 0] CT
1 GC
N
0 0 560 420 re
f
GR
GS
[0.75 0 0 0.75 0 0] CT
1 GC
N
0 0 560 420 re
f
GR
GS
[0.75 0 0 0.75 0 0] CT
1 GC
N
73 372 M
506 372 L
506 31 L
73 31 L
cp
f
GR
GS
[0.75 0 0 0.75 0 0] CT
0.775 GC
[1 3] 0 setdash
2 LJ
0.667 LW
N
83.825 372 M
83.825 31 L
S
GR
GS
[0.75 0 0 0.75 0 0] CT
0.775 GC
[1 3] 0 setdash
2 LJ
0.667 LW
N
94.65 372 M
94.65 31 L
S
GR
GS
[0.75 0 0 0.75 0 0] CT
0.775 GC
[1 3] 0 setdash
2 LJ
0.667 LW
N
105.475 372 M
105.475 31 L
S
GR
GS
[0.75 0 0 0.75 0 0] CT
0.775 GC
[1 3] 0 setdash
2 LJ
0.667 LW
N
116.3 372 M
116.3 31 L
S
GR
GS
[0.75 0 0 0.75 0 0] CT
0.775 GC
[1 3] 0 setdash
2 LJ
0.667 LW
N
137.95 372 M
137.95 31 L
S
GR
GS
[0.75 0 0 0.75 0 0] CT
0.775 GC
[1 3] 0 setdash
2 LJ
0.667 LW
N
148.775 372 M
148.775 31 L
S
GR
GS
[0.75 0 0 0.75 0 0] CT
0.775 GC
[1 3] 0 setdash
2 LJ
0.667 LW
N
159.6 372 M
159.6 31 L
S
GR
GS
[0.75 0 0 0.75 0 0] CT
0.775 GC
[1 3] 0 setdash
2 LJ
0.667 LW
N
170.425 372 M
170.425 31 L
S
GR
GS
[0.75 0 0 0.75 0 0] CT
0.775 GC
[1 3] 0 setdash
2 LJ
0.667 LW
N
192.075 372 M
192.075 31 L
S
GR
GS
[0.75 0 0 0.75 0 0] CT
0.775 GC
[1 3] 0 setdash
2 LJ
0.667 LW
N
202.9 372 M
202.9 31 L
S
GR
GS
[0.75 0 0 0.75 0 0] CT
0.775 GC
[1 3] 0 setdash
2 LJ
0.667 LW
N
213.725 372 M
213.725 31 L
S
GR
GS
[0.75 0 0 0.75 0 0] CT
0.775 GC
[1 3] 0 setdash
2 LJ
0.667 LW
N
224.55 372 M
224.55 31 L
S
GR
GS
[0.75 0 0 0.75 0 0] CT
0.775 GC
[1 3] 0 setdash
2 LJ
0.667 LW
N
246.2 372 M
246.2 31 L
S
GR
GS
[0.75 0 0 0.75 0 0] CT
0.775 GC
[1 3] 0 setdash
2 LJ
0.667 LW
N
257.025 372 M
257.025 31 L
S
GR
GS
[0.75 0 0 0.75 0 0] CT
0.775 GC
[1 3] 0 setdash
2 LJ
0.667 LW
N
267.85 372 M
267.85 31 L
S
GR
GS
[0.75 0 0 0.75 0 0] CT
0.775 GC
[1 3] 0 setdash
2 LJ
0.667 LW
N
278.675 372 M
278.675 31 L
S
GR
GS
[0.75 0 0 0.75 0 0] CT
0.775 GC
[1 3] 0 setdash
2 LJ
0.667 LW
N
300.325 372 M
300.325 31 L
S
GR
GS
[0.75 0 0 0.75 0 0] CT
0.775 GC
[1 3] 0 setdash
2 LJ
0.667 LW
N
311.15 372 M
311.15 31 L
S
GR
GS
[0.75 0 0 0.75 0 0] CT
0.775 GC
[1 3] 0 setdash
2 LJ
0.667 LW
N
321.975 372 M
321.975 31 L
S
GR
GS
[0.75 0 0 0.75 0 0] CT
0.775 GC
[1 3] 0 setdash
2 LJ
0.667 LW
N
332.8 372 M
332.8 31 L
S
GR
GS
[0.75 0 0 0.75 0 0] CT
0.775 GC
[1 3] 0 setdash
2 LJ
0.667 LW
N
354.45 372 M
354.45 31 L
S
GR
GS
[0.75 0 0 0.75 0 0] CT
0.775 GC
[1 3] 0 setdash
2 LJ
0.667 LW
N
365.275 372 M
365.275 31 L
S
GR
GS
[0.75 0 0 0.75 0 0] CT
0.775 GC
[1 3] 0 setdash
2 LJ
0.667 LW
N
376.1 372 M
376.1 31 L
S
GR
GS
[0.75 0 0 0.75 0 0] CT
0.775 GC
[1 3] 0 setdash
2 LJ
0.667 LW
N
386.925 372 M
386.925 31 L
S
GR
GS
[0.75 0 0 0.75 0 0] CT
0.775 GC
[1 3] 0 setdash
2 LJ
0.667 LW
N
408.575 372 M
408.575 31 L
S
GR
GS
[0.75 0 0 0.75 0 0] CT
0.775 GC
[1 3] 0 setdash
2 LJ
0.667 LW
N
419.4 372 M
419.4 31 L
S
GR
GS
[0.75 0 0 0.75 0 0] CT
0.775 GC
[1 3] 0 setdash
2 LJ
0.667 LW
N
430.225 372 M
430.225 31 L
S
GR
GS
[0.75 0 0 0.75 0 0] CT
0.775 GC
[1 3] 0 setdash
2 LJ
0.667 LW
N
441.05 372 M
441.05 31 L
S
GR
GS
[0.75 0 0 0.75 0 0] CT
0.775 GC
[1 3] 0 setdash
2 LJ
0.667 LW
N
462.7 372 M
462.7 31 L
S
GR
GS
[0.75 0 0 0.75 0 0] CT
0.775 GC
[1 3] 0 setdash
2 LJ
0.667 LW
N
473.525 372 M
473.525 31 L
S
GR
GS
[0.75 0 0 0.75 0 0] CT
0.775 GC
[1 3] 0 setdash
2 LJ
0.667 LW
N
484.35 372 M
484.35 31 L
S
GR
GS
[0.75 0 0 0.75 0 0] CT
0.775 GC
[1 3] 0 setdash
2 LJ
0.667 LW
N
495.175 372 M
495.175 31 L
S
GR
GS
[0.75 0 0 0.75 0 0] CT
0.873 GC
1 LJ
0.667 LW
N
73 372 M
73 31 L
S
GR
GS
[0.75 0 0 0.75 0 0] CT
0.873 GC
1 LJ
0.667 LW
N
127.125 372 M
127.125 31 L
S
GR
GS
[0.75 0 0 0.75 0 0] CT
0.873 GC
1 LJ
0.667 LW
N
181.25 372 M
181.25 31 L
S
GR
GS
[0.75 0 0 0.75 0 0] CT
0.873 GC
1 LJ
0.667 LW
N
235.375 372 M
235.375 31 L
S
GR
GS
[0.75 0 0 0.75 0 0] CT
0.873 GC
1 LJ
0.667 LW
N
289.5 372 M
289.5 31 L
S
GR
GS
[0.75 0 0 0.75 0 0] CT
0.873 GC
1 LJ
0.667 LW
N
343.625 372 M
343.625 31 L
S
GR
GS
[0.75 0 0 0.75 0 0] CT
0.873 GC
1 LJ
0.667 LW
N
397.75 372 M
397.75 31 L
S
GR
GS
[0.75 0 0 0.75 0 0] CT
0.873 GC
1 LJ
0.667 LW
N
451.875 372 M
451.875 31 L
S
GR
GS
[0.75 0 0 0.75 0 0] CT
0.873 GC
1 LJ
0.667 LW
N
506 372 M
506 31 L
S
GR
GS
[0.75 0 0 0.75 0 0] CT
0.749 0.861 0.935 RC
[1 3] 0 setdash
2 LJ
0.667 LW
N
506 360.633 M
73 360.633 L
S
GR
GS
[0.75 0 0 0.75 0 0] CT
0.749 0.861 0.935 RC
[1 3] 0 setdash
2 LJ
0.667 LW
N
506 349.267 M
73 349.267 L
S
GR
GS
[0.75 0 0 0.75 0 0] CT
0.749 0.861 0.935 RC
[1 3] 0 setdash
2 LJ
0.667 LW
N
506 337.9 M
73 337.9 L
S
GR
GS
[0.75 0 0 0.75 0 0] CT
0.749 0.861 0.935 RC
[1 3] 0 setdash
2 LJ
0.667 LW
N
506 326.533 M
73 326.533 L
S
GR
GS
[0.75 0 0 0.75 0 0] CT
0.749 0.861 0.935 RC
[1 3] 0 setdash
2 LJ
0.667 LW
N
506 303.8 M
73 303.8 L
S
GR
GS
[0.75 0 0 0.75 0 0] CT
0.749 0.861 0.935 RC
[1 3] 0 setdash
2 LJ
0.667 LW
N
506 292.433 M
73 292.433 L
S
GR
GS
[0.75 0 0 0.75 0 0] CT
0.749 0.861 0.935 RC
[1 3] 0 setdash
2 LJ
0.667 LW
N
506 281.067 M
73 281.067 L
S
GR
GS
[0.75 0 0 0.75 0 0] CT
0.749 0.861 0.935 RC
[1 3] 0 setdash
2 LJ
0.667 LW
N
506 269.7 M
73 269.7 L
S
GR
GS
[0.75 0 0 0.75 0 0] CT
0.749 0.861 0.935 RC
[1 3] 0 setdash
2 LJ
0.667 LW
N
506 246.967 M
73 246.967 L
S
GR
GS
[0.75 0 0 0.75 0 0] CT
0.749 0.861 0.935 RC
[1 3] 0 setdash
2 LJ
0.667 LW
N
506 235.6 M
73 235.6 L
S
GR
GS
[0.75 0 0 0.75 0 0] CT
0.749 0.861 0.935 RC
[1 3] 0 setdash
2 LJ
0.667 LW
N
506 224.233 M
73 224.233 L
S
GR
GS
[0.75 0 0 0.75 0 0] CT
0.749 0.861 0.935 RC
[1 3] 0 setdash
2 LJ
0.667 LW
N
506 212.867 M
73 212.867 L
S
GR
GS
[0.75 0 0 0.75 0 0] CT
0.749 0.861 0.935 RC
[1 3] 0 setdash
2 LJ
0.667 LW
N
506 190.133 M
73 190.133 L
S
GR
GS
[0.75 0 0 0.75 0 0] CT
0.749 0.861 0.935 RC
[1 3] 0 setdash
2 LJ
0.667 LW
N
506 178.767 M
73 178.767 L
S
GR
GS
[0.75 0 0 0.75 0 0] CT
0.749 0.861 0.935 RC
[1 3] 0 setdash
2 LJ
0.667 LW
N
506 167.4 M
73 167.4 L
S
GR
GS
[0.75 0 0 0.75 0 0] CT
0.749 0.861 0.935 RC
[1 3] 0 setdash
2 LJ
0.667 LW
N
506 156.033 M
73 156.033 L
S
GR
GS
[0.75 0 0 0.75 0 0] CT
0.749 0.861 0.935 RC
[1 3] 0 setdash
2 LJ
0.667 LW
N
506 133.3 M
73 133.3 L
S
GR
GS
[0.75 0 0 0.75 0 0] CT
0.749 0.861 0.935 RC
[1 3] 0 setdash
2 LJ
0.667 LW
N
506 121.933 M
73 121.933 L
S
GR
GS
[0.75 0 0 0.75 0 0] CT
0.749 0.861 0.935 RC
[1 3] 0 setdash
2 LJ
0.667 LW
N
506 110.567 M
73 110.567 L
S
GR
GS
[0.75 0 0 0.75 0 0] CT
0.749 0.861 0.935 RC
[1 3] 0 setdash
2 LJ
0.667 LW
N
506 99.2 M
73 99.2 L
S
GR
GS
[0.75 0 0 0.75 0 0] CT
0.749 0.861 0.935 RC
[1 3] 0 setdash
2 LJ
0.667 LW
N
506 76.467 M
73 76.467 L
S
GR
GS
[0.75 0 0 0.75 0 0] CT
0.749 0.861 0.935 RC
[1 3] 0 setdash
2 LJ
0.667 LW
N
506 65.1 M
73 65.1 L
S
GR
GS
[0.75 0 0 0.75 0 0] CT
0.749 0.861 0.935 RC
[1 3] 0 setdash
2 LJ
0.667 LW
N
506 53.733 M
73 53.733 L
S
GR
GS
[0.75 0 0 0.75 0 0] CT
0.749 0.861 0.935 RC
[1 3] 0 setdash
2 LJ
0.667 LW
N
506 42.367 M
73 42.367 L
S
GR
GS
[0.75 0 0 0.75 0 0] CT
0.851 0.918 0.961 RC
1 LJ
0.667 LW
N
506 372 M
73 372 L
S
GR
GS
[0.75 0 0 0.75 0 0] CT
0.851 0.918 0.961 RC
1 LJ
0.667 LW
N
506 315.167 M
73 315.167 L
S
GR
GS
[0.75 0 0 0.75 0 0] CT
0.851 0.918 0.961 RC
1 LJ
0.667 LW
N
506 258.333 M
73 258.333 L
S
GR
GS
[0.75 0 0 0.75 0 0] CT
0.851 0.918 0.961 RC
1 LJ
0.667 LW
N
506 201.5 M
73 201.5 L
S
GR
GS
[0.75 0 0 0.75 0 0] CT
0.851 0.918 0.961 RC
1 LJ
0.667 LW
N
506 144.667 M
73 144.667 L
S
GR
GS
[0.75 0 0 0.75 0 0] CT
0.851 0.918 0.961 RC
1 LJ
0.667 LW
N
506 87.833 M
73 87.833 L
S
GR
GS
[0.75 0 0 0.75 0 0] CT
0.851 0.918 0.961 RC
1 LJ
0.667 LW
N
506 31 M
73 31 L
S
GR
GS
[0.75 0 0 0.75 0 0] CT
0.149 GC
2 setlinecap
1 LJ
0.667 LW
N
73 372 M
506 372 L
S
GR
GS
[0.75 0 0 0.75 0 0] CT
0.149 GC
2 setlinecap
1 LJ
0.667 LW
N
73 31 M
506 31 L
S
GR
GS
[0.75 0 0 0.75 0 0] CT
0.149 GC
2 setlinecap
1 LJ
0.667 LW
N
73 372 M
73 367.67 L
S
GR
GS
[0.75 0 0 0.75 0 0] CT
0.149 GC
2 setlinecap
1 LJ
0.667 LW
N
127.125 372 M
127.125 367.67 L
S
GR
GS
[0.75 0 0 0.75 0 0] CT
0.149 GC
2 setlinecap
1 LJ
0.667 LW
N
181.25 372 M
181.25 367.67 L
S
GR
GS
[0.75 0 0 0.75 0 0] CT
0.149 GC
2 setlinecap
1 LJ
0.667 LW
N
235.375 372 M
235.375 367.67 L
S
GR
GS
[0.75 0 0 0.75 0 0] CT
0.149 GC
2 setlinecap
1 LJ
0.667 LW
N
289.5 372 M
289.5 367.67 L
S
GR
GS
[0.75 0 0 0.75 0 0] CT
0.149 GC
2 setlinecap
1 LJ
0.667 LW
N
343.625 372 M
343.625 367.67 L
S
GR
GS
[0.75 0 0 0.75 0 0] CT
0.149 GC
2 setlinecap
1 LJ
0.667 LW
N
397.75 372 M
397.75 367.67 L
S
GR
GS
[0.75 0 0 0.75 0 0] CT
0.149 GC
2 setlinecap
1 LJ
0.667 LW
N
451.875 372 M
451.875 367.67 L
S
GR
GS
[0.75 0 0 0.75 0 0] CT
0.149 GC
2 setlinecap
1 LJ
0.667 LW
N
506 372 M
506 367.67 L
S
GR
GS
[0.75 0 0 0.75 0 0] CT
0.149 GC
2 setlinecap
1 LJ
0.667 LW
N
73 31 M
73 35.33 L
S
GR
GS
[0.75 0 0 0.75 0 0] CT
0.149 GC
2 setlinecap
1 LJ
0.667 LW
N
127.125 31 M
127.125 35.33 L
S
GR
GS
[0.75 0 0 0.75 0 0] CT
0.149 GC
2 setlinecap
1 LJ
0.667 LW
N
181.25 31 M
181.25 35.33 L
S
GR
GS
[0.75 0 0 0.75 0 0] CT
0.149 GC
2 setlinecap
1 LJ
0.667 LW
N
235.375 31 M
235.375 35.33 L
S
GR
GS
[0.75 0 0 0.75 0 0] CT
0.149 GC
2 setlinecap
1 LJ
0.667 LW
N
289.5 31 M
289.5 35.33 L
S
GR
GS
[0.75 0 0 0.75 0 0] CT
0.149 GC
2 setlinecap
1 LJ
0.667 LW
N
343.625 31 M
343.625 35.33 L
S
GR
GS
[0.75 0 0 0.75 0 0] CT
0.149 GC
2 setlinecap
1 LJ
0.667 LW
N
397.75 31 M
397.75 35.33 L
S
GR
GS
[0.75 0 0 0.75 0 0] CT
0.149 GC
2 setlinecap
1 LJ
0.667 LW
N
451.875 31 M
451.875 35.33 L
S
GR
GS
[0.75 0 0 0.75 0 0] CT
0.149 GC
2 setlinecap
1 LJ
0.667 LW
N
506 31 M
506 35.33 L
S
GR
GS
[0.75 0 0 0.75 54.75 282.99998] CT
0.149 GC
/Helvetica 13.333 F
GS
[1 0 0 1 0 0] CT
-4 14 moveto 
1 -1 scale
(0) t 
GR
GR
GS
[0.75 0 0 0.75 95.34375 282.99998] CT
0.149 GC
/Helvetica 13.333 F
GS
[1 0 0 1 0 0] CT
-7.5 14 moveto 
1 -1 scale
(10) t 
GR
GR
GS
[0.75 0 0 0.75 135.9375 282.99998] CT
0.149 GC
/Helvetica 13.333 F
GS
[1 0 0 1 0 0] CT
-7.5 14 moveto 
1 -1 scale
(20) t 
GR
GR
GS
[0.75 0 0 0.75 176.53125 282.99998] CT
0.149 GC
/Helvetica 13.333 F
GS
[1 0 0 1 0 0] CT
-7.5 14 moveto 
1 -1 scale
(30) t 
GR
GR
GS
[0.75 0 0 0.75 217.125 282.99998] CT
0.149 GC
/Helvetica 13.333 F
GS
[1 0 0 1 0 0] CT
-7.5 14 moveto 
1 -1 scale
(40) t 
GR
GR
GS
[0.75 0 0 0.75 257.71875 282.99998] CT
0.149 GC
/Helvetica 13.333 F
GS
[1 0 0 1 0 0] CT
-7.5 14 moveto 
1 -1 scale
(50) t 
GR
GR
GS
[0.75 0 0 0.75 298.3125 282.99998] CT
0.149 GC
/Helvetica 13.333 F
GS
[1 0 0 1 0 0] CT
-7.5 14 moveto 
1 -1 scale
(60) t 
GR
GR
GS
[0.75 0 0 0.75 338.90625 282.99998] CT
0.149 GC
/Helvetica 13.333 F
GS
[1 0 0 1 0 0] CT
-7.5 14 moveto 
1 -1 scale
(70) t 
GR
GR
GS
[0.75 0 0 0.75 379.5 282.99998] CT
0.149 GC
/Helvetica 13.333 F
GS
[1 0 0 1 0 0] CT
-7.5 14 moveto 
1 -1 scale
(80) t 
GR
GR
GS
[0.75 0 0 0.75 217.12516 296.74999] CT
0.149 GC
/Helvetica 18.667 F
GS
[1 0 0 1 0 0] CT
-38.5 19 moveto 
1 -1 scale
(Time / ns) t 
GR
GR
GS
[0.75 0 0 0.75 0 0] CT
0 0.447 0.741 RC
2 setlinecap
1 LJ
0.667 LW
N
73 372 M
73 31 L
S
GR
GS
[0.75 0 0 0.75 0 0] CT
0 0.447 0.741 RC
2 setlinecap
1 LJ
0.667 LW
N
73 372 M
77.33 372 L
S
GR
GS
[0.75 0 0 0.75 0 0] CT
0 0.447 0.741 RC
2 setlinecap
1 LJ
0.667 LW
N
73 315.167 M
77.33 315.167 L
S
GR
GS
[0.75 0 0 0.75 0 0] CT
0 0.447 0.741 RC
2 setlinecap
1 LJ
0.667 LW
N
73 258.333 M
77.33 258.333 L
S
GR
GS
[0.75 0 0 0.75 0 0] CT
0 0.447 0.741 RC
2 setlinecap
1 LJ
0.667 LW
N
73 201.5 M
77.33 201.5 L
S
GR
GS
[0.75 0 0 0.75 0 0] CT
0 0.447 0.741 RC
2 setlinecap
1 LJ
0.667 LW
N
73 144.667 M
77.33 144.667 L
S
GR
GS
[0.75 0 0 0.75 0 0] CT
0 0.447 0.741 RC
2 setlinecap
1 LJ
0.667 LW
N
73 87.833 M
77.33 87.833 L
S
GR
GS
[0.75 0 0 0.75 0 0] CT
0 0.447 0.741 RC
2 setlinecap
1 LJ
0.667 LW
N
73 31 M
77.33 31 L
S
GR
GS
[0.75 0 0 0.75 50.75 279] CT
0 0.447 0.741 RC
/Helvetica 13.333 F
GS
[1 0 0 1 0 0] CT
-12 5.5 moveto 
1 -1 scale
(-5) t 
GR
GR
GS
[0.75 0 0 0.75 50.75 236.37499] CT
0 0.447 0.741 RC
/Helvetica 13.333 F
GS
[1 0 0 1 0 0] CT
-12 5.5 moveto 
1 -1 scale
(-4) t 
GR
GR
GS
[0.75 0 0 0.75 50.75 193.75001] CT
0 0.447 0.741 RC
/Helvetica 13.333 F
GS
[1 0 0 1 0 0] CT
-12 5.5 moveto 
1 -1 scale
(-3) t 
GR
GR
GS
[0.75 0 0 0.75 50.75 151.125] CT
0 0.447 0.741 RC
/Helvetica 13.333 F
GS
[1 0 0 1 0 0] CT
-12 5.5 moveto 
1 -1 scale
(-2) t 
GR
GR
GS
[0.75 0 0 0.75 50.75 108.5] CT
0 0.447 0.741 RC
/Helvetica 13.333 F
GS
[1 0 0 1 0 0] CT
-12 5.5 moveto 
1 -1 scale
(-1) t 
GR
GR
GS
[0.75 0 0 0.75 50.75 65.875] CT
0 0.447 0.741 RC
/Helvetica 13.333 F
GS
[1 0 0 1 0 0] CT
-8 5.5 moveto 
1 -1 scale
(0) t 
GR
GR
GS
[0.75 0 0 0.75 50.75 23.25] CT
0 0.447 0.741 RC
/Helvetica 13.333 F
GS
[1 0 0 1 0 0] CT
-8 5.5 moveto 
1 -1 scale
(1) t 
GR
GR
GS
[0 -0.75 0.75 0 38.75 151.12487] CT
0 0.447 0.741 RC
/Helvetica 18.667 F
GS
[1 0 0 1 0 0] CT
-46 -5 moveto 
1 -1 scale
(Voltage / V) t 
GR
GR
GS
[0.75 0 0 0.75 0 0] CT
0.851 0.325 0.098 RC
2 setlinecap
1 LJ
0.667 LW
N
506 372 M
506 31 L
S
GR
GS
[0.75 0 0 0.75 0 0] CT
0.851 0.325 0.098 RC
2 setlinecap
1 LJ
0.667 LW
N
506 372 M
501.67 372 L
S
GR
GS
[0.75 0 0 0.75 0 0] CT
0.851 0.325 0.098 RC
2 setlinecap
1 LJ
0.667 LW
N
506 315.167 M
501.67 315.167 L
S
GR
GS
[0.75 0 0 0.75 0 0] CT
0.851 0.325 0.098 RC
2 setlinecap
1 LJ
0.667 LW
N
506 258.333 M
501.67 258.333 L
S
GR
GS
[0.75 0 0 0.75 0 0] CT
0.851 0.325 0.098 RC
2 setlinecap
1 LJ
0.667 LW
N
506 201.5 M
501.67 201.5 L
S
GR
GS
[0.75 0 0 0.75 0 0] CT
0.851 0.325 0.098 RC
2 setlinecap
1 LJ
0.667 LW
N
506 144.667 M
501.67 144.667 L
S
GR
GS
[0.75 0 0 0.75 0 0] CT
0.851 0.325 0.098 RC
2 setlinecap
1 LJ
0.667 LW
N
506 87.833 M
501.67 87.833 L
S
GR
GS
[0.75 0 0 0.75 0 0] CT
0.851 0.325 0.098 RC
2 setlinecap
1 LJ
0.667 LW
N
506 31 M
501.67 31 L
S
GR
GS
[0.75 0 0 0.75 383.50001 279] CT
0.851 0.325 0.098 RC
/Helvetica 13.333 F
GS
[1 0 0 1 0 0] CT
0 5.5 moveto 
1 -1 scale
(-25) t 
GR
GR
GS
[0.75 0 0 0.75 383.50001 236.37499] CT
0.851 0.325 0.098 RC
/Helvetica 13.333 F
GS
[1 0 0 1 0 0] CT
0 5.5 moveto 
1 -1 scale
(-20) t 
GR
GR
GS
[0.75 0 0 0.75 383.50001 193.75001] CT
0.851 0.325 0.098 RC
/Helvetica 13.333 F
GS
[1 0 0 1 0 0] CT
0 5.5 moveto 
1 -1 scale
(-15) t 
GR
GR
GS
[0.75 0 0 0.75 383.50001 151.125] CT
0.851 0.325 0.098 RC
/Helvetica 13.333 F
GS
[1 0 0 1 0 0] CT
0 5.5 moveto 
1 -1 scale
(-10) t 
GR
GR
GS
[0.75 0 0 0.75 383.50001 108.5] CT
0.851 0.325 0.098 RC
/Helvetica 13.333 F
GS
[1 0 0 1 0 0] CT
0 5.5 moveto 
1 -1 scale
(-5) t 
GR
GR
GS
[0.75 0 0 0.75 383.50001 65.875] CT
0.851 0.325 0.098 RC
/Helvetica 13.333 F
GS
[1 0 0 1 0 0] CT
0 5.5 moveto 
1 -1 scale
(0) t 
GR
GR
GS
[0.75 0 0 0.75 383.50001 23.25] CT
0.851 0.325 0.098 RC
/Helvetica 13.333 F
GS
[1 0 0 1 0 0] CT
0 5.5 moveto 
1 -1 scale
(5) t 
GR
GR
GS
[0 -0.75 0.75 0 402.24998 151.12487] CT
0.851 0.325 0.098 RC
/Helvetica 18.667 F
GS
[1 0 0 1 0 0] CT
-50.5 19 moveto 
1 -1 scale
(Charge / nC) t 
GR
GR
GS
[0.75 0 0 0.75 0 0] CT
N
73 31 M
507 31 L
507 372 L
73 372 L
73 31 L
cp
clip
0 0.447 0.741 RC
1 LJ
2 LW
N
73 87.673 M
77.33 87.993 L
81.66 84.832 L
85.99 87.212 L
90.32 90.693 L
94.65 90.764 L
98.98 88.757 L
103.31 81.333 L
107.64 82.31 L
111.97 88.881 L
116.3 88.313 L
120.63 89.538 L
124.96 85.134 L
129.29 87.549 L
133.62 92.22 L
137.95 85.578 L
142.28 96.5 L
146.61 82.647 L
150.94 126.8 L
155.27 287.176 L
159.6 350.812 L
163.93 317.067 L
168.26 286.164 L
172.59 227.377 L
176.92 174.451 L
181.25 135.893 L
185.58 102.734 L
189.91 87.229 L
194.24 79.735 L
198.57 85.631 L
202.9 94.334 L
207.23 93.09 L
211.56 113.053 L
215.89 129.677 L
220.22 129.197 L
224.55 144.578 L
228.88 124.882 L
233.21 87.158 L
237.54 90.959 L
241.87 104.244 L
246.2 102.539 L
250.53 90.728 L
254.86 84.938 L
259.19 85.311 L
263.52 83.873 L
267.85 82.914 L
272.18 81.99 L
276.51 88.846 L
280.84 97.815 L
285.17 94.618 L
289.5 85.489 L
293.83 83.589 L
298.16 84.175 L
302.49 81.848 L
306.82 85.365 L
311.15 87.194 L
315.48 87.372 L
319.81 92.398 L
324.14 91.101 L
328.47 87.638 L
332.8 89.183 L
337.13 90.497 L
341.46 88.473 L
345.79 84.743 L
350.12 83.997 L
354.45 82.789 L
358.78 80.996 L
363.11 81.315 L
367.44 82.594 L
371.77 86.075 L
376.1 89.521 L
380.43 91.723 L
384.76 91.758 L
389.09 90.409 L
393.42 89.13 L
397.75 85.382 L
402.08 83.873 L
406.41 84.779 L
410.74 83.731 L
415.07 84.938 L
419.4 87.531 L
423.73 88.81 L
428.06 88.082 L
432.39 86.519 L
436.72 88.153 L
441.05 87.389 L
445.38 84.352 L
449.71 86.732 L
454.04 87.94 L
458.37 85.791 L
462.7 86.91 L
467.03 89.645 L
471.36 91.439 L
475.69 90.48 L
480.02 87.958 L
484.35 88.97 L
488.68 90.284 L
493.01 88.153 L
497.34 85.471 L
501.67 85.684 L
S
GR
GS
[0.75 0 0 0.75 0 0] CT
0.851 0.325 0.098 RC
1 LJ
2 LW
N
73 87.833 M
77.33 87.833 L
81.66 87.606 L
85.99 87.316 L
90.32 87.495 L
94.65 87.958 L
98.98 88.267 L
103.31 87.821 L
107.64 86.859 L
111.97 86.501 L
116.3 86.623 L
120.63 86.798 L
124.96 86.718 L
129.29 86.479 L
133.62 86.807 L
137.95 86.978 L
142.28 87.491 L
146.61 87.769 L
150.94 90.472 L
155.27 109.537 L
159.6 146.522 L
163.93 185.899 L
168.26 220.104 L
172.59 247.134 L
176.92 265.227 L
181.25 276.001 L
185.58 281.038 L
189.91 282.182 L
194.24 281.486 L
198.57 280.662 L
202.9 281.006 L
207.23 281.946 L
211.56 284.384 L
215.89 289.749 L
220.22 296.406 L
224.55 304.255 L
228.88 311.758 L
233.21 314.668 L
237.54 314.864 L
241.87 316.427 L
246.2 318.916 L
250.53 320.324 L
254.86 320.324 L
259.19 319.891 L
263.52 319.372 L
267.85 318.662 L
272.18 317.801 L
276.51 317.414 L
280.84 318.294 L
285.17 319.635 L
289.5 319.99 L
293.83 319.463 L
298.16 318.831 L
302.49 318.059 L
306.82 317.383 L
311.15 317.135 L
315.48 317.046 L
319.81 317.375 L
324.14 318.001 L
328.47 318.247 L
332.8 318.339 L
337.13 318.66 L
341.46 318.925 L
345.79 318.729 L
350.12 318.175 L
354.45 317.464 L
358.78 316.514 L
363.11 315.445 L
367.44 314.505 L
371.77 313.945 L
376.1 313.939 L
380.43 314.385 L
384.76 315.01 L
389.09 315.53 L
393.42 315.84 L
397.75 315.748 L
402.08 315.235 L
406.41 314.674 L
410.74 314.101 L
415.07 313.541 L
419.4 313.285 L
423.73 313.339 L
428.06 313.438 L
432.39 313.352 L
436.72 313.273 L
441.05 313.263 L
445.38 312.949 L
449.71 312.582 L
454.04 312.503 L
458.37 312.348 L
462.7 312.11 L
467.03 312.181 L
471.36 312.615 L
475.69 313.115 L
480.02 313.337 L
484.35 313.438 L
488.68 313.725 L
493.01 313.946 L
497.34 313.783 L
501.67 313.422 L
S
GR
GS
[0.75 0 0 0.75 0 0] CT
1 GC
N
496 78 M
496 42 L
404 42 L
404 78 L
cp
f
GR
GS
[0.75 0 0 0.75 338.25 38.89726] CT
/Helvetica 12 F
GS
[1 0 0 1 0 0] CT
0 5 moveto 
1 -1 scale
(Voltage) t 
GR
GR
GS
[0.75 0 0 0.75 0 0] CT
0 0.447 0.741 RC
1 LJ
2 LW
N
408 51.863 M
448 51.863 L
S
GR
GS
[0.75 0 0 0.75 338.25 51.10274] CT
/Helvetica 12 F
GS
[1 0 0 1 0 0] CT
0 5 moveto 
1 -1 scale
(Charge) t 
GR
GR
GS
[0.75 0 0 0.75 0 0] CT
0.851 0.325 0.098 RC
1 LJ
2 LW
N
408 68.137 M
448 68.137 L
S
GR
GS
[0.75 0 0 0.75 0 0] CT
0.149 GC
10.0 ML
0.667 LW
N
404 78 M
404 42 L
496 42 L
496 78 L
cp
S
GR
%%Trailer
%%Pages: 1
%%EOF
