%!PS-Adobe-3.0 EPSF-3.0
%%Creator: (MATLAB, The Mathworks, Inc. Version 24.1.0.2603908 \(R2024a\) Update 3. Operating System: Windows 10)
%%Title: (C:/Users/lorde/Documents/MATLAB/Master Lab Course/Exercise 1/E1_2_E1DUT1LS20V_fall.eps)
%%CreationDate: 2024-06-25T15:55:07
%%Pages: (atend)
%%BoundingBox:     0     0   420   315
%%LanguageLevel: 3
%%EndComments
%%BeginProlog
%%BeginResource: procset (Apache XML Graphics Std ProcSet) 1.2 0
%%Version: 1.2 0
%%Copyright: (Copyright 2001-2003,2010 The Apache Software Foundation. License terms: http://www.apache.org/licenses/LICENSE-2.0)
/bd{bind def}bind def
/ld{load def}bd
/GR/grestore ld
/GS/gsave ld
/RM/rmoveto ld
/C/curveto ld
/t/show ld
/L/lineto ld
/ML/setmiterlimit ld
/CT/concat ld
/f/fill ld
/N/newpath ld
/S/stroke ld
/CC/setcmykcolor ld
/A/ashow ld
/cp/closepath ld
/RC/setrgbcolor ld
/LJ/setlinejoin ld
/GC/setgray ld
/LW/setlinewidth ld
/M/moveto ld
/re {4 2 roll M
1 index 0 rlineto
0 exch rlineto
neg 0 rlineto
cp } bd
/_ctm matrix def
/_tm matrix def
/BT { _ctm currentmatrix pop matrix _tm copy pop 0 0 moveto } bd
/ET { _ctm setmatrix } bd
/iTm { _ctm setmatrix _tm concat } bd
/Tm { _tm astore pop iTm 0 0 moveto } bd
/ux 0.0 def
/uy 0.0 def
/F {
  /Tp exch def
  /Tf exch def
  Tf findfont Tp scalefont setfont
  /cf Tf def  /cs Tp def
} bd
/ULS {currentpoint /uy exch def /ux exch def} bd
/ULE {
  /Tcx currentpoint pop def
  gsave
  newpath
  cf findfont cs scalefont dup
  /FontMatrix get 0 get /Ts exch def /FontInfo get dup
  /UnderlinePosition get Ts mul /To exch def
  /UnderlineThickness get Ts mul /Tt exch def
  ux uy To add moveto  Tcx uy To add lineto
  Tt setlinewidth stroke
  grestore
} bd
/OLE {
  /Tcx currentpoint pop def
  gsave
  newpath
  cf findfont cs scalefont dup
  /FontMatrix get 0 get /Ts exch def /FontInfo get dup
  /UnderlinePosition get Ts mul /To exch def
  /UnderlineThickness get Ts mul /Tt exch def
  ux uy To add cs add moveto Tcx uy To add cs add lineto
  Tt setlinewidth stroke
  grestore
} bd
/SOE {
  /Tcx currentpoint pop def
  gsave
  newpath
  cf findfont cs scalefont dup
  /FontMatrix get 0 get /Ts exch def /FontInfo get dup
  /UnderlinePosition get Ts mul /To exch def
  /UnderlineThickness get Ts mul /Tt exch def
  ux uy To add cs 10 mul 26 idiv add moveto Tcx uy To add cs 10 mul 26 idiv add lineto
  Tt setlinewidth stroke
  grestore
} bd
/QT {
/Y22 exch store
/X22 exch store
/Y21 exch store
/X21 exch store
currentpoint
/Y21 load 2 mul add 3 div exch
/X21 load 2 mul add 3 div exch
/X21 load 2 mul /X22 load add 3 div
/Y21 load 2 mul /Y22 load add 3 div
/X22 load /Y22 load curveto
} bd
/SSPD {
dup length /d exch dict def
{
/v exch def
/k exch def
currentpagedevice k known {
/cpdv currentpagedevice k get def
v cpdv ne {
/upd false def
/nullv v type /nulltype eq def
/nullcpdv cpdv type /nulltype eq def
nullv nullcpdv or
{
/upd true def
} {
/sametype v type cpdv type eq def
sametype {
v type /arraytype eq {
/vlen v length def
/cpdvlen cpdv length def
vlen cpdvlen eq {
0 1 vlen 1 sub {
/i exch def
/obj v i get def
/cpdobj cpdv i get def
obj cpdobj ne {
/upd true def
exit
} if
} for
} {
/upd true def
} ifelse
} {
v type /dicttype eq {
v {
/dv exch def
/dk exch def
/cpddv cpdv dk get def
dv cpddv ne {
/upd true def
exit
} if
} forall
} {
/upd true def
} ifelse
} ifelse
} if
} ifelse
upd true eq {
d k v put
} if
} if
} if
} forall
d length 0 gt {
d setpagedevice
} if
} bd
/RE { % /NewFontName [NewEncodingArray] /FontName RE -
  findfont dup length dict begin
  {
    1 index /FID ne
    {def} {pop pop} ifelse
  } forall
  /Encoding exch def
  /FontName 1 index def
  currentdict definefont pop
  end
} bind def
%%EndResource
%%BeginResource: procset (Apache XML Graphics EPS ProcSet) 1.0 0
%%Version: 1.0 0
%%Copyright: (Copyright 2002-2003 The Apache Software Foundation. License terms: http://www.apache.org/licenses/LICENSE-2.0)
/BeginEPSF { %def
/b4_Inc_state save def         % Save state for cleanup
/dict_count countdictstack def % Count objects on dict stack
/op_count count 1 sub def      % Count objects on operand stack
userdict begin                 % Push userdict on dict stack
/showpage { } def              % Redefine showpage, { } = null proc
0 setgray 0 setlinecap         % Prepare graphics state
1 setlinewidth 0 setlinejoin
10 setmiterlimit [ ] 0 setdash newpath
/languagelevel where           % If level not equal to 1 then
{pop languagelevel             % set strokeadjust and
1 ne                           % overprint to their defaults.
{false setstrokeadjust false setoverprint
} if
} if
} bd
/EndEPSF { %def
count op_count sub {pop} repeat            % Clean up stacks
countdictstack dict_count sub {end} repeat
b4_Inc_state restore
} bd
%%EndResource
%FOPBeginFontDict
%%IncludeResource: font Courier-Oblique
%%IncludeResource: font Courier-BoldOblique
%%IncludeResource: font Courier-Bold
%%IncludeResource: font ZapfDingbats
%%IncludeResource: font Symbol
%%IncludeResource: font Helvetica
%%IncludeResource: font Helvetica-Oblique
%%IncludeResource: font Helvetica-Bold
%%IncludeResource: font Helvetica-BoldOblique
%%IncludeResource: font Times-Roman
%%IncludeResource: font Times-Italic
%%IncludeResource: font Times-Bold
%%IncludeResource: font Times-BoldItalic
%%IncludeResource: font Courier
%FOPEndFontDict
%%BeginResource: encoding WinAnsiEncoding
/WinAnsiEncoding [
/.notdef /.notdef /.notdef /.notdef /.notdef
/.notdef /.notdef /.notdef /.notdef /.notdef
/.notdef /.notdef /.notdef /.notdef /.notdef
/.notdef /.notdef /.notdef /.notdef /.notdef
/.notdef /.notdef /.notdef /.notdef /.notdef
/.notdef /.notdef /.notdef /.notdef /.notdef
/.notdef /.notdef /space /exclam /quotedbl
/numbersign /dollar /percent /ampersand /quotesingle
/parenleft /parenright /asterisk /plus /comma
/hyphen /period /slash /zero /one
/two /three /four /five /six
/seven /eight /nine /colon /semicolon
/less /equal /greater /question /at
/A /B /C /D /E
/F /G /H /I /J
/K /L /M /N /O
/P /Q /R /S /T
/U /V /W /X /Y
/Z /bracketleft /backslash /bracketright /asciicircum
/underscore /quoteleft /a /b /c
/d /e /f /g /h
/i /j /k /l /m
/n /o /p /q /r
/s /t /u /v /w
/x /y /z /braceleft /bar
/braceright /asciitilde /bullet /Euro /bullet
/quotesinglbase /florin /quotedblbase /ellipsis /dagger
/daggerdbl /circumflex /perthousand /Scaron /guilsinglleft
/OE /bullet /Zcaron /bullet /bullet
/quoteleft /quoteright /quotedblleft /quotedblright /bullet
/endash /emdash /asciitilde /trademark /scaron
/guilsinglright /oe /bullet /zcaron /Ydieresis
/space /exclamdown /cent /sterling /currency
/yen /brokenbar /section /dieresis /copyright
/ordfeminine /guillemotleft /logicalnot /sfthyphen /registered
/macron /degree /plusminus /twosuperior /threesuperior
/acute /mu /paragraph /middot /cedilla
/onesuperior /ordmasculine /guillemotright /onequarter /onehalf
/threequarters /questiondown /Agrave /Aacute /Acircumflex
/Atilde /Adieresis /Aring /AE /Ccedilla
/Egrave /Eacute /Ecircumflex /Edieresis /Igrave
/Iacute /Icircumflex /Idieresis /Eth /Ntilde
/Ograve /Oacute /Ocircumflex /Otilde /Odieresis
/multiply /Oslash /Ugrave /Uacute /Ucircumflex
/Udieresis /Yacute /Thorn /germandbls /agrave
/aacute /acircumflex /atilde /adieresis /aring
/ae /ccedilla /egrave /eacute /ecircumflex
/edieresis /igrave /iacute /icircumflex /idieresis
/eth /ntilde /ograve /oacute /ocircumflex
/otilde /odieresis /divide /oslash /ugrave
/uacute /ucircumflex /udieresis /yacute /thorn
/ydieresis
] def
%%EndResource
%FOPBeginFontReencode
/Courier-Oblique findfont
dup length dict begin
  {1 index /FID ne {def} {pop pop} ifelse} forall
  /Encoding WinAnsiEncoding def
  currentdict
end
/Courier-Oblique exch definefont pop
/Courier-BoldOblique findfont
dup length dict begin
  {1 index /FID ne {def} {pop pop} ifelse} forall
  /Encoding WinAnsiEncoding def
  currentdict
end
/Courier-BoldOblique exch definefont pop
/Courier-Bold findfont
dup length dict begin
  {1 index /FID ne {def} {pop pop} ifelse} forall
  /Encoding WinAnsiEncoding def
  currentdict
end
/Courier-Bold exch definefont pop
/Helvetica findfont
dup length dict begin
  {1 index /FID ne {def} {pop pop} ifelse} forall
  /Encoding WinAnsiEncoding def
  currentdict
end
/Helvetica exch definefont pop
/Helvetica-Oblique findfont
dup length dict begin
  {1 index /FID ne {def} {pop pop} ifelse} forall
  /Encoding WinAnsiEncoding def
  currentdict
end
/Helvetica-Oblique exch definefont pop
/Helvetica-Bold findfont
dup length dict begin
  {1 index /FID ne {def} {pop pop} ifelse} forall
  /Encoding WinAnsiEncoding def
  currentdict
end
/Helvetica-Bold exch definefont pop
/Helvetica-BoldOblique findfont
dup length dict begin
  {1 index /FID ne {def} {pop pop} ifelse} forall
  /Encoding WinAnsiEncoding def
  currentdict
end
/Helvetica-BoldOblique exch definefont pop
/Times-Roman findfont
dup length dict begin
  {1 index /FID ne {def} {pop pop} ifelse} forall
  /Encoding WinAnsiEncoding def
  currentdict
end
/Times-Roman exch definefont pop
/Times-Italic findfont
dup length dict begin
  {1 index /FID ne {def} {pop pop} ifelse} forall
  /Encoding WinAnsiEncoding def
  currentdict
end
/Times-Italic exch definefont pop
/Times-Bold findfont
dup length dict begin
  {1 index /FID ne {def} {pop pop} ifelse} forall
  /Encoding WinAnsiEncoding def
  currentdict
end
/Times-Bold exch definefont pop
/Times-BoldItalic findfont
dup length dict begin
  {1 index /FID ne {def} {pop pop} ifelse} forall
  /Encoding WinAnsiEncoding def
  currentdict
end
/Times-BoldItalic exch definefont pop
/Courier findfont
dup length dict begin
  {1 index /FID ne {def} {pop pop} ifelse} forall
  /Encoding WinAnsiEncoding def
  currentdict
end
/Courier exch definefont pop
%FOPEndFontReencode
%%EndProlog
%%Page: 1 1
%%PageBoundingBox: 0 0 420 315
%%BeginPageSetup
[1 0 0 -1 0 315] CT
%%EndPageSetup
GS
[0.75 0 0 0.75 0 0] CT
1 GC
N
0 0 560 420 re
f
GR
GS
[0.75 0 0 0.75 0 0] CT
1 GC
N
0 0 560 420 re
f
GR
GS
[0.75 0 0 0.75 0 0] CT
1 GC
N
73 372 M
507 372 L
507 31 L
73 31 L
cp
f
GR
GS
[0.75 0 0 0.75 0 0] CT
0.775 GC
[1 3] 0 setdash
2 LJ
0.667 LW
N
83.85 372 M
83.85 31 L
S
GR
GS
[0.75 0 0 0.75 0 0] CT
0.775 GC
[1 3] 0 setdash
2 LJ
0.667 LW
N
94.7 372 M
94.7 31 L
S
GR
GS
[0.75 0 0 0.75 0 0] CT
0.775 GC
[1 3] 0 setdash
2 LJ
0.667 LW
N
105.55 372 M
105.55 31 L
S
GR
GS
[0.75 0 0 0.75 0 0] CT
0.775 GC
[1 3] 0 setdash
2 LJ
0.667 LW
N
116.4 372 M
116.4 31 L
S
GR
GS
[0.75 0 0 0.75 0 0] CT
0.775 GC
[1 3] 0 setdash
2 LJ
0.667 LW
N
138.1 372 M
138.1 31 L
S
GR
GS
[0.75 0 0 0.75 0 0] CT
0.775 GC
[1 3] 0 setdash
2 LJ
0.667 LW
N
148.95 372 M
148.95 31 L
S
GR
GS
[0.75 0 0 0.75 0 0] CT
0.775 GC
[1 3] 0 setdash
2 LJ
0.667 LW
N
159.8 372 M
159.8 31 L
S
GR
GS
[0.75 0 0 0.75 0 0] CT
0.775 GC
[1 3] 0 setdash
2 LJ
0.667 LW
N
170.65 372 M
170.65 31 L
S
GR
GS
[0.75 0 0 0.75 0 0] CT
0.775 GC
[1 3] 0 setdash
2 LJ
0.667 LW
N
192.35 372 M
192.35 31 L
S
GR
GS
[0.75 0 0 0.75 0 0] CT
0.775 GC
[1 3] 0 setdash
2 LJ
0.667 LW
N
203.2 372 M
203.2 31 L
S
GR
GS
[0.75 0 0 0.75 0 0] CT
0.775 GC
[1 3] 0 setdash
2 LJ
0.667 LW
N
214.05 372 M
214.05 31 L
S
GR
GS
[0.75 0 0 0.75 0 0] CT
0.775 GC
[1 3] 0 setdash
2 LJ
0.667 LW
N
224.9 372 M
224.9 31 L
S
GR
GS
[0.75 0 0 0.75 0 0] CT
0.775 GC
[1 3] 0 setdash
2 LJ
0.667 LW
N
246.6 372 M
246.6 31 L
S
GR
GS
[0.75 0 0 0.75 0 0] CT
0.775 GC
[1 3] 0 setdash
2 LJ
0.667 LW
N
257.45 372 M
257.45 31 L
S
GR
GS
[0.75 0 0 0.75 0 0] CT
0.775 GC
[1 3] 0 setdash
2 LJ
0.667 LW
N
268.3 372 M
268.3 31 L
S
GR
GS
[0.75 0 0 0.75 0 0] CT
0.775 GC
[1 3] 0 setdash
2 LJ
0.667 LW
N
279.15 372 M
279.15 31 L
S
GR
GS
[0.75 0 0 0.75 0 0] CT
0.775 GC
[1 3] 0 setdash
2 LJ
0.667 LW
N
300.85 372 M
300.85 31 L
S
GR
GS
[0.75 0 0 0.75 0 0] CT
0.775 GC
[1 3] 0 setdash
2 LJ
0.667 LW
N
311.7 372 M
311.7 31 L
S
GR
GS
[0.75 0 0 0.75 0 0] CT
0.775 GC
[1 3] 0 setdash
2 LJ
0.667 LW
N
322.55 372 M
322.55 31 L
S
GR
GS
[0.75 0 0 0.75 0 0] CT
0.775 GC
[1 3] 0 setdash
2 LJ
0.667 LW
N
333.4 372 M
333.4 31 L
S
GR
GS
[0.75 0 0 0.75 0 0] CT
0.775 GC
[1 3] 0 setdash
2 LJ
0.667 LW
N
355.1 372 M
355.1 31 L
S
GR
GS
[0.75 0 0 0.75 0 0] CT
0.775 GC
[1 3] 0 setdash
2 LJ
0.667 LW
N
365.95 372 M
365.95 31 L
S
GR
GS
[0.75 0 0 0.75 0 0] CT
0.775 GC
[1 3] 0 setdash
2 LJ
0.667 LW
N
376.8 372 M
376.8 31 L
S
GR
GS
[0.75 0 0 0.75 0 0] CT
0.775 GC
[1 3] 0 setdash
2 LJ
0.667 LW
N
387.65 372 M
387.65 31 L
S
GR
GS
[0.75 0 0 0.75 0 0] CT
0.775 GC
[1 3] 0 setdash
2 LJ
0.667 LW
N
409.35 372 M
409.35 31 L
S
GR
GS
[0.75 0 0 0.75 0 0] CT
0.775 GC
[1 3] 0 setdash
2 LJ
0.667 LW
N
420.2 372 M
420.2 31 L
S
GR
GS
[0.75 0 0 0.75 0 0] CT
0.775 GC
[1 3] 0 setdash
2 LJ
0.667 LW
N
431.05 372 M
431.05 31 L
S
GR
GS
[0.75 0 0 0.75 0 0] CT
0.775 GC
[1 3] 0 setdash
2 LJ
0.667 LW
N
441.9 372 M
441.9 31 L
S
GR
GS
[0.75 0 0 0.75 0 0] CT
0.775 GC
[1 3] 0 setdash
2 LJ
0.667 LW
N
463.6 372 M
463.6 31 L
S
GR
GS
[0.75 0 0 0.75 0 0] CT
0.775 GC
[1 3] 0 setdash
2 LJ
0.667 LW
N
474.45 372 M
474.45 31 L
S
GR
GS
[0.75 0 0 0.75 0 0] CT
0.775 GC
[1 3] 0 setdash
2 LJ
0.667 LW
N
485.3 372 M
485.3 31 L
S
GR
GS
[0.75 0 0 0.75 0 0] CT
0.775 GC
[1 3] 0 setdash
2 LJ
0.667 LW
N
496.15 372 M
496.15 31 L
S
GR
GS
[0.75 0 0 0.75 0 0] CT
0.873 GC
1 LJ
0.667 LW
N
73 372 M
73 31 L
S
GR
GS
[0.75 0 0 0.75 0 0] CT
0.873 GC
1 LJ
0.667 LW
N
127.25 372 M
127.25 31 L
S
GR
GS
[0.75 0 0 0.75 0 0] CT
0.873 GC
1 LJ
0.667 LW
N
181.5 372 M
181.5 31 L
S
GR
GS
[0.75 0 0 0.75 0 0] CT
0.873 GC
1 LJ
0.667 LW
N
235.75 372 M
235.75 31 L
S
GR
GS
[0.75 0 0 0.75 0 0] CT
0.873 GC
1 LJ
0.667 LW
N
290 372 M
290 31 L
S
GR
GS
[0.75 0 0 0.75 0 0] CT
0.873 GC
1 LJ
0.667 LW
N
344.25 372 M
344.25 31 L
S
GR
GS
[0.75 0 0 0.75 0 0] CT
0.873 GC
1 LJ
0.667 LW
N
398.5 372 M
398.5 31 L
S
GR
GS
[0.75 0 0 0.75 0 0] CT
0.873 GC
1 LJ
0.667 LW
N
452.75 372 M
452.75 31 L
S
GR
GS
[0.75 0 0 0.75 0 0] CT
0.873 GC
1 LJ
0.667 LW
N
507 372 M
507 31 L
S
GR
GS
[0.75 0 0 0.75 0 0] CT
0.749 0.861 0.935 RC
[1 3] 0 setdash
2 LJ
0.667 LW
N
507 366.544 M
73 366.544 L
S
GR
GS
[0.75 0 0 0.75 0 0] CT
0.749 0.861 0.935 RC
[1 3] 0 setdash
2 LJ
0.667 LW
N
507 350.176 M
73 350.176 L
S
GR
GS
[0.75 0 0 0.75 0 0] CT
0.749 0.861 0.935 RC
[1 3] 0 setdash
2 LJ
0.667 LW
N
507 341.992 M
73 341.992 L
S
GR
GS
[0.75 0 0 0.75 0 0] CT
0.749 0.861 0.935 RC
[1 3] 0 setdash
2 LJ
0.667 LW
N
507 333.808 M
73 333.808 L
S
GR
GS
[0.75 0 0 0.75 0 0] CT
0.749 0.861 0.935 RC
[1 3] 0 setdash
2 LJ
0.667 LW
N
507 325.624 M
73 325.624 L
S
GR
GS
[0.75 0 0 0.75 0 0] CT
0.749 0.861 0.935 RC
[1 3] 0 setdash
2 LJ
0.667 LW
N
507 309.256 M
73 309.256 L
S
GR
GS
[0.75 0 0 0.75 0 0] CT
0.749 0.861 0.935 RC
[1 3] 0 setdash
2 LJ
0.667 LW
N
507 301.072 M
73 301.072 L
S
GR
GS
[0.75 0 0 0.75 0 0] CT
0.749 0.861 0.935 RC
[1 3] 0 setdash
2 LJ
0.667 LW
N
507 292.888 M
73 292.888 L
S
GR
GS
[0.75 0 0 0.75 0 0] CT
0.749 0.861 0.935 RC
[1 3] 0 setdash
2 LJ
0.667 LW
N
507 284.704 M
73 284.704 L
S
GR
GS
[0.75 0 0 0.75 0 0] CT
0.749 0.861 0.935 RC
[1 3] 0 setdash
2 LJ
0.667 LW
N
507 268.336 M
73 268.336 L
S
GR
GS
[0.75 0 0 0.75 0 0] CT
0.749 0.861 0.935 RC
[1 3] 0 setdash
2 LJ
0.667 LW
N
507 260.152 M
73 260.152 L
S
GR
GS
[0.75 0 0 0.75 0 0] CT
0.749 0.861 0.935 RC
[1 3] 0 setdash
2 LJ
0.667 LW
N
507 251.968 M
73 251.968 L
S
GR
GS
[0.75 0 0 0.75 0 0] CT
0.749 0.861 0.935 RC
[1 3] 0 setdash
2 LJ
0.667 LW
N
507 243.784 M
73 243.784 L
S
GR
GS
[0.75 0 0 0.75 0 0] CT
0.749 0.861 0.935 RC
[1 3] 0 setdash
2 LJ
0.667 LW
N
507 227.416 M
73 227.416 L
S
GR
GS
[0.75 0 0 0.75 0 0] CT
0.749 0.861 0.935 RC
[1 3] 0 setdash
2 LJ
0.667 LW
N
507 219.232 M
73 219.232 L
S
GR
GS
[0.75 0 0 0.75 0 0] CT
0.749 0.861 0.935 RC
[1 3] 0 setdash
2 LJ
0.667 LW
N
507 211.048 M
73 211.048 L
S
GR
GS
[0.75 0 0 0.75 0 0] CT
0.749 0.861 0.935 RC
[1 3] 0 setdash
2 LJ
0.667 LW
N
507 202.864 M
73 202.864 L
S
GR
GS
[0.75 0 0 0.75 0 0] CT
0.749 0.861 0.935 RC
[1 3] 0 setdash
2 LJ
0.667 LW
N
507 186.496 M
73 186.496 L
S
GR
GS
[0.75 0 0 0.75 0 0] CT
0.749 0.861 0.935 RC
[1 3] 0 setdash
2 LJ
0.667 LW
N
507 178.312 M
73 178.312 L
S
GR
GS
[0.75 0 0 0.75 0 0] CT
0.749 0.861 0.935 RC
[1 3] 0 setdash
2 LJ
0.667 LW
N
507 170.128 M
73 170.128 L
S
GR
GS
[0.75 0 0 0.75 0 0] CT
0.749 0.861 0.935 RC
[1 3] 0 setdash
2 LJ
0.667 LW
N
507 161.944 M
73 161.944 L
S
GR
GS
[0.75 0 0 0.75 0 0] CT
0.749 0.861 0.935 RC
[1 3] 0 setdash
2 LJ
0.667 LW
N
507 145.576 M
73 145.576 L
S
GR
GS
[0.75 0 0 0.75 0 0] CT
0.749 0.861 0.935 RC
[1 3] 0 setdash
2 LJ
0.667 LW
N
507 137.392 M
73 137.392 L
S
GR
GS
[0.75 0 0 0.75 0 0] CT
0.749 0.861 0.935 RC
[1 3] 0 setdash
2 LJ
0.667 LW
N
507 129.208 M
73 129.208 L
S
GR
GS
[0.75 0 0 0.75 0 0] CT
0.749 0.861 0.935 RC
[1 3] 0 setdash
2 LJ
0.667 LW
N
507 121.024 M
73 121.024 L
S
GR
GS
[0.75 0 0 0.75 0 0] CT
0.749 0.861 0.935 RC
[1 3] 0 setdash
2 LJ
0.667 LW
N
507 104.656 M
73 104.656 L
S
GR
GS
[0.75 0 0 0.75 0 0] CT
0.749 0.861 0.935 RC
[1 3] 0 setdash
2 LJ
0.667 LW
N
507 96.472 M
73 96.472 L
S
GR
GS
[0.75 0 0 0.75 0 0] CT
0.749 0.861 0.935 RC
[1 3] 0 setdash
2 LJ
0.667 LW
N
507 88.288 M
73 88.288 L
S
GR
GS
[0.75 0 0 0.75 0 0] CT
0.749 0.861 0.935 RC
[1 3] 0 setdash
2 LJ
0.667 LW
N
507 80.104 M
73 80.104 L
S
GR
GS
[0.75 0 0 0.75 0 0] CT
0.749 0.861 0.935 RC
[1 3] 0 setdash
2 LJ
0.667 LW
N
507 63.736 M
73 63.736 L
S
GR
GS
[0.75 0 0 0.75 0 0] CT
0.749 0.861 0.935 RC
[1 3] 0 setdash
2 LJ
0.667 LW
N
507 55.552 M
73 55.552 L
S
GR
GS
[0.75 0 0 0.75 0 0] CT
0.749 0.861 0.935 RC
[1 3] 0 setdash
2 LJ
0.667 LW
N
507 47.368 M
73 47.368 L
S
GR
GS
[0.75 0 0 0.75 0 0] CT
0.749 0.861 0.935 RC
[1 3] 0 setdash
2 LJ
0.667 LW
N
507 39.184 M
73 39.184 L
S
GR
GS
[0.75 0 0 0.75 0 0] CT
0.851 0.918 0.961 RC
1 LJ
0.667 LW
N
507 358.36 M
73 358.36 L
S
GR
GS
[0.75 0 0 0.75 0 0] CT
0.851 0.918 0.961 RC
1 LJ
0.667 LW
N
507 317.44 M
73 317.44 L
S
GR
GS
[0.75 0 0 0.75 0 0] CT
0.851 0.918 0.961 RC
1 LJ
0.667 LW
N
507 276.52 M
73 276.52 L
S
GR
GS
[0.75 0 0 0.75 0 0] CT
0.851 0.918 0.961 RC
1 LJ
0.667 LW
N
507 235.6 M
73 235.6 L
S
GR
GS
[0.75 0 0 0.75 0 0] CT
0.851 0.918 0.961 RC
1 LJ
0.667 LW
N
507 194.68 M
73 194.68 L
S
GR
GS
[0.75 0 0 0.75 0 0] CT
0.851 0.918 0.961 RC
1 LJ
0.667 LW
N
507 153.76 M
73 153.76 L
S
GR
GS
[0.75 0 0 0.75 0 0] CT
0.851 0.918 0.961 RC
1 LJ
0.667 LW
N
507 112.84 M
73 112.84 L
S
GR
GS
[0.75 0 0 0.75 0 0] CT
0.851 0.918 0.961 RC
1 LJ
0.667 LW
N
507 71.92 M
73 71.92 L
S
GR
GS
[0.75 0 0 0.75 0 0] CT
0.851 0.918 0.961 RC
1 LJ
0.667 LW
N
507 31 M
73 31 L
S
GR
GS
[0.75 0 0 0.75 0 0] CT
0.149 GC
2 setlinecap
1 LJ
0.667 LW
N
73 372 M
507 372 L
S
GR
GS
[0.75 0 0 0.75 0 0] CT
0.149 GC
2 setlinecap
1 LJ
0.667 LW
N
73 31 M
507 31 L
S
GR
GS
[0.75 0 0 0.75 0 0] CT
0.149 GC
2 setlinecap
1 LJ
0.667 LW
N
73 372 M
73 367.66 L
S
GR
GS
[0.75 0 0 0.75 0 0] CT
0.149 GC
2 setlinecap
1 LJ
0.667 LW
N
127.25 372 M
127.25 367.66 L
S
GR
GS
[0.75 0 0 0.75 0 0] CT
0.149 GC
2 setlinecap
1 LJ
0.667 LW
N
181.5 372 M
181.5 367.66 L
S
GR
GS
[0.75 0 0 0.75 0 0] CT
0.149 GC
2 setlinecap
1 LJ
0.667 LW
N
235.75 372 M
235.75 367.66 L
S
GR
GS
[0.75 0 0 0.75 0 0] CT
0.149 GC
2 setlinecap
1 LJ
0.667 LW
N
290 372 M
290 367.66 L
S
GR
GS
[0.75 0 0 0.75 0 0] CT
0.149 GC
2 setlinecap
1 LJ
0.667 LW
N
344.25 372 M
344.25 367.66 L
S
GR
GS
[0.75 0 0 0.75 0 0] CT
0.149 GC
2 setlinecap
1 LJ
0.667 LW
N
398.5 372 M
398.5 367.66 L
S
GR
GS
[0.75 0 0 0.75 0 0] CT
0.149 GC
2 setlinecap
1 LJ
0.667 LW
N
452.75 372 M
452.75 367.66 L
S
GR
GS
[0.75 0 0 0.75 0 0] CT
0.149 GC
2 setlinecap
1 LJ
0.667 LW
N
507 372 M
507 367.66 L
S
GR
GS
[0.75 0 0 0.75 0 0] CT
0.149 GC
2 setlinecap
1 LJ
0.667 LW
N
73 31 M
73 35.34 L
S
GR
GS
[0.75 0 0 0.75 0 0] CT
0.149 GC
2 setlinecap
1 LJ
0.667 LW
N
127.25 31 M
127.25 35.34 L
S
GR
GS
[0.75 0 0 0.75 0 0] CT
0.149 GC
2 setlinecap
1 LJ
0.667 LW
N
181.5 31 M
181.5 35.34 L
S
GR
GS
[0.75 0 0 0.75 0 0] CT
0.149 GC
2 setlinecap
1 LJ
0.667 LW
N
235.75 31 M
235.75 35.34 L
S
GR
GS
[0.75 0 0 0.75 0 0] CT
0.149 GC
2 setlinecap
1 LJ
0.667 LW
N
290 31 M
290 35.34 L
S
GR
GS
[0.75 0 0 0.75 0 0] CT
0.149 GC
2 setlinecap
1 LJ
0.667 LW
N
344.25 31 M
344.25 35.34 L
S
GR
GS
[0.75 0 0 0.75 0 0] CT
0.149 GC
2 setlinecap
1 LJ
0.667 LW
N
398.5 31 M
398.5 35.34 L
S
GR
GS
[0.75 0 0 0.75 0 0] CT
0.149 GC
2 setlinecap
1 LJ
0.667 LW
N
452.75 31 M
452.75 35.34 L
S
GR
GS
[0.75 0 0 0.75 0 0] CT
0.149 GC
2 setlinecap
1 LJ
0.667 LW
N
507 31 M
507 35.34 L
S
GR
GS
[0.75 0 0 0.75 54.75 283.00001] CT
0.149 GC
/Helvetica 13.333 F
GS
[1 0 0 1 0 0] CT
-4 14 moveto 
1 -1 scale
(0) t 
GR
GR
GS
[0.75 0 0 0.75 95.4375 283.00001] CT
0.149 GC
/Helvetica 13.333 F
GS
[1 0 0 1 0 0] CT
-7.5 14 moveto 
1 -1 scale
(10) t 
GR
GR
GS
[0.75 0 0 0.75 136.125 283.00001] CT
0.149 GC
/Helvetica 13.333 F
GS
[1 0 0 1 0 0] CT
-7.5 14 moveto 
1 -1 scale
(20) t 
GR
GR
GS
[0.75 0 0 0.75 176.8125 283.00001] CT
0.149 GC
/Helvetica 13.333 F
GS
[1 0 0 1 0 0] CT
-7.5 14 moveto 
1 -1 scale
(30) t 
GR
GR
GS
[0.75 0 0 0.75 217.5 283.00001] CT
0.149 GC
/Helvetica 13.333 F
GS
[1 0 0 1 0 0] CT
-7.5 14 moveto 
1 -1 scale
(40) t 
GR
GR
GS
[0.75 0 0 0.75 258.1875 283.00001] CT
0.149 GC
/Helvetica 13.333 F
GS
[1 0 0 1 0 0] CT
-7.5 14 moveto 
1 -1 scale
(50) t 
GR
GR
GS
[0.75 0 0 0.75 298.875 283.00001] CT
0.149 GC
/Helvetica 13.333 F
GS
[1 0 0 1 0 0] CT
-7.5 14 moveto 
1 -1 scale
(60) t 
GR
GR
GS
[0.75 0 0 0.75 339.5625 283.00001] CT
0.149 GC
/Helvetica 13.333 F
GS
[1 0 0 1 0 0] CT
-7.5 14 moveto 
1 -1 scale
(70) t 
GR
GR
GS
[0.75 0 0 0.75 380.25 283.00001] CT
0.149 GC
/Helvetica 13.333 F
GS
[1 0 0 1 0 0] CT
-7.5 14 moveto 
1 -1 scale
(80) t 
GR
GR
GS
[0.75 0 0 0.75 217.50016 296.74999] CT
0.149 GC
/Helvetica 18.667 F
GS
[1 0 0 1 0 0] CT
-38.5 19 moveto 
1 -1 scale
(Time / ns) t 
GR
GR
GS
[0.75 0 0 0.75 0 0] CT
0 0.447 0.741 RC
2 setlinecap
1 LJ
0.667 LW
N
73 372 M
73 31 L
S
GR
GS
[0.75 0 0 0.75 0 0] CT
0 0.447 0.741 RC
2 setlinecap
1 LJ
0.667 LW
N
73 358.36 M
77.34 358.36 L
S
GR
GS
[0.75 0 0 0.75 0 0] CT
0 0.447 0.741 RC
2 setlinecap
1 LJ
0.667 LW
N
73 317.44 M
77.34 317.44 L
S
GR
GS
[0.75 0 0 0.75 0 0] CT
0 0.447 0.741 RC
2 setlinecap
1 LJ
0.667 LW
N
73 276.52 M
77.34 276.52 L
S
GR
GS
[0.75 0 0 0.75 0 0] CT
0 0.447 0.741 RC
2 setlinecap
1 LJ
0.667 LW
N
73 235.6 M
77.34 235.6 L
S
GR
GS
[0.75 0 0 0.75 0 0] CT
0 0.447 0.741 RC
2 setlinecap
1 LJ
0.667 LW
N
73 194.68 M
77.34 194.68 L
S
GR
GS
[0.75 0 0 0.75 0 0] CT
0 0.447 0.741 RC
2 setlinecap
1 LJ
0.667 LW
N
73 153.76 M
77.34 153.76 L
S
GR
GS
[0.75 0 0 0.75 0 0] CT
0 0.447 0.741 RC
2 setlinecap
1 LJ
0.667 LW
N
73 112.84 M
77.34 112.84 L
S
GR
GS
[0.75 0 0 0.75 0 0] CT
0 0.447 0.741 RC
2 setlinecap
1 LJ
0.667 LW
N
73 71.92 M
77.34 71.92 L
S
GR
GS
[0.75 0 0 0.75 0 0] CT
0 0.447 0.741 RC
2 setlinecap
1 LJ
0.667 LW
N
73 31 M
77.34 31 L
S
GR
GS
[0.75 0 0 0.75 50.75 268.76999] CT
0 0.447 0.741 RC
/Helvetica 13.333 F
GS
[1 0 0 1 0 0] CT
-23 5.5 moveto 
1 -1 scale
(-0.5) t 
GR
GR
GS
[0.75 0 0 0.75 50.75 238.08] CT
0 0.447 0.741 RC
/Helvetica 13.333 F
GS
[1 0 0 1 0 0] CT
-8 5.5 moveto 
1 -1 scale
(0) t 
GR
GR
GS
[0.75 0 0 0.75 50.75 207.38999] CT
0 0.447 0.741 RC
/Helvetica 13.333 F
GS
[1 0 0 1 0 0] CT
-19 5.5 moveto 
1 -1 scale
(0.5) t 
GR
GR
GS
[0.75 0 0 0.75 50.75 176.7] CT
0 0.447 0.741 RC
/Helvetica 13.333 F
GS
[1 0 0 1 0 0] CT
-8 5.5 moveto 
1 -1 scale
(1) t 
GR
GR
GS
[0.75 0 0 0.75 50.75 146.00999] CT
0 0.447 0.741 RC
/Helvetica 13.333 F
GS
[1 0 0 1 0 0] CT
-19 5.5 moveto 
1 -1 scale
(1.5) t 
GR
GR
GS
[0.75 0 0 0.75 50.75 115.32] CT
0 0.447 0.741 RC
/Helvetica 13.333 F
GS
[1 0 0 1 0 0] CT
-8 5.5 moveto 
1 -1 scale
(2) t 
GR
GR
GS
[0.75 0 0 0.75 50.75 84.63] CT
0 0.447 0.741 RC
/Helvetica 13.333 F
GS
[1 0 0 1 0 0] CT
-19 5.5 moveto 
1 -1 scale
(2.5) t 
GR
GR
GS
[0.75 0 0 0.75 50.75 53.94] CT
0 0.447 0.741 RC
/Helvetica 13.333 F
GS
[1 0 0 1 0 0] CT
-8 5.5 moveto 
1 -1 scale
(3) t 
GR
GR
GS
[0.75 0 0 0.75 50.75 23.25] CT
0 0.447 0.741 RC
/Helvetica 13.333 F
GS
[1 0 0 1 0 0] CT
-19 5.5 moveto 
1 -1 scale
(3.5) t 
GR
GR
GS
[0 -0.75 0.75 0 30.5 151.12487] CT
0 0.447 0.741 RC
/Helvetica 18.667 F
GS
[1 0 0 1 0 0] CT
-46 -5 moveto 
1 -1 scale
(Voltage / V) t 
GR
GR
GS
[0.75 0 0 0.75 0 0] CT
0.851 0.325 0.098 RC
2 setlinecap
1 LJ
0.667 LW
N
507 372 M
507 31 L
S
GR
GS
[0.75 0 0 0.75 0 0] CT
0.851 0.325 0.098 RC
2 setlinecap
1 LJ
0.667 LW
N
507 372 M
502.66 372 L
S
GR
GS
[0.75 0 0 0.75 0 0] CT
0.851 0.325 0.098 RC
2 setlinecap
1 LJ
0.667 LW
N
507 317.44 M
502.66 317.44 L
S
GR
GS
[0.75 0 0 0.75 0 0] CT
0.851 0.325 0.098 RC
2 setlinecap
1 LJ
0.667 LW
N
507 262.88 M
502.66 262.88 L
S
GR
GS
[0.75 0 0 0.75 0 0] CT
0.851 0.325 0.098 RC
2 setlinecap
1 LJ
0.667 LW
N
507 208.32 M
502.66 208.32 L
S
GR
GS
[0.75 0 0 0.75 0 0] CT
0.851 0.325 0.098 RC
2 setlinecap
1 LJ
0.667 LW
N
507 153.76 M
502.66 153.76 L
S
GR
GS
[0.75 0 0 0.75 0 0] CT
0.851 0.325 0.098 RC
2 setlinecap
1 LJ
0.667 LW
N
507 99.2 M
502.66 99.2 L
S
GR
GS
[0.75 0 0 0.75 0 0] CT
0.851 0.325 0.098 RC
2 setlinecap
1 LJ
0.667 LW
N
507 44.64 M
502.66 44.64 L
S
GR
GS
[0.75 0 0 0.75 384.24998 279] CT
0.851 0.325 0.098 RC
/Helvetica 13.333 F
GS
[1 0 0 1 0 0] CT
0 5.5 moveto 
1 -1 scale
(-5) t 
GR
GR
GS
[0.75 0 0 0.75 384.24998 238.08] CT
0.851 0.325 0.098 RC
/Helvetica 13.333 F
GS
[1 0 0 1 0 0] CT
0 5.5 moveto 
1 -1 scale
(0) t 
GR
GR
GS
[0.75 0 0 0.75 384.24998 197.16] CT
0.851 0.325 0.098 RC
/Helvetica 13.333 F
GS
[1 0 0 1 0 0] CT
0 5.5 moveto 
1 -1 scale
(5) t 
GR
GR
GS
[0.75 0 0 0.75 384.24998 156.24001] CT
0.851 0.325 0.098 RC
/Helvetica 13.333 F
GS
[1 0 0 1 0 0] CT
0 5.5 moveto 
1 -1 scale
(10) t 
GR
GR
GS
[0.75 0 0 0.75 384.24998 115.32] CT
0.851 0.325 0.098 RC
/Helvetica 13.333 F
GS
[1 0 0 1 0 0] CT
0 5.5 moveto 
1 -1 scale
(15) t 
GR
GR
GS
[0.75 0 0 0.75 384.24998 74.4] CT
0.851 0.325 0.098 RC
/Helvetica 13.333 F
GS
[1 0 0 1 0 0] CT
0 5.5 moveto 
1 -1 scale
(20) t 
GR
GR
GS
[0.75 0 0 0.75 384.24998 33.48] CT
0.851 0.325 0.098 RC
/Helvetica 13.333 F
GS
[1 0 0 1 0 0] CT
0 5.5 moveto 
1 -1 scale
(25) t 
GR
GR
GS
[0 -0.75 0.75 0 398.49998 151.12487] CT
0.851 0.325 0.098 RC
/Helvetica 18.667 F
GS
[1 0 0 1 0 0] CT
-50.5 19 moveto 
1 -1 scale
(Charge / nC) t 
GR
GR
GS
[0.75 0 0 0.75 0 0] CT
N
73 31 M
507 31 L
507 372 L
73 372 L
73 31 L
cp
clip
0 0.447 0.741 RC
1 LJ
2 LW
N
73 310.893 M
77.34 319 L
81.68 327.261 L
86.02 321.89 L
90.36 319.537 L
94.7 309.256 L
99.04 296.596 L
103.38 325.905 L
107.72 353.808 L
112.06 322.069 L
116.4 244.986 L
120.74 130.103 L
125.08 69.337 L
129.42 94.273 L
133.76 110.18 L
138.1 139.259 L
142.44 176.113 L
146.78 194.91 L
151.12 225.728 L
155.46 241.738 L
159.8 246.955 L
164.14 260.945 L
168.48 267.773 L
172.82 271.635 L
177.16 273.144 L
181.5 274.423 L
185.84 281.098 L
190.18 266.264 L
194.52 223.222 L
198.86 187.135 L
203.2 215.396 L
207.54 293.502 L
211.88 337.005 L
216.22 352.248 L
220.56 330.1 L
224.9 296.059 L
229.24 328.923 L
233.58 352.401 L
237.92 343.68 L
242.26 331.506 L
246.6 308.156 L
250.94 317.619 L
255.28 333.015 L
259.62 335.087 L
263.96 328.77 L
268.3 308.821 L
272.64 317.287 L
276.98 327.107 L
281.32 316.57 L
285.66 309.128 L
290 303.374 L
294.34 314.857 L
298.68 326.928 L
303.02 324.908 L
307.36 320.688 L
311.7 312.478 L
316.04 317.082 L
320.38 326.442 L
324.72 322.657 L
329.06 320.125 L
333.4 317.67 L
337.74 315.368 L
342.08 319.128 L
346.42 316.877 L
350.76 311.021 L
355.1 312.632 L
359.44 319.588 L
363.78 322.478 L
368.12 322.325 L
372.46 326.468 L
376.8 325.036 L
381.14 319.281 L
385.48 321.583 L
389.82 324.396 L
394.16 319.205 L
398.5 316.161 L
402.84 318.437 L
407.18 317.542 L
411.52 316.826 L
415.86 316.928 L
420.2 318.693 L
424.54 319.767 L
428.88 314.831 L
433.22 314.627 L
437.56 320.228 L
441.9 321.148 L
446.24 317.491 L
450.58 315.573 L
454.92 320.202 L
459.26 317.977 L
463.6 310.765 L
467.94 318.591 L
472.28 321.813 L
476.62 314.141 L
480.96 313.859 L
485.3 318.949 L
489.64 318.003 L
493.98 310.995 L
498.32 315.726 L
502.66 320.279 L
S
GR
GS
[0.75 0 0 0.75 0 0] CT
0.851 0.325 0.098 RC
1 LJ
2 LW
N
73 317.44 M
77.34 317.174 L
81.68 317.781 L
86.02 318.542 L
90.36 318.891 L
94.7 318.567 L
99.04 317.019 L
103.38 316.358 L
107.72 318.749 L
112.06 320.936 L
116.4 317.319 L
120.74 303.463 L
125.08 280.24 L
129.42 255.105 L
133.76 232.149 L
138.1 211.592 L
142.44 194.552 L
146.78 180.479 L
151.12 169.053 L
155.46 160.124 L
159.8 152.328 L
164.14 145.556 L
168.48 139.894 L
172.82 134.802 L
177.16 129.996 L
181.5 125.34 L
185.84 121.107 L
190.18 116.44 L
194.52 108.685 L
198.86 96.711 L
203.2 84.319 L
207.54 77.6 L
211.88 77.366 L
216.22 80.266 L
220.56 82.798 L
224.9 82.333 L
229.24 81.805 L
233.58 84.282 L
237.92 87.546 L
242.26 89.696 L
246.6 89.951 L
250.94 89.465 L
255.28 90.305 L
259.62 92.077 L
263.96 93.623 L
268.3 93.767 L
272.64 93.299 L
276.98 93.807 L
281.32 94.276 L
285.66 93.786 L
290 92.593 L
294.34 91.705 L
298.68 92.073 L
303.02 92.977 L
307.36 93.549 L
311.7 93.458 L
316.04 93.174 L
320.38 93.635 L
324.72 94.393 L
329.06 94.815 L
333.4 94.97 L
337.74 94.872 L
342.08 94.852 L
346.42 94.912 L
350.76 94.539 L
355.1 93.94 L
359.44 93.799 L
363.78 94.182 L
368.12 94.711 L
372.46 95.453 L
376.8 96.34 L
381.14 96.843 L
385.48 97.162 L
389.82 97.754 L
394.16 98.219 L
398.5 98.245 L
402.84 98.23 L
407.18 98.289 L
411.52 98.262 L
415.86 98.202 L
420.2 98.241 L
424.54 98.432 L
428.88 98.417 L
433.22 98.128 L
437.56 98.127 L
441.9 98.473 L
446.24 98.673 L
450.58 98.577 L
454.92 98.624 L
459.26 98.8 L
463.6 98.473 L
467.94 98.178 L
472.28 98.473 L
476.62 98.53 L
480.96 98.163 L
485.3 98.053 L
489.64 98.163 L
493.98 97.85 L
498.32 97.415 L
502.66 97.475 L
S
GR
GS
[0.75 0 0 0.75 0 0] CT
1 GC
N
496 78 M
496 42 L
404 42 L
404 78 L
cp
f
GR
GS
[0.75 0 0 0.75 338.25 38.89726] CT
/Helvetica 12 F
GS
[1 0 0 1 0 0] CT
0 5 moveto 
1 -1 scale
(Voltage) t 
GR
GR
GS
[0.75 0 0 0.75 0 0] CT
0 0.447 0.741 RC
1 LJ
2 LW
N
408 51.863 M
448 51.863 L
S
GR
GS
[0.75 0 0 0.75 338.25 51.10274] CT
/Helvetica 12 F
GS
[1 0 0 1 0 0] CT
0 5 moveto 
1 -1 scale
(Charge) t 
GR
GR
GS
[0.75 0 0 0.75 0 0] CT
0.851 0.325 0.098 RC
1 LJ
2 LW
N
408 68.137 M
448 68.137 L
S
GR
GS
[0.75 0 0 0.75 0 0] CT
0.149 GC
10.0 ML
0.667 LW
N
404 78 M
404 42 L
496 42 L
496 78 L
cp
S
GR
%%Trailer
%%Pages: 1
%%EOF
