%!PS-Adobe-3.0 EPSF-3.0
%%Creator: (MATLAB, The Mathworks, Inc. Version 24.1.0.2603908 \(R2024a\) Update 3. Operating System: Windows 10)
%%Title: (C:/Users/lorde/Documents/MATLAB/Master Lab Course/Exercise 1/E1_2_E1DUT1HS20V_rise.eps)
%%CreationDate: 2024-06-25T15:54:21
%%Pages: (atend)
%%BoundingBox:     0     0   420   315
%%LanguageLevel: 3
%%EndComments
%%BeginProlog
%%BeginResource: procset (Apache XML Graphics Std ProcSet) 1.2 0
%%Version: 1.2 0
%%Copyright: (Copyright 2001-2003,2010 The Apache Software Foundation. License terms: http://www.apache.org/licenses/LICENSE-2.0)
/bd{bind def}bind def
/ld{load def}bd
/GR/grestore ld
/GS/gsave ld
/RM/rmoveto ld
/C/curveto ld
/t/show ld
/L/lineto ld
/ML/setmiterlimit ld
/CT/concat ld
/f/fill ld
/N/newpath ld
/S/stroke ld
/CC/setcmykcolor ld
/A/ashow ld
/cp/closepath ld
/RC/setrgbcolor ld
/LJ/setlinejoin ld
/GC/setgray ld
/LW/setlinewidth ld
/M/moveto ld
/re {4 2 roll M
1 index 0 rlineto
0 exch rlineto
neg 0 rlineto
cp } bd
/_ctm matrix def
/_tm matrix def
/BT { _ctm currentmatrix pop matrix _tm copy pop 0 0 moveto } bd
/ET { _ctm setmatrix } bd
/iTm { _ctm setmatrix _tm concat } bd
/Tm { _tm astore pop iTm 0 0 moveto } bd
/ux 0.0 def
/uy 0.0 def
/F {
  /Tp exch def
  /Tf exch def
  Tf findfont Tp scalefont setfont
  /cf Tf def  /cs Tp def
} bd
/ULS {currentpoint /uy exch def /ux exch def} bd
/ULE {
  /Tcx currentpoint pop def
  gsave
  newpath
  cf findfont cs scalefont dup
  /FontMatrix get 0 get /Ts exch def /FontInfo get dup
  /UnderlinePosition get Ts mul /To exch def
  /UnderlineThickness get Ts mul /Tt exch def
  ux uy To add moveto  Tcx uy To add lineto
  Tt setlinewidth stroke
  grestore
} bd
/OLE {
  /Tcx currentpoint pop def
  gsave
  newpath
  cf findfont cs scalefont dup
  /FontMatrix get 0 get /Ts exch def /FontInfo get dup
  /UnderlinePosition get Ts mul /To exch def
  /UnderlineThickness get Ts mul /Tt exch def
  ux uy To add cs add moveto Tcx uy To add cs add lineto
  Tt setlinewidth stroke
  grestore
} bd
/SOE {
  /Tcx currentpoint pop def
  gsave
  newpath
  cf findfont cs scalefont dup
  /FontMatrix get 0 get /Ts exch def /FontInfo get dup
  /UnderlinePosition get Ts mul /To exch def
  /UnderlineThickness get Ts mul /Tt exch def
  ux uy To add cs 10 mul 26 idiv add moveto Tcx uy To add cs 10 mul 26 idiv add lineto
  Tt setlinewidth stroke
  grestore
} bd
/QT {
/Y22 exch store
/X22 exch store
/Y21 exch store
/X21 exch store
currentpoint
/Y21 load 2 mul add 3 div exch
/X21 load 2 mul add 3 div exch
/X21 load 2 mul /X22 load add 3 div
/Y21 load 2 mul /Y22 load add 3 div
/X22 load /Y22 load curveto
} bd
/SSPD {
dup length /d exch dict def
{
/v exch def
/k exch def
currentpagedevice k known {
/cpdv currentpagedevice k get def
v cpdv ne {
/upd false def
/nullv v type /nulltype eq def
/nullcpdv cpdv type /nulltype eq def
nullv nullcpdv or
{
/upd true def
} {
/sametype v type cpdv type eq def
sametype {
v type /arraytype eq {
/vlen v length def
/cpdvlen cpdv length def
vlen cpdvlen eq {
0 1 vlen 1 sub {
/i exch def
/obj v i get def
/cpdobj cpdv i get def
obj cpdobj ne {
/upd true def
exit
} if
} for
} {
/upd true def
} ifelse
} {
v type /dicttype eq {
v {
/dv exch def
/dk exch def
/cpddv cpdv dk get def
dv cpddv ne {
/upd true def
exit
} if
} forall
} {
/upd true def
} ifelse
} ifelse
} if
} ifelse
upd true eq {
d k v put
} if
} if
} if
} forall
d length 0 gt {
d setpagedevice
} if
} bd
/RE { % /NewFontName [NewEncodingArray] /FontName RE -
  findfont dup length dict begin
  {
    1 index /FID ne
    {def} {pop pop} ifelse
  } forall
  /Encoding exch def
  /FontName 1 index def
  currentdict definefont pop
  end
} bind def
%%EndResource
%%BeginResource: procset (Apache XML Graphics EPS ProcSet) 1.0 0
%%Version: 1.0 0
%%Copyright: (Copyright 2002-2003 The Apache Software Foundation. License terms: http://www.apache.org/licenses/LICENSE-2.0)
/BeginEPSF { %def
/b4_Inc_state save def         % Save state for cleanup
/dict_count countdictstack def % Count objects on dict stack
/op_count count 1 sub def      % Count objects on operand stack
userdict begin                 % Push userdict on dict stack
/showpage { } def              % Redefine showpage, { } = null proc
0 setgray 0 setlinecap         % Prepare graphics state
1 setlinewidth 0 setlinejoin
10 setmiterlimit [ ] 0 setdash newpath
/languagelevel where           % If level not equal to 1 then
{pop languagelevel             % set strokeadjust and
1 ne                           % overprint to their defaults.
{false setstrokeadjust false setoverprint
} if
} if
} bd
/EndEPSF { %def
count op_count sub {pop} repeat            % Clean up stacks
countdictstack dict_count sub {end} repeat
b4_Inc_state restore
} bd
%%EndResource
%FOPBeginFontDict
%%IncludeResource: font Courier-Oblique
%%IncludeResource: font Courier-BoldOblique
%%IncludeResource: font Courier-Bold
%%IncludeResource: font ZapfDingbats
%%IncludeResource: font Symbol
%%IncludeResource: font Helvetica
%%IncludeResource: font Helvetica-Oblique
%%IncludeResource: font Helvetica-Bold
%%IncludeResource: font Helvetica-BoldOblique
%%IncludeResource: font Times-Roman
%%IncludeResource: font Times-Italic
%%IncludeResource: font Times-Bold
%%IncludeResource: font Times-BoldItalic
%%IncludeResource: font Courier
%FOPEndFontDict
%%BeginResource: encoding WinAnsiEncoding
/WinAnsiEncoding [
/.notdef /.notdef /.notdef /.notdef /.notdef
/.notdef /.notdef /.notdef /.notdef /.notdef
/.notdef /.notdef /.notdef /.notdef /.notdef
/.notdef /.notdef /.notdef /.notdef /.notdef
/.notdef /.notdef /.notdef /.notdef /.notdef
/.notdef /.notdef /.notdef /.notdef /.notdef
/.notdef /.notdef /space /exclam /quotedbl
/numbersign /dollar /percent /ampersand /quotesingle
/parenleft /parenright /asterisk /plus /comma
/hyphen /period /slash /zero /one
/two /three /four /five /six
/seven /eight /nine /colon /semicolon
/less /equal /greater /question /at
/A /B /C /D /E
/F /G /H /I /J
/K /L /M /N /O
/P /Q /R /S /T
/U /V /W /X /Y
/Z /bracketleft /backslash /bracketright /asciicircum
/underscore /quoteleft /a /b /c
/d /e /f /g /h
/i /j /k /l /m
/n /o /p /q /r
/s /t /u /v /w
/x /y /z /braceleft /bar
/braceright /asciitilde /bullet /Euro /bullet
/quotesinglbase /florin /quotedblbase /ellipsis /dagger
/daggerdbl /circumflex /perthousand /Scaron /guilsinglleft
/OE /bullet /Zcaron /bullet /bullet
/quoteleft /quoteright /quotedblleft /quotedblright /bullet
/endash /emdash /asciitilde /trademark /scaron
/guilsinglright /oe /bullet /zcaron /Ydieresis
/space /exclamdown /cent /sterling /currency
/yen /brokenbar /section /dieresis /copyright
/ordfeminine /guillemotleft /logicalnot /sfthyphen /registered
/macron /degree /plusminus /twosuperior /threesuperior
/acute /mu /paragraph /middot /cedilla
/onesuperior /ordmasculine /guillemotright /onequarter /onehalf
/threequarters /questiondown /Agrave /Aacute /Acircumflex
/Atilde /Adieresis /Aring /AE /Ccedilla
/Egrave /Eacute /Ecircumflex /Edieresis /Igrave
/Iacute /Icircumflex /Idieresis /Eth /Ntilde
/Ograve /Oacute /Ocircumflex /Otilde /Odieresis
/multiply /Oslash /Ugrave /Uacute /Ucircumflex
/Udieresis /Yacute /Thorn /germandbls /agrave
/aacute /acircumflex /atilde /adieresis /aring
/ae /ccedilla /egrave /eacute /ecircumflex
/edieresis /igrave /iacute /icircumflex /idieresis
/eth /ntilde /ograve /oacute /ocircumflex
/otilde /odieresis /divide /oslash /ugrave
/uacute /ucircumflex /udieresis /yacute /thorn
/ydieresis
] def
%%EndResource
%FOPBeginFontReencode
/Courier-Oblique findfont
dup length dict begin
  {1 index /FID ne {def} {pop pop} ifelse} forall
  /Encoding WinAnsiEncoding def
  currentdict
end
/Courier-Oblique exch definefont pop
/Courier-BoldOblique findfont
dup length dict begin
  {1 index /FID ne {def} {pop pop} ifelse} forall
  /Encoding WinAnsiEncoding def
  currentdict
end
/Courier-BoldOblique exch definefont pop
/Courier-Bold findfont
dup length dict begin
  {1 index /FID ne {def} {pop pop} ifelse} forall
  /Encoding WinAnsiEncoding def
  currentdict
end
/Courier-Bold exch definefont pop
/Helvetica findfont
dup length dict begin
  {1 index /FID ne {def} {pop pop} ifelse} forall
  /Encoding WinAnsiEncoding def
  currentdict
end
/Helvetica exch definefont pop
/Helvetica-Oblique findfont
dup length dict begin
  {1 index /FID ne {def} {pop pop} ifelse} forall
  /Encoding WinAnsiEncoding def
  currentdict
end
/Helvetica-Oblique exch definefont pop
/Helvetica-Bold findfont
dup length dict begin
  {1 index /FID ne {def} {pop pop} ifelse} forall
  /Encoding WinAnsiEncoding def
  currentdict
end
/Helvetica-Bold exch definefont pop
/Helvetica-BoldOblique findfont
dup length dict begin
  {1 index /FID ne {def} {pop pop} ifelse} forall
  /Encoding WinAnsiEncoding def
  currentdict
end
/Helvetica-BoldOblique exch definefont pop
/Times-Roman findfont
dup length dict begin
  {1 index /FID ne {def} {pop pop} ifelse} forall
  /Encoding WinAnsiEncoding def
  currentdict
end
/Times-Roman exch definefont pop
/Times-Italic findfont
dup length dict begin
  {1 index /FID ne {def} {pop pop} ifelse} forall
  /Encoding WinAnsiEncoding def
  currentdict
end
/Times-Italic exch definefont pop
/Times-Bold findfont
dup length dict begin
  {1 index /FID ne {def} {pop pop} ifelse} forall
  /Encoding WinAnsiEncoding def
  currentdict
end
/Times-Bold exch definefont pop
/Times-BoldItalic findfont
dup length dict begin
  {1 index /FID ne {def} {pop pop} ifelse} forall
  /Encoding WinAnsiEncoding def
  currentdict
end
/Times-BoldItalic exch definefont pop
/Courier findfont
dup length dict begin
  {1 index /FID ne {def} {pop pop} ifelse} forall
  /Encoding WinAnsiEncoding def
  currentdict
end
/Courier exch definefont pop
%FOPEndFontReencode
%%EndProlog
%%Page: 1 1
%%PageBoundingBox: 0 0 420 315
%%BeginPageSetup
[1 0 0 -1 0 315] CT
%%EndPageSetup
GS
[0.75 0 0 0.75 0 0] CT
1 GC
N
0 0 560 420 re
f
GR
GS
[0.75 0 0 0.75 0 0] CT
1 GC
N
0 0 560 420 re
f
GR
GS
[0.75 0 0 0.75 0 0] CT
1 GC
N
73 372 M
507 372 L
507 31 L
73 31 L
cp
f
GR
GS
[0.75 0 0 0.75 0 0] CT
0.775 GC
[1 3] 0 setdash
2 LJ
0.667 LW
N
83.85 372 M
83.85 31 L
S
GR
GS
[0.75 0 0 0.75 0 0] CT
0.775 GC
[1 3] 0 setdash
2 LJ
0.667 LW
N
94.7 372 M
94.7 31 L
S
GR
GS
[0.75 0 0 0.75 0 0] CT
0.775 GC
[1 3] 0 setdash
2 LJ
0.667 LW
N
105.55 372 M
105.55 31 L
S
GR
GS
[0.75 0 0 0.75 0 0] CT
0.775 GC
[1 3] 0 setdash
2 LJ
0.667 LW
N
116.4 372 M
116.4 31 L
S
GR
GS
[0.75 0 0 0.75 0 0] CT
0.775 GC
[1 3] 0 setdash
2 LJ
0.667 LW
N
138.1 372 M
138.1 31 L
S
GR
GS
[0.75 0 0 0.75 0 0] CT
0.775 GC
[1 3] 0 setdash
2 LJ
0.667 LW
N
148.95 372 M
148.95 31 L
S
GR
GS
[0.75 0 0 0.75 0 0] CT
0.775 GC
[1 3] 0 setdash
2 LJ
0.667 LW
N
159.8 372 M
159.8 31 L
S
GR
GS
[0.75 0 0 0.75 0 0] CT
0.775 GC
[1 3] 0 setdash
2 LJ
0.667 LW
N
170.65 372 M
170.65 31 L
S
GR
GS
[0.75 0 0 0.75 0 0] CT
0.775 GC
[1 3] 0 setdash
2 LJ
0.667 LW
N
192.35 372 M
192.35 31 L
S
GR
GS
[0.75 0 0 0.75 0 0] CT
0.775 GC
[1 3] 0 setdash
2 LJ
0.667 LW
N
203.2 372 M
203.2 31 L
S
GR
GS
[0.75 0 0 0.75 0 0] CT
0.775 GC
[1 3] 0 setdash
2 LJ
0.667 LW
N
214.05 372 M
214.05 31 L
S
GR
GS
[0.75 0 0 0.75 0 0] CT
0.775 GC
[1 3] 0 setdash
2 LJ
0.667 LW
N
224.9 372 M
224.9 31 L
S
GR
GS
[0.75 0 0 0.75 0 0] CT
0.775 GC
[1 3] 0 setdash
2 LJ
0.667 LW
N
246.6 372 M
246.6 31 L
S
GR
GS
[0.75 0 0 0.75 0 0] CT
0.775 GC
[1 3] 0 setdash
2 LJ
0.667 LW
N
257.45 372 M
257.45 31 L
S
GR
GS
[0.75 0 0 0.75 0 0] CT
0.775 GC
[1 3] 0 setdash
2 LJ
0.667 LW
N
268.3 372 M
268.3 31 L
S
GR
GS
[0.75 0 0 0.75 0 0] CT
0.775 GC
[1 3] 0 setdash
2 LJ
0.667 LW
N
279.15 372 M
279.15 31 L
S
GR
GS
[0.75 0 0 0.75 0 0] CT
0.775 GC
[1 3] 0 setdash
2 LJ
0.667 LW
N
300.85 372 M
300.85 31 L
S
GR
GS
[0.75 0 0 0.75 0 0] CT
0.775 GC
[1 3] 0 setdash
2 LJ
0.667 LW
N
311.7 372 M
311.7 31 L
S
GR
GS
[0.75 0 0 0.75 0 0] CT
0.775 GC
[1 3] 0 setdash
2 LJ
0.667 LW
N
322.55 372 M
322.55 31 L
S
GR
GS
[0.75 0 0 0.75 0 0] CT
0.775 GC
[1 3] 0 setdash
2 LJ
0.667 LW
N
333.4 372 M
333.4 31 L
S
GR
GS
[0.75 0 0 0.75 0 0] CT
0.775 GC
[1 3] 0 setdash
2 LJ
0.667 LW
N
355.1 372 M
355.1 31 L
S
GR
GS
[0.75 0 0 0.75 0 0] CT
0.775 GC
[1 3] 0 setdash
2 LJ
0.667 LW
N
365.95 372 M
365.95 31 L
S
GR
GS
[0.75 0 0 0.75 0 0] CT
0.775 GC
[1 3] 0 setdash
2 LJ
0.667 LW
N
376.8 372 M
376.8 31 L
S
GR
GS
[0.75 0 0 0.75 0 0] CT
0.775 GC
[1 3] 0 setdash
2 LJ
0.667 LW
N
387.65 372 M
387.65 31 L
S
GR
GS
[0.75 0 0 0.75 0 0] CT
0.775 GC
[1 3] 0 setdash
2 LJ
0.667 LW
N
409.35 372 M
409.35 31 L
S
GR
GS
[0.75 0 0 0.75 0 0] CT
0.775 GC
[1 3] 0 setdash
2 LJ
0.667 LW
N
420.2 372 M
420.2 31 L
S
GR
GS
[0.75 0 0 0.75 0 0] CT
0.775 GC
[1 3] 0 setdash
2 LJ
0.667 LW
N
431.05 372 M
431.05 31 L
S
GR
GS
[0.75 0 0 0.75 0 0] CT
0.775 GC
[1 3] 0 setdash
2 LJ
0.667 LW
N
441.9 372 M
441.9 31 L
S
GR
GS
[0.75 0 0 0.75 0 0] CT
0.775 GC
[1 3] 0 setdash
2 LJ
0.667 LW
N
463.6 372 M
463.6 31 L
S
GR
GS
[0.75 0 0 0.75 0 0] CT
0.775 GC
[1 3] 0 setdash
2 LJ
0.667 LW
N
474.45 372 M
474.45 31 L
S
GR
GS
[0.75 0 0 0.75 0 0] CT
0.775 GC
[1 3] 0 setdash
2 LJ
0.667 LW
N
485.3 372 M
485.3 31 L
S
GR
GS
[0.75 0 0 0.75 0 0] CT
0.775 GC
[1 3] 0 setdash
2 LJ
0.667 LW
N
496.15 372 M
496.15 31 L
S
GR
GS
[0.75 0 0 0.75 0 0] CT
0.873 GC
1 LJ
0.667 LW
N
73 372 M
73 31 L
S
GR
GS
[0.75 0 0 0.75 0 0] CT
0.873 GC
1 LJ
0.667 LW
N
127.25 372 M
127.25 31 L
S
GR
GS
[0.75 0 0 0.75 0 0] CT
0.873 GC
1 LJ
0.667 LW
N
181.5 372 M
181.5 31 L
S
GR
GS
[0.75 0 0 0.75 0 0] CT
0.873 GC
1 LJ
0.667 LW
N
235.75 372 M
235.75 31 L
S
GR
GS
[0.75 0 0 0.75 0 0] CT
0.873 GC
1 LJ
0.667 LW
N
290 372 M
290 31 L
S
GR
GS
[0.75 0 0 0.75 0 0] CT
0.873 GC
1 LJ
0.667 LW
N
344.25 372 M
344.25 31 L
S
GR
GS
[0.75 0 0 0.75 0 0] CT
0.873 GC
1 LJ
0.667 LW
N
398.5 372 M
398.5 31 L
S
GR
GS
[0.75 0 0 0.75 0 0] CT
0.873 GC
1 LJ
0.667 LW
N
452.75 372 M
452.75 31 L
S
GR
GS
[0.75 0 0 0.75 0 0] CT
0.873 GC
1 LJ
0.667 LW
N
507 372 M
507 31 L
S
GR
GS
[0.75 0 0 0.75 0 0] CT
0.749 0.861 0.935 RC
[1 3] 0 setdash
2 LJ
0.667 LW
N
507 364.821 M
73 364.821 L
S
GR
GS
[0.75 0 0 0.75 0 0] CT
0.749 0.861 0.935 RC
[1 3] 0 setdash
2 LJ
0.667 LW
N
507 357.642 M
73 357.642 L
S
GR
GS
[0.75 0 0 0.75 0 0] CT
0.749 0.861 0.935 RC
[1 3] 0 setdash
2 LJ
0.667 LW
N
507 350.463 M
73 350.463 L
S
GR
GS
[0.75 0 0 0.75 0 0] CT
0.749 0.861 0.935 RC
[1 3] 0 setdash
2 LJ
0.667 LW
N
507 343.284 M
73 343.284 L
S
GR
GS
[0.75 0 0 0.75 0 0] CT
0.749 0.861 0.935 RC
[1 3] 0 setdash
2 LJ
0.667 LW
N
507 328.926 M
73 328.926 L
S
GR
GS
[0.75 0 0 0.75 0 0] CT
0.749 0.861 0.935 RC
[1 3] 0 setdash
2 LJ
0.667 LW
N
507 321.747 M
73 321.747 L
S
GR
GS
[0.75 0 0 0.75 0 0] CT
0.749 0.861 0.935 RC
[1 3] 0 setdash
2 LJ
0.667 LW
N
507 314.568 M
73 314.568 L
S
GR
GS
[0.75 0 0 0.75 0 0] CT
0.749 0.861 0.935 RC
[1 3] 0 setdash
2 LJ
0.667 LW
N
507 307.389 M
73 307.389 L
S
GR
GS
[0.75 0 0 0.75 0 0] CT
0.749 0.861 0.935 RC
[1 3] 0 setdash
2 LJ
0.667 LW
N
507 293.032 M
73 293.032 L
S
GR
GS
[0.75 0 0 0.75 0 0] CT
0.749 0.861 0.935 RC
[1 3] 0 setdash
2 LJ
0.667 LW
N
507 285.853 M
73 285.853 L
S
GR
GS
[0.75 0 0 0.75 0 0] CT
0.749 0.861 0.935 RC
[1 3] 0 setdash
2 LJ
0.667 LW
N
507 278.674 M
73 278.674 L
S
GR
GS
[0.75 0 0 0.75 0 0] CT
0.749 0.861 0.935 RC
[1 3] 0 setdash
2 LJ
0.667 LW
N
507 271.495 M
73 271.495 L
S
GR
GS
[0.75 0 0 0.75 0 0] CT
0.749 0.861 0.935 RC
[1 3] 0 setdash
2 LJ
0.667 LW
N
507 257.137 M
73 257.137 L
S
GR
GS
[0.75 0 0 0.75 0 0] CT
0.749 0.861 0.935 RC
[1 3] 0 setdash
2 LJ
0.667 LW
N
507 249.958 M
73 249.958 L
S
GR
GS
[0.75 0 0 0.75 0 0] CT
0.749 0.861 0.935 RC
[1 3] 0 setdash
2 LJ
0.667 LW
N
507 242.779 M
73 242.779 L
S
GR
GS
[0.75 0 0 0.75 0 0] CT
0.749 0.861 0.935 RC
[1 3] 0 setdash
2 LJ
0.667 LW
N
507 235.6 M
73 235.6 L
S
GR
GS
[0.75 0 0 0.75 0 0] CT
0.749 0.861 0.935 RC
[1 3] 0 setdash
2 LJ
0.667 LW
N
507 221.242 M
73 221.242 L
S
GR
GS
[0.75 0 0 0.75 0 0] CT
0.749 0.861 0.935 RC
[1 3] 0 setdash
2 LJ
0.667 LW
N
507 214.063 M
73 214.063 L
S
GR
GS
[0.75 0 0 0.75 0 0] CT
0.749 0.861 0.935 RC
[1 3] 0 setdash
2 LJ
0.667 LW
N
507 206.884 M
73 206.884 L
S
GR
GS
[0.75 0 0 0.75 0 0] CT
0.749 0.861 0.935 RC
[1 3] 0 setdash
2 LJ
0.667 LW
N
507 199.705 M
73 199.705 L
S
GR
GS
[0.75 0 0 0.75 0 0] CT
0.749 0.861 0.935 RC
[1 3] 0 setdash
2 LJ
0.667 LW
N
507 185.347 M
73 185.347 L
S
GR
GS
[0.75 0 0 0.75 0 0] CT
0.749 0.861 0.935 RC
[1 3] 0 setdash
2 LJ
0.667 LW
N
507 178.168 M
73 178.168 L
S
GR
GS
[0.75 0 0 0.75 0 0] CT
0.749 0.861 0.935 RC
[1 3] 0 setdash
2 LJ
0.667 LW
N
507 170.989 M
73 170.989 L
S
GR
GS
[0.75 0 0 0.75 0 0] CT
0.749 0.861 0.935 RC
[1 3] 0 setdash
2 LJ
0.667 LW
N
507 163.811 M
73 163.811 L
S
GR
GS
[0.75 0 0 0.75 0 0] CT
0.749 0.861 0.935 RC
[1 3] 0 setdash
2 LJ
0.667 LW
N
507 149.453 M
73 149.453 L
S
GR
GS
[0.75 0 0 0.75 0 0] CT
0.749 0.861 0.935 RC
[1 3] 0 setdash
2 LJ
0.667 LW
N
507 142.274 M
73 142.274 L
S
GR
GS
[0.75 0 0 0.75 0 0] CT
0.749 0.861 0.935 RC
[1 3] 0 setdash
2 LJ
0.667 LW
N
507 135.095 M
73 135.095 L
S
GR
GS
[0.75 0 0 0.75 0 0] CT
0.749 0.861 0.935 RC
[1 3] 0 setdash
2 LJ
0.667 LW
N
507 127.916 M
73 127.916 L
S
GR
GS
[0.75 0 0 0.75 0 0] CT
0.749 0.861 0.935 RC
[1 3] 0 setdash
2 LJ
0.667 LW
N
507 113.558 M
73 113.558 L
S
GR
GS
[0.75 0 0 0.75 0 0] CT
0.749 0.861 0.935 RC
[1 3] 0 setdash
2 LJ
0.667 LW
N
507 106.379 M
73 106.379 L
S
GR
GS
[0.75 0 0 0.75 0 0] CT
0.749 0.861 0.935 RC
[1 3] 0 setdash
2 LJ
0.667 LW
N
507 99.2 M
73 99.2 L
S
GR
GS
[0.75 0 0 0.75 0 0] CT
0.749 0.861 0.935 RC
[1 3] 0 setdash
2 LJ
0.667 LW
N
507 92.021 M
73 92.021 L
S
GR
GS
[0.75 0 0 0.75 0 0] CT
0.749 0.861 0.935 RC
[1 3] 0 setdash
2 LJ
0.667 LW
N
507 77.663 M
73 77.663 L
S
GR
GS
[0.75 0 0 0.75 0 0] CT
0.749 0.861 0.935 RC
[1 3] 0 setdash
2 LJ
0.667 LW
N
507 70.484 M
73 70.484 L
S
GR
GS
[0.75 0 0 0.75 0 0] CT
0.749 0.861 0.935 RC
[1 3] 0 setdash
2 LJ
0.667 LW
N
507 63.305 M
73 63.305 L
S
GR
GS
[0.75 0 0 0.75 0 0] CT
0.749 0.861 0.935 RC
[1 3] 0 setdash
2 LJ
0.667 LW
N
507 56.126 M
73 56.126 L
S
GR
GS
[0.75 0 0 0.75 0 0] CT
0.749 0.861 0.935 RC
[1 3] 0 setdash
2 LJ
0.667 LW
N
507 41.768 M
73 41.768 L
S
GR
GS
[0.75 0 0 0.75 0 0] CT
0.749 0.861 0.935 RC
[1 3] 0 setdash
2 LJ
0.667 LW
N
507 34.589 M
73 34.589 L
S
GR
GS
[0.75 0 0 0.75 0 0] CT
0.851 0.918 0.961 RC
1 LJ
0.667 LW
N
507 372 M
73 372 L
S
GR
GS
[0.75 0 0 0.75 0 0] CT
0.851 0.918 0.961 RC
1 LJ
0.667 LW
N
507 336.105 M
73 336.105 L
S
GR
GS
[0.75 0 0 0.75 0 0] CT
0.851 0.918 0.961 RC
1 LJ
0.667 LW
N
507 300.211 M
73 300.211 L
S
GR
GS
[0.75 0 0 0.75 0 0] CT
0.851 0.918 0.961 RC
1 LJ
0.667 LW
N
507 264.316 M
73 264.316 L
S
GR
GS
[0.75 0 0 0.75 0 0] CT
0.851 0.918 0.961 RC
1 LJ
0.667 LW
N
507 228.421 M
73 228.421 L
S
GR
GS
[0.75 0 0 0.75 0 0] CT
0.851 0.918 0.961 RC
1 LJ
0.667 LW
N
507 192.526 M
73 192.526 L
S
GR
GS
[0.75 0 0 0.75 0 0] CT
0.851 0.918 0.961 RC
1 LJ
0.667 LW
N
507 156.632 M
73 156.632 L
S
GR
GS
[0.75 0 0 0.75 0 0] CT
0.851 0.918 0.961 RC
1 LJ
0.667 LW
N
507 120.737 M
73 120.737 L
S
GR
GS
[0.75 0 0 0.75 0 0] CT
0.851 0.918 0.961 RC
1 LJ
0.667 LW
N
507 84.842 M
73 84.842 L
S
GR
GS
[0.75 0 0 0.75 0 0] CT
0.851 0.918 0.961 RC
1 LJ
0.667 LW
N
507 48.947 M
73 48.947 L
S
GR
GS
[0.75 0 0 0.75 0 0] CT
0.149 GC
2 setlinecap
1 LJ
0.667 LW
N
73 372 M
507 372 L
S
GR
GS
[0.75 0 0 0.75 0 0] CT
0.149 GC
2 setlinecap
1 LJ
0.667 LW
N
73 31 M
507 31 L
S
GR
GS
[0.75 0 0 0.75 0 0] CT
0.149 GC
2 setlinecap
1 LJ
0.667 LW
N
73 372 M
73 367.66 L
S
GR
GS
[0.75 0 0 0.75 0 0] CT
0.149 GC
2 setlinecap
1 LJ
0.667 LW
N
127.25 372 M
127.25 367.66 L
S
GR
GS
[0.75 0 0 0.75 0 0] CT
0.149 GC
2 setlinecap
1 LJ
0.667 LW
N
181.5 372 M
181.5 367.66 L
S
GR
GS
[0.75 0 0 0.75 0 0] CT
0.149 GC
2 setlinecap
1 LJ
0.667 LW
N
235.75 372 M
235.75 367.66 L
S
GR
GS
[0.75 0 0 0.75 0 0] CT
0.149 GC
2 setlinecap
1 LJ
0.667 LW
N
290 372 M
290 367.66 L
S
GR
GS
[0.75 0 0 0.75 0 0] CT
0.149 GC
2 setlinecap
1 LJ
0.667 LW
N
344.25 372 M
344.25 367.66 L
S
GR
GS
[0.75 0 0 0.75 0 0] CT
0.149 GC
2 setlinecap
1 LJ
0.667 LW
N
398.5 372 M
398.5 367.66 L
S
GR
GS
[0.75 0 0 0.75 0 0] CT
0.149 GC
2 setlinecap
1 LJ
0.667 LW
N
452.75 372 M
452.75 367.66 L
S
GR
GS
[0.75 0 0 0.75 0 0] CT
0.149 GC
2 setlinecap
1 LJ
0.667 LW
N
507 372 M
507 367.66 L
S
GR
GS
[0.75 0 0 0.75 0 0] CT
0.149 GC
2 setlinecap
1 LJ
0.667 LW
N
73 31 M
73 35.34 L
S
GR
GS
[0.75 0 0 0.75 0 0] CT
0.149 GC
2 setlinecap
1 LJ
0.667 LW
N
127.25 31 M
127.25 35.34 L
S
GR
GS
[0.75 0 0 0.75 0 0] CT
0.149 GC
2 setlinecap
1 LJ
0.667 LW
N
181.5 31 M
181.5 35.34 L
S
GR
GS
[0.75 0 0 0.75 0 0] CT
0.149 GC
2 setlinecap
1 LJ
0.667 LW
N
235.75 31 M
235.75 35.34 L
S
GR
GS
[0.75 0 0 0.75 0 0] CT
0.149 GC
2 setlinecap
1 LJ
0.667 LW
N
290 31 M
290 35.34 L
S
GR
GS
[0.75 0 0 0.75 0 0] CT
0.149 GC
2 setlinecap
1 LJ
0.667 LW
N
344.25 31 M
344.25 35.34 L
S
GR
GS
[0.75 0 0 0.75 0 0] CT
0.149 GC
2 setlinecap
1 LJ
0.667 LW
N
398.5 31 M
398.5 35.34 L
S
GR
GS
[0.75 0 0 0.75 0 0] CT
0.149 GC
2 setlinecap
1 LJ
0.667 LW
N
452.75 31 M
452.75 35.34 L
S
GR
GS
[0.75 0 0 0.75 0 0] CT
0.149 GC
2 setlinecap
1 LJ
0.667 LW
N
507 31 M
507 35.34 L
S
GR
GS
[0.75 0 0 0.75 54.75 283.00001] CT
0.149 GC
/Helvetica 13.333 F
GS
[1 0 0 1 0 0] CT
-4 14 moveto 
1 -1 scale
(0) t 
GR
GR
GS
[0.75 0 0 0.75 95.4375 283.00001] CT
0.149 GC
/Helvetica 13.333 F
GS
[1 0 0 1 0 0] CT
-7.5 14 moveto 
1 -1 scale
(10) t 
GR
GR
GS
[0.75 0 0 0.75 136.125 283.00001] CT
0.149 GC
/Helvetica 13.333 F
GS
[1 0 0 1 0 0] CT
-7.5 14 moveto 
1 -1 scale
(20) t 
GR
GR
GS
[0.75 0 0 0.75 176.8125 283.00001] CT
0.149 GC
/Helvetica 13.333 F
GS
[1 0 0 1 0 0] CT
-7.5 14 moveto 
1 -1 scale
(30) t 
GR
GR
GS
[0.75 0 0 0.75 217.5 283.00001] CT
0.149 GC
/Helvetica 13.333 F
GS
[1 0 0 1 0 0] CT
-7.5 14 moveto 
1 -1 scale
(40) t 
GR
GR
GS
[0.75 0 0 0.75 258.1875 283.00001] CT
0.149 GC
/Helvetica 13.333 F
GS
[1 0 0 1 0 0] CT
-7.5 14 moveto 
1 -1 scale
(50) t 
GR
GR
GS
[0.75 0 0 0.75 298.875 283.00001] CT
0.149 GC
/Helvetica 13.333 F
GS
[1 0 0 1 0 0] CT
-7.5 14 moveto 
1 -1 scale
(60) t 
GR
GR
GS
[0.75 0 0 0.75 339.5625 283.00001] CT
0.149 GC
/Helvetica 13.333 F
GS
[1 0 0 1 0 0] CT
-7.5 14 moveto 
1 -1 scale
(70) t 
GR
GR
GS
[0.75 0 0 0.75 380.25 283.00001] CT
0.149 GC
/Helvetica 13.333 F
GS
[1 0 0 1 0 0] CT
-7.5 14 moveto 
1 -1 scale
(80) t 
GR
GR
GS
[0.75 0 0 0.75 217.50016 296.74999] CT
0.149 GC
/Helvetica 18.667 F
GS
[1 0 0 1 0 0] CT
-38.5 19 moveto 
1 -1 scale
(Time / ns) t 
GR
GR
GS
[0.75 0 0 0.75 0 0] CT
0 0.447 0.741 RC
2 setlinecap
1 LJ
0.667 LW
N
73 372 M
73 31 L
S
GR
GS
[0.75 0 0 0.75 0 0] CT
0 0.447 0.741 RC
2 setlinecap
1 LJ
0.667 LW
N
73 372 M
77.34 372 L
S
GR
GS
[0.75 0 0 0.75 0 0] CT
0 0.447 0.741 RC
2 setlinecap
1 LJ
0.667 LW
N
73 336.105 M
77.34 336.105 L
S
GR
GS
[0.75 0 0 0.75 0 0] CT
0 0.447 0.741 RC
2 setlinecap
1 LJ
0.667 LW
N
73 300.211 M
77.34 300.211 L
S
GR
GS
[0.75 0 0 0.75 0 0] CT
0 0.447 0.741 RC
2 setlinecap
1 LJ
0.667 LW
N
73 264.316 M
77.34 264.316 L
S
GR
GS
[0.75 0 0 0.75 0 0] CT
0 0.447 0.741 RC
2 setlinecap
1 LJ
0.667 LW
N
73 228.421 M
77.34 228.421 L
S
GR
GS
[0.75 0 0 0.75 0 0] CT
0 0.447 0.741 RC
2 setlinecap
1 LJ
0.667 LW
N
73 192.526 M
77.34 192.526 L
S
GR
GS
[0.75 0 0 0.75 0 0] CT
0 0.447 0.741 RC
2 setlinecap
1 LJ
0.667 LW
N
73 156.632 M
77.34 156.632 L
S
GR
GS
[0.75 0 0 0.75 0 0] CT
0 0.447 0.741 RC
2 setlinecap
1 LJ
0.667 LW
N
73 120.737 M
77.34 120.737 L
S
GR
GS
[0.75 0 0 0.75 0 0] CT
0 0.447 0.741 RC
2 setlinecap
1 LJ
0.667 LW
N
73 84.842 M
77.34 84.842 L
S
GR
GS
[0.75 0 0 0.75 0 0] CT
0 0.447 0.741 RC
2 setlinecap
1 LJ
0.667 LW
N
73 48.947 M
77.34 48.947 L
S
GR
GS
[0.75 0 0 0.75 50.75 279] CT
0 0.447 0.741 RC
/Helvetica 13.333 F
GS
[1 0 0 1 0 0] CT
-12 5.5 moveto 
1 -1 scale
(-1) t 
GR
GR
GS
[0.75 0 0 0.75 50.75 252.07894] CT
0 0.447 0.741 RC
/Helvetica 13.333 F
GS
[1 0 0 1 0 0] CT
-23 5.5 moveto 
1 -1 scale
(-0.5) t 
GR
GR
GS
[0.75 0 0 0.75 50.75 225.15791] CT
0 0.447 0.741 RC
/Helvetica 13.333 F
GS
[1 0 0 1 0 0] CT
-8 5.5 moveto 
1 -1 scale
(0) t 
GR
GR
GS
[0.75 0 0 0.75 50.75 198.23685] CT
0 0.447 0.741 RC
/Helvetica 13.333 F
GS
[1 0 0 1 0 0] CT
-19 5.5 moveto 
1 -1 scale
(0.5) t 
GR
GR
GS
[0.75 0 0 0.75 50.75 171.31579] CT
0 0.447 0.741 RC
/Helvetica 13.333 F
GS
[1 0 0 1 0 0] CT
-8 5.5 moveto 
1 -1 scale
(1) t 
GR
GR
GS
[0.75 0 0 0.75 50.75 144.39474] CT
0 0.447 0.741 RC
/Helvetica 13.333 F
GS
[1 0 0 1 0 0] CT
-19 5.5 moveto 
1 -1 scale
(1.5) t 
GR
GR
GS
[0.75 0 0 0.75 50.75 117.47368] CT
0 0.447 0.741 RC
/Helvetica 13.333 F
GS
[1 0 0 1 0 0] CT
-8 5.5 moveto 
1 -1 scale
(2) t 
GR
GR
GS
[0.75 0 0 0.75 50.75 90.55263] CT
0 0.447 0.741 RC
/Helvetica 13.333 F
GS
[1 0 0 1 0 0] CT
-19 5.5 moveto 
1 -1 scale
(2.5) t 
GR
GR
GS
[0.75 0 0 0.75 50.75 63.63158] CT
0 0.447 0.741 RC
/Helvetica 13.333 F
GS
[1 0 0 1 0 0] CT
-8 5.5 moveto 
1 -1 scale
(3) t 
GR
GR
GS
[0.75 0 0 0.75 50.75 36.71053] CT
0 0.447 0.741 RC
/Helvetica 13.333 F
GS
[1 0 0 1 0 0] CT
-19 5.5 moveto 
1 -1 scale
(3.5) t 
GR
GR
GS
[0 -0.75 0.75 0 30.5 151.12487] CT
0 0.447 0.741 RC
/Helvetica 18.667 F
GS
[1 0 0 1 0 0] CT
-46 -5 moveto 
1 -1 scale
(Voltage / V) t 
GR
GR
GS
[0.75 0 0 0.75 0 0] CT
0.851 0.325 0.098 RC
2 setlinecap
1 LJ
0.667 LW
N
507 372 M
507 31 L
S
GR
GS
[0.75 0 0 0.75 0 0] CT
0.851 0.325 0.098 RC
2 setlinecap
1 LJ
0.667 LW
N
507 354.053 M
502.66 354.053 L
S
GR
GS
[0.75 0 0 0.75 0 0] CT
0.851 0.325 0.098 RC
2 setlinecap
1 LJ
0.667 LW
N
507 300.211 M
502.66 300.211 L
S
GR
GS
[0.75 0 0 0.75 0 0] CT
0.851 0.325 0.098 RC
2 setlinecap
1 LJ
0.667 LW
N
507 246.368 M
502.66 246.368 L
S
GR
GS
[0.75 0 0 0.75 0 0] CT
0.851 0.325 0.098 RC
2 setlinecap
1 LJ
0.667 LW
N
507 192.526 M
502.66 192.526 L
S
GR
GS
[0.75 0 0 0.75 0 0] CT
0.851 0.325 0.098 RC
2 setlinecap
1 LJ
0.667 LW
N
507 138.684 M
502.66 138.684 L
S
GR
GS
[0.75 0 0 0.75 0 0] CT
0.851 0.325 0.098 RC
2 setlinecap
1 LJ
0.667 LW
N
507 84.842 M
502.66 84.842 L
S
GR
GS
[0.75 0 0 0.75 0 0] CT
0.851 0.325 0.098 RC
2 setlinecap
1 LJ
0.667 LW
N
507 31 M
502.66 31 L
S
GR
GS
[0.75 0 0 0.75 384.24998 265.53948] CT
0.851 0.325 0.098 RC
/Helvetica 13.333 F
GS
[1 0 0 1 0 0] CT
0 5.5 moveto 
1 -1 scale
(-5) t 
GR
GR
GS
[0.75 0 0 0.75 384.24998 225.15791] CT
0.851 0.325 0.098 RC
/Helvetica 13.333 F
GS
[1 0 0 1 0 0] CT
0 5.5 moveto 
1 -1 scale
(0) t 
GR
GR
GS
[0.75 0 0 0.75 384.24998 184.77632] CT
0.851 0.325 0.098 RC
/Helvetica 13.333 F
GS
[1 0 0 1 0 0] CT
0 5.5 moveto 
1 -1 scale
(5) t 
GR
GR
GS
[0.75 0 0 0.75 384.24998 144.39474] CT
0.851 0.325 0.098 RC
/Helvetica 13.333 F
GS
[1 0 0 1 0 0] CT
0 5.5 moveto 
1 -1 scale
(10) t 
GR
GR
GS
[0.75 0 0 0.75 384.24998 104.01315] CT
0.851 0.325 0.098 RC
/Helvetica 13.333 F
GS
[1 0 0 1 0 0] CT
0 5.5 moveto 
1 -1 scale
(15) t 
GR
GR
GS
[0.75 0 0 0.75 384.24998 63.63158] CT
0.851 0.325 0.098 RC
/Helvetica 13.333 F
GS
[1 0 0 1 0 0] CT
0 5.5 moveto 
1 -1 scale
(20) t 
GR
GR
GS
[0.75 0 0 0.75 384.24998 23.25] CT
0.851 0.325 0.098 RC
/Helvetica 13.333 F
GS
[1 0 0 1 0 0] CT
0 5.5 moveto 
1 -1 scale
(25) t 
GR
GR
GS
[0 -0.75 0.75 0 398.49998 151.12487] CT
0.851 0.325 0.098 RC
/Helvetica 18.667 F
GS
[1 0 0 1 0 0] CT
-50.5 19 moveto 
1 -1 scale
(Charge / nC) t 
GR
GR
GS
[0.75 0 0 0.75 0 0] CT
N
73 31 M
507 31 L
507 372 L
73 372 L
73 31 L
cp
clip
0 0.447 0.741 RC
1 LJ
2 LW
N
73 300.166 M
77.34 299.268 L
81.68 299.336 L
86.02 300.368 L
90.36 301.489 L
94.7 306.492 L
99.04 304.338 L
103.38 295.993 L
107.72 297.317 L
112.06 301.871 L
116.4 303.778 L
120.74 302.903 L
125.08 299.403 L
129.42 300.143 L
133.76 303.217 L
138.1 305.303 L
142.44 303.419 L
146.78 299.111 L
151.12 300.076 L
155.46 302.768 L
159.8 301.624 L
164.14 300.211 L
168.48 298.102 L
172.82 292.359 L
177.16 297.115 L
181.5 307.883 L
185.84 315.645 L
190.18 308.018 L
194.52 249.285 L
198.86 163.609 L
203.2 76.452 L
207.54 83.631 L
211.88 203.183 L
216.22 207.019 L
220.56 110.709 L
224.9 83.317 L
229.24 142.52 L
233.58 261.512 L
237.92 318.472 L
242.26 240.805 L
246.6 151.831 L
250.94 185.504 L
255.28 296.06 L
259.62 328.074 L
263.96 259.021 L
268.3 225.146 L
272.64 290.339 L
276.98 353.604 L
281.32 329.644 L
285.66 277.171 L
290 280.267 L
294.34 321.703 L
298.68 329.33 L
303.02 290.003 L
307.36 258.46 L
311.7 269.767 L
316.04 296.24 L
320.38 296.733 L
324.72 278.068 L
329.06 273.402 L
333.4 292.448 L
337.74 312.415 L
342.08 310.71 L
346.42 305.326 L
350.76 314.344 L
355.1 321.904 L
359.44 321.097 L
363.78 313.604 L
368.12 301.287 L
372.46 299.964 L
376.8 302.432 L
381.14 293.076 L
385.48 285.785 L
389.82 285.583 L
394.16 289.846 L
398.5 296.576 L
402.84 297.227 L
407.18 302.095 L
411.52 312.213 L
415.86 316.565 L
420.2 318.831 L
424.54 316.565 L
428.88 314.546 L
433.22 315.354 L
437.56 308.78 L
441.9 303.643 L
446.24 299.448 L
450.58 291.91 L
454.92 289.779 L
459.26 288.276 L
463.6 287.827 L
467.94 291.753 L
472.28 295.926 L
476.62 302.185 L
480.96 307.479 L
485.3 313.335 L
489.64 317.642 L
493.98 315.197 L
498.32 315.309 L
502.66 311.091 L
S
GR
GS
[0.75 0 0 0.75 0 0] CT
0.851 0.325 0.098 RC
1 LJ
2 LW
N
73 300.211 M
77.34 300.151 L
81.68 300.042 L
86.02 299.999 L
90.36 300.085 L
94.7 300.539 L
99.04 301.164 L
103.38 301.158 L
107.72 300.731 L
112.06 300.657 L
116.4 300.971 L
120.74 301.347 L
125.08 301.46 L
129.42 301.407 L
133.76 301.583 L
138.1 302.069 L
142.44 302.567 L
146.78 302.694 L
151.12 302.62 L
155.46 302.765 L
159.8 303.004 L
164.14 303.088 L
168.48 302.962 L
172.82 302.364 L
177.16 301.707 L
181.5 301.982 L
185.84 303.368 L
190.18 304.763 L
194.52 302.176 L
198.86 290.924 L
203.2 269.302 L
207.54 242.882 L
211.88 224.066 L
216.22 212.652 L
220.56 195.691 L
224.9 171.307 L
229.24 148.832 L
233.58 137.049 L
237.92 135.823 L
242.26 133.354 L
246.6 120.887 L
250.94 105.102 L
255.28 97.97 L
259.62 99.393 L
263.96 98.593 L
268.3 91.618 L
272.64 86.522 L
276.98 89.133 L
281.32 94.103 L
285.66 94.487 L
290 91.908 L
294.34 92 L
298.68 95.037 L
303.02 96.172 L
307.36 93.054 L
311.7 88.723 L
316.04 86.658 L
320.38 86.211 L
324.72 84.674 L
329.06 81.737 L
333.4 79.662 L
337.74 79.929 L
342.08 81.291 L
346.42 82.228 L
350.76 83.383 L
355.1 85.533 L
359.44 88.087 L
363.78 90.144 L
368.12 91.012 L
372.46 91.062 L
376.8 91.181 L
381.14 90.886 L
385.48 89.592 L
389.82 87.849 L
394.16 86.35 L
398.5 85.51 L
402.84 85.113 L
407.18 85.047 L
411.52 85.88 L
415.86 87.581 L
420.2 89.68 L
424.54 91.778 L
428.88 93.62 L
433.22 95.388 L
437.56 96.811 L
441.9 97.531 L
446.24 97.692 L
450.58 97.148 L
454.92 96.024 L
459.26 94.682 L
463.6 93.223 L
467.94 91.972 L
472.28 91.208 L
476.62 91.069 L
480.96 91.624 L
485.3 92.847 L
489.64 94.68 L
493.98 96.625 L
498.32 98.431 L
502.66 99.989 L
S
GR
GS
[0.75 0 0 0.75 0 0] CT
1 GC
N
496 78 M
496 42 L
404 42 L
404 78 L
cp
f
GR
GS
[0.75 0 0 0.75 338.25 38.89726] CT
/Helvetica 12 F
GS
[1 0 0 1 0 0] CT
0 5 moveto 
1 -1 scale
(Voltage) t 
GR
GR
GS
[0.75 0 0 0.75 0 0] CT
0 0.447 0.741 RC
1 LJ
2 LW
N
408 51.863 M
448 51.863 L
S
GR
GS
[0.75 0 0 0.75 338.25 51.10274] CT
/Helvetica 12 F
GS
[1 0 0 1 0 0] CT
0 5 moveto 
1 -1 scale
(Charge) t 
GR
GR
GS
[0.75 0 0 0.75 0 0] CT
0.851 0.325 0.098 RC
1 LJ
2 LW
N
408 68.137 M
448 68.137 L
S
GR
GS
[0.75 0 0 0.75 0 0] CT
0.149 GC
10.0 ML
0.667 LW
N
404 78 M
404 42 L
496 42 L
496 78 L
cp
S
GR
%%Trailer
%%Pages: 1
%%EOF
