%!PS-Adobe-3.0 EPSF-3.0
%%Creator: (MATLAB, The Mathworks, Inc. Version 24.1.0.2603908 \(R2024a\) Update 3. Operating System: Windows 10)
%%Title: (C:/Users/lorde/Documents/MATLAB/Master Lab Course/Exercise 1/E1_2_E1DUT2LS20V_rise.eps)
%%CreationDate: 2024-06-25T16:01:10
%%Pages: (atend)
%%BoundingBox:     0     0   420   315
%%LanguageLevel: 3
%%EndComments
%%BeginProlog
%%BeginResource: procset (Apache XML Graphics Std ProcSet) 1.2 0
%%Version: 1.2 0
%%Copyright: (Copyright 2001-2003,2010 The Apache Software Foundation. License terms: http://www.apache.org/licenses/LICENSE-2.0)
/bd{bind def}bind def
/ld{load def}bd
/GR/grestore ld
/GS/gsave ld
/RM/rmoveto ld
/C/curveto ld
/t/show ld
/L/lineto ld
/ML/setmiterlimit ld
/CT/concat ld
/f/fill ld
/N/newpath ld
/S/stroke ld
/CC/setcmykcolor ld
/A/ashow ld
/cp/closepath ld
/RC/setrgbcolor ld
/LJ/setlinejoin ld
/GC/setgray ld
/LW/setlinewidth ld
/M/moveto ld
/re {4 2 roll M
1 index 0 rlineto
0 exch rlineto
neg 0 rlineto
cp } bd
/_ctm matrix def
/_tm matrix def
/BT { _ctm currentmatrix pop matrix _tm copy pop 0 0 moveto } bd
/ET { _ctm setmatrix } bd
/iTm { _ctm setmatrix _tm concat } bd
/Tm { _tm astore pop iTm 0 0 moveto } bd
/ux 0.0 def
/uy 0.0 def
/F {
  /Tp exch def
  /Tf exch def
  Tf findfont Tp scalefont setfont
  /cf Tf def  /cs Tp def
} bd
/ULS {currentpoint /uy exch def /ux exch def} bd
/ULE {
  /Tcx currentpoint pop def
  gsave
  newpath
  cf findfont cs scalefont dup
  /FontMatrix get 0 get /Ts exch def /FontInfo get dup
  /UnderlinePosition get Ts mul /To exch def
  /UnderlineThickness get Ts mul /Tt exch def
  ux uy To add moveto  Tcx uy To add lineto
  Tt setlinewidth stroke
  grestore
} bd
/OLE {
  /Tcx currentpoint pop def
  gsave
  newpath
  cf findfont cs scalefont dup
  /FontMatrix get 0 get /Ts exch def /FontInfo get dup
  /UnderlinePosition get Ts mul /To exch def
  /UnderlineThickness get Ts mul /Tt exch def
  ux uy To add cs add moveto Tcx uy To add cs add lineto
  Tt setlinewidth stroke
  grestore
} bd
/SOE {
  /Tcx currentpoint pop def
  gsave
  newpath
  cf findfont cs scalefont dup
  /FontMatrix get 0 get /Ts exch def /FontInfo get dup
  /UnderlinePosition get Ts mul /To exch def
  /UnderlineThickness get Ts mul /Tt exch def
  ux uy To add cs 10 mul 26 idiv add moveto Tcx uy To add cs 10 mul 26 idiv add lineto
  Tt setlinewidth stroke
  grestore
} bd
/QT {
/Y22 exch store
/X22 exch store
/Y21 exch store
/X21 exch store
currentpoint
/Y21 load 2 mul add 3 div exch
/X21 load 2 mul add 3 div exch
/X21 load 2 mul /X22 load add 3 div
/Y21 load 2 mul /Y22 load add 3 div
/X22 load /Y22 load curveto
} bd
/SSPD {
dup length /d exch dict def
{
/v exch def
/k exch def
currentpagedevice k known {
/cpdv currentpagedevice k get def
v cpdv ne {
/upd false def
/nullv v type /nulltype eq def
/nullcpdv cpdv type /nulltype eq def
nullv nullcpdv or
{
/upd true def
} {
/sametype v type cpdv type eq def
sametype {
v type /arraytype eq {
/vlen v length def
/cpdvlen cpdv length def
vlen cpdvlen eq {
0 1 vlen 1 sub {
/i exch def
/obj v i get def
/cpdobj cpdv i get def
obj cpdobj ne {
/upd true def
exit
} if
} for
} {
/upd true def
} ifelse
} {
v type /dicttype eq {
v {
/dv exch def
/dk exch def
/cpddv cpdv dk get def
dv cpddv ne {
/upd true def
exit
} if
} forall
} {
/upd true def
} ifelse
} ifelse
} if
} ifelse
upd true eq {
d k v put
} if
} if
} if
} forall
d length 0 gt {
d setpagedevice
} if
} bd
/RE { % /NewFontName [NewEncodingArray] /FontName RE -
  findfont dup length dict begin
  {
    1 index /FID ne
    {def} {pop pop} ifelse
  } forall
  /Encoding exch def
  /FontName 1 index def
  currentdict definefont pop
  end
} bind def
%%EndResource
%%BeginResource: procset (Apache XML Graphics EPS ProcSet) 1.0 0
%%Version: 1.0 0
%%Copyright: (Copyright 2002-2003 The Apache Software Foundation. License terms: http://www.apache.org/licenses/LICENSE-2.0)
/BeginEPSF { %def
/b4_Inc_state save def         % Save state for cleanup
/dict_count countdictstack def % Count objects on dict stack
/op_count count 1 sub def      % Count objects on operand stack
userdict begin                 % Push userdict on dict stack
/showpage { } def              % Redefine showpage, { } = null proc
0 setgray 0 setlinecap         % Prepare graphics state
1 setlinewidth 0 setlinejoin
10 setmiterlimit [ ] 0 setdash newpath
/languagelevel where           % If level not equal to 1 then
{pop languagelevel             % set strokeadjust and
1 ne                           % overprint to their defaults.
{false setstrokeadjust false setoverprint
} if
} if
} bd
/EndEPSF { %def
count op_count sub {pop} repeat            % Clean up stacks
countdictstack dict_count sub {end} repeat
b4_Inc_state restore
} bd
%%EndResource
%FOPBeginFontDict
%%IncludeResource: font Courier-Oblique
%%IncludeResource: font Courier-BoldOblique
%%IncludeResource: font Courier-Bold
%%IncludeResource: font ZapfDingbats
%%IncludeResource: font Symbol
%%IncludeResource: font Helvetica
%%IncludeResource: font Helvetica-Oblique
%%IncludeResource: font Helvetica-Bold
%%IncludeResource: font Helvetica-BoldOblique
%%IncludeResource: font Times-Roman
%%IncludeResource: font Times-Italic
%%IncludeResource: font Times-Bold
%%IncludeResource: font Times-BoldItalic
%%IncludeResource: font Courier
%FOPEndFontDict
%%BeginResource: encoding WinAnsiEncoding
/WinAnsiEncoding [
/.notdef /.notdef /.notdef /.notdef /.notdef
/.notdef /.notdef /.notdef /.notdef /.notdef
/.notdef /.notdef /.notdef /.notdef /.notdef
/.notdef /.notdef /.notdef /.notdef /.notdef
/.notdef /.notdef /.notdef /.notdef /.notdef
/.notdef /.notdef /.notdef /.notdef /.notdef
/.notdef /.notdef /space /exclam /quotedbl
/numbersign /dollar /percent /ampersand /quotesingle
/parenleft /parenright /asterisk /plus /comma
/hyphen /period /slash /zero /one
/two /three /four /five /six
/seven /eight /nine /colon /semicolon
/less /equal /greater /question /at
/A /B /C /D /E
/F /G /H /I /J
/K /L /M /N /O
/P /Q /R /S /T
/U /V /W /X /Y
/Z /bracketleft /backslash /bracketright /asciicircum
/underscore /quoteleft /a /b /c
/d /e /f /g /h
/i /j /k /l /m
/n /o /p /q /r
/s /t /u /v /w
/x /y /z /braceleft /bar
/braceright /asciitilde /bullet /Euro /bullet
/quotesinglbase /florin /quotedblbase /ellipsis /dagger
/daggerdbl /circumflex /perthousand /Scaron /guilsinglleft
/OE /bullet /Zcaron /bullet /bullet
/quoteleft /quoteright /quotedblleft /quotedblright /bullet
/endash /emdash /asciitilde /trademark /scaron
/guilsinglright /oe /bullet /zcaron /Ydieresis
/space /exclamdown /cent /sterling /currency
/yen /brokenbar /section /dieresis /copyright
/ordfeminine /guillemotleft /logicalnot /sfthyphen /registered
/macron /degree /plusminus /twosuperior /threesuperior
/acute /mu /paragraph /middot /cedilla
/onesuperior /ordmasculine /guillemotright /onequarter /onehalf
/threequarters /questiondown /Agrave /Aacute /Acircumflex
/Atilde /Adieresis /Aring /AE /Ccedilla
/Egrave /Eacute /Ecircumflex /Edieresis /Igrave
/Iacute /Icircumflex /Idieresis /Eth /Ntilde
/Ograve /Oacute /Ocircumflex /Otilde /Odieresis
/multiply /Oslash /Ugrave /Uacute /Ucircumflex
/Udieresis /Yacute /Thorn /germandbls /agrave
/aacute /acircumflex /atilde /adieresis /aring
/ae /ccedilla /egrave /eacute /ecircumflex
/edieresis /igrave /iacute /icircumflex /idieresis
/eth /ntilde /ograve /oacute /ocircumflex
/otilde /odieresis /divide /oslash /ugrave
/uacute /ucircumflex /udieresis /yacute /thorn
/ydieresis
] def
%%EndResource
%FOPBeginFontReencode
/Courier-Oblique findfont
dup length dict begin
  {1 index /FID ne {def} {pop pop} ifelse} forall
  /Encoding WinAnsiEncoding def
  currentdict
end
/Courier-Oblique exch definefont pop
/Courier-BoldOblique findfont
dup length dict begin
  {1 index /FID ne {def} {pop pop} ifelse} forall
  /Encoding WinAnsiEncoding def
  currentdict
end
/Courier-BoldOblique exch definefont pop
/Courier-Bold findfont
dup length dict begin
  {1 index /FID ne {def} {pop pop} ifelse} forall
  /Encoding WinAnsiEncoding def
  currentdict
end
/Courier-Bold exch definefont pop
/Helvetica findfont
dup length dict begin
  {1 index /FID ne {def} {pop pop} ifelse} forall
  /Encoding WinAnsiEncoding def
  currentdict
end
/Helvetica exch definefont pop
/Helvetica-Oblique findfont
dup length dict begin
  {1 index /FID ne {def} {pop pop} ifelse} forall
  /Encoding WinAnsiEncoding def
  currentdict
end
/Helvetica-Oblique exch definefont pop
/Helvetica-Bold findfont
dup length dict begin
  {1 index /FID ne {def} {pop pop} ifelse} forall
  /Encoding WinAnsiEncoding def
  currentdict
end
/Helvetica-Bold exch definefont pop
/Helvetica-BoldOblique findfont
dup length dict begin
  {1 index /FID ne {def} {pop pop} ifelse} forall
  /Encoding WinAnsiEncoding def
  currentdict
end
/Helvetica-BoldOblique exch definefont pop
/Times-Roman findfont
dup length dict begin
  {1 index /FID ne {def} {pop pop} ifelse} forall
  /Encoding WinAnsiEncoding def
  currentdict
end
/Times-Roman exch definefont pop
/Times-Italic findfont
dup length dict begin
  {1 index /FID ne {def} {pop pop} ifelse} forall
  /Encoding WinAnsiEncoding def
  currentdict
end
/Times-Italic exch definefont pop
/Times-Bold findfont
dup length dict begin
  {1 index /FID ne {def} {pop pop} ifelse} forall
  /Encoding WinAnsiEncoding def
  currentdict
end
/Times-Bold exch definefont pop
/Times-BoldItalic findfont
dup length dict begin
  {1 index /FID ne {def} {pop pop} ifelse} forall
  /Encoding WinAnsiEncoding def
  currentdict
end
/Times-BoldItalic exch definefont pop
/Courier findfont
dup length dict begin
  {1 index /FID ne {def} {pop pop} ifelse} forall
  /Encoding WinAnsiEncoding def
  currentdict
end
/Courier exch definefont pop
%FOPEndFontReencode
%%EndProlog
%%Page: 1 1
%%PageBoundingBox: 0 0 420 315
%%BeginPageSetup
[1 0 0 -1 0 315] CT
%%EndPageSetup
GS
[0.75 0 0 0.75 0 0] CT
1 GC
N
0 0 560 420 re
f
GR
GS
[0.75 0 0 0.75 0 0] CT
1 GC
N
0 0 560 420 re
f
GR
GS
[0.75 0 0 0.75 0 0] CT
1 GC
N
73 372 M
506 372 L
506 31 L
73 31 L
cp
f
GR
GS
[0.75 0 0 0.75 0 0] CT
0.775 GC
[1 3] 0 setdash
2 LJ
0.667 LW
N
83.825 372 M
83.825 31 L
S
GR
GS
[0.75 0 0 0.75 0 0] CT
0.775 GC
[1 3] 0 setdash
2 LJ
0.667 LW
N
94.65 372 M
94.65 31 L
S
GR
GS
[0.75 0 0 0.75 0 0] CT
0.775 GC
[1 3] 0 setdash
2 LJ
0.667 LW
N
105.475 372 M
105.475 31 L
S
GR
GS
[0.75 0 0 0.75 0 0] CT
0.775 GC
[1 3] 0 setdash
2 LJ
0.667 LW
N
116.3 372 M
116.3 31 L
S
GR
GS
[0.75 0 0 0.75 0 0] CT
0.775 GC
[1 3] 0 setdash
2 LJ
0.667 LW
N
137.95 372 M
137.95 31 L
S
GR
GS
[0.75 0 0 0.75 0 0] CT
0.775 GC
[1 3] 0 setdash
2 LJ
0.667 LW
N
148.775 372 M
148.775 31 L
S
GR
GS
[0.75 0 0 0.75 0 0] CT
0.775 GC
[1 3] 0 setdash
2 LJ
0.667 LW
N
159.6 372 M
159.6 31 L
S
GR
GS
[0.75 0 0 0.75 0 0] CT
0.775 GC
[1 3] 0 setdash
2 LJ
0.667 LW
N
170.425 372 M
170.425 31 L
S
GR
GS
[0.75 0 0 0.75 0 0] CT
0.775 GC
[1 3] 0 setdash
2 LJ
0.667 LW
N
192.075 372 M
192.075 31 L
S
GR
GS
[0.75 0 0 0.75 0 0] CT
0.775 GC
[1 3] 0 setdash
2 LJ
0.667 LW
N
202.9 372 M
202.9 31 L
S
GR
GS
[0.75 0 0 0.75 0 0] CT
0.775 GC
[1 3] 0 setdash
2 LJ
0.667 LW
N
213.725 372 M
213.725 31 L
S
GR
GS
[0.75 0 0 0.75 0 0] CT
0.775 GC
[1 3] 0 setdash
2 LJ
0.667 LW
N
224.55 372 M
224.55 31 L
S
GR
GS
[0.75 0 0 0.75 0 0] CT
0.775 GC
[1 3] 0 setdash
2 LJ
0.667 LW
N
246.2 372 M
246.2 31 L
S
GR
GS
[0.75 0 0 0.75 0 0] CT
0.775 GC
[1 3] 0 setdash
2 LJ
0.667 LW
N
257.025 372 M
257.025 31 L
S
GR
GS
[0.75 0 0 0.75 0 0] CT
0.775 GC
[1 3] 0 setdash
2 LJ
0.667 LW
N
267.85 372 M
267.85 31 L
S
GR
GS
[0.75 0 0 0.75 0 0] CT
0.775 GC
[1 3] 0 setdash
2 LJ
0.667 LW
N
278.675 372 M
278.675 31 L
S
GR
GS
[0.75 0 0 0.75 0 0] CT
0.775 GC
[1 3] 0 setdash
2 LJ
0.667 LW
N
300.325 372 M
300.325 31 L
S
GR
GS
[0.75 0 0 0.75 0 0] CT
0.775 GC
[1 3] 0 setdash
2 LJ
0.667 LW
N
311.15 372 M
311.15 31 L
S
GR
GS
[0.75 0 0 0.75 0 0] CT
0.775 GC
[1 3] 0 setdash
2 LJ
0.667 LW
N
321.975 372 M
321.975 31 L
S
GR
GS
[0.75 0 0 0.75 0 0] CT
0.775 GC
[1 3] 0 setdash
2 LJ
0.667 LW
N
332.8 372 M
332.8 31 L
S
GR
GS
[0.75 0 0 0.75 0 0] CT
0.775 GC
[1 3] 0 setdash
2 LJ
0.667 LW
N
354.45 372 M
354.45 31 L
S
GR
GS
[0.75 0 0 0.75 0 0] CT
0.775 GC
[1 3] 0 setdash
2 LJ
0.667 LW
N
365.275 372 M
365.275 31 L
S
GR
GS
[0.75 0 0 0.75 0 0] CT
0.775 GC
[1 3] 0 setdash
2 LJ
0.667 LW
N
376.1 372 M
376.1 31 L
S
GR
GS
[0.75 0 0 0.75 0 0] CT
0.775 GC
[1 3] 0 setdash
2 LJ
0.667 LW
N
386.925 372 M
386.925 31 L
S
GR
GS
[0.75 0 0 0.75 0 0] CT
0.775 GC
[1 3] 0 setdash
2 LJ
0.667 LW
N
408.575 372 M
408.575 31 L
S
GR
GS
[0.75 0 0 0.75 0 0] CT
0.775 GC
[1 3] 0 setdash
2 LJ
0.667 LW
N
419.4 372 M
419.4 31 L
S
GR
GS
[0.75 0 0 0.75 0 0] CT
0.775 GC
[1 3] 0 setdash
2 LJ
0.667 LW
N
430.225 372 M
430.225 31 L
S
GR
GS
[0.75 0 0 0.75 0 0] CT
0.775 GC
[1 3] 0 setdash
2 LJ
0.667 LW
N
441.05 372 M
441.05 31 L
S
GR
GS
[0.75 0 0 0.75 0 0] CT
0.775 GC
[1 3] 0 setdash
2 LJ
0.667 LW
N
462.7 372 M
462.7 31 L
S
GR
GS
[0.75 0 0 0.75 0 0] CT
0.775 GC
[1 3] 0 setdash
2 LJ
0.667 LW
N
473.525 372 M
473.525 31 L
S
GR
GS
[0.75 0 0 0.75 0 0] CT
0.775 GC
[1 3] 0 setdash
2 LJ
0.667 LW
N
484.35 372 M
484.35 31 L
S
GR
GS
[0.75 0 0 0.75 0 0] CT
0.775 GC
[1 3] 0 setdash
2 LJ
0.667 LW
N
495.175 372 M
495.175 31 L
S
GR
GS
[0.75 0 0 0.75 0 0] CT
0.873 GC
1 LJ
0.667 LW
N
73 372 M
73 31 L
S
GR
GS
[0.75 0 0 0.75 0 0] CT
0.873 GC
1 LJ
0.667 LW
N
127.125 372 M
127.125 31 L
S
GR
GS
[0.75 0 0 0.75 0 0] CT
0.873 GC
1 LJ
0.667 LW
N
181.25 372 M
181.25 31 L
S
GR
GS
[0.75 0 0 0.75 0 0] CT
0.873 GC
1 LJ
0.667 LW
N
235.375 372 M
235.375 31 L
S
GR
GS
[0.75 0 0 0.75 0 0] CT
0.873 GC
1 LJ
0.667 LW
N
289.5 372 M
289.5 31 L
S
GR
GS
[0.75 0 0 0.75 0 0] CT
0.873 GC
1 LJ
0.667 LW
N
343.625 372 M
343.625 31 L
S
GR
GS
[0.75 0 0 0.75 0 0] CT
0.873 GC
1 LJ
0.667 LW
N
397.75 372 M
397.75 31 L
S
GR
GS
[0.75 0 0 0.75 0 0] CT
0.873 GC
1 LJ
0.667 LW
N
451.875 372 M
451.875 31 L
S
GR
GS
[0.75 0 0 0.75 0 0] CT
0.873 GC
1 LJ
0.667 LW
N
506 372 M
506 31 L
S
GR
GS
[0.75 0 0 0.75 0 0] CT
0.749 0.861 0.935 RC
[1 3] 0 setdash
2 LJ
0.667 LW
N
506 369.035 M
73 369.035 L
S
GR
GS
[0.75 0 0 0.75 0 0] CT
0.749 0.861 0.935 RC
[1 3] 0 setdash
2 LJ
0.667 LW
N
506 360.139 M
73 360.139 L
S
GR
GS
[0.75 0 0 0.75 0 0] CT
0.749 0.861 0.935 RC
[1 3] 0 setdash
2 LJ
0.667 LW
N
506 351.243 M
73 351.243 L
S
GR
GS
[0.75 0 0 0.75 0 0] CT
0.749 0.861 0.935 RC
[1 3] 0 setdash
2 LJ
0.667 LW
N
506 333.452 M
73 333.452 L
S
GR
GS
[0.75 0 0 0.75 0 0] CT
0.749 0.861 0.935 RC
[1 3] 0 setdash
2 LJ
0.667 LW
N
506 324.557 M
73 324.557 L
S
GR
GS
[0.75 0 0 0.75 0 0] CT
0.749 0.861 0.935 RC
[1 3] 0 setdash
2 LJ
0.667 LW
N
506 315.661 M
73 315.661 L
S
GR
GS
[0.75 0 0 0.75 0 0] CT
0.749 0.861 0.935 RC
[1 3] 0 setdash
2 LJ
0.667 LW
N
506 306.765 M
73 306.765 L
S
GR
GS
[0.75 0 0 0.75 0 0] CT
0.749 0.861 0.935 RC
[1 3] 0 setdash
2 LJ
0.667 LW
N
506 288.974 M
73 288.974 L
S
GR
GS
[0.75 0 0 0.75 0 0] CT
0.749 0.861 0.935 RC
[1 3] 0 setdash
2 LJ
0.667 LW
N
506 280.078 M
73 280.078 L
S
GR
GS
[0.75 0 0 0.75 0 0] CT
0.749 0.861 0.935 RC
[1 3] 0 setdash
2 LJ
0.667 LW
N
506 271.183 M
73 271.183 L
S
GR
GS
[0.75 0 0 0.75 0 0] CT
0.749 0.861 0.935 RC
[1 3] 0 setdash
2 LJ
0.667 LW
N
506 262.287 M
73 262.287 L
S
GR
GS
[0.75 0 0 0.75 0 0] CT
0.749 0.861 0.935 RC
[1 3] 0 setdash
2 LJ
0.667 LW
N
506 244.496 M
73 244.496 L
S
GR
GS
[0.75 0 0 0.75 0 0] CT
0.749 0.861 0.935 RC
[1 3] 0 setdash
2 LJ
0.667 LW
N
506 235.6 M
73 235.6 L
S
GR
GS
[0.75 0 0 0.75 0 0] CT
0.749 0.861 0.935 RC
[1 3] 0 setdash
2 LJ
0.667 LW
N
506 226.704 M
73 226.704 L
S
GR
GS
[0.75 0 0 0.75 0 0] CT
0.749 0.861 0.935 RC
[1 3] 0 setdash
2 LJ
0.667 LW
N
506 217.809 M
73 217.809 L
S
GR
GS
[0.75 0 0 0.75 0 0] CT
0.749 0.861 0.935 RC
[1 3] 0 setdash
2 LJ
0.667 LW
N
506 200.017 M
73 200.017 L
S
GR
GS
[0.75 0 0 0.75 0 0] CT
0.749 0.861 0.935 RC
[1 3] 0 setdash
2 LJ
0.667 LW
N
506 191.122 M
73 191.122 L
S
GR
GS
[0.75 0 0 0.75 0 0] CT
0.749 0.861 0.935 RC
[1 3] 0 setdash
2 LJ
0.667 LW
N
506 182.226 M
73 182.226 L
S
GR
GS
[0.75 0 0 0.75 0 0] CT
0.749 0.861 0.935 RC
[1 3] 0 setdash
2 LJ
0.667 LW
N
506 173.33 M
73 173.33 L
S
GR
GS
[0.75 0 0 0.75 0 0] CT
0.749 0.861 0.935 RC
[1 3] 0 setdash
2 LJ
0.667 LW
N
506 155.539 M
73 155.539 L
S
GR
GS
[0.75 0 0 0.75 0 0] CT
0.749 0.861 0.935 RC
[1 3] 0 setdash
2 LJ
0.667 LW
N
506 146.643 M
73 146.643 L
S
GR
GS
[0.75 0 0 0.75 0 0] CT
0.749 0.861 0.935 RC
[1 3] 0 setdash
2 LJ
0.667 LW
N
506 137.748 M
73 137.748 L
S
GR
GS
[0.75 0 0 0.75 0 0] CT
0.749 0.861 0.935 RC
[1 3] 0 setdash
2 LJ
0.667 LW
N
506 128.852 M
73 128.852 L
S
GR
GS
[0.75 0 0 0.75 0 0] CT
0.749 0.861 0.935 RC
[1 3] 0 setdash
2 LJ
0.667 LW
N
506 111.061 M
73 111.061 L
S
GR
GS
[0.75 0 0 0.75 0 0] CT
0.749 0.861 0.935 RC
[1 3] 0 setdash
2 LJ
0.667 LW
N
506 102.165 M
73 102.165 L
S
GR
GS
[0.75 0 0 0.75 0 0] CT
0.749 0.861 0.935 RC
[1 3] 0 setdash
2 LJ
0.667 LW
N
506 93.27 M
73 93.27 L
S
GR
GS
[0.75 0 0 0.75 0 0] CT
0.749 0.861 0.935 RC
[1 3] 0 setdash
2 LJ
0.667 LW
N
506 84.374 M
73 84.374 L
S
GR
GS
[0.75 0 0 0.75 0 0] CT
0.749 0.861 0.935 RC
[1 3] 0 setdash
2 LJ
0.667 LW
N
506 66.583 M
73 66.583 L
S
GR
GS
[0.75 0 0 0.75 0 0] CT
0.749 0.861 0.935 RC
[1 3] 0 setdash
2 LJ
0.667 LW
N
506 57.687 M
73 57.687 L
S
GR
GS
[0.75 0 0 0.75 0 0] CT
0.749 0.861 0.935 RC
[1 3] 0 setdash
2 LJ
0.667 LW
N
506 48.791 M
73 48.791 L
S
GR
GS
[0.75 0 0 0.75 0 0] CT
0.749 0.861 0.935 RC
[1 3] 0 setdash
2 LJ
0.667 LW
N
506 39.896 M
73 39.896 L
S
GR
GS
[0.75 0 0 0.75 0 0] CT
0.851 0.918 0.961 RC
1 LJ
0.667 LW
N
506 342.348 M
73 342.348 L
S
GR
GS
[0.75 0 0 0.75 0 0] CT
0.851 0.918 0.961 RC
1 LJ
0.667 LW
N
506 297.87 M
73 297.87 L
S
GR
GS
[0.75 0 0 0.75 0 0] CT
0.851 0.918 0.961 RC
1 LJ
0.667 LW
N
506 253.391 M
73 253.391 L
S
GR
GS
[0.75 0 0 0.75 0 0] CT
0.851 0.918 0.961 RC
1 LJ
0.667 LW
N
506 208.913 M
73 208.913 L
S
GR
GS
[0.75 0 0 0.75 0 0] CT
0.851 0.918 0.961 RC
1 LJ
0.667 LW
N
506 164.435 M
73 164.435 L
S
GR
GS
[0.75 0 0 0.75 0 0] CT
0.851 0.918 0.961 RC
1 LJ
0.667 LW
N
506 119.957 M
73 119.957 L
S
GR
GS
[0.75 0 0 0.75 0 0] CT
0.851 0.918 0.961 RC
1 LJ
0.667 LW
N
506 75.478 M
73 75.478 L
S
GR
GS
[0.75 0 0 0.75 0 0] CT
0.851 0.918 0.961 RC
1 LJ
0.667 LW
N
506 31 M
73 31 L
S
GR
GS
[0.75 0 0 0.75 0 0] CT
0.149 GC
2 setlinecap
1 LJ
0.667 LW
N
73 372 M
506 372 L
S
GR
GS
[0.75 0 0 0.75 0 0] CT
0.149 GC
2 setlinecap
1 LJ
0.667 LW
N
73 31 M
506 31 L
S
GR
GS
[0.75 0 0 0.75 0 0] CT
0.149 GC
2 setlinecap
1 LJ
0.667 LW
N
73 372 M
73 367.67 L
S
GR
GS
[0.75 0 0 0.75 0 0] CT
0.149 GC
2 setlinecap
1 LJ
0.667 LW
N
127.125 372 M
127.125 367.67 L
S
GR
GS
[0.75 0 0 0.75 0 0] CT
0.149 GC
2 setlinecap
1 LJ
0.667 LW
N
181.25 372 M
181.25 367.67 L
S
GR
GS
[0.75 0 0 0.75 0 0] CT
0.149 GC
2 setlinecap
1 LJ
0.667 LW
N
235.375 372 M
235.375 367.67 L
S
GR
GS
[0.75 0 0 0.75 0 0] CT
0.149 GC
2 setlinecap
1 LJ
0.667 LW
N
289.5 372 M
289.5 367.67 L
S
GR
GS
[0.75 0 0 0.75 0 0] CT
0.149 GC
2 setlinecap
1 LJ
0.667 LW
N
343.625 372 M
343.625 367.67 L
S
GR
GS
[0.75 0 0 0.75 0 0] CT
0.149 GC
2 setlinecap
1 LJ
0.667 LW
N
397.75 372 M
397.75 367.67 L
S
GR
GS
[0.75 0 0 0.75 0 0] CT
0.149 GC
2 setlinecap
1 LJ
0.667 LW
N
451.875 372 M
451.875 367.67 L
S
GR
GS
[0.75 0 0 0.75 0 0] CT
0.149 GC
2 setlinecap
1 LJ
0.667 LW
N
506 372 M
506 367.67 L
S
GR
GS
[0.75 0 0 0.75 0 0] CT
0.149 GC
2 setlinecap
1 LJ
0.667 LW
N
73 31 M
73 35.33 L
S
GR
GS
[0.75 0 0 0.75 0 0] CT
0.149 GC
2 setlinecap
1 LJ
0.667 LW
N
127.125 31 M
127.125 35.33 L
S
GR
GS
[0.75 0 0 0.75 0 0] CT
0.149 GC
2 setlinecap
1 LJ
0.667 LW
N
181.25 31 M
181.25 35.33 L
S
GR
GS
[0.75 0 0 0.75 0 0] CT
0.149 GC
2 setlinecap
1 LJ
0.667 LW
N
235.375 31 M
235.375 35.33 L
S
GR
GS
[0.75 0 0 0.75 0 0] CT
0.149 GC
2 setlinecap
1 LJ
0.667 LW
N
289.5 31 M
289.5 35.33 L
S
GR
GS
[0.75 0 0 0.75 0 0] CT
0.149 GC
2 setlinecap
1 LJ
0.667 LW
N
343.625 31 M
343.625 35.33 L
S
GR
GS
[0.75 0 0 0.75 0 0] CT
0.149 GC
2 setlinecap
1 LJ
0.667 LW
N
397.75 31 M
397.75 35.33 L
S
GR
GS
[0.75 0 0 0.75 0 0] CT
0.149 GC
2 setlinecap
1 LJ
0.667 LW
N
451.875 31 M
451.875 35.33 L
S
GR
GS
[0.75 0 0 0.75 0 0] CT
0.149 GC
2 setlinecap
1 LJ
0.667 LW
N
506 31 M
506 35.33 L
S
GR
GS
[0.75 0 0 0.75 54.75 282.99998] CT
0.149 GC
/Helvetica 13.333 F
GS
[1 0 0 1 0 0] CT
-4 14 moveto 
1 -1 scale
(0) t 
GR
GR
GS
[0.75 0 0 0.75 95.34375 282.99998] CT
0.149 GC
/Helvetica 13.333 F
GS
[1 0 0 1 0 0] CT
-7.5 14 moveto 
1 -1 scale
(10) t 
GR
GR
GS
[0.75 0 0 0.75 135.9375 282.99998] CT
0.149 GC
/Helvetica 13.333 F
GS
[1 0 0 1 0 0] CT
-7.5 14 moveto 
1 -1 scale
(20) t 
GR
GR
GS
[0.75 0 0 0.75 176.53125 282.99998] CT
0.149 GC
/Helvetica 13.333 F
GS
[1 0 0 1 0 0] CT
-7.5 14 moveto 
1 -1 scale
(30) t 
GR
GR
GS
[0.75 0 0 0.75 217.125 282.99998] CT
0.149 GC
/Helvetica 13.333 F
GS
[1 0 0 1 0 0] CT
-7.5 14 moveto 
1 -1 scale
(40) t 
GR
GR
GS
[0.75 0 0 0.75 257.71875 282.99998] CT
0.149 GC
/Helvetica 13.333 F
GS
[1 0 0 1 0 0] CT
-7.5 14 moveto 
1 -1 scale
(50) t 
GR
GR
GS
[0.75 0 0 0.75 298.3125 282.99998] CT
0.149 GC
/Helvetica 13.333 F
GS
[1 0 0 1 0 0] CT
-7.5 14 moveto 
1 -1 scale
(60) t 
GR
GR
GS
[0.75 0 0 0.75 338.90625 282.99998] CT
0.149 GC
/Helvetica 13.333 F
GS
[1 0 0 1 0 0] CT
-7.5 14 moveto 
1 -1 scale
(70) t 
GR
GR
GS
[0.75 0 0 0.75 379.5 282.99998] CT
0.149 GC
/Helvetica 13.333 F
GS
[1 0 0 1 0 0] CT
-7.5 14 moveto 
1 -1 scale
(80) t 
GR
GR
GS
[0.75 0 0 0.75 217.12516 296.74999] CT
0.149 GC
/Helvetica 18.667 F
GS
[1 0 0 1 0 0] CT
-38.5 19 moveto 
1 -1 scale
(Time / ns) t 
GR
GR
GS
[0.75 0 0 0.75 0 0] CT
0 0.447 0.741 RC
2 setlinecap
1 LJ
0.667 LW
N
73 372 M
73 31 L
S
GR
GS
[0.75 0 0 0.75 0 0] CT
0 0.447 0.741 RC
2 setlinecap
1 LJ
0.667 LW
N
73 342.348 M
77.33 342.348 L
S
GR
GS
[0.75 0 0 0.75 0 0] CT
0 0.447 0.741 RC
2 setlinecap
1 LJ
0.667 LW
N
73 297.87 M
77.33 297.87 L
S
GR
GS
[0.75 0 0 0.75 0 0] CT
0 0.447 0.741 RC
2 setlinecap
1 LJ
0.667 LW
N
73 253.391 M
77.33 253.391 L
S
GR
GS
[0.75 0 0 0.75 0 0] CT
0 0.447 0.741 RC
2 setlinecap
1 LJ
0.667 LW
N
73 208.913 M
77.33 208.913 L
S
GR
GS
[0.75 0 0 0.75 0 0] CT
0 0.447 0.741 RC
2 setlinecap
1 LJ
0.667 LW
N
73 164.435 M
77.33 164.435 L
S
GR
GS
[0.75 0 0 0.75 0 0] CT
0 0.447 0.741 RC
2 setlinecap
1 LJ
0.667 LW
N
73 119.957 M
77.33 119.957 L
S
GR
GS
[0.75 0 0 0.75 0 0] CT
0 0.447 0.741 RC
2 setlinecap
1 LJ
0.667 LW
N
73 75.478 M
77.33 75.478 L
S
GR
GS
[0.75 0 0 0.75 0 0] CT
0 0.447 0.741 RC
2 setlinecap
1 LJ
0.667 LW
N
73 31 M
77.33 31 L
S
GR
GS
[0.75 0 0 0.75 50.75 256.76088] CT
0 0.447 0.741 RC
/Helvetica 13.333 F
GS
[1 0 0 1 0 0] CT
-12 5.5 moveto 
1 -1 scale
(-6) t 
GR
GR
GS
[0.75 0 0 0.75 50.75 223.40218] CT
0 0.447 0.741 RC
/Helvetica 13.333 F
GS
[1 0 0 1 0 0] CT
-12 5.5 moveto 
1 -1 scale
(-5) t 
GR
GR
GS
[0.75 0 0 0.75 50.75 190.04348] CT
0 0.447 0.741 RC
/Helvetica 13.333 F
GS
[1 0 0 1 0 0] CT
-12 5.5 moveto 
1 -1 scale
(-4) t 
GR
GR
GS
[0.75 0 0 0.75 50.75 156.68478] CT
0 0.447 0.741 RC
/Helvetica 13.333 F
GS
[1 0 0 1 0 0] CT
-12 5.5 moveto 
1 -1 scale
(-3) t 
GR
GR
GS
[0.75 0 0 0.75 50.75 123.32609] CT
0 0.447 0.741 RC
/Helvetica 13.333 F
GS
[1 0 0 1 0 0] CT
-12 5.5 moveto 
1 -1 scale
(-2) t 
GR
GR
GS
[0.75 0 0 0.75 50.75 89.96739] CT
0 0.447 0.741 RC
/Helvetica 13.333 F
GS
[1 0 0 1 0 0] CT
-12 5.5 moveto 
1 -1 scale
(-1) t 
GR
GR
GS
[0.75 0 0 0.75 50.75 56.6087] CT
0 0.447 0.741 RC
/Helvetica 13.333 F
GS
[1 0 0 1 0 0] CT
-8 5.5 moveto 
1 -1 scale
(0) t 
GR
GR
GS
[0.75 0 0 0.75 50.75 23.25] CT
0 0.447 0.741 RC
/Helvetica 13.333 F
GS
[1 0 0 1 0 0] CT
-8 5.5 moveto 
1 -1 scale
(1) t 
GR
GR
GS
[0 -0.75 0.75 0 38.75 151.12487] CT
0 0.447 0.741 RC
/Helvetica 18.667 F
GS
[1 0 0 1 0 0] CT
-46 -5 moveto 
1 -1 scale
(Voltage / V) t 
GR
GR
GS
[0.75 0 0 0.75 0 0] CT
0.851 0.325 0.098 RC
2 setlinecap
1 LJ
0.667 LW
N
506 372 M
506 31 L
S
GR
GS
[0.75 0 0 0.75 0 0] CT
0.851 0.325 0.098 RC
2 setlinecap
1 LJ
0.667 LW
N
506 372 M
501.67 372 L
S
GR
GS
[0.75 0 0 0.75 0 0] CT
0.851 0.325 0.098 RC
2 setlinecap
1 LJ
0.667 LW
N
506 339.053 M
501.67 339.053 L
S
GR
GS
[0.75 0 0 0.75 0 0] CT
0.851 0.325 0.098 RC
2 setlinecap
1 LJ
0.667 LW
N
506 306.106 M
501.67 306.106 L
S
GR
GS
[0.75 0 0 0.75 0 0] CT
0.851 0.325 0.098 RC
2 setlinecap
1 LJ
0.667 LW
N
506 273.159 M
501.67 273.159 L
S
GR
GS
[0.75 0 0 0.75 0 0] CT
0.851 0.325 0.098 RC
2 setlinecap
1 LJ
0.667 LW
N
506 240.213 M
501.67 240.213 L
S
GR
GS
[0.75 0 0 0.75 0 0] CT
0.851 0.325 0.098 RC
2 setlinecap
1 LJ
0.667 LW
N
506 207.266 M
501.67 207.266 L
S
GR
GS
[0.75 0 0 0.75 0 0] CT
0.851 0.325 0.098 RC
2 setlinecap
1 LJ
0.667 LW
N
506 174.319 M
501.67 174.319 L
S
GR
GS
[0.75 0 0 0.75 0 0] CT
0.851 0.325 0.098 RC
2 setlinecap
1 LJ
0.667 LW
N
506 141.372 M
501.67 141.372 L
S
GR
GS
[0.75 0 0 0.75 0 0] CT
0.851 0.325 0.098 RC
2 setlinecap
1 LJ
0.667 LW
N
506 108.425 M
501.67 108.425 L
S
GR
GS
[0.75 0 0 0.75 0 0] CT
0.851 0.325 0.098 RC
2 setlinecap
1 LJ
0.667 LW
N
506 75.478 M
501.67 75.478 L
S
GR
GS
[0.75 0 0 0.75 0 0] CT
0.851 0.325 0.098 RC
2 setlinecap
1 LJ
0.667 LW
N
506 42.531 M
501.67 42.531 L
S
GR
GS
[0.75 0 0 0.75 383.50001 279] CT
0.851 0.325 0.098 RC
/Helvetica 13.333 F
GS
[1 0 0 1 0 0] CT
0 5.5 moveto 
1 -1 scale
(-90) t 
GR
GR
GS
[0.75 0 0 0.75 383.50001 254.28985] CT
0.851 0.325 0.098 RC
/Helvetica 13.333 F
GS
[1 0 0 1 0 0] CT
0 5.5 moveto 
1 -1 scale
(-80) t 
GR
GR
GS
[0.75 0 0 0.75 383.50001 229.57972] CT
0.851 0.325 0.098 RC
/Helvetica 13.333 F
GS
[1 0 0 1 0 0] CT
0 5.5 moveto 
1 -1 scale
(-70) t 
GR
GR
GS
[0.75 0 0 0.75 383.50001 204.86957] CT
0.851 0.325 0.098 RC
/Helvetica 13.333 F
GS
[1 0 0 1 0 0] CT
0 5.5 moveto 
1 -1 scale
(-60) t 
GR
GR
GS
[0.75 0 0 0.75 383.50001 180.15942] CT
0.851 0.325 0.098 RC
/Helvetica 13.333 F
GS
[1 0 0 1 0 0] CT
0 5.5 moveto 
1 -1 scale
(-50) t 
GR
GR
GS
[0.75 0 0 0.75 383.50001 155.44928] CT
0.851 0.325 0.098 RC
/Helvetica 13.333 F
GS
[1 0 0 1 0 0] CT
0 5.5 moveto 
1 -1 scale
(-40) t 
GR
GR
GS
[0.75 0 0 0.75 383.50001 130.73914] CT
0.851 0.325 0.098 RC
/Helvetica 13.333 F
GS
[1 0 0 1 0 0] CT
0 5.5 moveto 
1 -1 scale
(-30) t 
GR
GR
GS
[0.75 0 0 0.75 383.50001 106.02898] CT
0.851 0.325 0.098 RC
/Helvetica 13.333 F
GS
[1 0 0 1 0 0] CT
0 5.5 moveto 
1 -1 scale
(-20) t 
GR
GR
GS
[0.75 0 0 0.75 383.50001 81.31884] CT
0.851 0.325 0.098 RC
/Helvetica 13.333 F
GS
[1 0 0 1 0 0] CT
0 5.5 moveto 
1 -1 scale
(-10) t 
GR
GR
GS
[0.75 0 0 0.75 383.50001 56.6087] CT
0.851 0.325 0.098 RC
/Helvetica 13.333 F
GS
[1 0 0 1 0 0] CT
0 5.5 moveto 
1 -1 scale
(0) t 
GR
GR
GS
[0.75 0 0 0.75 383.50001 31.89855] CT
0.851 0.325 0.098 RC
/Helvetica 13.333 F
GS
[1 0 0 1 0 0] CT
0 5.5 moveto 
1 -1 scale
(10) t 
GR
GR
GS
[0 -0.75 0.75 0 402.24998 151.12487] CT
0.851 0.325 0.098 RC
/Helvetica 18.667 F
GS
[1 0 0 1 0 0] CT
-50.5 19 moveto 
1 -1 scale
(Charge / nC) t 
GR
GR
GS
[0.75 0 0 0.75 0 0] CT
N
73 31 M
507 31 L
507 372 L
73 372 L
73 31 L
cp
clip
0 0.447 0.741 RC
1 LJ
2 LW
N
73 76.743 M
77.33 75.812 L
81.66 77.702 L
85.99 77.438 L
90.32 76.521 L
94.65 77.897 L
98.98 75.715 L
103.31 77.132 L
107.64 74.144 L
111.97 77.063 L
116.3 81.942 L
120.63 71.948 L
124.96 85.027 L
129.29 71.781 L
133.62 100.664 L
137.95 253.808 L
142.28 322.583 L
146.61 306.557 L
150.94 315.008 L
155.27 301.483 L
159.6 287.014 L
163.93 279.481 L
168.26 271.613 L
172.59 270.446 L
176.92 263.76 L
181.25 259.646 L
185.58 254.67 L
189.91 246.581 L
194.24 241.466 L
198.57 232.737 L
202.9 223.924 L
207.23 211.54 L
211.56 195.139 L
215.89 184.033 L
220.22 172.385 L
224.55 166.061 L
228.88 164.741 L
233.21 159.709 L
237.54 160.696 L
241.87 154.135 L
246.2 133.397 L
250.53 121.11 L
254.86 119.289 L
259.19 118.344 L
263.52 111.964 L
267.85 102.777 L
272.18 101.72 L
276.51 105.612 L
280.84 104.097 L
285.17 97.745 L
289.5 93.089 L
293.83 92.727 L
298.16 92.283 L
302.49 88.989 L
306.82 86.306 L
311.15 84.582 L
315.48 85.055 L
319.81 84.846 L
324.14 80.774 L
328.47 80.621 L
332.8 83.345 L
337.13 81.955 L
341.46 81.094 L
345.79 81.094 L
350.12 80.162 L
354.45 82.025 L
358.78 82.289 L
363.11 80.107 L
367.44 80.329 L
371.77 80.204 L
376.1 77.077 L
380.43 74.311 L
384.76 74.561 L
389.09 74.644 L
393.42 74.061 L
397.75 74.561 L
402.08 75.645 L
406.41 75.937 L
410.74 75.756 L
415.07 76.549 L
419.4 75.631 L
423.73 75.103 L
428.06 75.325 L
432.39 73.657 L
436.72 74.408 L
441.05 75.631 L
445.38 75.673 L
449.71 77.007 L
454.04 77.077 L
458.37 76.896 L
462.7 77.271 L
467.03 77.466 L
471.36 78.772 L
475.69 80.023 L
480.02 79.579 L
484.35 78.703 L
488.68 79.259 L
493.01 80.343 L
497.34 79.745 L
501.67 78.717 L
S
GR
GS
[0.75 0 0 0.75 0 0] CT
N
73 31 M
507 31 L
507 372 L
73 372 L
73 31 L
cp
clip
0.851 0.325 0.098 RC
1 LJ
2 LW
N
73 75.478 M
77.33 75.526 L
81.66 75.601 L
85.99 75.725 L
90.32 75.814 L
94.65 75.917 L
98.98 75.996 L
103.31 76.052 L
107.64 76.061 L
111.97 76.068 L
116.3 76.307 L
120.63 76.394 L
124.96 76.572 L
129.29 76.745 L
133.62 77.382 L
137.95 83.412 L
142.28 96.018 L
146.61 110.186 L
150.94 124.13 L
155.27 137.924 L
159.6 150.888 L
163.93 163.2 L
168.26 175.056 L
172.59 186.644 L
176.92 198 L
181.25 209.035 L
185.58 219.802 L
189.91 230.181 L
194.24 240.169 L
198.57 249.746 L
202.9 258.804 L
207.23 267.234 L
211.56 274.811 L
215.89 281.573 L
220.22 287.661 L
224.55 293.216 L
228.88 298.545 L
233.21 303.685 L
237.54 308.706 L
241.87 313.561 L
246.2 317.608 L
250.53 320.676 L
254.86 323.326 L
259.19 325.895 L
263.52 328.246 L
267.85 330.136 L
272.18 331.722 L
276.51 333.392 L
280.84 335.133 L
285.17 336.641 L
289.5 337.823 L
293.83 338.855 L
298.16 339.864 L
302.49 340.763 L
306.82 341.484 L
311.15 342.074 L
315.48 342.628 L
319.81 343.189 L
324.14 343.624 L
328.47 343.933 L
332.8 344.318 L
337.13 344.743 L
341.46 345.102 L
345.79 345.435 L
350.12 345.74 L
354.45 346.072 L
358.78 346.468 L
363.11 346.807 L
367.44 347.088 L
371.77 347.372 L
376.1 347.559 L
380.43 347.572 L
384.76 347.51 L
389.09 347.458 L
393.42 347.392 L
397.75 347.322 L
402.08 347.3 L
406.41 347.319 L
410.74 347.341 L
415.07 347.38 L
419.4 347.417 L
423.73 347.41 L
428.06 347.394 L
432.39 347.336 L
436.72 347.25 L
441.05 347.223 L
445.38 347.233 L
449.71 347.285 L
454.04 347.377 L
458.37 347.467 L
462.7 347.562 L
467.03 347.674 L
471.36 347.83 L
475.69 348.062 L
480.02 348.319 L
484.35 348.536 L
488.68 348.743 L
493.01 348.999 L
497.34 349.27 L
501.67 349.492 L
S
GR
GS
[0.75 0 0 0.75 0 0] CT
1 GC
N
494 137 M
494 101 L
402 101 L
402 137 L
cp
f
GR
GS
[0.75 0 0 0.75 336.75 83.14726] CT
/Helvetica 12 F
GS
[1 0 0 1 0 0] CT
0 5 moveto 
1 -1 scale
(Voltage) t 
GR
GR
GS
[0.75 0 0 0.75 0 0] CT
0 0.447 0.741 RC
1 LJ
2 LW
N
406 110.863 M
446 110.863 L
S
GR
GS
[0.75 0 0 0.75 336.75 95.35274] CT
/Helvetica 12 F
GS
[1 0 0 1 0 0] CT
0 5 moveto 
1 -1 scale
(Charge) t 
GR
GR
GS
[0.75 0 0 0.75 0 0] CT
0.851 0.325 0.098 RC
1 LJ
2 LW
N
406 127.137 M
446 127.137 L
S
GR
GS
[0.75 0 0 0.75 0 0] CT
0.149 GC
10.0 ML
0.667 LW
N
402 137 M
402 101 L
494 101 L
494 137 L
cp
S
GR
%%Trailer
%%Pages: 1
%%EOF
