%!PS-Adobe-3.0 EPSF-3.0
%%Creator: (MATLAB, The Mathworks, Inc. Version 24.1.0.2603908 \(R2024a\) Update 3. Operating System: Windows 10)
%%Title: (C:/Users/lorde/Documents/MATLAB/Master Lab Course/Exercise 3/E3_Rg30_Eon1.eps)
%%CreationDate: 2024-06-30T10:10:50
%%Pages: (atend)
%%BoundingBox:     0     0   600   375
%%LanguageLevel: 3
%%EndComments
%%BeginProlog
%%BeginResource: procset (Apache XML Graphics Std ProcSet) 1.2 0
%%Version: 1.2 0
%%Copyright: (Copyright 2001-2003,2010 The Apache Software Foundation. License terms: http://www.apache.org/licenses/LICENSE-2.0)
/bd{bind def}bind def
/ld{load def}bd
/GR/grestore ld
/GS/gsave ld
/RM/rmoveto ld
/C/curveto ld
/t/show ld
/L/lineto ld
/ML/setmiterlimit ld
/CT/concat ld
/f/fill ld
/N/newpath ld
/S/stroke ld
/CC/setcmykcolor ld
/A/ashow ld
/cp/closepath ld
/RC/setrgbcolor ld
/LJ/setlinejoin ld
/GC/setgray ld
/LW/setlinewidth ld
/M/moveto ld
/re {4 2 roll M
1 index 0 rlineto
0 exch rlineto
neg 0 rlineto
cp } bd
/_ctm matrix def
/_tm matrix def
/BT { _ctm currentmatrix pop matrix _tm copy pop 0 0 moveto } bd
/ET { _ctm setmatrix } bd
/iTm { _ctm setmatrix _tm concat } bd
/Tm { _tm astore pop iTm 0 0 moveto } bd
/ux 0.0 def
/uy 0.0 def
/F {
  /Tp exch def
  /Tf exch def
  Tf findfont Tp scalefont setfont
  /cf Tf def  /cs Tp def
} bd
/ULS {currentpoint /uy exch def /ux exch def} bd
/ULE {
  /Tcx currentpoint pop def
  gsave
  newpath
  cf findfont cs scalefont dup
  /FontMatrix get 0 get /Ts exch def /FontInfo get dup
  /UnderlinePosition get Ts mul /To exch def
  /UnderlineThickness get Ts mul /Tt exch def
  ux uy To add moveto  Tcx uy To add lineto
  Tt setlinewidth stroke
  grestore
} bd
/OLE {
  /Tcx currentpoint pop def
  gsave
  newpath
  cf findfont cs scalefont dup
  /FontMatrix get 0 get /Ts exch def /FontInfo get dup
  /UnderlinePosition get Ts mul /To exch def
  /UnderlineThickness get Ts mul /Tt exch def
  ux uy To add cs add moveto Tcx uy To add cs add lineto
  Tt setlinewidth stroke
  grestore
} bd
/SOE {
  /Tcx currentpoint pop def
  gsave
  newpath
  cf findfont cs scalefont dup
  /FontMatrix get 0 get /Ts exch def /FontInfo get dup
  /UnderlinePosition get Ts mul /To exch def
  /UnderlineThickness get Ts mul /Tt exch def
  ux uy To add cs 10 mul 26 idiv add moveto Tcx uy To add cs 10 mul 26 idiv add lineto
  Tt setlinewidth stroke
  grestore
} bd
/QT {
/Y22 exch store
/X22 exch store
/Y21 exch store
/X21 exch store
currentpoint
/Y21 load 2 mul add 3 div exch
/X21 load 2 mul add 3 div exch
/X21 load 2 mul /X22 load add 3 div
/Y21 load 2 mul /Y22 load add 3 div
/X22 load /Y22 load curveto
} bd
/SSPD {
dup length /d exch dict def
{
/v exch def
/k exch def
currentpagedevice k known {
/cpdv currentpagedevice k get def
v cpdv ne {
/upd false def
/nullv v type /nulltype eq def
/nullcpdv cpdv type /nulltype eq def
nullv nullcpdv or
{
/upd true def
} {
/sametype v type cpdv type eq def
sametype {
v type /arraytype eq {
/vlen v length def
/cpdvlen cpdv length def
vlen cpdvlen eq {
0 1 vlen 1 sub {
/i exch def
/obj v i get def
/cpdobj cpdv i get def
obj cpdobj ne {
/upd true def
exit
} if
} for
} {
/upd true def
} ifelse
} {
v type /dicttype eq {
v {
/dv exch def
/dk exch def
/cpddv cpdv dk get def
dv cpddv ne {
/upd true def
exit
} if
} forall
} {
/upd true def
} ifelse
} ifelse
} if
} ifelse
upd true eq {
d k v put
} if
} if
} if
} forall
d length 0 gt {
d setpagedevice
} if
} bd
/RE { % /NewFontName [NewEncodingArray] /FontName RE -
  findfont dup length dict begin
  {
    1 index /FID ne
    {def} {pop pop} ifelse
  } forall
  /Encoding exch def
  /FontName 1 index def
  currentdict definefont pop
  end
} bind def
%%EndResource
%%BeginResource: procset (Apache XML Graphics EPS ProcSet) 1.0 0
%%Version: 1.0 0
%%Copyright: (Copyright 2002-2003 The Apache Software Foundation. License terms: http://www.apache.org/licenses/LICENSE-2.0)
/BeginEPSF { %def
/b4_Inc_state save def         % Save state for cleanup
/dict_count countdictstack def % Count objects on dict stack
/op_count count 1 sub def      % Count objects on operand stack
userdict begin                 % Push userdict on dict stack
/showpage { } def              % Redefine showpage, { } = null proc
0 setgray 0 setlinecap         % Prepare graphics state
1 setlinewidth 0 setlinejoin
10 setmiterlimit [ ] 0 setdash newpath
/languagelevel where           % If level not equal to 1 then
{pop languagelevel             % set strokeadjust and
1 ne                           % overprint to their defaults.
{false setstrokeadjust false setoverprint
} if
} if
} bd
/EndEPSF { %def
count op_count sub {pop} repeat            % Clean up stacks
countdictstack dict_count sub {end} repeat
b4_Inc_state restore
} bd
%%EndResource
%FOPBeginFontDict
%%IncludeResource: font Courier-Oblique
%%IncludeResource: font Courier-BoldOblique
%%IncludeResource: font Courier-Bold
%%IncludeResource: font ZapfDingbats
%%IncludeResource: font Symbol
%%IncludeResource: font Helvetica
%%IncludeResource: font Helvetica-Oblique
%%IncludeResource: font Helvetica-Bold
%%IncludeResource: font Helvetica-BoldOblique
%%IncludeResource: font Times-Roman
%%IncludeResource: font Times-Italic
%%IncludeResource: font Times-Bold
%%IncludeResource: font Times-BoldItalic
%%IncludeResource: font Courier
%FOPEndFontDict
%%BeginResource: encoding WinAnsiEncoding
/WinAnsiEncoding [
/.notdef /.notdef /.notdef /.notdef /.notdef
/.notdef /.notdef /.notdef /.notdef /.notdef
/.notdef /.notdef /.notdef /.notdef /.notdef
/.notdef /.notdef /.notdef /.notdef /.notdef
/.notdef /.notdef /.notdef /.notdef /.notdef
/.notdef /.notdef /.notdef /.notdef /.notdef
/.notdef /.notdef /space /exclam /quotedbl
/numbersign /dollar /percent /ampersand /quotesingle
/parenleft /parenright /asterisk /plus /comma
/hyphen /period /slash /zero /one
/two /three /four /five /six
/seven /eight /nine /colon /semicolon
/less /equal /greater /question /at
/A /B /C /D /E
/F /G /H /I /J
/K /L /M /N /O
/P /Q /R /S /T
/U /V /W /X /Y
/Z /bracketleft /backslash /bracketright /asciicircum
/underscore /quoteleft /a /b /c
/d /e /f /g /h
/i /j /k /l /m
/n /o /p /q /r
/s /t /u /v /w
/x /y /z /braceleft /bar
/braceright /asciitilde /bullet /Euro /bullet
/quotesinglbase /florin /quotedblbase /ellipsis /dagger
/daggerdbl /circumflex /perthousand /Scaron /guilsinglleft
/OE /bullet /Zcaron /bullet /bullet
/quoteleft /quoteright /quotedblleft /quotedblright /bullet
/endash /emdash /asciitilde /trademark /scaron
/guilsinglright /oe /bullet /zcaron /Ydieresis
/space /exclamdown /cent /sterling /currency
/yen /brokenbar /section /dieresis /copyright
/ordfeminine /guillemotleft /logicalnot /sfthyphen /registered
/macron /degree /plusminus /twosuperior /threesuperior
/acute /mu /paragraph /middot /cedilla
/onesuperior /ordmasculine /guillemotright /onequarter /onehalf
/threequarters /questiondown /Agrave /Aacute /Acircumflex
/Atilde /Adieresis /Aring /AE /Ccedilla
/Egrave /Eacute /Ecircumflex /Edieresis /Igrave
/Iacute /Icircumflex /Idieresis /Eth /Ntilde
/Ograve /Oacute /Ocircumflex /Otilde /Odieresis
/multiply /Oslash /Ugrave /Uacute /Ucircumflex
/Udieresis /Yacute /Thorn /germandbls /agrave
/aacute /acircumflex /atilde /adieresis /aring
/ae /ccedilla /egrave /eacute /ecircumflex
/edieresis /igrave /iacute /icircumflex /idieresis
/eth /ntilde /ograve /oacute /ocircumflex
/otilde /odieresis /divide /oslash /ugrave
/uacute /ucircumflex /udieresis /yacute /thorn
/ydieresis
] def
%%EndResource
%FOPBeginFontReencode
/Courier-Oblique findfont
dup length dict begin
  {1 index /FID ne {def} {pop pop} ifelse} forall
  /Encoding WinAnsiEncoding def
  currentdict
end
/Courier-Oblique exch definefont pop
/Courier-BoldOblique findfont
dup length dict begin
  {1 index /FID ne {def} {pop pop} ifelse} forall
  /Encoding WinAnsiEncoding def
  currentdict
end
/Courier-BoldOblique exch definefont pop
/Courier-Bold findfont
dup length dict begin
  {1 index /FID ne {def} {pop pop} ifelse} forall
  /Encoding WinAnsiEncoding def
  currentdict
end
/Courier-Bold exch definefont pop
/Helvetica findfont
dup length dict begin
  {1 index /FID ne {def} {pop pop} ifelse} forall
  /Encoding WinAnsiEncoding def
  currentdict
end
/Helvetica exch definefont pop
/Helvetica-Oblique findfont
dup length dict begin
  {1 index /FID ne {def} {pop pop} ifelse} forall
  /Encoding WinAnsiEncoding def
  currentdict
end
/Helvetica-Oblique exch definefont pop
/Helvetica-Bold findfont
dup length dict begin
  {1 index /FID ne {def} {pop pop} ifelse} forall
  /Encoding WinAnsiEncoding def
  currentdict
end
/Helvetica-Bold exch definefont pop
/Helvetica-BoldOblique findfont
dup length dict begin
  {1 index /FID ne {def} {pop pop} ifelse} forall
  /Encoding WinAnsiEncoding def
  currentdict
end
/Helvetica-BoldOblique exch definefont pop
/Times-Roman findfont
dup length dict begin
  {1 index /FID ne {def} {pop pop} ifelse} forall
  /Encoding WinAnsiEncoding def
  currentdict
end
/Times-Roman exch definefont pop
/Times-Italic findfont
dup length dict begin
  {1 index /FID ne {def} {pop pop} ifelse} forall
  /Encoding WinAnsiEncoding def
  currentdict
end
/Times-Italic exch definefont pop
/Times-Bold findfont
dup length dict begin
  {1 index /FID ne {def} {pop pop} ifelse} forall
  /Encoding WinAnsiEncoding def
  currentdict
end
/Times-Bold exch definefont pop
/Times-BoldItalic findfont
dup length dict begin
  {1 index /FID ne {def} {pop pop} ifelse} forall
  /Encoding WinAnsiEncoding def
  currentdict
end
/Times-BoldItalic exch definefont pop
/Courier findfont
dup length dict begin
  {1 index /FID ne {def} {pop pop} ifelse} forall
  /Encoding WinAnsiEncoding def
  currentdict
end
/Courier exch definefont pop
%FOPEndFontReencode
%%EndProlog
%%Page: 1 1
%%PageBoundingBox: 0 0 600 375
%%BeginPageSetup
[1 0 0 -1 0 375] CT
%%EndPageSetup
GS
[0.75 0 0 0.75 0 0] CT
1 GC
N
0 0 800 500 re
f
GR
GS
[0.75 0 0 0.75 0 0] CT
1 GC
N
0 0 800 500 re
f
GR
GS
[0.75 0 0 0.75 0 0] CT
0.941 GC
N
650 445 M
659 445 L
659 37 L
650 37 L
cp
f
GR
GS
[0.75 0 0 0.75 0 0] CT
0.149 GC
2 setlinecap
1 LJ
0.667 LW
N
650 445 M
659 445 L
S
GR
GS
[0.75 0 0 0.75 0 0] CT
0.929 0.694 0.125 RC
2 setlinecap
1 LJ
0.667 LW
N
659 445 M
659 37 L
S
GR
GS
[0.75 0 0 0.75 0 0] CT
0.929 0.694 0.125 RC
2 setlinecap
1 LJ
0.667 LW
N
659 445 M
654.92 445 L
S
GR
GS
[0.75 0 0 0.75 0 0] CT
0.929 0.694 0.125 RC
2 setlinecap
1 LJ
0.667 LW
N
659 377 M
654.92 377 L
S
GR
GS
[0.75 0 0 0.75 0 0] CT
0.929 0.694 0.125 RC
2 setlinecap
1 LJ
0.667 LW
N
659 309 M
654.92 309 L
S
GR
GS
[0.75 0 0 0.75 0 0] CT
0.929 0.694 0.125 RC
2 setlinecap
1 LJ
0.667 LW
N
659 241 M
654.92 241 L
S
GR
GS
[0.75 0 0 0.75 0 0] CT
0.929 0.694 0.125 RC
2 setlinecap
1 LJ
0.667 LW
N
659 173 M
654.92 173 L
S
GR
GS
[0.75 0 0 0.75 0 0] CT
0.929 0.694 0.125 RC
2 setlinecap
1 LJ
0.667 LW
N
659 105 M
654.92 105 L
S
GR
GS
[0.75 0 0 0.75 0 0] CT
0.929 0.694 0.125 RC
2 setlinecap
1 LJ
0.667 LW
N
659 37 M
654.92 37 L
S
GR
GS
[0.75 0 0 0.75 499.05002 333.75] CT
0.929 0.694 0.125 RC
/Helvetica 18.667 F
GS
[1 0 0 1 0 0] CT
0 7 moveto 
1 -1 scale
(-5) t 
GR
GR
GS
[0.75 0 0 0.75 499.05002 282.75] CT
0.929 0.694 0.125 RC
/Helvetica 18.667 F
GS
[1 0 0 1 0 0] CT
0 7 moveto 
1 -1 scale
(0) t 
GR
GR
GS
[0.75 0 0 0.75 499.05002 231.75] CT
0.929 0.694 0.125 RC
/Helvetica 18.667 F
GS
[1 0 0 1 0 0] CT
0 7 moveto 
1 -1 scale
(5) t 
GR
GR
GS
[0.75 0 0 0.75 499.05002 180.75] CT
0.929 0.694 0.125 RC
/Helvetica 18.667 F
GS
[1 0 0 1 0 0] CT
0 7 moveto 
1 -1 scale
(10) t 
GR
GR
GS
[0.75 0 0 0.75 499.05002 129.75] CT
0.929 0.694 0.125 RC
/Helvetica 18.667 F
GS
[1 0 0 1 0 0] CT
0 7 moveto 
1 -1 scale
(15) t 
GR
GR
GS
[0.75 0 0 0.75 499.05002 78.75] CT
0.929 0.694 0.125 RC
/Helvetica 18.667 F
GS
[1 0 0 1 0 0] CT
0 7 moveto 
1 -1 scale
(20) t 
GR
GR
GS
[0.75 0 0 0.75 499.05002 27.75] CT
0.929 0.694 0.125 RC
/Helvetica 18.667 F
GS
[1 0 0 1 0 0] CT
0 7 moveto 
1 -1 scale
(25) t 
GR
GR
GS
[0 -0.75 0.75 0 533.25 199.5] CT
0.929 0.694 0.125 RC
/Helvetica 20.533 F
GS
[1 0 0 1 0 0] CT
0 0 moveto 
1 -1 scale
(I) t 
GR
GR
GS
[0 -0.75 0.75 0 540.75 195] CT
0.929 0.694 0.125 RC
/Helvetica 16.427 F
GS
[1 0 0 1 0 0] CT
0 0 moveto 
1 -1 scale
(D) t 
GR
GR
GS
[0 -0.75 0.75 0 533.25 186] CT
0.929 0.694 0.125 RC
/Helvetica 20.533 F
GS
[1 0 0 1 0 0] CT
0 0 moveto 
1 -1 scale
( / A) t 
GR
GR
GS
[0.75 0 0 0.75 0 0] CT
0.941 GC
N
104 445 M
113 445 L
113 37 L
104 37 L
cp
f
GR
GS
[0.75 0 0 0.75 0 0] CT
0.149 GC
2 setlinecap
1 LJ
0.667 LW
N
104 445 M
113 445 L
S
GR
GS
[0.75 0 0 0.75 0 0] CT
0.494 0.184 0.557 RC
2 setlinecap
1 LJ
0.667 LW
N
104 445 M
104 37 L
S
GR
GS
[0.75 0 0 0.75 0 0] CT
0.494 0.184 0.557 RC
2 setlinecap
1 LJ
0.667 LW
N
104 445 M
108.08 445 L
S
GR
GS
[0.75 0 0 0.75 0 0] CT
0.494 0.184 0.557 RC
2 setlinecap
1 LJ
0.667 LW
N
104 386.714 M
108.08 386.714 L
S
GR
GS
[0.75 0 0 0.75 0 0] CT
0.494 0.184 0.557 RC
2 setlinecap
1 LJ
0.667 LW
N
104 328.429 M
108.08 328.429 L
S
GR
GS
[0.75 0 0 0.75 0 0] CT
0.494 0.184 0.557 RC
2 setlinecap
1 LJ
0.667 LW
N
104 270.143 M
108.08 270.143 L
S
GR
GS
[0.75 0 0 0.75 0 0] CT
0.494 0.184 0.557 RC
2 setlinecap
1 LJ
0.667 LW
N
104 211.857 M
108.08 211.857 L
S
GR
GS
[0.75 0 0 0.75 0 0] CT
0.494 0.184 0.557 RC
2 setlinecap
1 LJ
0.667 LW
N
104 153.571 M
108.08 153.571 L
S
GR
GS
[0.75 0 0 0.75 0 0] CT
0.494 0.184 0.557 RC
2 setlinecap
1 LJ
0.667 LW
N
104 95.286 M
108.08 95.286 L
S
GR
GS
[0.75 0 0 0.75 0 0] CT
0.494 0.184 0.557 RC
2 setlinecap
1 LJ
0.667 LW
N
104 37 M
108.08 37 L
S
GR
GS
[0.75 0 0 0.75 73.2 333.75] CT
0.494 0.184 0.557 RC
/Helvetica 18.667 F
GS
[1 0 0 1 0 0] CT
-38 7 moveto 
1 -1 scale
(-200) t 
GR
GR
GS
[0.75 0 0 0.75 73.2 290.03572] CT
0.494 0.184 0.557 RC
/Helvetica 18.667 F
GS
[1 0 0 1 0 0] CT
-11 7 moveto 
1 -1 scale
(0) t 
GR
GR
GS
[0.75 0 0 0.75 73.2 246.32142] CT
0.494 0.184 0.557 RC
/Helvetica 18.667 F
GS
[1 0 0 1 0 0] CT
-32 7 moveto 
1 -1 scale
(200) t 
GR
GR
GS
[0.75 0 0 0.75 73.2 202.60714] CT
0.494 0.184 0.557 RC
/Helvetica 18.667 F
GS
[1 0 0 1 0 0] CT
-32 7 moveto 
1 -1 scale
(400) t 
GR
GR
GS
[0.75 0 0 0.75 73.2 158.89286] CT
0.494 0.184 0.557 RC
/Helvetica 18.667 F
GS
[1 0 0 1 0 0] CT
-32 7 moveto 
1 -1 scale
(600) t 
GR
GR
GS
[0.75 0 0 0.75 73.2 115.17857] CT
0.494 0.184 0.557 RC
/Helvetica 18.667 F
GS
[1 0 0 1 0 0] CT
-32 7 moveto 
1 -1 scale
(800) t 
GR
GR
GS
[0.75 0 0 0.75 73.2 71.46428] CT
0.494 0.184 0.557 RC
/Helvetica 18.667 F
GS
[1 0 0 1 0 0] CT
-42 7 moveto 
1 -1 scale
(1000) t 
GR
GR
GS
[0.75 0 0 0.75 73.2 27.75] CT
0.494 0.184 0.557 RC
/Helvetica 18.667 F
GS
[1 0 0 1 0 0] CT
-42 7 moveto 
1 -1 scale
(1200) t 
GR
GR
GS
[0 -0.75 0.75 0 28.5 207.75] CT
0.494 0.184 0.557 RC
/Helvetica 20.533 F
GS
[1 0 0 1 0 0] CT
0 0 moveto 
1 -1 scale
(P) t 
GR
GR
GS
[0 -0.75 0.75 0 36 197.25] CT
0.494 0.184 0.557 RC
/Helvetica 16.427 F
GS
[1 0 0 1 0 0] CT
0 0 moveto 
1 -1 scale
(s) t 
GR
GR
GS
[0 -0.75 0.75 0 36 190.5] CT
0.494 0.184 0.557 RC
/Helvetica 16.427 F
GS
[1 0 0 1 0 0] CT
0 0 moveto 
1 -1 scale
(w) t 
GR
GR
GS
[0 -0.75 0.75 0 28.5 181.5] CT
0.494 0.184 0.557 RC
/Helvetica 20.533 F
GS
[1 0 0 1 0 0] CT
0 0 moveto 
1 -1 scale
( / W) t 
GR
GR
GS
[0.75 0 0 0.75 0 0] CT
0.941 GC
N
724 445 M
732 445 L
732 37 L
724 37 L
cp
f
GR
GS
[0.75 0 0 0.75 0 0] CT
0.149 GC
2 setlinecap
1 LJ
0.667 LW
N
724 445 M
732 445 L
S
GR
GS
[0.75 0 0 0.75 0 0] CT
0.467 0.675 0.188 RC
2 setlinecap
1 LJ
0.667 LW
N
732 445 M
732 37 L
S
GR
GS
[0.75 0 0 0.75 0 0] CT
0.467 0.675 0.188 RC
2 setlinecap
1 LJ
0.667 LW
N
732 445 M
727.92 445 L
S
GR
GS
[0.75 0 0 0.75 0 0] CT
0.467 0.675 0.188 RC
2 setlinecap
1 LJ
0.667 LW
N
732 363.4 M
727.92 363.4 L
S
GR
GS
[0.75 0 0 0.75 0 0] CT
0.467 0.675 0.188 RC
2 setlinecap
1 LJ
0.667 LW
N
732 281.8 M
727.92 281.8 L
S
GR
GS
[0.75 0 0 0.75 0 0] CT
0.467 0.675 0.188 RC
2 setlinecap
1 LJ
0.667 LW
N
732 200.2 M
727.92 200.2 L
S
GR
GS
[0.75 0 0 0.75 0 0] CT
0.467 0.675 0.188 RC
2 setlinecap
1 LJ
0.667 LW
N
732 118.6 M
727.92 118.6 L
S
GR
GS
[0.75 0 0 0.75 0 0] CT
0.467 0.675 0.188 RC
2 setlinecap
1 LJ
0.667 LW
N
732 37 M
727.92 37 L
S
GR
GS
[0.75 0 0 0.75 553.80002 333.75] CT
0.467 0.675 0.188 RC
/Helvetica 18.667 F
GS
[1 0 0 1 0 0] CT
0 7 moveto 
1 -1 scale
(0) t 
GR
GR
GS
[0.75 0 0 0.75 553.80002 272.55] CT
0.467 0.675 0.188 RC
/Helvetica 18.667 F
GS
[1 0 0 1 0 0] CT
0 7 moveto 
1 -1 scale
(0.5) t 
GR
GR
GS
[0.75 0 0 0.75 553.80002 211.34999] CT
0.467 0.675 0.188 RC
/Helvetica 18.667 F
GS
[1 0 0 1 0 0] CT
0 7 moveto 
1 -1 scale
(1) t 
GR
GR
GS
[0.75 0 0 0.75 553.80002 150.15] CT
0.467 0.675 0.188 RC
/Helvetica 18.667 F
GS
[1 0 0 1 0 0] CT
0 7 moveto 
1 -1 scale
(1.5) t 
GR
GR
GS
[0.75 0 0 0.75 553.80002 88.95] CT
0.467 0.675 0.188 RC
/Helvetica 18.667 F
GS
[1 0 0 1 0 0] CT
0 7 moveto 
1 -1 scale
(2) t 
GR
GR
GS
[0.75 0 0 0.75 553.80002 27.75] CT
0.467 0.675 0.188 RC
/Helvetica 18.667 F
GS
[1 0 0 1 0 0] CT
0 7 moveto 
1 -1 scale
(2.5) t 
GR
GR
GS
[0 -0.75 0.75 0 591.75 210] CT
0.467 0.675 0.188 RC
/Helvetica 20.533 F
GS
[1 0 0 1 0 0] CT
0 0 moveto 
1 -1 scale
(E) t 
GR
GR
GS
[0 -0.75 0.75 0 599.25 199.5] CT
0.467 0.675 0.188 RC
/Helvetica 16.427 F
GS
[1 0 0 1 0 0] CT
0 0 moveto 
1 -1 scale
(s) t 
GR
GR
GS
[0 -0.75 0.75 0 599.25 192.75] CT
0.467 0.675 0.188 RC
/Helvetica 16.427 F
GS
[1 0 0 1 0 0] CT
0 0 moveto 
1 -1 scale
(w) t 
GR
GR
GS
[0 -0.75 0.75 0 591.75 183.75] CT
0.467 0.675 0.188 RC
/Helvetica 20.533 F
GS
[1 0 0 1 0 0] CT
0 0 moveto 
1 -1 scale
( / ) t 
GR
GR
GS
[0 -0.75 0.75 0 591.75 170.25] CT
0.467 0.675 0.188 RC
N
0.578 3.953 M
0.578 3.828 0.609 3.781 QT
3.688 -8.609 L
3.781 -8.906 4.023 -9.094 QT
4.266 -9.281 4.578 -9.281 QT
4.844 -9.281 5.023 -9.125 QT
5.203 -8.969 5.203 -8.703 QT
5.203 -8.641 5.203 -8.602 QT
5.203 -8.563 5.188 -8.516 QT
3.953 -3.609 L
3.75 -2.734 3.75 -2.109 QT
3.75 -1.328 4.117 -0.82 QT
4.484 -0.313 5.234 -0.313 QT
6.75 -0.313 7.922 -2.219 QT
7.922 -2.25 7.93 -2.258 QT
7.938 -2.266 7.938 -2.281 QT
9.453 -8.375 L
9.531 -8.656 9.781 -8.852 QT
10.031 -9.047 10.344 -9.047 QT
10.578 -9.047 10.773 -8.883 QT
10.969 -8.719 10.969 -8.453 QT
10.969 -8.344 10.938 -8.297 QT
9.438 -2.25 L
9.281 -1.656 9.281 -1.219 QT
9.281 -0.313 9.891 -0.313 QT
10.547 -0.313 10.883 -1.125 QT
11.219 -1.938 11.469 -3.094 QT
11.5 -3.203 11.641 -3.203 QT
11.891 -3.203 L
11.969 -3.203 12.023 -3.141 QT
12.078 -3.078 12.078 -3 QT
11.703 -1.531 11.273 -0.648 QT
10.844 0.234 9.859 0.234 QT
9.156 0.234 8.617 -0.164 QT
8.078 -0.563 7.922 -1.234 QT
7.391 -0.578 6.688 -0.172 QT
5.984 0.234 5.203 0.234 QT
3.891 0.234 3.141 -0.375 QT
2.078 3.859 L
2.016 4.156 1.773 4.344 QT
1.531 4.531 1.219 4.531 QT
0.969 4.531 0.773 4.375 QT
0.578 4.219 0.578 3.953 QT
cp
f
GR
GS
[0 -0.75 0.75 0 591.75 160.5] CT
0.467 0.675 0.188 RC
/Helvetica 20.533 F
GS
[1 0 0 1 0 0] CT
0 0 moveto 
1 -1 scale
(J) t 
GR
GR
GS
[0.75 0 0 0.75 0 0] CT
1 GC
N
178 445 M
650 445 L
650 37 L
178 37 L
cp
f
GR
GS
[0.75 0 0 0.75 0 0] CT
0.873 GC
1 LJ
0.667 LW
N
178 445 M
178 37 L
S
GR
GS
[0.75 0 0 0.75 0 0] CT
0.873 GC
1 LJ
0.667 LW
N
254.873 445 M
254.873 37 L
S
GR
GS
[0.75 0 0 0.75 0 0] CT
0.873 GC
1 LJ
0.667 LW
N
331.746 445 M
331.746 37 L
S
GR
GS
[0.75 0 0 0.75 0 0] CT
0.873 GC
1 LJ
0.667 LW
N
408.619 445 M
408.619 37 L
S
GR
GS
[0.75 0 0 0.75 0 0] CT
0.873 GC
1 LJ
0.667 LW
N
485.492 445 M
485.492 37 L
S
GR
GS
[0.75 0 0 0.75 0 0] CT
0.873 GC
1 LJ
0.667 LW
N
562.365 445 M
562.365 37 L
S
GR
GS
[0.75 0 0 0.75 0 0] CT
0.873 GC
1 LJ
0.667 LW
N
639.238 445 M
639.238 37 L
S
GR
GS
[0.75 0 0 0.75 0 0] CT
0.873 GC
1 LJ
0.667 LW
N
650 445 M
178 445 L
S
GR
GS
[0.75 0 0 0.75 0 0] CT
0.873 GC
1 LJ
0.667 LW
N
650 377 M
178 377 L
S
GR
GS
[0.75 0 0 0.75 0 0] CT
0.873 GC
1 LJ
0.667 LW
N
650 309 M
178 309 L
S
GR
GS
[0.75 0 0 0.75 0 0] CT
0.873 GC
1 LJ
0.667 LW
N
650 241 M
178 241 L
S
GR
GS
[0.75 0 0 0.75 0 0] CT
0.873 GC
1 LJ
0.667 LW
N
650 173 M
178 173 L
S
GR
GS
[0.75 0 0 0.75 0 0] CT
0.873 GC
1 LJ
0.667 LW
N
650 105 M
178 105 L
S
GR
GS
[0.75 0 0 0.75 0 0] CT
0.873 GC
1 LJ
0.667 LW
N
650 37 M
178 37 L
S
GR
GS
[0.75 0 0 0.75 0 0] CT
0.149 GC
2 setlinecap
1 LJ
0.667 LW
N
178 445 M
650 445 L
S
GR
GS
[0.75 0 0 0.75 0 0] CT
0.149 GC
2 setlinecap
1 LJ
0.667 LW
N
178 445 M
178 440.28 L
S
GR
GS
[0.75 0 0 0.75 0 0] CT
0.149 GC
2 setlinecap
1 LJ
0.667 LW
N
254.873 445 M
254.873 440.28 L
S
GR
GS
[0.75 0 0 0.75 0 0] CT
0.149 GC
2 setlinecap
1 LJ
0.667 LW
N
331.746 445 M
331.746 440.28 L
S
GR
GS
[0.75 0 0 0.75 0 0] CT
0.149 GC
2 setlinecap
1 LJ
0.667 LW
N
408.619 445 M
408.619 440.28 L
S
GR
GS
[0.75 0 0 0.75 0 0] CT
0.149 GC
2 setlinecap
1 LJ
0.667 LW
N
485.492 445 M
485.492 440.28 L
S
GR
GS
[0.75 0 0 0.75 0 0] CT
0.149 GC
2 setlinecap
1 LJ
0.667 LW
N
562.365 445 M
562.365 440.28 L
S
GR
GS
[0.75 0 0 0.75 0 0] CT
0.149 GC
2 setlinecap
1 LJ
0.667 LW
N
639.238 445 M
639.238 440.28 L
S
GR
GS
[0.75 0 0 0.75 133.5 338.55] CT
0.149 GC
/Helvetica 18.667 F
GS
[1 0 0 1 0 0] CT
-5.5 19 moveto 
1 -1 scale
(0) t 
GR
GR
GS
[0.75 0 0 0.75 191.15473 338.55] CT
0.149 GC
/Helvetica 18.667 F
GS
[1 0 0 1 0 0] CT
-10.5 19 moveto 
1 -1 scale
(20) t 
GR
GR
GS
[0.75 0 0 0.75 248.80946 338.55] CT
0.149 GC
/Helvetica 18.667 F
GS
[1 0 0 1 0 0] CT
-10.5 19 moveto 
1 -1 scale
(40) t 
GR
GR
GS
[0.75 0 0 0.75 306.46417 338.55] CT
0.149 GC
/Helvetica 18.667 F
GS
[1 0 0 1 0 0] CT
-10.5 19 moveto 
1 -1 scale
(60) t 
GR
GR
GS
[0.75 0 0 0.75 364.11889 338.55] CT
0.149 GC
/Helvetica 18.667 F
GS
[1 0 0 1 0 0] CT
-10.5 19 moveto 
1 -1 scale
(80) t 
GR
GR
GS
[0.75 0 0 0.75 421.77361 338.55] CT
0.149 GC
/Helvetica 18.667 F
GS
[1 0 0 1 0 0] CT
-16 19 moveto 
1 -1 scale
(100) t 
GR
GR
GS
[0.75 0 0 0.75 479.42834 338.55] CT
0.149 GC
/Helvetica 18.667 F
GS
[1 0 0 1 0 0] CT
-16 19 moveto 
1 -1 scale
(120) t 
GR
GR
GS
[0.75 0 0 0.75 310.50016 357.55] CT
0.149 GC
/Helvetica 20.533 F
GS
[1 0 0 1 0 0] CT
-42.5 21 moveto 
1 -1 scale
(Time / ns) t 
GR
GR
GS
[0.75 0 0 0.75 0 0] CT
0.149 GC
2 setlinecap
1 LJ
0.667 LW
N
178 445 M
178 37 L
S
GR
GS
[0.75 0 0 0.75 0 0] CT
0.149 GC
2 setlinecap
1 LJ
0.667 LW
N
178 445 M
182.72 445 L
S
GR
GS
[0.75 0 0 0.75 0 0] CT
0.149 GC
2 setlinecap
1 LJ
0.667 LW
N
178 377 M
182.72 377 L
S
GR
GS
[0.75 0 0 0.75 0 0] CT
0.149 GC
2 setlinecap
1 LJ
0.667 LW
N
178 309 M
182.72 309 L
S
GR
GS
[0.75 0 0 0.75 0 0] CT
0.149 GC
2 setlinecap
1 LJ
0.667 LW
N
178 241 M
182.72 241 L
S
GR
GS
[0.75 0 0 0.75 0 0] CT
0.149 GC
2 setlinecap
1 LJ
0.667 LW
N
178 173 M
182.72 173 L
S
GR
GS
[0.75 0 0 0.75 0 0] CT
0.149 GC
2 setlinecap
1 LJ
0.667 LW
N
178 105 M
182.72 105 L
S
GR
GS
[0.75 0 0 0.75 0 0] CT
0.149 GC
2 setlinecap
1 LJ
0.667 LW
N
178 37 M
182.72 37 L
S
GR
GS
[0.75 0 0 0.75 128.7 333.75] CT
0.149 GC
/Helvetica 18.667 F
GS
[1 0 0 1 0 0] CT
-11 7 moveto 
1 -1 scale
(0) t 
GR
GR
GS
[0.75 0 0 0.75 128.7 282.75] CT
0.149 GC
/Helvetica 18.667 F
GS
[1 0 0 1 0 0] CT
-21 7 moveto 
1 -1 scale
(10) t 
GR
GR
GS
[0.75 0 0 0.75 128.7 231.75] CT
0.149 GC
/Helvetica 18.667 F
GS
[1 0 0 1 0 0] CT
-21 7 moveto 
1 -1 scale
(20) t 
GR
GR
GS
[0.75 0 0 0.75 128.7 180.75] CT
0.149 GC
/Helvetica 18.667 F
GS
[1 0 0 1 0 0] CT
-21 7 moveto 
1 -1 scale
(30) t 
GR
GR
GS
[0.75 0 0 0.75 128.7 129.75] CT
0.149 GC
/Helvetica 18.667 F
GS
[1 0 0 1 0 0] CT
-21 7 moveto 
1 -1 scale
(40) t 
GR
GR
GS
[0.75 0 0 0.75 128.7 78.75] CT
0.149 GC
/Helvetica 18.667 F
GS
[1 0 0 1 0 0] CT
-21 7 moveto 
1 -1 scale
(50) t 
GR
GR
GS
[0.75 0 0 0.75 128.7 27.75] CT
0.149 GC
/Helvetica 18.667 F
GS
[1 0 0 1 0 0] CT
-21 7 moveto 
1 -1 scale
(60) t 
GR
GR
GS
[0 -0.75 0.75 0 99.75 206.25] CT
0.149 GC
/Helvetica 20.533 F
GS
[1 0 0 1 0 0] CT
0 0 moveto 
1 -1 scale
(V) t 
GR
GR
GS
[0 -0.75 0.75 0 107.25 195.75] CT
0.149 GC
/Helvetica 16.427 F
GS
[1 0 0 1 0 0] CT
0 0 moveto 
1 -1 scale
(D) t 
GR
GR
GS
[0 -0.75 0.75 0 107.25 186.75] CT
0.149 GC
/Helvetica 16.427 F
GS
[1 0 0 1 0 0] CT
0 0 moveto 
1 -1 scale
(S) t 
GR
GR
GS
[0 -0.75 0.75 0 99.75 178.5] CT
0.149 GC
/Helvetica 20.533 F
GS
[1 0 0 1 0 0] CT
0 0 moveto 
1 -1 scale
( / V) t 
GR
GR
GS
[0.75 0 0 0.75 0 0] CT
0.851 0.325 0.098 RC
1 LJ
2 LW
N
177.944 82.7 M
178 82.7 L
179.537 82.61 L
181.075 82.61 L
182.612 82.61 L
184.15 82.701 L
185.687 82.791 L
187.225 82.701 L
188.762 82.7 L
190.3 82.7 L
191.837 82.791 L
193.375 82.792 L
194.912 82.883 L
196.45 82.973 L
197.987 83.155 L
199.524 83.336 L
201.062 83.336 L
202.599 83.336 L
204.137 83.427 L
205.674 83.608 L
207.212 83.517 L
208.749 83.517 L
210.287 83.608 L
211.824 83.699 L
213.362 83.699 L
214.899 83.699 L
216.436 83.699 L
217.974 83.698 L
219.511 83.789 L
221.049 83.699 L
222.586 83.698 L
224.124 83.698 L
225.661 83.97 L
227.199 83.97 L
228.736 83.97 L
230.274 83.97 L
231.811 83.879 L
233.349 84.06 L
234.886 84.061 L
236.423 84.061 L
237.961 83.97 L
239.498 83.879 L
241.036 83.788 L
242.573 83.698 L
244.111 83.697 L
245.648 83.607 L
247.186 83.607 L
248.723 83.607 L
250.261 83.517 L
251.798 83.336 L
253.336 83.426 L
254.873 83.426 L
256.41 83.335 L
257.948 83.336 L
259.485 83.336 L
261.023 83.335 L
262.56 83.335 L
264.098 83.517 L
265.635 83.517 L
267.173 83.517 L
268.71 83.517 L
270.248 83.607 L
271.785 83.517 L
273.322 83.517 L
274.86 83.426 L
276.397 83.517 L
277.935 83.698 L
279.472 83.608 L
281.01 83.698 L
282.547 83.698 L
284.085 83.789 L
285.622 83.789 L
287.16 83.699 L
288.697 83.698 L
290.235 83.608 L
291.772 83.517 L
293.309 83.608 L
294.847 83.608 L
296.384 83.608 L
297.922 83.79 L
299.459 83.79 L
300.997 83.79 L
302.534 83.79 L
304.072 83.79 L
305.609 83.881 L
307.147 83.972 L
308.684 83.972 L
310.221 83.972 L
311.759 83.881 L
313.296 83.972 L
314.834 83.972 L
316.371 83.881 L
317.909 83.79 L
319.446 83.79 L
320.984 83.881 L
322.521 83.699 L
324.059 83.608 L
325.596 83.518 L
327.134 83.427 L
328.671 83.337 L
330.208 83.428 L
331.746 83.519 L
333.283 83.609 L
334.821 83.609 L
336.358 83.519 L
337.896 83.518 L
339.433 83.427 L
340.971 83.427 L
342.508 83.427 L
344.046 83.245 L
345.583 83.245 L
347.121 83.245 L
348.658 83.245 L
350.195 83.335 L
351.733 83.516 L
353.27 83.698 L
354.808 84.242 L
356.345 84.605 L
357.883 85.239 L
359.42 85.692 L
360.958 86.418 L
362.495 87.324 L
364.033 88.231 L
365.57 89.41 L
367.107 90.951 L
368.645 92.856 L
370.182 95.122 L
371.72 97.933 L
373.257 100.834 L
374.795 104.37 L
376.332 107.906 L
377.87 111.895 L
379.407 116.066 L
380.945 120.508 L
382.482 125.314 L
384.02 130.3 L
385.557 135.559 L
387.094 140.999 L
388.632 146.893 L
390.169 152.877 L
391.707 159.043 L
393.244 165.571 L
394.782 172.371 L
396.319 179.443 L
397.857 186.606 L
399.394 193.95 L
400.932 201.475 L
402.469 209.182 L
404.007 216.98 L
405.544 225.049 L
407.081 233.119 L
408.619 241.097 L
410.156 249.257 L
411.694 257.508 L
413.231 265.396 L
414.769 273.194 L
416.306 280.537 L
417.844 287.7 L
419.381 294.772 L
420.919 301.209 L
422.456 307.647 L
423.993 313.993 L
425.531 320.068 L
427.068 326.052 L
428.606 331.854 L
430.143 337.385 L
431.681 342.824 L
433.218 348.264 L
434.756 353.251 L
436.293 358.419 L
437.831 363.315 L
439.368 367.938 L
440.906 372.381 L
442.443 376.643 L
443.98 380.541 L
445.518 384.349 L
447.055 387.794 L
448.593 391.24 L
450.13 394.413 L
451.668 397.405 L
453.205 400.307 L
454.743 403.117 L
456.28 405.747 L
457.818 408.013 L
459.355 410.37 L
460.893 412.546 L
462.43 414.813 L
463.967 416.808 L
465.505 418.803 L
467.042 420.797 L
468.58 422.52 L
470.117 424.061 L
471.655 425.784 L
473.192 427.326 L
474.73 428.686 L
476.267 430.137 L
477.805 431.406 L
479.342 432.494 L
480.879 433.673 L
482.417 434.58 L
483.954 435.486 L
485.492 436.211 L
487.029 437.027 L
488.567 437.662 L
490.104 438.297 L
491.642 438.75 L
493.179 439.203 L
494.717 439.565 L
496.254 440.018 L
497.792 440.381 L
499.329 440.653 L
500.866 440.925 L
502.404 441.106 L
503.941 441.287 L
505.479 441.469 L
507.016 441.741 L
508.554 441.832 L
510.091 441.922 L
511.629 442.012 L
513.166 442.103 L
514.704 442.375 L
516.241 442.375 L
517.779 442.284 L
519.316 442.194 L
520.853 442.284 L
522.391 442.194 L
523.928 442.194 L
525.466 442.284 L
527.003 442.194 L
528.541 442.194 L
530.078 442.194 L
531.616 442.376 L
533.153 442.376 L
534.691 442.285 L
536.228 442.285 L
537.765 442.376 L
539.303 442.467 L
540.84 442.466 L
542.378 442.467 L
543.915 442.376 L
545.453 442.376 L
546.99 442.376 L
548.528 442.376 L
550.065 442.558 L
551.603 442.558 L
553.14 442.558 L
554.678 442.648 L
556.215 442.648 L
557.752 442.558 L
559.29 442.648 L
560.827 442.558 L
562.365 442.649 L
563.902 442.74 L
565.44 443.011 L
566.977 443.012 L
568.515 443.102 L
570.052 443.102 L
571.59 443.012 L
573.127 443.012 L
574.664 443.011 L
576.202 443.102 L
577.739 443.193 L
579.277 443.193 L
580.814 443.284 L
582.352 443.102 L
583.889 443.102 L
585.427 443.102 L
586.964 443.102 L
588.502 443.102 L
590.039 443.193 L
591.577 443.193 L
593.114 443.193 L
594.651 443.284 L
596.189 443.102 L
597.726 443.283 L
599.264 443.283 L
600.801 443.102 L
602.339 443.102 L
603.876 443.192 L
605.414 443.192 L
606.951 443.192 L
608.489 443.191 L
610.026 443.191 L
611.564 443.01 L
613.101 443.01 L
614.638 443.1 L
616.176 443.1 L
617.713 443.191 L
619.251 443.281 L
620.788 443.281 L
622.326 443.281 L
623.863 443.19 L
625.401 443.099 L
626.938 443.009 L
628.476 443.19 L
630.013 443.28 L
631.55 443.19 L
633.088 443.19 L
634.625 443.189 L
636.163 443.28 L
637.7 443.28 L
639.238 443.281 L
640.775 443.281 L
642.313 443.462 L
643.85 443.371 L
645.388 443.28 L
646.925 443.281 L
648.463 443.281 L
650 443.281 L
650.056 443.281 L
S
GR
GS
[0.75 0 0 0.75 0 0] CT
0.929 0.694 0.125 RC
1 LJ
2 LW
N
177.944 346.387 M
178 346.393 L
179.537 346.339 L
181.075 346.393 L
182.612 346.339 L
184.15 346.339 L
185.687 346.339 L
187.225 346.393 L
188.762 346.611 L
190.3 346.339 L
191.837 346.502 L
193.375 346.394 L
194.912 346.285 L
196.45 346.231 L
197.987 346.231 L
199.524 346.176 L
201.062 346.285 L
202.599 346.285 L
204.137 346.231 L
205.674 346.285 L
207.212 346.339 L
208.749 346.067 L
210.287 346.34 L
211.824 346.013 L
213.362 346.122 L
214.899 346.067 L
216.436 346.176 L
217.974 346.067 L
219.511 346.23 L
221.049 346.285 L
222.586 346.23 L
224.124 346.665 L
225.661 346.448 L
227.199 346.611 L
228.736 346.557 L
230.274 346.72 L
231.811 346.72 L
233.349 346.611 L
234.886 346.72 L
236.423 346.828 L
237.961 346.883 L
239.498 346.774 L
241.036 346.774 L
242.573 346.774 L
244.111 346.719 L
245.648 346.882 L
247.186 346.937 L
248.723 346.828 L
250.261 346.883 L
251.798 346.937 L
253.336 346.882 L
254.873 346.773 L
256.41 346.882 L
257.948 346.828 L
259.485 346.828 L
261.023 346.773 L
262.56 346.828 L
264.098 346.719 L
265.635 346.882 L
267.173 346.774 L
268.71 346.665 L
270.248 346.719 L
271.785 346.828 L
273.322 346.773 L
274.86 346.664 L
276.397 346.665 L
277.935 346.665 L
279.472 346.447 L
281.01 346.502 L
282.547 346.393 L
284.085 346.447 L
285.622 346.393 L
287.16 346.284 L
288.697 346.338 L
290.235 346.447 L
291.772 346.665 L
293.309 346.611 L
294.847 346.611 L
296.384 346.72 L
297.922 346.611 L
299.459 346.666 L
300.997 346.502 L
302.534 346.72 L
304.072 346.72 L
305.609 346.612 L
307.147 346.666 L
308.684 346.72 L
310.221 346.612 L
311.759 346.775 L
313.296 346.666 L
314.834 346.666 L
316.371 346.612 L
317.909 346.339 L
319.446 346.394 L
320.984 346.502 L
322.521 346.393 L
324.059 346.502 L
325.596 346.448 L
327.134 346.393 L
328.671 346.339 L
330.208 346.339 L
331.746 346.394 L
333.283 346.502 L
334.821 346.557 L
336.358 346.557 L
337.896 346.611 L
339.433 346.666 L
340.971 346.666 L
342.508 346.611 L
344.046 346.611 L
345.583 346.72 L
347.121 346.883 L
348.658 346.937 L
350.195 346.828 L
351.733 346.828 L
353.27 346.556 L
354.808 346.176 L
356.345 345.795 L
357.883 345.251 L
359.42 344.707 L
360.958 344.108 L
362.495 343.564 L
364.033 342.585 L
365.57 341.715 L
367.107 340.79 L
368.645 339.865 L
370.182 339.103 L
371.72 338.07 L
373.257 337.145 L
374.795 336.275 L
376.332 335.296 L
377.87 334.316 L
379.407 333.555 L
380.945 332.467 L
382.482 331.488 L
384.02 330.563 L
385.557 329.529 L
387.094 328.496 L
388.632 327.516 L
390.169 326.483 L
391.707 325.558 L
393.244 324.688 L
394.782 323.872 L
396.319 323.273 L
397.857 322.729 L
399.394 322.186 L
400.932 321.805 L
402.469 321.641 L
404.007 321.369 L
405.544 321.37 L
407.081 321.152 L
408.619 321.424 L
410.156 321.478 L
411.694 321.641 L
413.231 321.696 L
414.769 321.805 L
416.306 322.131 L
417.844 322.24 L
419.381 322.458 L
420.919 322.675 L
422.456 323.002 L
423.993 323.219 L
425.531 323.492 L
427.068 323.763 L
428.606 324.035 L
430.143 324.035 L
431.681 324.144 L
433.218 324.144 L
434.756 324.252 L
436.293 323.98 L
437.831 323.708 L
439.368 323.599 L
440.906 323.545 L
442.443 323.327 L
443.98 323.164 L
445.518 322.892 L
447.055 322.403 L
448.593 322.131 L
450.13 321.913 L
451.668 321.641 L
453.205 321.315 L
454.743 320.88 L
456.28 320.39 L
457.818 319.955 L
459.355 319.738 L
460.893 319.248 L
462.43 318.813 L
463.967 318.487 L
465.505 318.106 L
467.042 317.779 L
468.58 317.399 L
470.117 317.235 L
471.655 316.855 L
473.192 316.637 L
474.73 316.366 L
476.267 316.039 L
477.805 315.549 L
479.342 315.332 L
480.879 315.277 L
482.417 314.788 L
483.954 314.352 L
485.492 313.917 L
487.029 313.645 L
488.567 313.046 L
490.104 312.72 L
491.642 312.285 L
493.179 311.686 L
494.717 311.197 L
496.254 310.544 L
497.792 310.109 L
499.329 309.347 L
500.866 308.803 L
502.404 308.15 L
503.941 307.497 L
505.479 306.899 L
507.016 306.137 L
508.554 305.43 L
510.091 304.614 L
511.629 304.07 L
513.166 303.309 L
514.704 302.547 L
516.241 301.894 L
517.779 301.187 L
519.316 300.752 L
520.853 300.099 L
522.391 299.664 L
523.928 299.011 L
525.466 298.576 L
527.003 298.032 L
528.541 297.434 L
530.078 296.944 L
531.616 296.237 L
533.153 295.911 L
534.691 295.421 L
536.228 294.931 L
537.765 294.659 L
539.303 294.279 L
540.84 293.898 L
542.378 293.408 L
543.915 292.919 L
545.453 292.484 L
546.99 292.048 L
548.528 291.668 L
550.065 291.287 L
551.603 290.961 L
553.14 290.308 L
554.678 289.981 L
556.215 289.6 L
557.752 289.111 L
559.29 288.73 L
560.827 288.186 L
562.365 287.86 L
563.902 287.534 L
565.44 287.316 L
566.977 287.044 L
568.515 286.663 L
570.052 286.718 L
571.59 286.609 L
573.127 286.283 L
574.664 286.065 L
576.202 285.902 L
577.739 285.684 L
579.277 285.521 L
580.814 285.521 L
582.352 285.467 L
583.889 285.412 L
585.427 285.358 L
586.964 285.412 L
588.502 285.304 L
590.039 285.304 L
591.577 285.032 L
593.114 284.977 L
594.651 285.086 L
596.189 284.76 L
597.726 284.596 L
599.264 284.433 L
600.801 284.215 L
602.339 283.943 L
603.876 283.725 L
605.414 283.562 L
606.951 283.181 L
608.489 283.127 L
610.026 282.691 L
611.564 282.582 L
613.101 282.473 L
614.638 282.419 L
616.176 282.201 L
617.713 281.984 L
619.251 281.766 L
620.788 281.44 L
622.326 280.95 L
623.863 280.732 L
625.401 280.352 L
626.938 280.08 L
628.476 279.536 L
630.013 279.209 L
631.55 278.828 L
633.088 278.339 L
634.625 277.849 L
636.163 277.522 L
637.7 277.142 L
639.238 276.598 L
640.775 276.163 L
642.313 275.51 L
643.85 275.074 L
645.388 274.53 L
646.925 274.095 L
648.463 273.714 L
650 273.334 L
650.056 273.314 L
S
GR
GS
[0.75 0 0 0.75 0 0] CT
0.494 0.184 0.557 RC
1 LJ
2 LW
N
177.944 351.764 M
178 351.77 L
179.537 351.7 L
181.075 351.762 L
182.612 351.7 L
184.15 351.708 L
185.687 351.717 L
187.225 351.771 L
188.762 352.019 L
190.3 351.708 L
191.837 351.904 L
193.375 351.78 L
194.912 351.665 L
196.45 351.611 L
197.987 351.629 L
199.524 351.584 L
201.062 351.708 L
202.599 351.709 L
204.137 351.656 L
205.674 351.735 L
207.212 351.788 L
208.749 351.478 L
210.287 351.797 L
211.824 351.434 L
213.362 351.558 L
214.899 351.496 L
216.436 351.62 L
217.974 351.496 L
219.511 351.69 L
221.049 351.743 L
222.586 351.681 L
224.124 352.177 L
225.661 351.955 L
227.199 352.141 L
228.736 352.079 L
230.274 352.265 L
231.811 352.256 L
233.349 352.149 L
234.886 352.273 L
236.423 352.396 L
237.961 352.45 L
239.498 352.318 L
241.036 352.309 L
242.573 352.3 L
244.111 352.238 L
245.648 352.415 L
247.186 352.477 L
248.723 352.353 L
250.261 352.407 L
251.798 352.452 L
253.336 352.398 L
254.873 352.274 L
256.41 352.389 L
257.948 352.327 L
259.485 352.327 L
261.023 352.265 L
262.56 352.327 L
264.098 352.221 L
265.635 352.406 L
267.173 352.283 L
268.71 352.158 L
270.248 352.229 L
271.785 352.344 L
273.322 352.282 L
274.86 352.149 L
276.397 352.158 L
277.935 352.176 L
279.472 351.919 L
281.01 351.99 L
282.547 351.866 L
284.085 351.937 L
285.622 351.875 L
287.16 351.743 L
288.697 351.804 L
290.235 351.92 L
291.772 352.159 L
293.309 352.106 L
294.847 352.106 L
296.384 352.23 L
297.922 352.124 L
299.459 352.186 L
300.997 352 L
302.534 352.248 L
304.072 352.248 L
305.609 352.133 L
307.147 352.203 L
308.684 352.265 L
310.221 352.142 L
311.759 352.319 L
313.296 352.203 L
314.834 352.203 L
316.371 352.133 L
317.909 351.814 L
319.446 351.876 L
320.984 352.008 L
322.521 351.867 L
324.059 351.982 L
325.596 351.912 L
327.134 351.841 L
328.671 351.77 L
330.208 351.779 L
331.746 351.85 L
333.283 351.982 L
334.821 352.045 L
336.358 352.036 L
337.896 352.098 L
339.433 352.151 L
340.971 352.151 L
342.508 352.089 L
344.046 352.072 L
345.583 352.195 L
347.121 352.381 L
348.658 352.443 L
350.195 352.328 L
351.733 352.345 L
353.27 352.052 L
354.808 351.672 L
356.345 351.275 L
357.883 350.72 L
359.42 350.15 L
360.958 349.547 L
362.495 349.028 L
364.033 348.023 L
365.57 347.175 L
367.107 346.315 L
368.645 345.506 L
370.182 344.931 L
371.72 344.136 L
373.257 343.489 L
374.795 342.999 L
376.332 342.413 L
377.87 341.909 L
379.407 341.681 L
380.945 341.177 L
382.482 340.865 L
384.02 340.662 L
385.557 340.424 L
387.094 340.248 L
388.632 340.229 L
390.169 340.21 L
391.707 340.359 L
393.244 340.651 L
394.782 341.071 L
396.319 341.754 L
397.857 342.523 L
399.394 343.349 L
400.932 344.357 L
402.469 345.576 L
404.007 346.741 L
405.544 348.156 L
407.081 349.425 L
408.619 351.004 L
410.156 352.466 L
411.694 354.006 L
413.231 355.413 L
414.769 356.831 L
416.306 358.278 L
417.844 359.57 L
419.381 360.893 L
420.919 362.098 L
422.456 363.342 L
423.993 364.512 L
425.531 365.648 L
427.068 366.759 L
428.606 367.83 L
430.143 368.753 L
431.681 369.696 L
433.218 370.602 L
434.756 371.464 L
436.293 372.248 L
437.831 372.996 L
439.368 373.746 L
440.906 374.482 L
442.443 375.153 L
443.98 375.779 L
445.518 376.373 L
447.055 376.872 L
448.593 377.419 L
450.13 377.933 L
451.668 378.411 L
453.205 378.872 L
454.743 379.307 L
456.28 379.712 L
457.818 380.065 L
459.355 380.465 L
460.893 380.808 L
462.43 381.179 L
463.967 381.516 L
465.505 381.852 L
467.042 382.198 L
468.58 382.492 L
470.117 382.771 L
471.655 383.072 L
473.192 383.352 L
474.73 383.597 L
476.267 383.859 L
477.805 384.082 L
479.342 384.284 L
480.879 384.511 L
482.417 384.671 L
483.954 384.836 L
485.492 384.967 L
487.029 385.122 L
488.567 385.235 L
490.104 385.356 L
491.642 385.44 L
493.179 385.521 L
494.717 385.587 L
496.254 385.671 L
497.792 385.741 L
499.329 385.787 L
500.866 385.839 L
502.404 385.87 L
503.941 385.901 L
505.479 385.934 L
507.016 385.986 L
508.554 386 L
510.091 386.012 L
511.629 386.028 L
513.166 386.042 L
514.704 386.098 L
516.241 386.093 L
517.779 386.065 L
519.316 386.04 L
520.853 386.056 L
522.391 386.03 L
523.928 386.025 L
525.466 386.043 L
527.003 386.016 L
528.541 386.011 L
530.078 386.006 L
531.616 386.046 L
533.153 386.044 L
534.691 386.016 L
536.228 386.012 L
537.765 386.033 L
539.303 386.054 L
540.84 386.051 L
542.378 386.047 L
543.915 386.019 L
545.453 386.016 L
546.99 386.012 L
548.528 386.009 L
550.065 386.055 L
551.603 386.052 L
553.14 386.047 L
554.678 386.069 L
556.215 386.066 L
557.752 386.038 L
559.29 386.06 L
560.827 386.031 L
562.365 386.054 L
563.902 386.077 L
565.44 386.152 L
566.977 386.151 L
568.515 386.174 L
570.052 386.174 L
571.59 386.148 L
573.127 386.146 L
574.664 386.144 L
576.202 386.169 L
577.739 386.194 L
579.277 386.193 L
580.814 386.22 L
582.352 386.167 L
583.889 386.167 L
585.427 386.166 L
586.964 386.167 L
588.502 386.166 L
590.039 386.192 L
591.577 386.191 L
593.114 386.19 L
594.651 386.217 L
596.189 386.163 L
597.726 386.214 L
599.264 386.214 L
600.801 386.159 L
602.339 386.158 L
603.876 386.183 L
605.414 386.182 L
606.951 386.18 L
608.489 386.179 L
610.026 386.177 L
611.564 386.122 L
613.101 386.121 L
614.638 386.148 L
616.176 386.147 L
617.713 386.173 L
619.251 386.198 L
620.788 386.197 L
622.326 386.194 L
623.863 386.165 L
625.401 386.135 L
626.938 386.106 L
628.476 386.158 L
630.013 386.184 L
631.55 386.154 L
633.088 386.151 L
634.625 386.148 L
636.163 386.175 L
637.7 386.173 L
639.238 386.17 L
640.775 386.168 L
642.313 386.222 L
643.85 386.191 L
645.388 386.159 L
646.925 386.157 L
648.463 386.155 L
650 386.153 L
650.056 386.153 L
S
GR
GS
[0.75 0 0 0.75 0 0] CT
0.467 0.675 0.188 RC
[8 8] 0 setdash
2 LJ
2 LW
N
370.182 445 M
371.72 435.552 L
373.257 425.942 L
374.795 416.204 L
376.332 406.346 L
377.87 396.367 L
379.407 386.305 L
380.945 376.161 L
382.482 365.925 L
384.02 355.632 L
385.557 345.29 L
387.094 334.901 L
388.632 324.491 L
390.169 314.076 L
391.707 303.676 L
393.244 293.325 L
394.782 283.053 L
396.319 272.906 L
397.857 262.921 L
399.394 253.114 L
400.932 243.514 L
402.469 234.162 L
404.007 225.078 L
405.544 216.282 L
407.081 207.787 L
408.619 199.611 L
410.156 191.776 L
411.694 184.277 L
413.231 177.108 L
414.769 170.255 L
416.306 163.723 L
417.844 157.498 L
419.381 151.566 L
420.919 145.917 L
422.456 140.543 L
423.993 135.438 L
425.531 130.592 L
427.068 125.998 L
428.606 121.648 L
430.143 117.521 L
431.681 113.603 L
433.218 109.892 L
434.756 106.38 L
436.293 103.051 L
437.831 99.895 L
439.368 96.906 L
440.906 94.084 L
442.443 91.419 L
443.98 88.899 L
445.518 86.516 L
447.055 84.255 L
448.593 82.112 L
450.13 80.087 L
451.668 78.174 L
453.205 76.365 L
454.743 74.658 L
456.28 73.044 L
457.818 71.515 L
S
GR
GS
[0.75 0 0 0.75 0 0] CT
1 GC
N
637 185 M
637 68 L
555 68 L
555 185 L
cp
f
GR
GS
[0.75 0 0 0.75 451.5 65.25] CT
/Helvetica 16.8 F
GS
[1 0 0 1 0 0] CT
0 0 moveto 
1 -1 scale
(V) t 
GR
GR
GS
[0.75 0 0 0.75 460.5 71.25] CT
/Helvetica 13.44 F
GS
[1 0 0 1 0 0] CT
0 0 moveto 
1 -1 scale
(D) t 
GR
GR
GS
[0.75 0 0 0.75 468 71.25] CT
/Helvetica 13.44 F
GS
[1 0 0 1 0 0] CT
0 0 moveto 
1 -1 scale
(S) t 
GR
GR
GS
[0.75 0 0 0.75 0 0] CT
0.851 0.325 0.098 RC
1 LJ
2 LW
N
559 83.932 M
599 83.932 L
S
GR
GS
[0.75 0 0 0.75 451.5 86.25] CT
/Helvetica 16.8 F
GS
[1 0 0 1 0 0] CT
0 0 moveto 
1 -1 scale
(I) t 
GR
GR
GS
[0.75 0 0 0.75 455.25 92.25] CT
/Helvetica 13.44 F
GS
[1 0 0 1 0 0] CT
0 0 moveto 
1 -1 scale
(D) t 
GR
GR
GS
[0.75 0 0 0.75 0 0] CT
0.929 0.694 0.125 RC
1 LJ
2 LW
N
559 112.311 M
599 112.311 L
S
GR
GS
[0.75 0 0 0.75 451.5 108] CT
/Helvetica 16.8 F
GS
[1 0 0 1 0 0] CT
0 0 moveto 
1 -1 scale
(P) t 
GR
GR
GS
[0.75 0 0 0.75 460.5 114] CT
/Helvetica 13.44 F
GS
[1 0 0 1 0 0] CT
0 0 moveto 
1 -1 scale
(s) t 
GR
GR
GS
[0.75 0 0 0.75 465.75 114] CT
/Helvetica 13.44 F
GS
[1 0 0 1 0 0] CT
0 0 moveto 
1 -1 scale
(w) t 
GR
GR
GS
[0.75 0 0 0.75 0 0] CT
0.494 0.184 0.557 RC
1 LJ
2 LW
N
559 140.689 M
599 140.689 L
S
GR
GS
[0.75 0 0 0.75 451.5 129] CT
/Helvetica 16.8 F
GS
[1 0 0 1 0 0] CT
0 0 moveto 
1 -1 scale
(E) t 
GR
GR
GS
[0.75 0 0 0.75 460.5 135] CT
/Helvetica 13.44 F
GS
[1 0 0 1 0 0] CT
0 0 moveto 
1 -1 scale
(s) t 
GR
GR
GS
[0.75 0 0 0.75 465.75 135] CT
/Helvetica 13.44 F
GS
[1 0 0 1 0 0] CT
0 0 moveto 
1 -1 scale
(w) t 
GR
GR
GS
[0.75 0 0 0.75 0 0] CT
0.467 0.675 0.188 RC
[8 8] 0 setdash
2 LJ
2 LW
N
559 169.068 M
599 169.068 L
S
GR
GS
[0.75 0 0 0.75 0 0] CT
0.149 GC
10.0 ML
0.667 LW
N
555 185 M
555 68 L
637 68 L
637 185 L
cp
S
GR
%%Trailer
%%Pages: 1
%%EOF
