%!PS-Adobe-3.0 EPSF-3.0
%%Creator: (MATLAB, The Mathworks, Inc. Version 24.1.0.2603908 \(R2024a\) Update 3. Operating System: Windows 10)
%%Title: (C:/Users/lorde/Documents/MATLAB/Master Lab Course/Exercise 3/E3_Rg30_Eon3.eps)
%%CreationDate: 2024-06-30T10:11:28
%%Pages: (atend)
%%BoundingBox:     0     0   600   375
%%LanguageLevel: 3
%%EndComments
%%BeginProlog
%%BeginResource: procset (Apache XML Graphics Std ProcSet) 1.2 0
%%Version: 1.2 0
%%Copyright: (Copyright 2001-2003,2010 The Apache Software Foundation. License terms: http://www.apache.org/licenses/LICENSE-2.0)
/bd{bind def}bind def
/ld{load def}bd
/GR/grestore ld
/GS/gsave ld
/RM/rmoveto ld
/C/curveto ld
/t/show ld
/L/lineto ld
/ML/setmiterlimit ld
/CT/concat ld
/f/fill ld
/N/newpath ld
/S/stroke ld
/CC/setcmykcolor ld
/A/ashow ld
/cp/closepath ld
/RC/setrgbcolor ld
/LJ/setlinejoin ld
/GC/setgray ld
/LW/setlinewidth ld
/M/moveto ld
/re {4 2 roll M
1 index 0 rlineto
0 exch rlineto
neg 0 rlineto
cp } bd
/_ctm matrix def
/_tm matrix def
/BT { _ctm currentmatrix pop matrix _tm copy pop 0 0 moveto } bd
/ET { _ctm setmatrix } bd
/iTm { _ctm setmatrix _tm concat } bd
/Tm { _tm astore pop iTm 0 0 moveto } bd
/ux 0.0 def
/uy 0.0 def
/F {
  /Tp exch def
  /Tf exch def
  Tf findfont Tp scalefont setfont
  /cf Tf def  /cs Tp def
} bd
/ULS {currentpoint /uy exch def /ux exch def} bd
/ULE {
  /Tcx currentpoint pop def
  gsave
  newpath
  cf findfont cs scalefont dup
  /FontMatrix get 0 get /Ts exch def /FontInfo get dup
  /UnderlinePosition get Ts mul /To exch def
  /UnderlineThickness get Ts mul /Tt exch def
  ux uy To add moveto  Tcx uy To add lineto
  Tt setlinewidth stroke
  grestore
} bd
/OLE {
  /Tcx currentpoint pop def
  gsave
  newpath
  cf findfont cs scalefont dup
  /FontMatrix get 0 get /Ts exch def /FontInfo get dup
  /UnderlinePosition get Ts mul /To exch def
  /UnderlineThickness get Ts mul /Tt exch def
  ux uy To add cs add moveto Tcx uy To add cs add lineto
  Tt setlinewidth stroke
  grestore
} bd
/SOE {
  /Tcx currentpoint pop def
  gsave
  newpath
  cf findfont cs scalefont dup
  /FontMatrix get 0 get /Ts exch def /FontInfo get dup
  /UnderlinePosition get Ts mul /To exch def
  /UnderlineThickness get Ts mul /Tt exch def
  ux uy To add cs 10 mul 26 idiv add moveto Tcx uy To add cs 10 mul 26 idiv add lineto
  Tt setlinewidth stroke
  grestore
} bd
/QT {
/Y22 exch store
/X22 exch store
/Y21 exch store
/X21 exch store
currentpoint
/Y21 load 2 mul add 3 div exch
/X21 load 2 mul add 3 div exch
/X21 load 2 mul /X22 load add 3 div
/Y21 load 2 mul /Y22 load add 3 div
/X22 load /Y22 load curveto
} bd
/SSPD {
dup length /d exch dict def
{
/v exch def
/k exch def
currentpagedevice k known {
/cpdv currentpagedevice k get def
v cpdv ne {
/upd false def
/nullv v type /nulltype eq def
/nullcpdv cpdv type /nulltype eq def
nullv nullcpdv or
{
/upd true def
} {
/sametype v type cpdv type eq def
sametype {
v type /arraytype eq {
/vlen v length def
/cpdvlen cpdv length def
vlen cpdvlen eq {
0 1 vlen 1 sub {
/i exch def
/obj v i get def
/cpdobj cpdv i get def
obj cpdobj ne {
/upd true def
exit
} if
} for
} {
/upd true def
} ifelse
} {
v type /dicttype eq {
v {
/dv exch def
/dk exch def
/cpddv cpdv dk get def
dv cpddv ne {
/upd true def
exit
} if
} forall
} {
/upd true def
} ifelse
} ifelse
} if
} ifelse
upd true eq {
d k v put
} if
} if
} if
} forall
d length 0 gt {
d setpagedevice
} if
} bd
/RE { % /NewFontName [NewEncodingArray] /FontName RE -
  findfont dup length dict begin
  {
    1 index /FID ne
    {def} {pop pop} ifelse
  } forall
  /Encoding exch def
  /FontName 1 index def
  currentdict definefont pop
  end
} bind def
%%EndResource
%%BeginResource: procset (Apache XML Graphics EPS ProcSet) 1.0 0
%%Version: 1.0 0
%%Copyright: (Copyright 2002-2003 The Apache Software Foundation. License terms: http://www.apache.org/licenses/LICENSE-2.0)
/BeginEPSF { %def
/b4_Inc_state save def         % Save state for cleanup
/dict_count countdictstack def % Count objects on dict stack
/op_count count 1 sub def      % Count objects on operand stack
userdict begin                 % Push userdict on dict stack
/showpage { } def              % Redefine showpage, { } = null proc
0 setgray 0 setlinecap         % Prepare graphics state
1 setlinewidth 0 setlinejoin
10 setmiterlimit [ ] 0 setdash newpath
/languagelevel where           % If level not equal to 1 then
{pop languagelevel             % set strokeadjust and
1 ne                           % overprint to their defaults.
{false setstrokeadjust false setoverprint
} if
} if
} bd
/EndEPSF { %def
count op_count sub {pop} repeat            % Clean up stacks
countdictstack dict_count sub {end} repeat
b4_Inc_state restore
} bd
%%EndResource
%FOPBeginFontDict
%%IncludeResource: font Courier-Oblique
%%IncludeResource: font Courier-BoldOblique
%%IncludeResource: font Courier-Bold
%%IncludeResource: font ZapfDingbats
%%IncludeResource: font Symbol
%%IncludeResource: font Helvetica
%%IncludeResource: font Helvetica-Oblique
%%IncludeResource: font Helvetica-Bold
%%IncludeResource: font Helvetica-BoldOblique
%%IncludeResource: font Times-Roman
%%IncludeResource: font Times-Italic
%%IncludeResource: font Times-Bold
%%IncludeResource: font Times-BoldItalic
%%IncludeResource: font Courier
%FOPEndFontDict
%%BeginResource: encoding WinAnsiEncoding
/WinAnsiEncoding [
/.notdef /.notdef /.notdef /.notdef /.notdef
/.notdef /.notdef /.notdef /.notdef /.notdef
/.notdef /.notdef /.notdef /.notdef /.notdef
/.notdef /.notdef /.notdef /.notdef /.notdef
/.notdef /.notdef /.notdef /.notdef /.notdef
/.notdef /.notdef /.notdef /.notdef /.notdef
/.notdef /.notdef /space /exclam /quotedbl
/numbersign /dollar /percent /ampersand /quotesingle
/parenleft /parenright /asterisk /plus /comma
/hyphen /period /slash /zero /one
/two /three /four /five /six
/seven /eight /nine /colon /semicolon
/less /equal /greater /question /at
/A /B /C /D /E
/F /G /H /I /J
/K /L /M /N /O
/P /Q /R /S /T
/U /V /W /X /Y
/Z /bracketleft /backslash /bracketright /asciicircum
/underscore /quoteleft /a /b /c
/d /e /f /g /h
/i /j /k /l /m
/n /o /p /q /r
/s /t /u /v /w
/x /y /z /braceleft /bar
/braceright /asciitilde /bullet /Euro /bullet
/quotesinglbase /florin /quotedblbase /ellipsis /dagger
/daggerdbl /circumflex /perthousand /Scaron /guilsinglleft
/OE /bullet /Zcaron /bullet /bullet
/quoteleft /quoteright /quotedblleft /quotedblright /bullet
/endash /emdash /asciitilde /trademark /scaron
/guilsinglright /oe /bullet /zcaron /Ydieresis
/space /exclamdown /cent /sterling /currency
/yen /brokenbar /section /dieresis /copyright
/ordfeminine /guillemotleft /logicalnot /sfthyphen /registered
/macron /degree /plusminus /twosuperior /threesuperior
/acute /mu /paragraph /middot /cedilla
/onesuperior /ordmasculine /guillemotright /onequarter /onehalf
/threequarters /questiondown /Agrave /Aacute /Acircumflex
/Atilde /Adieresis /Aring /AE /Ccedilla
/Egrave /Eacute /Ecircumflex /Edieresis /Igrave
/Iacute /Icircumflex /Idieresis /Eth /Ntilde
/Ograve /Oacute /Ocircumflex /Otilde /Odieresis
/multiply /Oslash /Ugrave /Uacute /Ucircumflex
/Udieresis /Yacute /Thorn /germandbls /agrave
/aacute /acircumflex /atilde /adieresis /aring
/ae /ccedilla /egrave /eacute /ecircumflex
/edieresis /igrave /iacute /icircumflex /idieresis
/eth /ntilde /ograve /oacute /ocircumflex
/otilde /odieresis /divide /oslash /ugrave
/uacute /ucircumflex /udieresis /yacute /thorn
/ydieresis
] def
%%EndResource
%FOPBeginFontReencode
/Courier-Oblique findfont
dup length dict begin
  {1 index /FID ne {def} {pop pop} ifelse} forall
  /Encoding WinAnsiEncoding def
  currentdict
end
/Courier-Oblique exch definefont pop
/Courier-BoldOblique findfont
dup length dict begin
  {1 index /FID ne {def} {pop pop} ifelse} forall
  /Encoding WinAnsiEncoding def
  currentdict
end
/Courier-BoldOblique exch definefont pop
/Courier-Bold findfont
dup length dict begin
  {1 index /FID ne {def} {pop pop} ifelse} forall
  /Encoding WinAnsiEncoding def
  currentdict
end
/Courier-Bold exch definefont pop
/Helvetica findfont
dup length dict begin
  {1 index /FID ne {def} {pop pop} ifelse} forall
  /Encoding WinAnsiEncoding def
  currentdict
end
/Helvetica exch definefont pop
/Helvetica-Oblique findfont
dup length dict begin
  {1 index /FID ne {def} {pop pop} ifelse} forall
  /Encoding WinAnsiEncoding def
  currentdict
end
/Helvetica-Oblique exch definefont pop
/Helvetica-Bold findfont
dup length dict begin
  {1 index /FID ne {def} {pop pop} ifelse} forall
  /Encoding WinAnsiEncoding def
  currentdict
end
/Helvetica-Bold exch definefont pop
/Helvetica-BoldOblique findfont
dup length dict begin
  {1 index /FID ne {def} {pop pop} ifelse} forall
  /Encoding WinAnsiEncoding def
  currentdict
end
/Helvetica-BoldOblique exch definefont pop
/Times-Roman findfont
dup length dict begin
  {1 index /FID ne {def} {pop pop} ifelse} forall
  /Encoding WinAnsiEncoding def
  currentdict
end
/Times-Roman exch definefont pop
/Times-Italic findfont
dup length dict begin
  {1 index /FID ne {def} {pop pop} ifelse} forall
  /Encoding WinAnsiEncoding def
  currentdict
end
/Times-Italic exch definefont pop
/Times-Bold findfont
dup length dict begin
  {1 index /FID ne {def} {pop pop} ifelse} forall
  /Encoding WinAnsiEncoding def
  currentdict
end
/Times-Bold exch definefont pop
/Times-BoldItalic findfont
dup length dict begin
  {1 index /FID ne {def} {pop pop} ifelse} forall
  /Encoding WinAnsiEncoding def
  currentdict
end
/Times-BoldItalic exch definefont pop
/Courier findfont
dup length dict begin
  {1 index /FID ne {def} {pop pop} ifelse} forall
  /Encoding WinAnsiEncoding def
  currentdict
end
/Courier exch definefont pop
%FOPEndFontReencode
%%EndProlog
%%Page: 1 1
%%PageBoundingBox: 0 0 600 375
%%BeginPageSetup
[1 0 0 -1 0 375] CT
%%EndPageSetup
GS
[0.75 0 0 0.75 0 0] CT
1 GC
N
0 0 800 500 re
f
GR
GS
[0.75 0 0 0.75 0 0] CT
1 GC
N
0 0 800 500 re
f
GR
GS
[0.75 0 0 0.75 0 0] CT
0.941 GC
N
650 445 M
659 445 L
659 37 L
650 37 L
cp
f
GR
GS
[0.75 0 0 0.75 0 0] CT
0.149 GC
2 setlinecap
1 LJ
0.667 LW
N
650 445 M
659 445 L
S
GR
GS
[0.75 0 0 0.75 0 0] CT
0.929 0.694 0.125 RC
2 setlinecap
1 LJ
0.667 LW
N
659 445 M
659 37 L
S
GR
GS
[0.75 0 0 0.75 0 0] CT
0.929 0.694 0.125 RC
2 setlinecap
1 LJ
0.667 LW
N
659 445 M
654.92 445 L
S
GR
GS
[0.75 0 0 0.75 0 0] CT
0.929 0.694 0.125 RC
2 setlinecap
1 LJ
0.667 LW
N
659 377 M
654.92 377 L
S
GR
GS
[0.75 0 0 0.75 0 0] CT
0.929 0.694 0.125 RC
2 setlinecap
1 LJ
0.667 LW
N
659 309 M
654.92 309 L
S
GR
GS
[0.75 0 0 0.75 0 0] CT
0.929 0.694 0.125 RC
2 setlinecap
1 LJ
0.667 LW
N
659 241 M
654.92 241 L
S
GR
GS
[0.75 0 0 0.75 0 0] CT
0.929 0.694 0.125 RC
2 setlinecap
1 LJ
0.667 LW
N
659 173 M
654.92 173 L
S
GR
GS
[0.75 0 0 0.75 0 0] CT
0.929 0.694 0.125 RC
2 setlinecap
1 LJ
0.667 LW
N
659 105 M
654.92 105 L
S
GR
GS
[0.75 0 0 0.75 0 0] CT
0.929 0.694 0.125 RC
2 setlinecap
1 LJ
0.667 LW
N
659 37 M
654.92 37 L
S
GR
GS
[0.75 0 0 0.75 499.05002 333.75] CT
0.929 0.694 0.125 RC
/Helvetica 18.667 F
GS
[1 0 0 1 0 0] CT
0 7 moveto 
1 -1 scale
(-5) t 
GR
GR
GS
[0.75 0 0 0.75 499.05002 282.75] CT
0.929 0.694 0.125 RC
/Helvetica 18.667 F
GS
[1 0 0 1 0 0] CT
0 7 moveto 
1 -1 scale
(0) t 
GR
GR
GS
[0.75 0 0 0.75 499.05002 231.75] CT
0.929 0.694 0.125 RC
/Helvetica 18.667 F
GS
[1 0 0 1 0 0] CT
0 7 moveto 
1 -1 scale
(5) t 
GR
GR
GS
[0.75 0 0 0.75 499.05002 180.75] CT
0.929 0.694 0.125 RC
/Helvetica 18.667 F
GS
[1 0 0 1 0 0] CT
0 7 moveto 
1 -1 scale
(10) t 
GR
GR
GS
[0.75 0 0 0.75 499.05002 129.75] CT
0.929 0.694 0.125 RC
/Helvetica 18.667 F
GS
[1 0 0 1 0 0] CT
0 7 moveto 
1 -1 scale
(15) t 
GR
GR
GS
[0.75 0 0 0.75 499.05002 78.75] CT
0.929 0.694 0.125 RC
/Helvetica 18.667 F
GS
[1 0 0 1 0 0] CT
0 7 moveto 
1 -1 scale
(20) t 
GR
GR
GS
[0.75 0 0 0.75 499.05002 27.75] CT
0.929 0.694 0.125 RC
/Helvetica 18.667 F
GS
[1 0 0 1 0 0] CT
0 7 moveto 
1 -1 scale
(25) t 
GR
GR
GS
[0 -0.75 0.75 0 533.25 199.5] CT
0.929 0.694 0.125 RC
/Helvetica 20.533 F
GS
[1 0 0 1 0 0] CT
0 0 moveto 
1 -1 scale
(I) t 
GR
GR
GS
[0 -0.75 0.75 0 540.75 195] CT
0.929 0.694 0.125 RC
/Helvetica 16.427 F
GS
[1 0 0 1 0 0] CT
0 0 moveto 
1 -1 scale
(D) t 
GR
GR
GS
[0 -0.75 0.75 0 533.25 186] CT
0.929 0.694 0.125 RC
/Helvetica 20.533 F
GS
[1 0 0 1 0 0] CT
0 0 moveto 
1 -1 scale
( / A) t 
GR
GR
GS
[0.75 0 0 0.75 0 0] CT
0.941 GC
N
104 445 M
113 445 L
113 37 L
104 37 L
cp
f
GR
GS
[0.75 0 0 0.75 0 0] CT
0.149 GC
2 setlinecap
1 LJ
0.667 LW
N
104 445 M
113 445 L
S
GR
GS
[0.75 0 0 0.75 0 0] CT
0.494 0.184 0.557 RC
2 setlinecap
1 LJ
0.667 LW
N
104 445 M
104 37 L
S
GR
GS
[0.75 0 0 0.75 0 0] CT
0.494 0.184 0.557 RC
2 setlinecap
1 LJ
0.667 LW
N
104 445 M
108.08 445 L
S
GR
GS
[0.75 0 0 0.75 0 0] CT
0.494 0.184 0.557 RC
2 setlinecap
1 LJ
0.667 LW
N
104 386.714 M
108.08 386.714 L
S
GR
GS
[0.75 0 0 0.75 0 0] CT
0.494 0.184 0.557 RC
2 setlinecap
1 LJ
0.667 LW
N
104 328.429 M
108.08 328.429 L
S
GR
GS
[0.75 0 0 0.75 0 0] CT
0.494 0.184 0.557 RC
2 setlinecap
1 LJ
0.667 LW
N
104 270.143 M
108.08 270.143 L
S
GR
GS
[0.75 0 0 0.75 0 0] CT
0.494 0.184 0.557 RC
2 setlinecap
1 LJ
0.667 LW
N
104 211.857 M
108.08 211.857 L
S
GR
GS
[0.75 0 0 0.75 0 0] CT
0.494 0.184 0.557 RC
2 setlinecap
1 LJ
0.667 LW
N
104 153.571 M
108.08 153.571 L
S
GR
GS
[0.75 0 0 0.75 0 0] CT
0.494 0.184 0.557 RC
2 setlinecap
1 LJ
0.667 LW
N
104 95.286 M
108.08 95.286 L
S
GR
GS
[0.75 0 0 0.75 0 0] CT
0.494 0.184 0.557 RC
2 setlinecap
1 LJ
0.667 LW
N
104 37 M
108.08 37 L
S
GR
GS
[0.75 0 0 0.75 73.2 333.75] CT
0.494 0.184 0.557 RC
/Helvetica 18.667 F
GS
[1 0 0 1 0 0] CT
-38 7 moveto 
1 -1 scale
(-200) t 
GR
GR
GS
[0.75 0 0 0.75 73.2 290.03572] CT
0.494 0.184 0.557 RC
/Helvetica 18.667 F
GS
[1 0 0 1 0 0] CT
-11 7 moveto 
1 -1 scale
(0) t 
GR
GR
GS
[0.75 0 0 0.75 73.2 246.32142] CT
0.494 0.184 0.557 RC
/Helvetica 18.667 F
GS
[1 0 0 1 0 0] CT
-32 7 moveto 
1 -1 scale
(200) t 
GR
GR
GS
[0.75 0 0 0.75 73.2 202.60714] CT
0.494 0.184 0.557 RC
/Helvetica 18.667 F
GS
[1 0 0 1 0 0] CT
-32 7 moveto 
1 -1 scale
(400) t 
GR
GR
GS
[0.75 0 0 0.75 73.2 158.89286] CT
0.494 0.184 0.557 RC
/Helvetica 18.667 F
GS
[1 0 0 1 0 0] CT
-32 7 moveto 
1 -1 scale
(600) t 
GR
GR
GS
[0.75 0 0 0.75 73.2 115.17857] CT
0.494 0.184 0.557 RC
/Helvetica 18.667 F
GS
[1 0 0 1 0 0] CT
-32 7 moveto 
1 -1 scale
(800) t 
GR
GR
GS
[0.75 0 0 0.75 73.2 71.46428] CT
0.494 0.184 0.557 RC
/Helvetica 18.667 F
GS
[1 0 0 1 0 0] CT
-42 7 moveto 
1 -1 scale
(1000) t 
GR
GR
GS
[0.75 0 0 0.75 73.2 27.75] CT
0.494 0.184 0.557 RC
/Helvetica 18.667 F
GS
[1 0 0 1 0 0] CT
-42 7 moveto 
1 -1 scale
(1200) t 
GR
GR
GS
[0 -0.75 0.75 0 28.5 207.75] CT
0.494 0.184 0.557 RC
/Helvetica 20.533 F
GS
[1 0 0 1 0 0] CT
0 0 moveto 
1 -1 scale
(P) t 
GR
GR
GS
[0 -0.75 0.75 0 36 197.25] CT
0.494 0.184 0.557 RC
/Helvetica 16.427 F
GS
[1 0 0 1 0 0] CT
0 0 moveto 
1 -1 scale
(s) t 
GR
GR
GS
[0 -0.75 0.75 0 36 190.5] CT
0.494 0.184 0.557 RC
/Helvetica 16.427 F
GS
[1 0 0 1 0 0] CT
0 0 moveto 
1 -1 scale
(w) t 
GR
GR
GS
[0 -0.75 0.75 0 28.5 181.5] CT
0.494 0.184 0.557 RC
/Helvetica 20.533 F
GS
[1 0 0 1 0 0] CT
0 0 moveto 
1 -1 scale
( / W) t 
GR
GR
GS
[0.75 0 0 0.75 0 0] CT
0.941 GC
N
724 445 M
732 445 L
732 37 L
724 37 L
cp
f
GR
GS
[0.75 0 0 0.75 0 0] CT
0.149 GC
2 setlinecap
1 LJ
0.667 LW
N
724 445 M
732 445 L
S
GR
GS
[0.75 0 0 0.75 0 0] CT
0.467 0.675 0.188 RC
2 setlinecap
1 LJ
0.667 LW
N
732 445 M
732 37 L
S
GR
GS
[0.75 0 0 0.75 0 0] CT
0.467 0.675 0.188 RC
2 setlinecap
1 LJ
0.667 LW
N
732 445 M
727.92 445 L
S
GR
GS
[0.75 0 0 0.75 0 0] CT
0.467 0.675 0.188 RC
2 setlinecap
1 LJ
0.667 LW
N
732 363.4 M
727.92 363.4 L
S
GR
GS
[0.75 0 0 0.75 0 0] CT
0.467 0.675 0.188 RC
2 setlinecap
1 LJ
0.667 LW
N
732 281.8 M
727.92 281.8 L
S
GR
GS
[0.75 0 0 0.75 0 0] CT
0.467 0.675 0.188 RC
2 setlinecap
1 LJ
0.667 LW
N
732 200.2 M
727.92 200.2 L
S
GR
GS
[0.75 0 0 0.75 0 0] CT
0.467 0.675 0.188 RC
2 setlinecap
1 LJ
0.667 LW
N
732 118.6 M
727.92 118.6 L
S
GR
GS
[0.75 0 0 0.75 0 0] CT
0.467 0.675 0.188 RC
2 setlinecap
1 LJ
0.667 LW
N
732 37 M
727.92 37 L
S
GR
GS
[0.75 0 0 0.75 553.80002 333.75] CT
0.467 0.675 0.188 RC
/Helvetica 18.667 F
GS
[1 0 0 1 0 0] CT
0 7 moveto 
1 -1 scale
(0) t 
GR
GR
GS
[0.75 0 0 0.75 553.80002 272.55] CT
0.467 0.675 0.188 RC
/Helvetica 18.667 F
GS
[1 0 0 1 0 0] CT
0 7 moveto 
1 -1 scale
(1) t 
GR
GR
GS
[0.75 0 0 0.75 553.80002 211.34999] CT
0.467 0.675 0.188 RC
/Helvetica 18.667 F
GS
[1 0 0 1 0 0] CT
0 7 moveto 
1 -1 scale
(2) t 
GR
GR
GS
[0.75 0 0 0.75 553.80002 150.15] CT
0.467 0.675 0.188 RC
/Helvetica 18.667 F
GS
[1 0 0 1 0 0] CT
0 7 moveto 
1 -1 scale
(3) t 
GR
GR
GS
[0.75 0 0 0.75 553.80002 88.95] CT
0.467 0.675 0.188 RC
/Helvetica 18.667 F
GS
[1 0 0 1 0 0] CT
0 7 moveto 
1 -1 scale
(4) t 
GR
GR
GS
[0.75 0 0 0.75 553.80002 27.75] CT
0.467 0.675 0.188 RC
/Helvetica 18.667 F
GS
[1 0 0 1 0 0] CT
0 7 moveto 
1 -1 scale
(5) t 
GR
GR
GS
[0 -0.75 0.75 0 580.5 210] CT
0.467 0.675 0.188 RC
/Helvetica 20.533 F
GS
[1 0 0 1 0 0] CT
0 0 moveto 
1 -1 scale
(E) t 
GR
GR
GS
[0 -0.75 0.75 0 588 199.5] CT
0.467 0.675 0.188 RC
/Helvetica 16.427 F
GS
[1 0 0 1 0 0] CT
0 0 moveto 
1 -1 scale
(s) t 
GR
GR
GS
[0 -0.75 0.75 0 588 192.75] CT
0.467 0.675 0.188 RC
/Helvetica 16.427 F
GS
[1 0 0 1 0 0] CT
0 0 moveto 
1 -1 scale
(w) t 
GR
GR
GS
[0 -0.75 0.75 0 580.5 183.75] CT
0.467 0.675 0.188 RC
/Helvetica 20.533 F
GS
[1 0 0 1 0 0] CT
0 0 moveto 
1 -1 scale
( / ) t 
GR
GR
GS
[0 -0.75 0.75 0 580.5 170.25] CT
0.467 0.675 0.188 RC
N
0.578 3.953 M
0.578 3.828 0.609 3.781 QT
3.688 -8.609 L
3.781 -8.906 4.023 -9.094 QT
4.266 -9.281 4.578 -9.281 QT
4.844 -9.281 5.023 -9.125 QT
5.203 -8.969 5.203 -8.703 QT
5.203 -8.641 5.203 -8.602 QT
5.203 -8.563 5.188 -8.516 QT
3.953 -3.609 L
3.75 -2.734 3.75 -2.109 QT
3.75 -1.328 4.117 -0.82 QT
4.484 -0.313 5.234 -0.313 QT
6.75 -0.313 7.922 -2.219 QT
7.922 -2.25 7.93 -2.258 QT
7.938 -2.266 7.938 -2.281 QT
9.453 -8.375 L
9.531 -8.656 9.781 -8.852 QT
10.031 -9.047 10.344 -9.047 QT
10.578 -9.047 10.773 -8.883 QT
10.969 -8.719 10.969 -8.453 QT
10.969 -8.344 10.938 -8.297 QT
9.438 -2.25 L
9.281 -1.656 9.281 -1.219 QT
9.281 -0.313 9.891 -0.313 QT
10.547 -0.313 10.883 -1.125 QT
11.219 -1.938 11.469 -3.094 QT
11.5 -3.203 11.641 -3.203 QT
11.891 -3.203 L
11.969 -3.203 12.023 -3.141 QT
12.078 -3.078 12.078 -3 QT
11.703 -1.531 11.273 -0.648 QT
10.844 0.234 9.859 0.234 QT
9.156 0.234 8.617 -0.164 QT
8.078 -0.563 7.922 -1.234 QT
7.391 -0.578 6.688 -0.172 QT
5.984 0.234 5.203 0.234 QT
3.891 0.234 3.141 -0.375 QT
2.078 3.859 L
2.016 4.156 1.773 4.344 QT
1.531 4.531 1.219 4.531 QT
0.969 4.531 0.773 4.375 QT
0.578 4.219 0.578 3.953 QT
cp
f
GR
GS
[0 -0.75 0.75 0 580.5 160.5] CT
0.467 0.675 0.188 RC
/Helvetica 20.533 F
GS
[1 0 0 1 0 0] CT
0 0 moveto 
1 -1 scale
(J) t 
GR
GR
GS
[0.75 0 0 0.75 0 0] CT
1 GC
N
178 445 M
650 445 L
650 37 L
178 37 L
cp
f
GR
GS
[0.75 0 0 0.75 0 0] CT
0.873 GC
1 LJ
0.667 LW
N
178 445 M
178 37 L
S
GR
GS
[0.75 0 0 0.75 0 0] CT
0.873 GC
1 LJ
0.667 LW
N
252.214 445 M
252.214 37 L
S
GR
GS
[0.75 0 0 0.75 0 0] CT
0.873 GC
1 LJ
0.667 LW
N
326.428 445 M
326.428 37 L
S
GR
GS
[0.75 0 0 0.75 0 0] CT
0.873 GC
1 LJ
0.667 LW
N
400.642 445 M
400.642 37 L
S
GR
GS
[0.75 0 0 0.75 0 0] CT
0.873 GC
1 LJ
0.667 LW
N
474.855 445 M
474.855 37 L
S
GR
GS
[0.75 0 0 0.75 0 0] CT
0.873 GC
1 LJ
0.667 LW
N
549.069 445 M
549.069 37 L
S
GR
GS
[0.75 0 0 0.75 0 0] CT
0.873 GC
1 LJ
0.667 LW
N
623.283 445 M
623.283 37 L
S
GR
GS
[0.75 0 0 0.75 0 0] CT
0.873 GC
1 LJ
0.667 LW
N
650 445 M
178 445 L
S
GR
GS
[0.75 0 0 0.75 0 0] CT
0.873 GC
1 LJ
0.667 LW
N
650 377 M
178 377 L
S
GR
GS
[0.75 0 0 0.75 0 0] CT
0.873 GC
1 LJ
0.667 LW
N
650 309 M
178 309 L
S
GR
GS
[0.75 0 0 0.75 0 0] CT
0.873 GC
1 LJ
0.667 LW
N
650 241 M
178 241 L
S
GR
GS
[0.75 0 0 0.75 0 0] CT
0.873 GC
1 LJ
0.667 LW
N
650 173 M
178 173 L
S
GR
GS
[0.75 0 0 0.75 0 0] CT
0.873 GC
1 LJ
0.667 LW
N
650 105 M
178 105 L
S
GR
GS
[0.75 0 0 0.75 0 0] CT
0.873 GC
1 LJ
0.667 LW
N
650 37 M
178 37 L
S
GR
GS
[0.75 0 0 0.75 0 0] CT
0.149 GC
2 setlinecap
1 LJ
0.667 LW
N
178 445 M
650 445 L
S
GR
GS
[0.75 0 0 0.75 0 0] CT
0.149 GC
2 setlinecap
1 LJ
0.667 LW
N
178 445 M
178 440.28 L
S
GR
GS
[0.75 0 0 0.75 0 0] CT
0.149 GC
2 setlinecap
1 LJ
0.667 LW
N
252.214 445 M
252.214 440.28 L
S
GR
GS
[0.75 0 0 0.75 0 0] CT
0.149 GC
2 setlinecap
1 LJ
0.667 LW
N
326.428 445 M
326.428 440.28 L
S
GR
GS
[0.75 0 0 0.75 0 0] CT
0.149 GC
2 setlinecap
1 LJ
0.667 LW
N
400.642 445 M
400.642 440.28 L
S
GR
GS
[0.75 0 0 0.75 0 0] CT
0.149 GC
2 setlinecap
1 LJ
0.667 LW
N
474.855 445 M
474.855 440.28 L
S
GR
GS
[0.75 0 0 0.75 0 0] CT
0.149 GC
2 setlinecap
1 LJ
0.667 LW
N
549.069 445 M
549.069 440.28 L
S
GR
GS
[0.75 0 0 0.75 0 0] CT
0.149 GC
2 setlinecap
1 LJ
0.667 LW
N
623.283 445 M
623.283 440.28 L
S
GR
GS
[0.75 0 0 0.75 133.5 338.55] CT
0.149 GC
/Helvetica 18.667 F
GS
[1 0 0 1 0 0] CT
-5.5 19 moveto 
1 -1 scale
(0) t 
GR
GR
GS
[0.75 0 0 0.75 189.16038 338.55] CT
0.149 GC
/Helvetica 18.667 F
GS
[1 0 0 1 0 0] CT
-10.5 19 moveto 
1 -1 scale
(20) t 
GR
GR
GS
[0.75 0 0 0.75 244.82076 338.55] CT
0.149 GC
/Helvetica 18.667 F
GS
[1 0 0 1 0 0] CT
-10.5 19 moveto 
1 -1 scale
(40) t 
GR
GR
GS
[0.75 0 0 0.75 300.48113 338.55] CT
0.149 GC
/Helvetica 18.667 F
GS
[1 0 0 1 0 0] CT
-10.5 19 moveto 
1 -1 scale
(60) t 
GR
GR
GS
[0.75 0 0 0.75 356.14151 338.55] CT
0.149 GC
/Helvetica 18.667 F
GS
[1 0 0 1 0 0] CT
-10.5 19 moveto 
1 -1 scale
(80) t 
GR
GR
GS
[0.75 0 0 0.75 411.80186 338.55] CT
0.149 GC
/Helvetica 18.667 F
GS
[1 0 0 1 0 0] CT
-16 19 moveto 
1 -1 scale
(100) t 
GR
GR
GS
[0.75 0 0 0.75 467.46227 338.55] CT
0.149 GC
/Helvetica 18.667 F
GS
[1 0 0 1 0 0] CT
-16 19 moveto 
1 -1 scale
(120) t 
GR
GR
GS
[0.75 0 0 0.75 310.50016 357.55] CT
0.149 GC
/Helvetica 20.533 F
GS
[1 0 0 1 0 0] CT
-42.5 21 moveto 
1 -1 scale
(Time / ns) t 
GR
GR
GS
[0.75 0 0 0.75 0 0] CT
0.149 GC
2 setlinecap
1 LJ
0.667 LW
N
178 445 M
178 37 L
S
GR
GS
[0.75 0 0 0.75 0 0] CT
0.149 GC
2 setlinecap
1 LJ
0.667 LW
N
178 445 M
182.72 445 L
S
GR
GS
[0.75 0 0 0.75 0 0] CT
0.149 GC
2 setlinecap
1 LJ
0.667 LW
N
178 377 M
182.72 377 L
S
GR
GS
[0.75 0 0 0.75 0 0] CT
0.149 GC
2 setlinecap
1 LJ
0.667 LW
N
178 309 M
182.72 309 L
S
GR
GS
[0.75 0 0 0.75 0 0] CT
0.149 GC
2 setlinecap
1 LJ
0.667 LW
N
178 241 M
182.72 241 L
S
GR
GS
[0.75 0 0 0.75 0 0] CT
0.149 GC
2 setlinecap
1 LJ
0.667 LW
N
178 173 M
182.72 173 L
S
GR
GS
[0.75 0 0 0.75 0 0] CT
0.149 GC
2 setlinecap
1 LJ
0.667 LW
N
178 105 M
182.72 105 L
S
GR
GS
[0.75 0 0 0.75 0 0] CT
0.149 GC
2 setlinecap
1 LJ
0.667 LW
N
178 37 M
182.72 37 L
S
GR
GS
[0.75 0 0 0.75 128.7 333.75] CT
0.149 GC
/Helvetica 18.667 F
GS
[1 0 0 1 0 0] CT
-11 7 moveto 
1 -1 scale
(0) t 
GR
GR
GS
[0.75 0 0 0.75 128.7 282.75] CT
0.149 GC
/Helvetica 18.667 F
GS
[1 0 0 1 0 0] CT
-21 7 moveto 
1 -1 scale
(10) t 
GR
GR
GS
[0.75 0 0 0.75 128.7 231.75] CT
0.149 GC
/Helvetica 18.667 F
GS
[1 0 0 1 0 0] CT
-21 7 moveto 
1 -1 scale
(20) t 
GR
GR
GS
[0.75 0 0 0.75 128.7 180.75] CT
0.149 GC
/Helvetica 18.667 F
GS
[1 0 0 1 0 0] CT
-21 7 moveto 
1 -1 scale
(30) t 
GR
GR
GS
[0.75 0 0 0.75 128.7 129.75] CT
0.149 GC
/Helvetica 18.667 F
GS
[1 0 0 1 0 0] CT
-21 7 moveto 
1 -1 scale
(40) t 
GR
GR
GS
[0.75 0 0 0.75 128.7 78.75] CT
0.149 GC
/Helvetica 18.667 F
GS
[1 0 0 1 0 0] CT
-21 7 moveto 
1 -1 scale
(50) t 
GR
GR
GS
[0.75 0 0 0.75 128.7 27.75] CT
0.149 GC
/Helvetica 18.667 F
GS
[1 0 0 1 0 0] CT
-21 7 moveto 
1 -1 scale
(60) t 
GR
GR
GS
[0 -0.75 0.75 0 99.75 206.25] CT
0.149 GC
/Helvetica 20.533 F
GS
[1 0 0 1 0 0] CT
0 0 moveto 
1 -1 scale
(V) t 
GR
GR
GS
[0 -0.75 0.75 0 107.25 195.75] CT
0.149 GC
/Helvetica 16.427 F
GS
[1 0 0 1 0 0] CT
0 0 moveto 
1 -1 scale
(D) t 
GR
GR
GS
[0 -0.75 0.75 0 107.25 186.75] CT
0.149 GC
/Helvetica 16.427 F
GS
[1 0 0 1 0 0] CT
0 0 moveto 
1 -1 scale
(S) t 
GR
GR
GS
[0 -0.75 0.75 0 99.75 178.5] CT
0.149 GC
/Helvetica 20.533 F
GS
[1 0 0 1 0 0] CT
0 0 moveto 
1 -1 scale
( / V) t 
GR
GR
GS
[0.75 0 0 0.75 0 0] CT
0.851 0.325 0.098 RC
1 LJ
2 LW
N
177.944 82.154 M
178 82.158 L
179.484 82.158 L
180.969 82.158 L
182.453 82.068 L
183.937 82.067 L
185.421 82.067 L
186.906 82.158 L
188.39 82.248 L
189.874 82.248 L
191.358 82.339 L
192.843 82.43 L
194.327 82.521 L
195.811 82.52 L
197.296 82.611 L
198.78 82.611 L
200.264 82.611 L
201.748 82.52 L
203.233 82.52 L
204.717 82.429 L
206.201 82.429 L
207.686 82.429 L
209.17 82.611 L
210.654 82.52 L
212.138 82.611 L
213.623 82.611 L
215.107 82.701 L
216.591 82.791 L
218.075 82.701 L
219.56 82.61 L
221.044 82.61 L
222.528 82.61 L
224.013 82.61 L
225.497 82.61 L
226.981 82.61 L
228.465 82.61 L
229.95 82.61 L
231.434 82.519 L
232.918 82.429 L
234.403 82.429 L
235.887 82.338 L
237.371 82.247 L
238.855 82.156 L
240.34 82.157 L
241.824 82.156 L
243.308 82.247 L
244.792 82.247 L
246.277 82.338 L
247.761 82.247 L
249.245 82.338 L
250.73 82.066 L
252.214 82.156 L
253.698 81.975 L
255.182 81.975 L
256.667 81.884 L
258.151 81.884 L
259.635 81.703 L
261.12 81.703 L
262.604 81.794 L
264.088 81.703 L
265.572 81.794 L
267.057 81.885 L
268.541 81.884 L
270.025 82.066 L
271.509 82.156 L
272.994 82.157 L
274.478 82.066 L
275.962 82.157 L
277.447 82.247 L
278.931 82.066 L
280.415 81.975 L
281.899 82.066 L
283.384 82.157 L
284.868 82.156 L
286.352 82.066 L
287.836 82.066 L
289.321 82.157 L
290.805 82.157 L
292.289 82.157 L
293.774 82.157 L
295.258 82.248 L
296.742 82.157 L
298.226 82.157 L
299.711 82.157 L
301.195 82.248 L
302.679 82.157 L
304.164 82.248 L
305.648 82.248 L
307.132 82.157 L
308.616 82.158 L
310.101 82.068 L
311.585 81.887 L
313.069 81.887 L
314.553 81.706 L
316.038 81.706 L
317.522 81.615 L
319.006 81.705 L
320.491 81.614 L
321.975 81.524 L
323.459 81.796 L
324.943 81.886 L
326.428 81.796 L
327.912 81.706 L
329.396 81.796 L
330.88 81.796 L
332.365 81.887 L
333.849 81.887 L
335.333 81.886 L
336.818 82.249 L
338.302 82.612 L
339.786 82.975 L
341.27 83.428 L
342.755 84.154 L
344.239 84.698 L
345.723 85.423 L
347.208 86.148 L
348.692 86.964 L
350.176 87.599 L
351.66 88.596 L
353.145 89.593 L
354.629 90.591 L
356.113 91.679 L
357.598 92.857 L
359.082 94.127 L
360.566 95.577 L
362.05 97.209 L
363.535 99.204 L
365.019 101.652 L
366.503 104.463 L
367.987 107.455 L
369.472 110.991 L
370.956 114.889 L
372.44 118.969 L
373.925 123.139 L
375.409 127.673 L
376.893 132.297 L
378.377 137.284 L
379.862 142.451 L
381.346 147.62 L
382.83 152.878 L
384.314 158.409 L
385.799 164.212 L
387.283 169.923 L
388.767 176.088 L
390.252 182.163 L
391.736 188.51 L
393.22 195.038 L
394.704 201.838 L
396.189 208.638 L
397.673 215.619 L
399.157 222.781 L
400.642 229.943 L
402.126 237.468 L
403.61 244.903 L
405.094 252.156 L
406.579 259.5 L
408.063 266.572 L
409.547 273.191 L
411.031 279.81 L
412.516 286.065 L
414 291.959 L
415.484 297.489 L
416.969 303.11 L
418.453 308.55 L
419.937 313.9 L
421.421 319.068 L
422.906 324.055 L
424.39 328.86 L
425.874 333.575 L
427.358 338.018 L
428.843 342.37 L
430.327 346.54 L
431.811 350.62 L
433.296 354.519 L
434.78 358.418 L
436.264 362.135 L
437.748 365.671 L
439.233 369.026 L
440.717 372.109 L
442.201 375.192 L
443.686 378.093 L
445.17 380.813 L
446.654 383.534 L
448.138 386.072 L
449.623 388.43 L
451.107 390.696 L
452.591 392.782 L
454.075 395.048 L
455.56 397.224 L
457.044 399.309 L
458.528 401.214 L
460.013 403.209 L
461.497 404.931 L
462.981 406.745 L
464.465 408.377 L
465.95 410.009 L
467.434 411.64 L
468.918 413.272 L
470.403 414.723 L
471.887 416.354 L
473.371 417.805 L
474.855 419.075 L
476.34 420.344 L
477.824 421.523 L
479.308 422.611 L
480.792 423.608 L
482.277 424.696 L
483.761 425.602 L
485.245 426.599 L
486.73 427.416 L
488.214 428.231 L
489.698 429.047 L
491.182 429.591 L
492.667 430.316 L
494.151 431.132 L
495.635 431.676 L
497.12 432.493 L
498.604 433.127 L
500.088 433.4 L
501.572 433.763 L
503.057 434.306 L
504.541 434.76 L
506.025 435.394 L
507.509 435.757 L
508.994 436.21 L
510.478 436.573 L
511.962 436.754 L
513.447 437.026 L
514.931 437.207 L
516.415 437.389 L
517.899 437.66 L
519.384 437.932 L
520.868 438.205 L
522.352 438.386 L
523.836 438.476 L
525.321 438.658 L
526.805 438.839 L
528.289 439.021 L
529.774 439.111 L
531.258 439.293 L
532.742 439.474 L
534.226 439.474 L
535.711 439.565 L
537.195 439.656 L
538.679 439.657 L
540.164 439.929 L
541.648 440.019 L
543.132 440.019 L
544.616 440.11 L
546.101 440.2 L
547.585 440.2 L
549.069 440.382 L
550.553 440.382 L
552.038 440.382 L
553.522 440.563 L
555.006 440.653 L
556.491 440.744 L
557.975 440.835 L
559.459 440.926 L
560.943 441.017 L
562.428 441.107 L
563.912 441.198 L
565.396 441.198 L
566.88 441.198 L
568.365 441.288 L
569.849 441.198 L
571.333 441.107 L
572.818 441.197 L
574.302 441.288 L
575.786 441.106 L
577.27 441.015 L
578.755 441.106 L
580.239 441.016 L
581.723 440.925 L
583.208 441.106 L
584.692 440.924 L
586.176 440.743 L
587.66 440.834 L
589.145 440.925 L
590.629 440.925 L
592.113 440.925 L
593.597 440.834 L
595.082 440.743 L
596.566 440.652 L
598.05 440.562 L
599.535 440.471 L
601.019 440.562 L
602.503 440.381 L
603.987 440.381 L
605.472 440.29 L
606.956 440.2 L
608.44 440.018 L
609.925 440.018 L
611.409 439.928 L
612.893 439.928 L
614.377 440.109 L
615.862 439.928 L
617.346 439.837 L
618.83 439.838 L
620.314 439.929 L
621.799 440.019 L
623.283 439.838 L
624.767 439.837 L
626.252 439.747 L
627.736 439.657 L
629.22 439.747 L
630.704 439.838 L
632.189 439.656 L
633.673 439.565 L
635.157 439.565 L
636.641 439.656 L
638.126 439.656 L
639.61 439.565 L
641.094 439.837 L
642.579 439.837 L
644.063 439.837 L
645.547 439.746 L
647.031 439.837 L
648.516 439.928 L
650 439.928 L
650.056 439.928 L
S
GR
GS
[0.75 0 0 0.75 0 0] CT
0.929 0.694 0.125 RC
1 LJ
2 LW
N
177.944 328.393 M
178 328.389 L
179.484 328.28 L
180.969 328.28 L
182.453 328.389 L
183.937 328.28 L
185.421 328.172 L
186.906 328.28 L
188.39 328.335 L
189.874 328.28 L
191.358 328.389 L
192.843 328.498 L
194.327 328.389 L
195.811 328.28 L
197.296 328.226 L
198.78 328.226 L
200.264 328.117 L
201.748 327.899 L
203.233 327.953 L
204.717 327.844 L
206.201 327.899 L
207.686 327.953 L
209.17 327.899 L
210.654 328.062 L
212.138 328.062 L
213.623 327.953 L
215.107 328.116 L
216.591 328.061 L
218.075 327.898 L
219.56 327.898 L
221.044 328.007 L
222.528 328.007 L
224.013 328.007 L
225.497 327.898 L
226.981 327.843 L
228.465 327.952 L
229.95 328.006 L
231.434 327.843 L
232.918 327.843 L
234.403 327.897 L
235.887 327.68 L
237.371 327.625 L
238.855 327.625 L
240.34 327.353 L
241.824 327.516 L
243.308 327.516 L
244.792 327.462 L
246.277 327.462 L
247.761 327.516 L
249.245 327.19 L
250.73 327.353 L
252.214 327.244 L
253.698 327.245 L
255.182 327.353 L
256.667 327.408 L
258.151 327.299 L
259.635 327.353 L
261.12 327.408 L
262.604 327.462 L
264.088 327.299 L
265.572 327.244 L
267.057 327.353 L
268.541 327.462 L
270.025 327.19 L
271.509 327.19 L
272.994 327.299 L
274.478 327.408 L
275.962 327.462 L
277.447 327.516 L
278.931 327.571 L
280.415 327.625 L
281.899 327.734 L
283.384 327.625 L
284.868 327.625 L
286.352 327.734 L
287.836 327.68 L
289.321 327.68 L
290.805 327.735 L
292.289 327.843 L
293.774 327.735 L
295.258 327.789 L
296.742 327.898 L
298.226 327.789 L
299.711 327.843 L
301.195 327.789 L
302.679 327.734 L
304.164 327.898 L
305.648 327.952 L
307.132 328.006 L
308.616 328.115 L
310.101 328.006 L
311.585 328.224 L
313.069 328.116 L
314.553 328.115 L
316.038 328.333 L
317.522 328.17 L
319.006 328.17 L
320.491 328.279 L
321.975 328.17 L
323.459 328.224 L
324.943 328.224 L
326.428 328.279 L
327.912 328.224 L
329.396 328.279 L
330.88 328.333 L
332.365 328.388 L
333.849 328.605 L
335.333 328.551 L
336.818 328.388 L
338.302 328.17 L
339.786 327.681 L
341.27 327.191 L
342.755 326.702 L
344.239 326.103 L
345.723 325.559 L
347.208 324.635 L
348.692 323.818 L
350.176 322.731 L
351.66 321.588 L
353.145 320.555 L
354.629 319.467 L
356.113 318.216 L
357.598 316.856 L
359.082 315.659 L
360.566 314.19 L
362.05 312.613 L
363.535 311.144 L
365.019 309.893 L
366.503 308.587 L
367.987 307.445 L
369.472 306.248 L
370.956 305.051 L
372.44 303.854 L
373.925 302.603 L
375.409 301.243 L
376.893 299.666 L
378.377 298.197 L
379.862 296.782 L
381.346 295.313 L
382.83 293.899 L
384.314 292.376 L
385.799 291.016 L
387.283 289.71 L
388.767 288.35 L
390.252 287.208 L
391.736 286.066 L
393.22 284.869 L
394.704 283.998 L
396.189 282.965 L
397.673 282.312 L
399.157 281.441 L
400.642 280.789 L
402.126 280.081 L
403.61 279.591 L
405.094 279.156 L
406.579 278.503 L
408.063 278.013 L
409.547 277.687 L
411.031 277.415 L
412.516 277.088 L
414 276.653 L
415.484 276.217 L
416.969 275.891 L
418.453 275.292 L
419.937 274.748 L
421.421 274.259 L
422.906 273.661 L
424.39 272.845 L
425.874 272.247 L
427.358 271.648 L
428.843 271.05 L
430.327 270.343 L
431.811 269.418 L
433.296 268.548 L
434.78 267.895 L
436.264 267.025 L
437.748 266.045 L
439.233 265.284 L
440.717 264.522 L
442.201 263.706 L
443.686 262.836 L
445.17 262.074 L
446.654 261.204 L
448.138 260.17 L
449.623 259.409 L
451.107 258.266 L
452.591 257.287 L
454.075 256.199 L
455.56 255.328 L
457.044 254.403 L
458.528 253.533 L
460.013 252.499 L
461.497 251.738 L
462.981 250.704 L
464.465 249.888 L
465.95 248.963 L
467.434 248.093 L
468.918 246.95 L
470.403 246.026 L
471.887 244.992 L
473.371 244.067 L
474.855 243.251 L
476.34 242.49 L
477.824 241.456 L
479.308 240.423 L
480.792 239.607 L
482.277 238.518 L
483.761 237.213 L
485.245 236.179 L
486.73 235.037 L
488.214 233.84 L
489.698 232.589 L
491.182 231.555 L
492.667 230.413 L
494.151 229.216 L
495.635 228.019 L
497.12 226.877 L
498.604 225.734 L
500.088 224.483 L
501.572 223.395 L
503.057 222.144 L
504.541 220.947 L
506.025 219.859 L
507.509 218.662 L
508.994 217.574 L
510.478 216.487 L
511.962 215.29 L
513.447 214.311 L
514.931 213.331 L
516.415 212.298 L
517.899 211.427 L
519.384 210.557 L
520.868 209.578 L
522.352 208.816 L
523.836 207.946 L
525.321 206.967 L
526.805 205.988 L
528.289 205.172 L
529.774 204.138 L
531.258 203.159 L
532.742 202.18 L
534.226 201.364 L
535.711 200.439 L
537.195 199.569 L
538.679 198.535 L
540.164 197.502 L
541.648 196.631 L
543.132 195.652 L
544.616 194.618 L
546.101 193.857 L
547.585 192.769 L
549.069 191.844 L
550.553 190.974 L
552.038 190.049 L
553.522 189.124 L
555.006 188.254 L
556.491 187.274 L
557.975 186.513 L
559.459 185.751 L
560.943 184.935 L
562.428 184.337 L
563.912 183.467 L
565.396 182.651 L
566.88 182.27 L
568.365 181.563 L
569.849 180.91 L
571.333 180.093 L
572.818 179.495 L
574.302 178.897 L
575.786 178.135 L
577.27 177.428 L
578.755 176.612 L
580.239 175.959 L
581.723 175.089 L
583.208 174.273 L
584.692 173.511 L
586.176 172.695 L
587.66 171.988 L
589.145 171.117 L
590.629 170.628 L
592.113 169.703 L
593.597 168.887 L
595.082 168.071 L
596.566 167.255 L
598.05 166.384 L
599.535 165.514 L
601.019 164.535 L
602.503 163.447 L
603.987 162.467 L
605.472 161.379 L
606.956 160.455 L
608.44 159.312 L
609.925 158.387 L
611.409 157.408 L
612.893 156.32 L
614.377 155.559 L
615.862 154.471 L
617.346 153.546 L
618.83 152.621 L
620.314 151.588 L
621.799 150.445 L
623.283 149.303 L
624.767 148.323 L
626.252 147.29 L
627.736 146.256 L
629.22 145.277 L
630.704 144.08 L
632.189 143.047 L
633.673 142.394 L
635.157 141.577 L
636.641 141.033 L
638.126 140.544 L
639.61 140.163 L
641.094 139.836 L
642.579 139.782 L
644.063 139.564 L
645.547 139.51 L
647.031 139.673 L
648.516 139.782 L
650 139.945 L
650.056 139.959 L
S
GR
GS
[0.75 0 0 0.75 0 0] CT
0.494 0.184 0.557 RC
1 LJ
2 LW
N
177.944 331.136 M
178 331.132 L
179.484 331.007 L
180.969 331.008 L
182.453 331.118 L
183.937 330.994 L
185.421 330.87 L
186.906 331.008 L
188.39 331.083 L
189.874 331.022 L
191.358 331.16 L
192.843 331.298 L
194.327 331.188 L
195.811 331.063 L
197.296 331.015 L
198.78 331.015 L
200.264 330.89 L
201.748 330.628 L
203.233 330.69 L
204.717 330.551 L
206.201 330.614 L
207.686 330.675 L
209.17 330.641 L
210.654 330.813 L
212.138 330.828 L
213.623 330.703 L
215.107 330.904 L
216.591 330.855 L
218.075 330.655 L
219.56 330.641 L
221.044 330.765 L
222.528 330.765 L
224.013 330.765 L
225.497 330.64 L
226.981 330.578 L
228.465 330.702 L
229.95 330.764 L
231.434 330.564 L
232.918 330.55 L
234.403 330.612 L
235.887 330.349 L
237.371 330.273 L
238.855 330.258 L
240.34 329.947 L
241.824 330.134 L
243.308 330.148 L
244.792 330.086 L
246.277 330.1 L
247.761 330.148 L
249.245 329.789 L
250.73 329.933 L
252.214 329.823 L
253.698 329.795 L
255.182 329.919 L
256.667 329.967 L
258.151 329.843 L
259.635 329.877 L
261.12 329.939 L
262.604 330.016 L
264.088 329.814 L
265.572 329.766 L
267.057 329.905 L
268.541 330.029 L
270.025 329.746 L
271.509 329.76 L
272.994 329.885 L
274.478 329.996 L
275.962 330.072 L
277.447 330.148 L
278.931 330.182 L
280.415 330.23 L
281.899 330.369 L
283.384 330.259 L
284.868 330.258 L
286.352 330.369 L
287.836 330.307 L
289.321 330.321 L
290.805 330.384 L
292.289 330.508 L
293.774 330.384 L
295.258 330.46 L
296.742 330.57 L
298.226 330.446 L
299.711 330.508 L
301.195 330.46 L
302.679 330.383 L
304.164 330.584 L
305.648 330.646 L
307.132 330.694 L
308.616 330.819 L
310.101 330.681 L
311.585 330.902 L
313.069 330.778 L
314.553 330.749 L
316.038 330.999 L
317.522 330.798 L
319.006 330.812 L
320.491 330.922 L
321.975 330.784 L
323.459 330.888 L
324.943 330.902 L
326.428 330.95 L
327.912 330.874 L
329.396 330.95 L
330.88 331.013 L
332.365 331.089 L
333.849 331.338 L
335.333 331.276 L
336.818 331.145 L
338.302 330.952 L
339.786 330.449 L
341.27 329.962 L
342.755 329.519 L
344.239 328.926 L
345.723 328.426 L
347.208 327.498 L
348.692 326.711 L
350.176 325.593 L
351.66 324.48 L
353.145 323.497 L
354.629 322.459 L
356.113 321.263 L
357.598 319.973 L
359.082 318.89 L
360.566 317.553 L
362.05 316.147 L
363.535 314.952 L
365.019 314.106 L
366.503 313.299 L
367.987 312.729 L
369.472 312.244 L
370.956 311.868 L
372.44 311.564 L
373.925 311.256 L
375.409 310.959 L
376.893 310.508 L
378.377 310.299 L
379.862 310.234 L
381.346 310.164 L
382.83 310.215 L
384.314 310.288 L
385.799 310.632 L
387.283 311.048 L
388.767 311.592 L
390.252 312.343 L
391.736 313.215 L
393.22 314.143 L
394.704 315.45 L
396.189 316.673 L
397.673 318.27 L
399.157 319.797 L
400.642 321.512 L
402.126 323.331 L
403.61 325.293 L
405.094 327.255 L
406.579 329.137 L
408.063 331.057 L
409.547 332.945 L
411.031 334.874 L
412.516 336.674 L
414 338.32 L
415.484 339.866 L
416.969 341.505 L
418.453 342.981 L
419.937 344.471 L
421.421 345.942 L
422.906 347.329 L
424.39 348.595 L
425.874 349.932 L
427.358 351.197 L
428.843 352.448 L
430.327 353.621 L
431.811 354.718 L
433.296 355.791 L
434.78 356.946 L
436.264 357.996 L
437.748 358.977 L
439.233 359.968 L
440.717 360.878 L
442.201 361.791 L
443.686 362.644 L
445.17 363.468 L
446.654 364.285 L
448.138 365.019 L
449.623 365.752 L
451.107 366.396 L
452.591 367.015 L
454.075 367.699 L
455.56 368.396 L
457.044 369.062 L
458.528 369.678 L
460.013 370.318 L
461.497 370.898 L
462.981 371.489 L
464.465 372.044 L
465.95 372.596 L
467.434 373.163 L
468.918 373.712 L
470.403 374.218 L
471.887 374.798 L
473.371 375.322 L
474.855 375.788 L
476.34 376.263 L
477.824 376.686 L
479.308 377.078 L
480.792 377.452 L
482.277 377.854 L
483.761 378.169 L
485.245 378.549 L
486.73 378.848 L
488.214 379.149 L
489.698 379.455 L
491.182 379.652 L
492.667 379.931 L
494.151 380.256 L
495.635 380.459 L
497.12 380.797 L
498.604 381.055 L
500.088 381.139 L
501.572 381.275 L
503.057 381.496 L
504.541 381.678 L
506.025 381.958 L
507.509 382.102 L
508.994 382.298 L
510.478 382.452 L
511.962 382.512 L
513.447 382.626 L
514.931 382.695 L
516.415 382.764 L
517.899 382.885 L
519.384 383.007 L
520.868 383.129 L
522.352 383.209 L
523.836 383.239 L
525.321 383.316 L
526.805 383.394 L
528.289 383.477 L
529.774 383.507 L
531.258 383.588 L
532.742 383.67 L
534.226 383.656 L
535.711 383.69 L
537.195 383.726 L
538.679 383.709 L
540.164 383.846 L
541.648 383.883 L
543.132 383.868 L
544.616 383.904 L
546.101 383.944 L
547.585 383.928 L
549.069 384.02 L
550.553 384.007 L
552.038 383.994 L
553.522 384.087 L
555.006 384.129 L
556.491 384.17 L
557.975 384.214 L
559.459 384.259 L
560.943 384.303 L
562.428 384.351 L
563.912 384.396 L
565.396 384.386 L
566.88 384.381 L
568.365 384.428 L
569.849 384.365 L
571.333 384.298 L
572.818 384.348 L
574.302 384.397 L
575.786 384.274 L
577.27 384.208 L
578.755 384.255 L
580.239 384.19 L
581.723 384.121 L
583.208 384.226 L
584.692 384.101 L
586.176 383.973 L
587.66 384.023 L
589.145 384.07 L
590.629 384.064 L
592.113 384.052 L
593.597 383.982 L
595.082 383.911 L
596.566 383.841 L
598.05 383.768 L
599.535 383.696 L
601.019 383.743 L
602.503 383.606 L
603.987 383.591 L
605.472 383.514 L
606.956 383.439 L
608.44 383.297 L
609.925 383.282 L
611.409 383.204 L
612.893 383.187 L
614.377 383.301 L
615.862 383.158 L
617.346 383.079 L
618.83 383.064 L
620.314 383.112 L
621.799 383.158 L
623.283 383.01 L
624.767 382.994 L
626.252 382.912 L
627.736 382.829 L
629.22 382.878 L
630.704 382.925 L
632.189 382.775 L
633.673 382.696 L
635.157 382.682 L
636.641 382.74 L
638.126 382.732 L
639.61 382.658 L
641.094 382.856 L
642.579 382.855 L
644.063 382.851 L
645.547 382.782 L
647.031 382.853 L
648.516 382.922 L
650 382.925 L
650.056 382.925 L
S
GR
GS
[0.75 0 0 0.75 0 0] CT
0.467 0.675 0.188 RC
[8 8] 0 setdash
2 LJ
2 LW
N
363.535 445 M
365.019 436.915 L
366.503 428.738 L
367.987 420.483 L
369.472 412.17 L
370.956 403.808 L
372.44 395.408 L
373.925 386.974 L
375.409 378.506 L
376.893 369.996 L
378.377 361.45 L
379.862 352.888 L
381.346 344.318 L
382.83 335.747 L
384.314 327.183 L
385.799 318.643 L
387.283 310.145 L
388.767 301.701 L
390.252 293.329 L
391.736 285.048 L
393.22 276.868 L
394.704 268.814 L
396.189 260.9 L
397.673 253.145 L
399.157 245.565 L
400.642 238.166 L
402.126 230.966 L
403.61 223.976 L
405.094 217.207 L
406.579 210.653 L
408.063 204.312 L
409.547 198.184 L
411.031 192.27 L
412.516 186.564 L
414 181.052 L
415.484 175.719 L
416.969 170.563 L
418.453 165.583 L
419.937 160.768 L
421.421 156.119 L
422.906 151.63 L
424.39 147.29 L
425.874 143.095 L
427.358 139.047 L
428.843 135.139 L
430.327 131.367 L
431.811 127.722 L
433.296 124.198 L
434.78 120.8 L
436.264 117.524 L
437.748 114.363 L
439.233 111.312 L
440.717 108.367 L
442.201 105.525 L
443.686 102.781 L
445.17 100.131 L
446.654 97.573 L
448.138 95.103 L
449.623 92.714 L
451.107 90.402 L
452.591 88.161 L
454.075 85.993 L
455.56 83.902 L
457.044 81.888 L
458.528 79.945 L
460.013 78.073 L
461.497 76.269 L
462.981 74.531 L
464.465 72.857 L
S
GR
GS
[0.75 0 0 0.75 0 0] CT
1 GC
N
640 317 M
640 200 L
558 200 L
558 317 L
cp
f
GR
GS
[0.75 0 0 0.75 453.75 164.25] CT
/Helvetica 16.8 F
GS
[1 0 0 1 0 0] CT
0 0 moveto 
1 -1 scale
(V) t 
GR
GR
GS
[0.75 0 0 0.75 462.75 170.25] CT
/Helvetica 13.44 F
GS
[1 0 0 1 0 0] CT
0 0 moveto 
1 -1 scale
(D) t 
GR
GR
GS
[0.75 0 0 0.75 470.25 170.25] CT
/Helvetica 13.44 F
GS
[1 0 0 1 0 0] CT
0 0 moveto 
1 -1 scale
(S) t 
GR
GR
GS
[0.75 0 0 0.75 0 0] CT
0.851 0.325 0.098 RC
1 LJ
2 LW
N
562 215.932 M
602 215.932 L
S
GR
GS
[0.75 0 0 0.75 453.75 185.25] CT
/Helvetica 16.8 F
GS
[1 0 0 1 0 0] CT
0 0 moveto 
1 -1 scale
(I) t 
GR
GR
GS
[0.75 0 0 0.75 457.5 191.25] CT
/Helvetica 13.44 F
GS
[1 0 0 1 0 0] CT
0 0 moveto 
1 -1 scale
(D) t 
GR
GR
GS
[0.75 0 0 0.75 0 0] CT
0.929 0.694 0.125 RC
1 LJ
2 LW
N
562 244.311 M
602 244.311 L
S
GR
GS
[0.75 0 0 0.75 453.75 207] CT
/Helvetica 16.8 F
GS
[1 0 0 1 0 0] CT
0 0 moveto 
1 -1 scale
(P) t 
GR
GR
GS
[0.75 0 0 0.75 462.75 213] CT
/Helvetica 13.44 F
GS
[1 0 0 1 0 0] CT
0 0 moveto 
1 -1 scale
(s) t 
GR
GR
GS
[0.75 0 0 0.75 468 213] CT
/Helvetica 13.44 F
GS
[1 0 0 1 0 0] CT
0 0 moveto 
1 -1 scale
(w) t 
GR
GR
GS
[0.75 0 0 0.75 0 0] CT
0.494 0.184 0.557 RC
1 LJ
2 LW
N
562 272.689 M
602 272.689 L
S
GR
GS
[0.75 0 0 0.75 453.75 228] CT
/Helvetica 16.8 F
GS
[1 0 0 1 0 0] CT
0 0 moveto 
1 -1 scale
(E) t 
GR
GR
GS
[0.75 0 0 0.75 462.75 234] CT
/Helvetica 13.44 F
GS
[1 0 0 1 0 0] CT
0 0 moveto 
1 -1 scale
(s) t 
GR
GR
GS
[0.75 0 0 0.75 468 234] CT
/Helvetica 13.44 F
GS
[1 0 0 1 0 0] CT
0 0 moveto 
1 -1 scale
(w) t 
GR
GR
GS
[0.75 0 0 0.75 0 0] CT
0.467 0.675 0.188 RC
[8 8] 0 setdash
2 LJ
2 LW
N
562 301.068 M
602 301.068 L
S
GR
GS
[0.75 0 0 0.75 0 0] CT
0.149 GC
10.0 ML
0.667 LW
N
558 317 M
558 200 L
640 200 L
640 317 L
cp
S
GR
%%Trailer
%%Pages: 1
%%EOF
