%!PS-Adobe-3.0 EPSF-3.0
%%Creator: (MATLAB, The Mathworks, Inc. Version 24.1.0.2603908 \(R2024a\) Update 3. Operating System: Windows 10)
%%Title: (C:/Users/lorde/Documents/MATLAB/Master Lab Course/Exercise 3/E3_Rg10_Eoff1.eps)
%%CreationDate: 2024-06-30T10:04:09
%%Pages: (atend)
%%BoundingBox:     0     0   600   375
%%LanguageLevel: 3
%%EndComments
%%BeginProlog
%%BeginResource: procset (Apache XML Graphics Std ProcSet) 1.2 0
%%Version: 1.2 0
%%Copyright: (Copyright 2001-2003,2010 The Apache Software Foundation. License terms: http://www.apache.org/licenses/LICENSE-2.0)
/bd{bind def}bind def
/ld{load def}bd
/GR/grestore ld
/GS/gsave ld
/RM/rmoveto ld
/C/curveto ld
/t/show ld
/L/lineto ld
/ML/setmiterlimit ld
/CT/concat ld
/f/fill ld
/N/newpath ld
/S/stroke ld
/CC/setcmykcolor ld
/A/ashow ld
/cp/closepath ld
/RC/setrgbcolor ld
/LJ/setlinejoin ld
/GC/setgray ld
/LW/setlinewidth ld
/M/moveto ld
/re {4 2 roll M
1 index 0 rlineto
0 exch rlineto
neg 0 rlineto
cp } bd
/_ctm matrix def
/_tm matrix def
/BT { _ctm currentmatrix pop matrix _tm copy pop 0 0 moveto } bd
/ET { _ctm setmatrix } bd
/iTm { _ctm setmatrix _tm concat } bd
/Tm { _tm astore pop iTm 0 0 moveto } bd
/ux 0.0 def
/uy 0.0 def
/F {
  /Tp exch def
  /Tf exch def
  Tf findfont Tp scalefont setfont
  /cf Tf def  /cs Tp def
} bd
/ULS {currentpoint /uy exch def /ux exch def} bd
/ULE {
  /Tcx currentpoint pop def
  gsave
  newpath
  cf findfont cs scalefont dup
  /FontMatrix get 0 get /Ts exch def /FontInfo get dup
  /UnderlinePosition get Ts mul /To exch def
  /UnderlineThickness get Ts mul /Tt exch def
  ux uy To add moveto  Tcx uy To add lineto
  Tt setlinewidth stroke
  grestore
} bd
/OLE {
  /Tcx currentpoint pop def
  gsave
  newpath
  cf findfont cs scalefont dup
  /FontMatrix get 0 get /Ts exch def /FontInfo get dup
  /UnderlinePosition get Ts mul /To exch def
  /UnderlineThickness get Ts mul /Tt exch def
  ux uy To add cs add moveto Tcx uy To add cs add lineto
  Tt setlinewidth stroke
  grestore
} bd
/SOE {
  /Tcx currentpoint pop def
  gsave
  newpath
  cf findfont cs scalefont dup
  /FontMatrix get 0 get /Ts exch def /FontInfo get dup
  /UnderlinePosition get Ts mul /To exch def
  /UnderlineThickness get Ts mul /Tt exch def
  ux uy To add cs 10 mul 26 idiv add moveto Tcx uy To add cs 10 mul 26 idiv add lineto
  Tt setlinewidth stroke
  grestore
} bd
/QT {
/Y22 exch store
/X22 exch store
/Y21 exch store
/X21 exch store
currentpoint
/Y21 load 2 mul add 3 div exch
/X21 load 2 mul add 3 div exch
/X21 load 2 mul /X22 load add 3 div
/Y21 load 2 mul /Y22 load add 3 div
/X22 load /Y22 load curveto
} bd
/SSPD {
dup length /d exch dict def
{
/v exch def
/k exch def
currentpagedevice k known {
/cpdv currentpagedevice k get def
v cpdv ne {
/upd false def
/nullv v type /nulltype eq def
/nullcpdv cpdv type /nulltype eq def
nullv nullcpdv or
{
/upd true def
} {
/sametype v type cpdv type eq def
sametype {
v type /arraytype eq {
/vlen v length def
/cpdvlen cpdv length def
vlen cpdvlen eq {
0 1 vlen 1 sub {
/i exch def
/obj v i get def
/cpdobj cpdv i get def
obj cpdobj ne {
/upd true def
exit
} if
} for
} {
/upd true def
} ifelse
} {
v type /dicttype eq {
v {
/dv exch def
/dk exch def
/cpddv cpdv dk get def
dv cpddv ne {
/upd true def
exit
} if
} forall
} {
/upd true def
} ifelse
} ifelse
} if
} ifelse
upd true eq {
d k v put
} if
} if
} if
} forall
d length 0 gt {
d setpagedevice
} if
} bd
/RE { % /NewFontName [NewEncodingArray] /FontName RE -
  findfont dup length dict begin
  {
    1 index /FID ne
    {def} {pop pop} ifelse
  } forall
  /Encoding exch def
  /FontName 1 index def
  currentdict definefont pop
  end
} bind def
%%EndResource
%%BeginResource: procset (Apache XML Graphics EPS ProcSet) 1.0 0
%%Version: 1.0 0
%%Copyright: (Copyright 2002-2003 The Apache Software Foundation. License terms: http://www.apache.org/licenses/LICENSE-2.0)
/BeginEPSF { %def
/b4_Inc_state save def         % Save state for cleanup
/dict_count countdictstack def % Count objects on dict stack
/op_count count 1 sub def      % Count objects on operand stack
userdict begin                 % Push userdict on dict stack
/showpage { } def              % Redefine showpage, { } = null proc
0 setgray 0 setlinecap         % Prepare graphics state
1 setlinewidth 0 setlinejoin
10 setmiterlimit [ ] 0 setdash newpath
/languagelevel where           % If level not equal to 1 then
{pop languagelevel             % set strokeadjust and
1 ne                           % overprint to their defaults.
{false setstrokeadjust false setoverprint
} if
} if
} bd
/EndEPSF { %def
count op_count sub {pop} repeat            % Clean up stacks
countdictstack dict_count sub {end} repeat
b4_Inc_state restore
} bd
%%EndResource
%FOPBeginFontDict
%%IncludeResource: font Courier-Oblique
%%IncludeResource: font Courier-BoldOblique
%%IncludeResource: font Courier-Bold
%%IncludeResource: font ZapfDingbats
%%IncludeResource: font Symbol
%%IncludeResource: font Helvetica
%%IncludeResource: font Helvetica-Oblique
%%IncludeResource: font Helvetica-Bold
%%IncludeResource: font Helvetica-BoldOblique
%%IncludeResource: font Times-Roman
%%IncludeResource: font Times-Italic
%%IncludeResource: font Times-Bold
%%IncludeResource: font Times-BoldItalic
%%IncludeResource: font Courier
%FOPEndFontDict
%%BeginResource: encoding WinAnsiEncoding
/WinAnsiEncoding [
/.notdef /.notdef /.notdef /.notdef /.notdef
/.notdef /.notdef /.notdef /.notdef /.notdef
/.notdef /.notdef /.notdef /.notdef /.notdef
/.notdef /.notdef /.notdef /.notdef /.notdef
/.notdef /.notdef /.notdef /.notdef /.notdef
/.notdef /.notdef /.notdef /.notdef /.notdef
/.notdef /.notdef /space /exclam /quotedbl
/numbersign /dollar /percent /ampersand /quotesingle
/parenleft /parenright /asterisk /plus /comma
/hyphen /period /slash /zero /one
/two /three /four /five /six
/seven /eight /nine /colon /semicolon
/less /equal /greater /question /at
/A /B /C /D /E
/F /G /H /I /J
/K /L /M /N /O
/P /Q /R /S /T
/U /V /W /X /Y
/Z /bracketleft /backslash /bracketright /asciicircum
/underscore /quoteleft /a /b /c
/d /e /f /g /h
/i /j /k /l /m
/n /o /p /q /r
/s /t /u /v /w
/x /y /z /braceleft /bar
/braceright /asciitilde /bullet /Euro /bullet
/quotesinglbase /florin /quotedblbase /ellipsis /dagger
/daggerdbl /circumflex /perthousand /Scaron /guilsinglleft
/OE /bullet /Zcaron /bullet /bullet
/quoteleft /quoteright /quotedblleft /quotedblright /bullet
/endash /emdash /asciitilde /trademark /scaron
/guilsinglright /oe /bullet /zcaron /Ydieresis
/space /exclamdown /cent /sterling /currency
/yen /brokenbar /section /dieresis /copyright
/ordfeminine /guillemotleft /logicalnot /sfthyphen /registered
/macron /degree /plusminus /twosuperior /threesuperior
/acute /mu /paragraph /middot /cedilla
/onesuperior /ordmasculine /guillemotright /onequarter /onehalf
/threequarters /questiondown /Agrave /Aacute /Acircumflex
/Atilde /Adieresis /Aring /AE /Ccedilla
/Egrave /Eacute /Ecircumflex /Edieresis /Igrave
/Iacute /Icircumflex /Idieresis /Eth /Ntilde
/Ograve /Oacute /Ocircumflex /Otilde /Odieresis
/multiply /Oslash /Ugrave /Uacute /Ucircumflex
/Udieresis /Yacute /Thorn /germandbls /agrave
/aacute /acircumflex /atilde /adieresis /aring
/ae /ccedilla /egrave /eacute /ecircumflex
/edieresis /igrave /iacute /icircumflex /idieresis
/eth /ntilde /ograve /oacute /ocircumflex
/otilde /odieresis /divide /oslash /ugrave
/uacute /ucircumflex /udieresis /yacute /thorn
/ydieresis
] def
%%EndResource
%FOPBeginFontReencode
/Courier-Oblique findfont
dup length dict begin
  {1 index /FID ne {def} {pop pop} ifelse} forall
  /Encoding WinAnsiEncoding def
  currentdict
end
/Courier-Oblique exch definefont pop
/Courier-BoldOblique findfont
dup length dict begin
  {1 index /FID ne {def} {pop pop} ifelse} forall
  /Encoding WinAnsiEncoding def
  currentdict
end
/Courier-BoldOblique exch definefont pop
/Courier-Bold findfont
dup length dict begin
  {1 index /FID ne {def} {pop pop} ifelse} forall
  /Encoding WinAnsiEncoding def
  currentdict
end
/Courier-Bold exch definefont pop
/Helvetica findfont
dup length dict begin
  {1 index /FID ne {def} {pop pop} ifelse} forall
  /Encoding WinAnsiEncoding def
  currentdict
end
/Helvetica exch definefont pop
/Helvetica-Oblique findfont
dup length dict begin
  {1 index /FID ne {def} {pop pop} ifelse} forall
  /Encoding WinAnsiEncoding def
  currentdict
end
/Helvetica-Oblique exch definefont pop
/Helvetica-Bold findfont
dup length dict begin
  {1 index /FID ne {def} {pop pop} ifelse} forall
  /Encoding WinAnsiEncoding def
  currentdict
end
/Helvetica-Bold exch definefont pop
/Helvetica-BoldOblique findfont
dup length dict begin
  {1 index /FID ne {def} {pop pop} ifelse} forall
  /Encoding WinAnsiEncoding def
  currentdict
end
/Helvetica-BoldOblique exch definefont pop
/Times-Roman findfont
dup length dict begin
  {1 index /FID ne {def} {pop pop} ifelse} forall
  /Encoding WinAnsiEncoding def
  currentdict
end
/Times-Roman exch definefont pop
/Times-Italic findfont
dup length dict begin
  {1 index /FID ne {def} {pop pop} ifelse} forall
  /Encoding WinAnsiEncoding def
  currentdict
end
/Times-Italic exch definefont pop
/Times-Bold findfont
dup length dict begin
  {1 index /FID ne {def} {pop pop} ifelse} forall
  /Encoding WinAnsiEncoding def
  currentdict
end
/Times-Bold exch definefont pop
/Times-BoldItalic findfont
dup length dict begin
  {1 index /FID ne {def} {pop pop} ifelse} forall
  /Encoding WinAnsiEncoding def
  currentdict
end
/Times-BoldItalic exch definefont pop
/Courier findfont
dup length dict begin
  {1 index /FID ne {def} {pop pop} ifelse} forall
  /Encoding WinAnsiEncoding def
  currentdict
end
/Courier exch definefont pop
%FOPEndFontReencode
%%EndProlog
%%Page: 1 1
%%PageBoundingBox: 0 0 600 375
%%BeginPageSetup
[1 0 0 -1 0 375] CT
%%EndPageSetup
GS
[0.75 0 0 0.75 0 0] CT
1 GC
N
0 0 800 500 re
f
GR
GS
[0.75 0 0 0.75 0 0] CT
1 GC
N
0 0 800 500 re
f
GR
GS
[0.75 0 0 0.75 0 0] CT
0.941 GC
N
650 445 M
659 445 L
659 37 L
650 37 L
cp
f
GR
GS
[0.75 0 0 0.75 0 0] CT
0.149 GC
2 setlinecap
1 LJ
0.667 LW
N
650 445 M
659 445 L
S
GR
GS
[0.75 0 0 0.75 0 0] CT
0.929 0.694 0.125 RC
2 setlinecap
1 LJ
0.667 LW
N
659 445 M
659 37 L
S
GR
GS
[0.75 0 0 0.75 0 0] CT
0.929 0.694 0.125 RC
2 setlinecap
1 LJ
0.667 LW
N
659 445 M
654.92 445 L
S
GR
GS
[0.75 0 0 0.75 0 0] CT
0.929 0.694 0.125 RC
2 setlinecap
1 LJ
0.667 LW
N
659 363.4 M
654.92 363.4 L
S
GR
GS
[0.75 0 0 0.75 0 0] CT
0.929 0.694 0.125 RC
2 setlinecap
1 LJ
0.667 LW
N
659 281.8 M
654.92 281.8 L
S
GR
GS
[0.75 0 0 0.75 0 0] CT
0.929 0.694 0.125 RC
2 setlinecap
1 LJ
0.667 LW
N
659 200.2 M
654.92 200.2 L
S
GR
GS
[0.75 0 0 0.75 0 0] CT
0.929 0.694 0.125 RC
2 setlinecap
1 LJ
0.667 LW
N
659 118.6 M
654.92 118.6 L
S
GR
GS
[0.75 0 0 0.75 0 0] CT
0.929 0.694 0.125 RC
2 setlinecap
1 LJ
0.667 LW
N
659 37 M
654.92 37 L
S
GR
GS
[0.75 0 0 0.75 499.05002 333.75] CT
0.929 0.694 0.125 RC
/Helvetica 18.667 F
GS
[1 0 0 1 0 0] CT
0 7 moveto 
1 -1 scale
(-5) t 
GR
GR
GS
[0.75 0 0 0.75 499.05002 272.55] CT
0.929 0.694 0.125 RC
/Helvetica 18.667 F
GS
[1 0 0 1 0 0] CT
0 7 moveto 
1 -1 scale
(0) t 
GR
GR
GS
[0.75 0 0 0.75 499.05002 211.34999] CT
0.929 0.694 0.125 RC
/Helvetica 18.667 F
GS
[1 0 0 1 0 0] CT
0 7 moveto 
1 -1 scale
(5) t 
GR
GR
GS
[0.75 0 0 0.75 499.05002 150.15] CT
0.929 0.694 0.125 RC
/Helvetica 18.667 F
GS
[1 0 0 1 0 0] CT
0 7 moveto 
1 -1 scale
(10) t 
GR
GR
GS
[0.75 0 0 0.75 499.05002 88.95] CT
0.929 0.694 0.125 RC
/Helvetica 18.667 F
GS
[1 0 0 1 0 0] CT
0 7 moveto 
1 -1 scale
(15) t 
GR
GR
GS
[0.75 0 0 0.75 499.05002 27.75] CT
0.929 0.694 0.125 RC
/Helvetica 18.667 F
GS
[1 0 0 1 0 0] CT
0 7 moveto 
1 -1 scale
(20) t 
GR
GR
GS
[0 -0.75 0.75 0 533.25 199.5] CT
0.929 0.694 0.125 RC
/Helvetica 20.533 F
GS
[1 0 0 1 0 0] CT
0 0 moveto 
1 -1 scale
(I) t 
GR
GR
GS
[0 -0.75 0.75 0 540.75 195] CT
0.929 0.694 0.125 RC
/Helvetica 16.427 F
GS
[1 0 0 1 0 0] CT
0 0 moveto 
1 -1 scale
(D) t 
GR
GR
GS
[0 -0.75 0.75 0 533.25 186] CT
0.929 0.694 0.125 RC
/Helvetica 20.533 F
GS
[1 0 0 1 0 0] CT
0 0 moveto 
1 -1 scale
( / A) t 
GR
GR
GS
[0.75 0 0 0.75 0 0] CT
0.941 GC
N
104 445 M
113 445 L
113 37 L
104 37 L
cp
f
GR
GS
[0.75 0 0 0.75 0 0] CT
0.149 GC
2 setlinecap
1 LJ
0.667 LW
N
104 445 M
113 445 L
S
GR
GS
[0.75 0 0 0.75 0 0] CT
0.494 0.184 0.557 RC
2 setlinecap
1 LJ
0.667 LW
N
104 445 M
104 37 L
S
GR
GS
[0.75 0 0 0.75 0 0] CT
0.494 0.184 0.557 RC
2 setlinecap
1 LJ
0.667 LW
N
104 445 M
108.08 445 L
S
GR
GS
[0.75 0 0 0.75 0 0] CT
0.494 0.184 0.557 RC
2 setlinecap
1 LJ
0.667 LW
N
104 386.714 M
108.08 386.714 L
S
GR
GS
[0.75 0 0 0.75 0 0] CT
0.494 0.184 0.557 RC
2 setlinecap
1 LJ
0.667 LW
N
104 328.429 M
108.08 328.429 L
S
GR
GS
[0.75 0 0 0.75 0 0] CT
0.494 0.184 0.557 RC
2 setlinecap
1 LJ
0.667 LW
N
104 270.143 M
108.08 270.143 L
S
GR
GS
[0.75 0 0 0.75 0 0] CT
0.494 0.184 0.557 RC
2 setlinecap
1 LJ
0.667 LW
N
104 211.857 M
108.08 211.857 L
S
GR
GS
[0.75 0 0 0.75 0 0] CT
0.494 0.184 0.557 RC
2 setlinecap
1 LJ
0.667 LW
N
104 153.571 M
108.08 153.571 L
S
GR
GS
[0.75 0 0 0.75 0 0] CT
0.494 0.184 0.557 RC
2 setlinecap
1 LJ
0.667 LW
N
104 95.286 M
108.08 95.286 L
S
GR
GS
[0.75 0 0 0.75 0 0] CT
0.494 0.184 0.557 RC
2 setlinecap
1 LJ
0.667 LW
N
104 37 M
108.08 37 L
S
GR
GS
[0.75 0 0 0.75 73.2 333.75] CT
0.494 0.184 0.557 RC
/Helvetica 18.667 F
GS
[1 0 0 1 0 0] CT
-27 7 moveto 
1 -1 scale
(-50) t 
GR
GR
GS
[0.75 0 0 0.75 73.2 290.03572] CT
0.494 0.184 0.557 RC
/Helvetica 18.667 F
GS
[1 0 0 1 0 0] CT
-11 7 moveto 
1 -1 scale
(0) t 
GR
GR
GS
[0.75 0 0 0.75 73.2 246.32142] CT
0.494 0.184 0.557 RC
/Helvetica 18.667 F
GS
[1 0 0 1 0 0] CT
-21 7 moveto 
1 -1 scale
(50) t 
GR
GR
GS
[0.75 0 0 0.75 73.2 202.60714] CT
0.494 0.184 0.557 RC
/Helvetica 18.667 F
GS
[1 0 0 1 0 0] CT
-32 7 moveto 
1 -1 scale
(100) t 
GR
GR
GS
[0.75 0 0 0.75 73.2 158.89286] CT
0.494 0.184 0.557 RC
/Helvetica 18.667 F
GS
[1 0 0 1 0 0] CT
-32 7 moveto 
1 -1 scale
(150) t 
GR
GR
GS
[0.75 0 0 0.75 73.2 115.17857] CT
0.494 0.184 0.557 RC
/Helvetica 18.667 F
GS
[1 0 0 1 0 0] CT
-32 7 moveto 
1 -1 scale
(200) t 
GR
GR
GS
[0.75 0 0 0.75 73.2 71.46428] CT
0.494 0.184 0.557 RC
/Helvetica 18.667 F
GS
[1 0 0 1 0 0] CT
-32 7 moveto 
1 -1 scale
(250) t 
GR
GR
GS
[0.75 0 0 0.75 73.2 27.75] CT
0.494 0.184 0.557 RC
/Helvetica 18.667 F
GS
[1 0 0 1 0 0] CT
-32 7 moveto 
1 -1 scale
(300) t 
GR
GR
GS
[0 -0.75 0.75 0 36 207.75] CT
0.494 0.184 0.557 RC
/Helvetica 20.533 F
GS
[1 0 0 1 0 0] CT
0 0 moveto 
1 -1 scale
(P) t 
GR
GR
GS
[0 -0.75 0.75 0 43.5 197.25] CT
0.494 0.184 0.557 RC
/Helvetica 16.427 F
GS
[1 0 0 1 0 0] CT
0 0 moveto 
1 -1 scale
(s) t 
GR
GR
GS
[0 -0.75 0.75 0 43.5 190.5] CT
0.494 0.184 0.557 RC
/Helvetica 16.427 F
GS
[1 0 0 1 0 0] CT
0 0 moveto 
1 -1 scale
(w) t 
GR
GR
GS
[0 -0.75 0.75 0 36 181.5] CT
0.494 0.184 0.557 RC
/Helvetica 20.533 F
GS
[1 0 0 1 0 0] CT
0 0 moveto 
1 -1 scale
( / W) t 
GR
GR
GS
[0.75 0 0 0.75 0 0] CT
0.941 GC
N
724 445 M
732 445 L
732 37 L
724 37 L
cp
f
GR
GS
[0.75 0 0 0.75 0 0] CT
0.149 GC
2 setlinecap
1 LJ
0.667 LW
N
724 445 M
732 445 L
S
GR
GS
[0.75 0 0 0.75 0 0] CT
0.467 0.675 0.188 RC
2 setlinecap
1 LJ
0.667 LW
N
732 445 M
732 37 L
S
GR
GS
[0.75 0 0 0.75 0 0] CT
0.467 0.675 0.188 RC
2 setlinecap
1 LJ
0.667 LW
N
732 445 M
727.92 445 L
S
GR
GS
[0.75 0 0 0.75 0 0] CT
0.467 0.675 0.188 RC
2 setlinecap
1 LJ
0.667 LW
N
732 377 M
727.92 377 L
S
GR
GS
[0.75 0 0 0.75 0 0] CT
0.467 0.675 0.188 RC
2 setlinecap
1 LJ
0.667 LW
N
732 309 M
727.92 309 L
S
GR
GS
[0.75 0 0 0.75 0 0] CT
0.467 0.675 0.188 RC
2 setlinecap
1 LJ
0.667 LW
N
732 241 M
727.92 241 L
S
GR
GS
[0.75 0 0 0.75 0 0] CT
0.467 0.675 0.188 RC
2 setlinecap
1 LJ
0.667 LW
N
732 173 M
727.92 173 L
S
GR
GS
[0.75 0 0 0.75 0 0] CT
0.467 0.675 0.188 RC
2 setlinecap
1 LJ
0.667 LW
N
732 105 M
727.92 105 L
S
GR
GS
[0.75 0 0 0.75 0 0] CT
0.467 0.675 0.188 RC
2 setlinecap
1 LJ
0.667 LW
N
732 37 M
727.92 37 L
S
GR
GS
[0.75 0 0 0.75 553.80002 333.75] CT
0.467 0.675 0.188 RC
/Helvetica 18.667 F
GS
[1 0 0 1 0 0] CT
0 7 moveto 
1 -1 scale
(0) t 
GR
GR
GS
[0.75 0 0 0.75 553.80002 282.75] CT
0.467 0.675 0.188 RC
/Helvetica 18.667 F
GS
[1 0 0 1 0 0] CT
0 7 moveto 
1 -1 scale
(2) t 
GR
GR
GS
[0.75 0 0 0.75 553.80002 231.75] CT
0.467 0.675 0.188 RC
/Helvetica 18.667 F
GS
[1 0 0 1 0 0] CT
0 7 moveto 
1 -1 scale
(4) t 
GR
GR
GS
[0.75 0 0 0.75 553.80002 180.75] CT
0.467 0.675 0.188 RC
/Helvetica 18.667 F
GS
[1 0 0 1 0 0] CT
0 7 moveto 
1 -1 scale
(6) t 
GR
GR
GS
[0.75 0 0 0.75 553.80002 129.75] CT
0.467 0.675 0.188 RC
/Helvetica 18.667 F
GS
[1 0 0 1 0 0] CT
0 7 moveto 
1 -1 scale
(8) t 
GR
GR
GS
[0.75 0 0 0.75 553.80002 78.75] CT
0.467 0.675 0.188 RC
/Helvetica 18.667 F
GS
[1 0 0 1 0 0] CT
0 7 moveto 
1 -1 scale
(10) t 
GR
GR
GS
[0.75 0 0 0.75 553.80002 27.75] CT
0.467 0.675 0.188 RC
/Helvetica 18.667 F
GS
[1 0 0 1 0 0] CT
0 7 moveto 
1 -1 scale
(12) t 
GR
GR
GS
[0 -0.75 0.75 0 588 210] CT
0.467 0.675 0.188 RC
/Helvetica 20.533 F
GS
[1 0 0 1 0 0] CT
0 0 moveto 
1 -1 scale
(E) t 
GR
GR
GS
[0 -0.75 0.75 0 595.5 199.5] CT
0.467 0.675 0.188 RC
/Helvetica 16.427 F
GS
[1 0 0 1 0 0] CT
0 0 moveto 
1 -1 scale
(s) t 
GR
GR
GS
[0 -0.75 0.75 0 595.5 192.75] CT
0.467 0.675 0.188 RC
/Helvetica 16.427 F
GS
[1 0 0 1 0 0] CT
0 0 moveto 
1 -1 scale
(w) t 
GR
GR
GS
[0 -0.75 0.75 0 588 183.75] CT
0.467 0.675 0.188 RC
/Helvetica 20.533 F
GS
[1 0 0 1 0 0] CT
0 0 moveto 
1 -1 scale
( / ) t 
GR
GR
GS
[0 -0.75 0.75 0 588 170.25] CT
0.467 0.675 0.188 RC
N
0.578 3.953 M
0.578 3.828 0.609 3.781 QT
3.688 -8.609 L
3.781 -8.906 4.023 -9.094 QT
4.266 -9.281 4.578 -9.281 QT
4.844 -9.281 5.023 -9.125 QT
5.203 -8.969 5.203 -8.703 QT
5.203 -8.641 5.203 -8.602 QT
5.203 -8.563 5.188 -8.516 QT
3.953 -3.609 L
3.75 -2.734 3.75 -2.109 QT
3.75 -1.328 4.117 -0.82 QT
4.484 -0.313 5.234 -0.313 QT
6.75 -0.313 7.922 -2.219 QT
7.922 -2.25 7.93 -2.258 QT
7.938 -2.266 7.938 -2.281 QT
9.453 -8.375 L
9.531 -8.656 9.781 -8.852 QT
10.031 -9.047 10.344 -9.047 QT
10.578 -9.047 10.773 -8.883 QT
10.969 -8.719 10.969 -8.453 QT
10.969 -8.344 10.938 -8.297 QT
9.438 -2.25 L
9.281 -1.656 9.281 -1.219 QT
9.281 -0.313 9.891 -0.313 QT
10.547 -0.313 10.883 -1.125 QT
11.219 -1.938 11.469 -3.094 QT
11.5 -3.203 11.641 -3.203 QT
11.891 -3.203 L
11.969 -3.203 12.023 -3.141 QT
12.078 -3.078 12.078 -3 QT
11.703 -1.531 11.273 -0.648 QT
10.844 0.234 9.859 0.234 QT
9.156 0.234 8.617 -0.164 QT
8.078 -0.563 7.922 -1.234 QT
7.391 -0.578 6.688 -0.172 QT
5.984 0.234 5.203 0.234 QT
3.891 0.234 3.141 -0.375 QT
2.078 3.859 L
2.016 4.156 1.773 4.344 QT
1.531 4.531 1.219 4.531 QT
0.969 4.531 0.773 4.375 QT
0.578 4.219 0.578 3.953 QT
cp
f
GR
GS
[0 -0.75 0.75 0 588 160.5] CT
0.467 0.675 0.188 RC
/Helvetica 20.533 F
GS
[1 0 0 1 0 0] CT
0 0 moveto 
1 -1 scale
(J) t 
GR
GR
GS
[0.75 0 0 0.75 0 0] CT
1 GC
N
178 445 M
650 445 L
650 37 L
178 37 L
cp
f
GR
GS
[0.75 0 0 0.75 0 0] CT
0.873 GC
1 LJ
0.667 LW
N
178 445 M
178 37 L
S
GR
GS
[0.75 0 0 0.75 0 0] CT
0.873 GC
1 LJ
0.667 LW
N
244.818 445 M
244.818 37 L
S
GR
GS
[0.75 0 0 0.75 0 0] CT
0.873 GC
1 LJ
0.667 LW
N
311.635 445 M
311.635 37 L
S
GR
GS
[0.75 0 0 0.75 0 0] CT
0.873 GC
1 LJ
0.667 LW
N
378.453 445 M
378.453 37 L
S
GR
GS
[0.75 0 0 0.75 0 0] CT
0.873 GC
1 LJ
0.667 LW
N
445.271 445 M
445.271 37 L
S
GR
GS
[0.75 0 0 0.75 0 0] CT
0.873 GC
1 LJ
0.667 LW
N
512.088 445 M
512.088 37 L
S
GR
GS
[0.75 0 0 0.75 0 0] CT
0.873 GC
1 LJ
0.667 LW
N
578.906 445 M
578.906 37 L
S
GR
GS
[0.75 0 0 0.75 0 0] CT
0.873 GC
1 LJ
0.667 LW
N
645.724 445 M
645.724 37 L
S
GR
GS
[0.75 0 0 0.75 0 0] CT
0.873 GC
1 LJ
0.667 LW
N
650 445 M
178 445 L
S
GR
GS
[0.75 0 0 0.75 0 0] CT
0.873 GC
1 LJ
0.667 LW
N
650 386.714 M
178 386.714 L
S
GR
GS
[0.75 0 0 0.75 0 0] CT
0.873 GC
1 LJ
0.667 LW
N
650 328.429 M
178 328.429 L
S
GR
GS
[0.75 0 0 0.75 0 0] CT
0.873 GC
1 LJ
0.667 LW
N
650 270.143 M
178 270.143 L
S
GR
GS
[0.75 0 0 0.75 0 0] CT
0.873 GC
1 LJ
0.667 LW
N
650 211.857 M
178 211.857 L
S
GR
GS
[0.75 0 0 0.75 0 0] CT
0.873 GC
1 LJ
0.667 LW
N
650 153.571 M
178 153.571 L
S
GR
GS
[0.75 0 0 0.75 0 0] CT
0.873 GC
1 LJ
0.667 LW
N
650 95.286 M
178 95.286 L
S
GR
GS
[0.75 0 0 0.75 0 0] CT
0.873 GC
1 LJ
0.667 LW
N
650 37 M
178 37 L
S
GR
GS
[0.75 0 0 0.75 0 0] CT
0.149 GC
2 setlinecap
1 LJ
0.667 LW
N
178 445 M
650 445 L
S
GR
GS
[0.75 0 0 0.75 0 0] CT
0.149 GC
2 setlinecap
1 LJ
0.667 LW
N
178 445 M
178 440.28 L
S
GR
GS
[0.75 0 0 0.75 0 0] CT
0.149 GC
2 setlinecap
1 LJ
0.667 LW
N
244.818 445 M
244.818 440.28 L
S
GR
GS
[0.75 0 0 0.75 0 0] CT
0.149 GC
2 setlinecap
1 LJ
0.667 LW
N
311.635 445 M
311.635 440.28 L
S
GR
GS
[0.75 0 0 0.75 0 0] CT
0.149 GC
2 setlinecap
1 LJ
0.667 LW
N
378.453 445 M
378.453 440.28 L
S
GR
GS
[0.75 0 0 0.75 0 0] CT
0.149 GC
2 setlinecap
1 LJ
0.667 LW
N
445.271 445 M
445.271 440.28 L
S
GR
GS
[0.75 0 0 0.75 0 0] CT
0.149 GC
2 setlinecap
1 LJ
0.667 LW
N
512.088 445 M
512.088 440.28 L
S
GR
GS
[0.75 0 0 0.75 0 0] CT
0.149 GC
2 setlinecap
1 LJ
0.667 LW
N
578.906 445 M
578.906 440.28 L
S
GR
GS
[0.75 0 0 0.75 0 0] CT
0.149 GC
2 setlinecap
1 LJ
0.667 LW
N
645.724 445 M
645.724 440.28 L
S
GR
GS
[0.75 0 0 0.75 133.5 338.55] CT
0.149 GC
/Helvetica 18.667 F
GS
[1 0 0 1 0 0] CT
-5.5 19 moveto 
1 -1 scale
(0) t 
GR
GR
GS
[0.75 0 0 0.75 183.61325 338.55] CT
0.149 GC
/Helvetica 18.667 F
GS
[1 0 0 1 0 0] CT
-10.5 19 moveto 
1 -1 scale
(50) t 
GR
GR
GS
[0.75 0 0 0.75 233.72651 338.55] CT
0.149 GC
/Helvetica 18.667 F
GS
[1 0 0 1 0 0] CT
-16 19 moveto 
1 -1 scale
(100) t 
GR
GR
GS
[0.75 0 0 0.75 283.83975 338.55] CT
0.149 GC
/Helvetica 18.667 F
GS
[1 0 0 1 0 0] CT
-16 19 moveto 
1 -1 scale
(150) t 
GR
GR
GS
[0.75 0 0 0.75 333.953 338.55] CT
0.149 GC
/Helvetica 18.667 F
GS
[1 0 0 1 0 0] CT
-16 19 moveto 
1 -1 scale
(200) t 
GR
GR
GS
[0.75 0 0 0.75 384.06624 338.55] CT
0.149 GC
/Helvetica 18.667 F
GS
[1 0 0 1 0 0] CT
-16 19 moveto 
1 -1 scale
(250) t 
GR
GR
GS
[0.75 0 0 0.75 434.1795 338.55] CT
0.149 GC
/Helvetica 18.667 F
GS
[1 0 0 1 0 0] CT
-16 19 moveto 
1 -1 scale
(300) t 
GR
GR
GS
[0.75 0 0 0.75 484.29277 338.55] CT
0.149 GC
/Helvetica 18.667 F
GS
[1 0 0 1 0 0] CT
-16 19 moveto 
1 -1 scale
(350) t 
GR
GR
GS
[0.75 0 0 0.75 310.50018 357.55] CT
0.149 GC
/Helvetica 20.533 F
GS
[1 0 0 1 0 0] CT
-42.5 21 moveto 
1 -1 scale
(Time / ns) t 
GR
GR
GS
[0.75 0 0 0.75 0 0] CT
0.149 GC
2 setlinecap
1 LJ
0.667 LW
N
178 445 M
178 37 L
S
GR
GS
[0.75 0 0 0.75 0 0] CT
0.149 GC
2 setlinecap
1 LJ
0.667 LW
N
178 445 M
182.72 445 L
S
GR
GS
[0.75 0 0 0.75 0 0] CT
0.149 GC
2 setlinecap
1 LJ
0.667 LW
N
178 386.714 M
182.72 386.714 L
S
GR
GS
[0.75 0 0 0.75 0 0] CT
0.149 GC
2 setlinecap
1 LJ
0.667 LW
N
178 328.429 M
182.72 328.429 L
S
GR
GS
[0.75 0 0 0.75 0 0] CT
0.149 GC
2 setlinecap
1 LJ
0.667 LW
N
178 270.143 M
182.72 270.143 L
S
GR
GS
[0.75 0 0 0.75 0 0] CT
0.149 GC
2 setlinecap
1 LJ
0.667 LW
N
178 211.857 M
182.72 211.857 L
S
GR
GS
[0.75 0 0 0.75 0 0] CT
0.149 GC
2 setlinecap
1 LJ
0.667 LW
N
178 153.571 M
182.72 153.571 L
S
GR
GS
[0.75 0 0 0.75 0 0] CT
0.149 GC
2 setlinecap
1 LJ
0.667 LW
N
178 95.286 M
182.72 95.286 L
S
GR
GS
[0.75 0 0 0.75 0 0] CT
0.149 GC
2 setlinecap
1 LJ
0.667 LW
N
178 37 M
182.72 37 L
S
GR
GS
[0.75 0 0 0.75 128.7 333.75] CT
0.149 GC
/Helvetica 18.667 F
GS
[1 0 0 1 0 0] CT
-27 7 moveto 
1 -1 scale
(-10) t 
GR
GR
GS
[0.75 0 0 0.75 128.7 290.03572] CT
0.149 GC
/Helvetica 18.667 F
GS
[1 0 0 1 0 0] CT
-11 7 moveto 
1 -1 scale
(0) t 
GR
GR
GS
[0.75 0 0 0.75 128.7 246.32142] CT
0.149 GC
/Helvetica 18.667 F
GS
[1 0 0 1 0 0] CT
-21 7 moveto 
1 -1 scale
(10) t 
GR
GR
GS
[0.75 0 0 0.75 128.7 202.60714] CT
0.149 GC
/Helvetica 18.667 F
GS
[1 0 0 1 0 0] CT
-21 7 moveto 
1 -1 scale
(20) t 
GR
GR
GS
[0.75 0 0 0.75 128.7 158.89286] CT
0.149 GC
/Helvetica 18.667 F
GS
[1 0 0 1 0 0] CT
-21 7 moveto 
1 -1 scale
(30) t 
GR
GR
GS
[0.75 0 0 0.75 128.7 115.17857] CT
0.149 GC
/Helvetica 18.667 F
GS
[1 0 0 1 0 0] CT
-21 7 moveto 
1 -1 scale
(40) t 
GR
GR
GS
[0.75 0 0 0.75 128.7 71.46428] CT
0.149 GC
/Helvetica 18.667 F
GS
[1 0 0 1 0 0] CT
-21 7 moveto 
1 -1 scale
(50) t 
GR
GR
GS
[0.75 0 0 0.75 128.7 27.75] CT
0.149 GC
/Helvetica 18.667 F
GS
[1 0 0 1 0 0] CT
-21 7 moveto 
1 -1 scale
(60) t 
GR
GR
GS
[0 -0.75 0.75 0 95.25 206.25] CT
0.149 GC
/Helvetica 20.533 F
GS
[1 0 0 1 0 0] CT
0 0 moveto 
1 -1 scale
(V) t 
GR
GR
GS
[0 -0.75 0.75 0 102.75 195.75] CT
0.149 GC
/Helvetica 16.427 F
GS
[1 0 0 1 0 0] CT
0 0 moveto 
1 -1 scale
(D) t 
GR
GR
GS
[0 -0.75 0.75 0 102.75 186.75] CT
0.149 GC
/Helvetica 16.427 F
GS
[1 0 0 1 0 0] CT
0 0 moveto 
1 -1 scale
(S) t 
GR
GR
GS
[0 -0.75 0.75 0 95.25 178.5] CT
0.149 GC
/Helvetica 20.533 F
GS
[1 0 0 1 0 0] CT
0 0 moveto 
1 -1 scale
( / V) t 
GR
GR
GS
[0.75 0 0 0.75 0 0] CT
0.851 0.325 0.098 RC
1 LJ
2 LW
N
177.944 391.839 M
178 391.844 L
178.535 391.821 L
179.069 391.844 L
179.604 391.798 L
180.138 391.821 L
180.673 391.798 L
181.207 391.821 L
181.742 391.845 L
182.276 391.845 L
182.811 391.891 L
183.345 391.915 L
183.88 391.915 L
184.414 391.892 L
184.949 391.892 L
185.484 391.892 L
186.018 391.892 L
186.553 391.938 L
187.087 391.915 L
187.622 391.915 L
188.156 391.915 L
188.691 391.915 L
189.225 391.915 L
189.76 391.892 L
190.294 391.868 L
190.829 391.868 L
191.364 391.892 L
191.898 391.891 L
192.433 391.915 L
192.967 391.915 L
193.502 391.938 L
194.036 391.938 L
194.571 391.915 L
195.105 391.961 L
195.64 391.938 L
196.174 391.915 L
196.709 391.938 L
197.243 391.915 L
197.778 391.915 L
198.313 391.915 L
198.847 391.891 L
199.382 391.868 L
199.916 391.845 L
200.451 391.868 L
200.985 391.891 L
201.52 391.891 L
202.054 391.891 L
202.589 391.868 L
203.123 391.845 L
203.658 391.845 L
204.193 391.845 L
204.727 391.845 L
205.262 391.868 L
205.796 391.891 L
206.331 391.914 L
206.865 391.915 L
207.4 391.891 L
207.934 391.938 L
208.469 391.961 L
209.003 391.984 L
209.538 392.031 L
210.072 392.008 L
210.607 392.008 L
211.142 392.008 L
211.676 392.031 L
212.211 392.055 L
212.745 392.031 L
213.28 392.031 L
213.814 392.008 L
214.349 392.008 L
214.883 392.031 L
215.418 392.031 L
215.952 392.031 L
216.487 392.055 L
217.022 392.032 L
217.556 392.055 L
218.091 392.055 L
218.625 392.055 L
219.16 392.008 L
219.694 391.985 L
220.229 391.985 L
220.763 391.985 L
221.298 391.985 L
221.832 392.008 L
222.367 391.985 L
222.901 391.985 L
223.436 391.985 L
223.971 391.962 L
224.505 391.985 L
225.04 392.009 L
225.574 392.032 L
226.109 392.009 L
226.643 392.032 L
227.178 392.055 L
227.712 392.055 L
228.247 392.032 L
228.781 392.055 L
229.316 392.055 L
229.851 392.079 L
230.385 392.079 L
230.92 392.032 L
231.454 392.032 L
231.989 392.055 L
232.523 392.079 L
233.058 392.102 L
233.592 392.055 L
234.127 392.079 L
234.661 392.102 L
235.196 392.125 L
235.73 392.195 L
236.265 392.172 L
236.8 392.149 L
237.334 392.149 L
237.869 392.148 L
238.403 392.149 L
238.938 392.125 L
239.472 392.125 L
240.007 392.149 L
240.541 392.172 L
241.076 392.172 L
241.61 392.195 L
242.145 392.219 L
242.68 392.265 L
243.214 392.265 L
243.749 392.242 L
244.283 392.265 L
244.818 392.265 L
245.352 392.242 L
245.887 392.242 L
246.421 392.242 L
246.956 392.242 L
247.49 392.219 L
248.025 392.219 L
248.559 392.265 L
249.094 392.288 L
249.629 392.288 L
250.163 392.288 L
250.698 392.288 L
251.232 392.288 L
251.767 392.218 L
252.301 392.195 L
252.836 392.219 L
253.37 392.219 L
253.905 392.242 L
254.439 392.265 L
254.974 392.265 L
255.508 392.265 L
256.043 392.288 L
256.578 392.288 L
257.112 392.265 L
257.647 392.265 L
258.181 392.242 L
258.716 392.242 L
259.25 392.265 L
259.785 392.242 L
260.319 392.242 L
260.854 392.218 L
261.388 392.195 L
261.923 392.218 L
262.458 392.218 L
262.992 392.195 L
263.527 392.195 L
264.061 392.172 L
264.596 392.195 L
265.13 392.195 L
265.665 392.195 L
266.199 392.218 L
266.734 392.218 L
267.268 392.242 L
267.803 392.265 L
268.337 392.288 L
268.872 392.312 L
269.407 392.311 L
269.941 392.381 L
270.476 392.358 L
271.01 392.335 L
271.545 392.242 L
272.079 392.125 L
272.614 392.078 L
273.148 392.008 L
273.683 391.868 L
274.217 391.752 L
274.752 391.635 L
275.287 391.425 L
275.821 391.239 L
276.356 391.052 L
276.89 390.843 L
277.425 390.656 L
277.959 390.399 L
278.494 390.213 L
279.028 390.003 L
279.563 389.77 L
280.097 389.537 L
280.632 389.257 L
281.166 389 L
281.701 388.697 L
282.236 388.394 L
282.77 388.021 L
283.305 387.648 L
283.839 387.298 L
284.374 386.879 L
284.908 386.459 L
285.443 386.016 L
285.977 385.55 L
286.512 385.084 L
287.046 384.594 L
287.581 384.058 L
288.116 383.568 L
288.65 383.008 L
289.185 382.425 L
289.719 381.866 L
290.254 381.283 L
290.788 380.7 L
291.323 380.117 L
291.857 379.511 L
292.392 378.882 L
292.926 378.275 L
293.461 377.599 L
293.995 376.923 L
294.53 376.294 L
295.065 375.687 L
295.599 375.081 L
296.134 374.452 L
296.668 373.822 L
297.203 373.216 L
297.737 372.587 L
298.272 371.98 L
298.806 371.351 L
299.341 370.745 L
299.875 370.162 L
300.41 369.532 L
300.945 368.903 L
301.479 368.273 L
302.014 367.644 L
302.548 367.037 L
303.083 366.408 L
303.617 365.755 L
304.152 365.172 L
304.686 364.589 L
305.221 363.937 L
305.755 363.307 L
306.29 362.701 L
306.824 362.118 L
307.359 361.489 L
307.894 360.883 L
308.428 360.277 L
308.963 359.647 L
309.497 359.041 L
310.032 358.435 L
310.566 357.782 L
311.101 357.152 L
311.635 356.546 L
312.17 355.94 L
312.704 355.31 L
313.239 354.657 L
313.773 354.028 L
314.308 353.399 L
314.843 352.769 L
315.377 352.116 L
315.912 351.487 L
316.446 350.881 L
316.981 350.274 L
317.515 349.715 L
318.05 349.085 L
318.584 348.456 L
319.119 347.896 L
319.653 347.267 L
320.188 346.661 L
320.723 346.031 L
321.257 345.448 L
321.792 344.865 L
322.326 344.259 L
322.861 343.676 L
323.395 343.047 L
323.93 342.464 L
324.464 341.835 L
324.999 341.205 L
325.533 340.576 L
326.068 339.993 L
326.602 339.34 L
327.137 338.71 L
327.672 338.058 L
328.206 337.428 L
328.741 336.822 L
329.275 336.193 L
329.81 335.586 L
330.344 334.98 L
330.879 334.351 L
331.413 333.698 L
331.948 333.092 L
332.482 332.486 L
333.017 331.833 L
333.552 331.18 L
334.086 330.597 L
334.621 329.991 L
335.155 329.431 L
335.69 328.825 L
336.224 328.242 L
336.759 327.636 L
337.293 327.03 L
337.828 326.447 L
338.362 325.818 L
338.897 325.211 L
339.431 324.605 L
339.966 323.976 L
340.501 323.37 L
341.035 322.763 L
341.57 322.157 L
342.104 321.528 L
342.639 320.945 L
343.173 320.292 L
343.708 319.686 L
344.242 319.08 L
344.777 318.497 L
345.311 317.891 L
345.846 317.284 L
346.381 316.655 L
346.915 316.049 L
347.45 315.443 L
347.984 314.837 L
348.519 314.207 L
349.053 313.577 L
349.588 312.948 L
350.122 312.342 L
350.657 311.712 L
351.191 311.06 L
351.726 310.454 L
352.26 309.801 L
352.795 309.195 L
353.33 308.565 L
353.864 307.936 L
354.399 307.306 L
354.933 306.677 L
355.468 306.071 L
356.002 305.488 L
356.537 304.882 L
357.071 304.276 L
357.606 303.646 L
358.14 303.04 L
358.675 302.434 L
359.21 301.781 L
359.744 301.151 L
360.279 300.522 L
360.813 299.846 L
361.348 299.24 L
361.882 298.587 L
362.417 297.911 L
362.951 297.281 L
363.486 296.652 L
364.02 296.022 L
364.555 295.393 L
365.089 294.74 L
365.624 294.134 L
366.159 293.527 L
366.693 292.921 L
367.228 292.292 L
367.762 291.662 L
368.297 291.056 L
368.831 290.45 L
369.366 289.844 L
369.9 289.214 L
370.435 288.631 L
370.969 288.002 L
371.504 287.372 L
372.039 286.743 L
372.573 286.16 L
373.108 285.554 L
373.642 284.901 L
374.177 284.295 L
374.711 283.688 L
375.246 283.059 L
375.78 282.429 L
376.315 281.823 L
376.849 281.17 L
377.384 280.518 L
377.918 279.865 L
378.453 279.235 L
378.988 278.606 L
379.522 278 L
380.057 277.347 L
380.591 276.741 L
381.126 276.158 L
381.66 275.505 L
382.195 274.899 L
382.729 274.293 L
383.264 273.687 L
383.798 273.081 L
384.333 272.474 L
384.867 271.822 L
385.402 271.216 L
385.937 270.609 L
386.471 269.98 L
387.006 269.374 L
387.54 268.744 L
388.075 268.115 L
388.609 267.508 L
389.144 266.832 L
389.678 266.226 L
390.213 265.597 L
390.747 264.944 L
391.282 264.314 L
391.817 263.685 L
392.351 263.055 L
392.886 262.449 L
393.42 261.82 L
393.955 261.19 L
394.489 260.56 L
395.024 259.908 L
395.558 259.255 L
396.093 258.625 L
396.627 257.996 L
397.162 257.366 L
397.696 256.714 L
398.231 256.061 L
398.766 255.455 L
399.3 254.872 L
399.835 254.266 L
400.369 253.659 L
400.904 253.053 L
401.438 252.424 L
401.973 251.818 L
402.507 251.211 L
403.042 250.582 L
403.576 249.952 L
404.111 249.346 L
404.646 248.717 L
405.18 248.111 L
405.715 247.481 L
406.249 246.875 L
406.784 246.246 L
407.318 245.616 L
407.853 245.01 L
408.387 244.404 L
408.922 243.751 L
409.456 243.121 L
409.991 242.492 L
410.525 241.839 L
411.06 241.163 L
411.595 240.557 L
412.129 239.951 L
412.664 239.321 L
413.198 238.692 L
413.733 238.039 L
414.267 237.41 L
414.802 236.804 L
415.336 236.221 L
415.871 235.615 L
416.405 234.985 L
416.94 234.379 L
417.475 233.773 L
418.009 233.143 L
418.544 232.537 L
419.078 231.884 L
419.613 231.255 L
420.147 230.672 L
420.682 230.066 L
421.216 229.46 L
421.751 228.83 L
422.285 228.177 L
422.82 227.571 L
423.354 226.942 L
423.889 226.312 L
424.424 225.682 L
424.958 225.03 L
425.493 224.4 L
426.027 223.794 L
426.562 223.165 L
427.096 222.558 L
427.631 221.952 L
428.165 221.369 L
428.7 220.763 L
429.234 220.134 L
429.769 219.504 L
430.304 218.898 L
430.838 218.292 L
431.373 217.639 L
431.907 216.986 L
432.442 216.333 L
432.976 215.727 L
433.511 215.098 L
434.045 214.468 L
434.58 213.885 L
435.114 213.256 L
435.649 212.626 L
436.183 212.02 L
436.718 211.414 L
437.253 210.808 L
437.787 210.178 L
438.322 209.572 L
438.856 208.966 L
439.391 208.383 L
439.925 207.8 L
440.46 207.171 L
440.994 206.541 L
441.529 205.935 L
442.063 205.329 L
442.598 204.723 L
443.133 204.093 L
443.667 203.44 L
444.202 202.811 L
444.736 202.181 L
445.271 201.552 L
445.805 200.946 L
446.34 200.316 L
446.874 199.733 L
447.409 199.057 L
447.943 198.451 L
448.478 197.798 L
449.012 197.122 L
449.547 196.469 L
450.082 195.793 L
450.616 195.187 L
451.151 194.534 L
451.685 193.905 L
452.22 193.298 L
452.754 192.669 L
453.289 192.063 L
453.823 191.433 L
454.358 190.851 L
454.892 190.245 L
455.427 189.638 L
455.961 189.009 L
456.496 188.356 L
457.031 187.703 L
457.565 187.074 L
458.1 186.467 L
458.634 185.838 L
459.169 185.185 L
459.703 184.555 L
460.238 183.926 L
460.772 183.273 L
461.307 182.644 L
461.841 182.037 L
462.376 181.385 L
462.911 180.755 L
463.445 180.172 L
463.98 179.543 L
464.514 178.96 L
465.049 178.354 L
465.583 177.724 L
466.118 177.142 L
466.652 176.535 L
467.187 175.952 L
467.721 175.299 L
468.256 174.67 L
468.79 174.041 L
469.325 173.364 L
469.86 172.758 L
470.394 172.152 L
470.929 171.522 L
471.463 170.893 L
471.998 170.264 L
472.532 169.611 L
473.067 168.981 L
473.601 168.329 L
474.136 167.722 L
474.67 167.116 L
475.205 166.463 L
475.74 165.811 L
476.274 165.181 L
476.809 164.552 L
477.343 163.969 L
477.878 163.339 L
478.412 162.733 L
478.947 162.08 L
479.481 161.451 L
480.016 160.845 L
480.55 160.215 L
481.085 159.609 L
481.619 158.956 L
482.154 158.327 L
482.689 157.697 L
483.223 157.068 L
483.758 156.415 L
484.292 155.808 L
484.827 155.156 L
485.361 154.526 L
485.896 153.874 L
486.43 153.314 L
486.965 152.754 L
487.499 152.078 L
488.034 151.449 L
488.569 150.796 L
489.103 150.143 L
489.638 149.514 L
490.172 148.907 L
490.707 148.278 L
491.241 147.672 L
491.776 147.042 L
492.31 146.413 L
492.845 145.807 L
493.379 145.177 L
493.914 144.524 L
494.448 143.895 L
494.983 143.289 L
495.518 142.659 L
496.052 142.006 L
496.587 141.4 L
497.121 140.748 L
497.656 140.141 L
498.19 139.535 L
498.725 138.882 L
499.259 138.23 L
499.794 137.553 L
500.328 136.877 L
500.863 136.248 L
501.398 135.618 L
501.932 134.989 L
502.467 134.359 L
503.001 133.706 L
503.536 133.124 L
504.07 132.541 L
504.605 131.911 L
505.139 131.258 L
505.674 130.652 L
506.208 130.046 L
506.743 129.44 L
507.277 128.764 L
507.812 128.134 L
508.347 127.482 L
508.881 126.852 L
509.416 126.176 L
509.95 125.546 L
510.485 124.964 L
511.019 124.357 L
511.554 123.751 L
512.088 123.122 L
512.623 122.492 L
513.157 121.863 L
513.692 121.256 L
514.227 120.604 L
514.761 119.997 L
515.296 119.368 L
515.83 118.739 L
516.365 118.086 L
516.899 117.48 L
517.434 116.873 L
517.968 116.244 L
518.503 115.615 L
519.037 115.055 L
519.572 114.449 L
520.106 113.773 L
520.641 113.167 L
521.176 112.56 L
521.71 111.931 L
522.245 111.301 L
522.779 110.695 L
523.314 110.042 L
523.848 109.413 L
524.383 108.784 L
524.917 108.177 L
525.452 107.548 L
525.986 106.895 L
526.521 106.242 L
527.055 105.613 L
527.59 104.983 L
528.125 104.4 L
528.659 103.771 L
529.194 103.141 L
529.728 102.512 L
530.263 101.906 L
530.797 101.3 L
531.332 100.693 L
531.866 100.041 L
532.401 99.388 L
532.935 98.735 L
533.47 98.082 L
534.005 97.476 L
534.539 96.847 L
535.074 96.194 L
535.608 95.564 L
536.143 94.911 L
536.677 94.282 L
537.212 93.629 L
537.746 93.023 L
538.281 92.417 L
538.815 91.904 L
539.35 91.391 L
539.884 90.808 L
540.419 90.249 L
540.954 89.759 L
541.488 89.246 L
542.023 88.756 L
542.557 88.337 L
543.092 87.94 L
543.626 87.497 L
544.161 87.031 L
544.695 86.611 L
545.23 86.192 L
545.764 85.772 L
546.299 85.399 L
546.833 84.979 L
547.368 84.606 L
547.903 84.28 L
548.437 83.93 L
548.972 83.604 L
549.506 83.254 L
550.041 82.998 L
550.575 82.741 L
551.11 82.508 L
551.644 82.321 L
552.179 82.112 L
552.713 81.948 L
553.248 81.808 L
553.783 81.645 L
554.317 81.505 L
554.852 81.412 L
555.386 81.272 L
555.921 81.132 L
556.455 81.109 L
556.99 81.062 L
557.524 81.039 L
558.059 80.992 L
558.593 80.992 L
559.128 81.016 L
559.663 81.039 L
560.197 81.062 L
560.732 81.109 L
561.266 81.132 L
561.801 81.109 L
562.335 81.109 L
562.87 81.109 L
563.404 81.062 L
563.939 81.062 L
564.473 81.062 L
565.008 81.016 L
565.542 81.039 L
566.077 81.062 L
566.612 81.062 L
567.146 81.062 L
567.681 81.062 L
568.215 81.039 L
568.75 81.039 L
569.284 81.039 L
569.819 81.039 L
570.353 81.086 L
570.888 81.109 L
571.422 81.085 L
571.957 81.016 L
572.492 81.015 L
573.026 80.992 L
573.561 80.969 L
574.095 80.899 L
574.63 80.899 L
575.164 80.899 L
575.699 80.899 L
576.233 80.875 L
576.768 80.899 L
577.302 80.945 L
577.837 80.945 L
578.371 80.945 L
578.906 80.899 L
579.441 80.899 L
579.975 80.876 L
580.51 80.899 L
581.044 80.922 L
581.579 80.922 L
582.113 80.922 L
582.648 80.922 L
583.182 80.899 L
583.717 80.852 L
584.251 80.829 L
584.786 80.782 L
585.32 80.782 L
585.855 80.782 L
586.39 80.759 L
586.924 80.759 L
587.459 80.759 L
587.993 80.759 L
588.528 80.736 L
589.062 80.712 L
589.597 80.712 L
590.131 80.689 L
590.666 80.689 L
591.2 80.689 L
591.735 80.666 L
592.27 80.665 L
592.804 80.689 L
593.339 80.666 L
593.873 80.712 L
594.408 80.689 L
594.942 80.712 L
595.477 80.712 L
596.011 80.689 L
596.546 80.689 L
597.08 80.689 L
597.615 80.689 L
598.149 80.689 L
598.684 80.689 L
599.219 80.666 L
599.753 80.642 L
600.288 80.642 L
600.822 80.619 L
601.357 80.596 L
601.891 80.596 L
602.426 80.572 L
602.96 80.596 L
603.495 80.572 L
604.029 80.549 L
604.564 80.502 L
605.099 80.502 L
605.633 80.502 L
606.168 80.502 L
606.702 80.502 L
607.237 80.502 L
607.771 80.479 L
608.306 80.456 L
608.84 80.456 L
609.375 80.432 L
609.909 80.409 L
610.444 80.432 L
610.978 80.409 L
611.513 80.432 L
612.048 80.386 L
612.582 80.362 L
613.117 80.339 L
613.651 80.363 L
614.186 80.293 L
614.72 80.293 L
615.255 80.269 L
615.789 80.246 L
616.324 80.223 L
616.858 80.222 L
617.393 80.176 L
617.928 80.176 L
618.462 80.176 L
618.997 80.176 L
619.531 80.176 L
620.066 80.152 L
620.6 80.176 L
621.135 80.199 L
621.669 80.176 L
622.204 80.152 L
622.738 80.176 L
623.273 80.129 L
623.807 80.106 L
624.342 80.106 L
624.877 80.106 L
625.411 80.059 L
625.946 80.036 L
626.48 80.059 L
627.015 80.059 L
627.549 80.059 L
628.084 80.106 L
628.618 80.106 L
629.153 80.106 L
629.687 80.106 L
630.222 80.083 L
630.756 80.083 L
631.291 80.059 L
631.826 80.059 L
632.36 80.083 L
632.895 80.083 L
633.429 80.083 L
633.964 80.059 L
634.498 80.059 L
635.033 80.036 L
635.567 80.013 L
636.102 79.989 L
636.636 79.966 L
637.171 79.943 L
637.706 79.943 L
638.24 79.966 L
638.775 79.966 L
639.309 79.943 L
639.844 79.92 L
640.378 79.92 L
640.913 79.92 L
641.447 79.873 L
641.982 79.85 L
642.516 79.85 L
643.051 79.85 L
643.586 79.85 L
644.12 79.826 L
644.655 79.826 L
645.189 79.873 L
645.724 79.896 L
646.258 79.873 L
646.793 79.85 L
647.327 79.873 L
647.862 79.85 L
648.396 79.85 L
648.931 79.873 L
649.465 79.896 L
650 79.873 L
650.056 79.87 L
S
GR
GS
[0.75 0 0 0.75 0 0] CT
0.929 0.694 0.125 RC
1 LJ
2 LW
N
177.944 275.111 M
178 275.116 L
178.535 275.038 L
179.069 275.012 L
179.604 275.038 L
180.138 275.064 L
180.673 275.038 L
181.207 275.117 L
181.742 275.012 L
182.276 275.012 L
182.811 274.986 L
183.345 274.96 L
183.88 274.856 L
184.414 274.804 L
184.949 274.882 L
185.484 274.856 L
186.018 274.777 L
186.553 274.673 L
187.087 274.673 L
187.622 274.673 L
188.156 274.673 L
188.691 274.673 L
189.225 274.673 L
189.76 274.621 L
190.294 274.621 L
190.829 274.673 L
191.364 274.647 L
191.898 274.673 L
192.433 274.621 L
192.967 274.594 L
193.502 274.673 L
194.036 274.673 L
194.571 274.673 L
195.105 274.699 L
195.64 274.751 L
196.174 274.699 L
196.709 274.673 L
197.243 274.673 L
197.778 274.673 L
198.313 274.647 L
198.847 274.594 L
199.382 274.542 L
199.916 274.568 L
200.451 274.542 L
200.985 274.49 L
201.52 274.49 L
202.054 274.542 L
202.589 274.438 L
203.123 274.386 L
203.658 274.333 L
204.193 274.307 L
204.727 274.307 L
205.262 274.385 L
205.796 274.333 L
206.331 274.307 L
206.865 274.229 L
207.4 274.229 L
207.934 274.151 L
208.469 274.15 L
209.003 274.072 L
209.538 274.124 L
210.072 274.02 L
210.607 273.994 L
211.142 273.915 L
211.676 273.915 L
212.211 273.837 L
212.745 273.837 L
213.28 273.785 L
213.814 273.837 L
214.349 273.785 L
214.883 273.785 L
215.418 273.681 L
215.952 273.681 L
216.487 273.707 L
217.022 273.681 L
217.556 273.655 L
218.091 273.629 L
218.625 273.576 L
219.16 273.524 L
219.694 273.498 L
220.229 273.394 L
220.763 273.394 L
221.298 273.42 L
221.832 273.446 L
222.367 273.42 L
222.901 273.446 L
223.436 273.446 L
223.971 273.42 L
224.505 273.289 L
225.04 273.316 L
225.574 273.316 L
226.109 273.368 L
226.643 273.394 L
227.178 273.316 L
227.712 273.342 L
228.247 273.316 L
228.781 273.368 L
229.316 273.368 L
229.851 273.29 L
230.385 273.368 L
230.92 273.316 L
231.454 273.342 L
231.989 273.316 L
232.523 273.368 L
233.058 273.368 L
233.592 273.342 L
234.127 273.316 L
234.661 273.29 L
235.196 273.342 L
235.73 273.264 L
236.265 273.29 L
236.8 273.264 L
237.334 273.238 L
237.869 273.29 L
238.403 273.211 L
238.938 273.238 L
239.472 273.342 L
240.007 273.316 L
240.541 273.342 L
241.076 273.316 L
241.61 273.238 L
242.145 273.212 L
242.68 273.185 L
243.214 273.107 L
243.749 273.159 L
244.283 273.133 L
244.818 273.133 L
245.352 273.185 L
245.887 273.159 L
246.421 273.185 L
246.956 273.081 L
247.49 273.107 L
248.025 273.081 L
248.559 273.081 L
249.094 273.055 L
249.629 273.081 L
250.163 273.055 L
250.698 273.081 L
251.232 273.055 L
251.767 273.055 L
252.301 273.002 L
252.836 273.055 L
253.37 273.029 L
253.905 273.029 L
254.439 273.081 L
254.974 273.029 L
255.508 273.081 L
256.043 273.029 L
256.578 273.002 L
257.112 273.055 L
257.647 273.055 L
258.181 273.081 L
258.716 273.028 L
259.25 273.055 L
259.785 273.107 L
260.319 273.055 L
260.854 273.028 L
261.388 273.002 L
261.923 273.028 L
262.458 273.028 L
262.992 273.002 L
263.527 273.08 L
264.061 272.95 L
264.596 273.028 L
265.13 273.002 L
265.665 272.976 L
266.199 272.976 L
266.734 272.976 L
267.268 272.924 L
267.803 272.95 L
268.337 272.924 L
268.872 272.872 L
269.407 272.793 L
269.941 272.872 L
270.476 272.924 L
271.01 273.028 L
271.545 273.081 L
272.079 273.185 L
272.614 273.577 L
273.148 273.995 L
273.683 274.203 L
274.217 274.386 L
274.752 274.386 L
275.287 274.412 L
275.821 274.699 L
276.356 275.117 L
276.89 275.43 L
277.425 275.718 L
277.959 275.874 L
278.494 276.005 L
279.028 276.214 L
279.563 276.553 L
280.097 276.814 L
280.632 277.023 L
281.166 277.362 L
281.701 277.597 L
282.236 277.623 L
282.77 277.702 L
283.305 277.754 L
283.839 277.78 L
284.374 277.832 L
284.908 277.937 L
285.443 277.885 L
285.977 277.859 L
286.512 277.832 L
287.046 277.832 L
287.581 277.858 L
288.116 277.832 L
288.65 277.832 L
289.185 277.858 L
289.719 277.963 L
290.254 277.91 L
290.788 277.78 L
291.323 277.78 L
291.857 277.858 L
292.392 277.91 L
292.926 277.936 L
293.461 277.962 L
293.995 277.962 L
294.53 278.015 L
295.065 278.093 L
295.599 278.015 L
296.134 278.015 L
296.668 277.962 L
297.203 277.884 L
297.737 277.78 L
298.272 277.597 L
298.806 277.518 L
299.341 277.544 L
299.875 277.492 L
300.41 277.492 L
300.945 277.518 L
301.479 277.335 L
302.014 277.388 L
302.548 277.257 L
303.083 277.153 L
303.617 277.1 L
304.152 277.153 L
304.686 277.153 L
305.221 277.179 L
305.755 277.283 L
306.29 277.283 L
306.824 277.466 L
307.359 277.597 L
307.894 277.727 L
308.428 277.988 L
308.963 278.171 L
309.497 278.406 L
310.032 278.641 L
310.566 278.902 L
311.101 279.242 L
311.635 279.503 L
312.17 279.868 L
312.704 280.207 L
313.239 280.495 L
313.773 280.782 L
314.308 281.226 L
314.843 281.67 L
315.377 282.061 L
315.912 282.505 L
316.446 282.845 L
316.981 283.106 L
317.515 283.472 L
318.05 283.706 L
318.584 283.915 L
319.119 284.124 L
319.653 284.359 L
320.188 284.594 L
320.723 284.908 L
321.257 284.986 L
321.792 285.09 L
322.326 285.221 L
322.861 285.352 L
323.395 285.534 L
323.93 285.56 L
324.464 285.743 L
324.999 285.769 L
325.533 285.926 L
326.068 286.161 L
326.602 286.344 L
327.137 286.579 L
327.672 286.866 L
328.206 287.127 L
328.741 287.519 L
329.275 287.91 L
329.81 288.276 L
330.344 288.563 L
330.879 289.086 L
331.413 289.425 L
331.948 289.843 L
332.482 290.261 L
333.017 290.574 L
333.552 290.992 L
334.086 291.436 L
334.621 291.801 L
335.155 292.141 L
335.69 292.376 L
336.224 292.584 L
336.759 292.872 L
337.293 293.054 L
337.828 293.211 L
338.362 293.316 L
338.897 293.316 L
339.431 293.42 L
339.966 293.42 L
340.501 293.446 L
341.035 293.368 L
341.57 293.368 L
342.104 293.342 L
342.639 293.316 L
343.173 293.342 L
343.708 293.368 L
344.242 293.394 L
344.777 293.498 L
345.311 293.707 L
345.846 293.89 L
346.381 294.02 L
346.915 294.151 L
347.45 294.412 L
347.984 294.543 L
348.519 294.778 L
349.053 294.961 L
349.588 295.222 L
350.122 295.378 L
350.657 295.561 L
351.191 295.744 L
351.726 295.953 L
352.26 296.136 L
352.795 296.188 L
353.33 296.188 L
353.864 296.293 L
354.399 296.293 L
354.933 296.397 L
355.468 296.24 L
356.002 296.214 L
356.537 296.214 L
357.071 296.11 L
357.606 296.005 L
358.14 295.979 L
358.675 295.927 L
359.21 295.927 L
359.744 295.979 L
360.279 296.005 L
360.813 296.11 L
361.348 296.293 L
361.882 296.449 L
362.417 296.58 L
362.951 296.919 L
363.486 297.154 L
364.02 297.311 L
364.555 297.572 L
365.089 297.833 L
365.624 298.146 L
366.159 298.329 L
366.693 298.512 L
367.228 298.721 L
367.762 298.93 L
368.297 299.165 L
368.831 299.295 L
369.366 299.504 L
369.9 299.687 L
370.435 299.843 L
370.969 300 L
371.504 300.026 L
372.039 300.052 L
372.573 300.235 L
373.108 300.366 L
373.642 300.47 L
374.177 300.6 L
374.711 300.757 L
375.246 300.992 L
375.78 301.332 L
376.315 301.54 L
376.849 301.749 L
377.384 302.037 L
377.918 302.428 L
378.453 302.716 L
378.988 303.003 L
379.522 303.342 L
380.057 303.63 L
380.591 303.917 L
381.126 304.152 L
381.66 304.465 L
382.195 304.622 L
382.729 304.779 L
383.264 304.988 L
383.798 305.092 L
384.333 305.197 L
384.867 305.301 L
385.402 305.353 L
385.937 305.562 L
386.471 305.745 L
387.006 305.849 L
387.54 305.875 L
388.075 306.006 L
388.609 306.11 L
389.144 306.267 L
389.678 306.397 L
390.213 306.502 L
390.747 306.606 L
391.282 306.737 L
391.817 306.946 L
392.351 307.128 L
392.886 307.337 L
393.42 307.599 L
393.955 307.833 L
394.489 308.016 L
395.024 308.225 L
395.558 308.408 L
396.093 308.617 L
396.627 308.878 L
397.162 309.035 L
397.696 309.139 L
398.231 309.296 L
398.766 309.504 L
399.3 309.583 L
399.835 309.766 L
400.369 309.792 L
400.904 309.948 L
401.438 309.975 L
401.973 309.948 L
402.507 310.053 L
403.042 310.183 L
403.576 310.288 L
404.111 310.314 L
404.646 310.34 L
405.18 310.418 L
405.715 310.471 L
406.249 310.601 L
406.784 310.575 L
407.318 310.732 L
407.853 310.81 L
408.387 310.889 L
408.922 311.202 L
409.456 311.28 L
409.991 311.463 L
410.525 311.568 L
411.06 311.75 L
411.595 311.959 L
412.129 312.09 L
412.664 312.273 L
413.198 312.403 L
413.733 312.638 L
414.267 312.821 L
414.802 313.03 L
415.336 313.213 L
415.871 313.318 L
416.405 313.474 L
416.94 313.579 L
417.475 313.787 L
418.009 313.996 L
418.544 314.101 L
419.078 314.205 L
419.613 314.44 L
420.147 314.649 L
420.682 314.78 L
421.216 314.91 L
421.751 315.145 L
422.285 315.354 L
422.82 315.511 L
423.354 315.72 L
423.889 315.876 L
424.424 316.085 L
424.958 316.32 L
425.493 316.529 L
426.027 316.764 L
426.562 317.025 L
427.096 317.208 L
427.631 317.521 L
428.165 317.756 L
428.7 318.043 L
429.234 318.252 L
429.769 318.513 L
430.304 318.775 L
430.838 319.036 L
431.373 319.245 L
431.907 319.427 L
432.442 319.688 L
432.976 319.845 L
433.511 319.949 L
434.045 320.185 L
434.58 320.341 L
435.114 320.524 L
435.649 320.707 L
436.183 320.89 L
436.718 321.046 L
437.253 321.125 L
437.787 321.255 L
438.322 321.333 L
438.856 321.438 L
439.391 321.568 L
439.925 321.62 L
440.46 321.855 L
440.994 322.012 L
441.529 322.117 L
442.063 322.273 L
442.598 322.456 L
443.133 322.613 L
443.667 322.769 L
444.202 322.9 L
444.736 323.004 L
445.271 323.057 L
445.805 323.187 L
446.34 323.318 L
446.874 323.344 L
447.409 323.396 L
447.943 323.448 L
448.478 323.422 L
449.012 323.527 L
449.547 323.631 L
450.082 323.683 L
450.616 323.84 L
451.151 323.944 L
451.685 324.075 L
452.22 324.101 L
452.754 324.258 L
453.289 324.388 L
453.823 324.571 L
454.358 324.702 L
454.892 324.754 L
455.427 324.884 L
455.961 324.989 L
456.496 325.145 L
457.031 325.25 L
457.565 325.354 L
458.1 325.433 L
458.634 325.615 L
459.169 325.746 L
459.703 325.902 L
460.238 326.059 L
460.772 326.111 L
461.307 326.268 L
461.841 326.398 L
462.376 326.503 L
462.911 326.503 L
463.445 326.633 L
463.98 326.712 L
464.514 326.738 L
465.049 326.868 L
465.583 326.973 L
466.118 327.156 L
466.652 327.339 L
467.187 327.417 L
467.721 327.521 L
468.256 327.756 L
468.79 327.861 L
469.325 328.069 L
469.86 328.252 L
470.394 328.513 L
470.929 328.67 L
471.463 328.905 L
471.998 329.166 L
472.532 329.297 L
473.067 329.636 L
473.601 329.871 L
474.136 330.185 L
474.67 330.42 L
475.205 330.707 L
475.74 330.916 L
476.274 331.229 L
476.809 331.412 L
477.343 331.647 L
477.878 331.882 L
478.412 332.117 L
478.947 332.378 L
479.481 332.613 L
480.016 332.848 L
480.55 333.057 L
481.085 333.187 L
481.619 333.318 L
482.154 333.475 L
482.689 333.762 L
483.223 333.918 L
483.758 334.127 L
484.292 334.336 L
484.827 334.571 L
485.361 334.754 L
485.896 334.911 L
486.43 335.172 L
486.965 335.407 L
487.499 335.642 L
488.034 335.798 L
488.569 335.981 L
489.103 336.216 L
489.638 336.373 L
490.172 336.582 L
490.707 336.764 L
491.241 336.947 L
491.776 337.235 L
492.31 337.417 L
492.845 337.626 L
493.379 337.835 L
493.914 337.966 L
494.448 338.096 L
494.983 338.227 L
495.518 338.357 L
496.052 338.357 L
496.587 338.488 L
497.121 338.592 L
497.656 338.723 L
498.19 338.775 L
498.725 338.88 L
499.259 338.932 L
499.794 339.036 L
500.328 339.167 L
500.863 339.324 L
501.398 339.48 L
501.932 339.611 L
502.467 339.689 L
503.001 339.846 L
503.536 340.028 L
504.07 340.237 L
504.605 340.368 L
505.139 340.498 L
505.674 340.681 L
506.208 340.838 L
506.743 340.942 L
507.277 341.177 L
507.812 341.256 L
508.347 341.543 L
508.881 341.752 L
509.416 341.935 L
509.95 342.117 L
510.485 342.3 L
511.019 342.509 L
511.554 342.666 L
512.088 342.77 L
512.623 342.875 L
513.157 343.031 L
513.692 343.214 L
514.227 343.345 L
514.761 343.475 L
515.296 343.632 L
515.83 343.815 L
516.365 343.893 L
516.899 344.076 L
517.434 344.128 L
517.968 344.232 L
518.503 344.441 L
519.037 344.624 L
519.572 344.807 L
520.106 344.859 L
520.641 344.99 L
521.176 345.172 L
521.71 345.329 L
522.245 345.538 L
522.779 345.721 L
523.314 345.904 L
523.848 346.086 L
524.383 346.269 L
524.917 346.452 L
525.452 346.582 L
525.986 346.87 L
526.521 347.026 L
527.055 347.183 L
527.59 347.392 L
528.125 347.627 L
528.659 347.836 L
529.194 347.966 L
529.728 348.227 L
530.263 348.41 L
530.797 348.567 L
531.332 348.828 L
531.866 348.88 L
532.401 349.115 L
532.935 349.324 L
533.47 349.481 L
534.005 349.559 L
534.539 349.742 L
535.074 349.873 L
535.608 350.003 L
536.143 350.212 L
536.677 350.395 L
537.212 350.447 L
537.746 350.552 L
538.281 350.604 L
538.815 350.708 L
539.35 350.63 L
539.884 350.369 L
540.419 350.055 L
540.954 350.029 L
541.488 349.951 L
542.023 350.081 L
542.557 350.186 L
543.092 350.029 L
543.626 349.82 L
544.161 349.664 L
544.695 349.507 L
545.23 349.429 L
545.764 349.507 L
546.299 349.481 L
546.833 349.35 L
547.368 349.141 L
547.903 349.063 L
548.437 348.906 L
548.972 348.802 L
549.506 348.932 L
550.041 349.011 L
550.575 349.167 L
551.11 349.272 L
551.644 349.324 L
552.179 349.428 L
552.713 349.585 L
553.248 349.768 L
553.783 349.977 L
554.317 350.107 L
554.852 350.316 L
555.386 350.499 L
555.921 350.603 L
556.455 350.76 L
556.99 350.786 L
557.524 350.995 L
558.059 351.204 L
558.593 351.413 L
559.128 351.569 L
559.663 351.674 L
560.197 351.752 L
560.732 351.804 L
561.266 352.013 L
561.801 352.144 L
562.335 352.17 L
562.87 352.327 L
563.404 352.483 L
563.939 352.692 L
564.473 352.953 L
565.008 353.162 L
565.542 353.501 L
566.077 353.763 L
566.612 353.972 L
567.146 354.233 L
567.681 354.389 L
568.215 354.624 L
568.75 354.938 L
569.284 355.147 L
569.819 355.512 L
570.353 355.799 L
570.888 356.087 L
571.422 356.165 L
571.957 356.374 L
572.492 356.504 L
573.026 356.583 L
573.561 356.635 L
574.095 356.661 L
574.63 356.635 L
575.164 356.661 L
575.699 356.661 L
576.233 356.661 L
576.768 356.504 L
577.302 356.452 L
577.837 356.347 L
578.371 356.112 L
578.906 355.904 L
579.441 355.643 L
579.975 355.46 L
580.51 355.382 L
581.044 355.173 L
581.579 354.964 L
582.113 354.676 L
582.648 354.494 L
583.182 354.311 L
583.717 354.102 L
584.251 354.05 L
584.786 353.945 L
585.32 353.841 L
585.855 353.815 L
586.39 353.789 L
586.924 353.763 L
587.459 353.684 L
587.993 353.632 L
588.528 353.763 L
589.062 353.763 L
589.597 353.841 L
590.131 353.841 L
590.666 353.815 L
591.2 353.945 L
591.735 353.997 L
592.27 354.128 L
592.804 354.076 L
593.339 353.997 L
593.873 353.919 L
594.408 353.815 L
594.942 353.684 L
595.477 353.632 L
596.011 353.449 L
596.546 353.24 L
597.08 352.979 L
597.615 352.744 L
598.149 352.378 L
598.684 352.196 L
599.219 351.909 L
599.753 351.7 L
600.288 351.569 L
600.822 351.308 L
601.357 351.047 L
601.891 350.916 L
602.426 350.733 L
602.96 350.551 L
603.495 350.499 L
604.029 350.42 L
604.564 350.394 L
605.099 350.42 L
605.633 350.498 L
606.168 350.603 L
606.702 350.629 L
607.237 350.811 L
607.771 350.942 L
608.306 351.125 L
608.84 351.334 L
609.375 351.543 L
609.909 351.725 L
610.444 351.856 L
610.978 351.934 L
611.513 352.013 L
612.048 352.091 L
612.582 352.039 L
613.117 351.987 L
613.651 351.987 L
614.186 351.961 L
614.72 351.882 L
615.255 351.856 L
615.789 351.725 L
616.324 351.647 L
616.858 351.595 L
617.393 351.517 L
617.928 351.517 L
618.462 351.412 L
618.997 351.412 L
619.531 351.464 L
620.066 351.516 L
620.6 351.621 L
621.135 351.751 L
621.669 351.908 L
622.204 351.986 L
622.738 352.3 L
623.273 352.483 L
623.807 352.691 L
624.342 352.822 L
624.877 353.083 L
625.411 353.318 L
625.946 353.475 L
626.48 353.632 L
627.015 353.684 L
627.549 353.71 L
628.084 353.841 L
628.618 353.788 L
629.153 353.841 L
629.687 353.762 L
630.222 353.71 L
630.756 353.658 L
631.291 353.684 L
631.826 353.449 L
632.36 353.371 L
632.895 353.318 L
633.429 353.318 L
633.964 353.24 L
634.498 353.188 L
635.033 353.136 L
635.567 353.11 L
636.102 353.11 L
636.636 353.188 L
637.171 353.214 L
637.706 353.266 L
638.24 353.24 L
638.775 353.319 L
639.309 353.397 L
639.844 353.397 L
640.378 353.475 L
640.913 353.554 L
641.447 353.554 L
641.982 353.606 L
642.516 353.527 L
643.051 353.423 L
643.586 353.345 L
644.12 353.319 L
644.655 353.162 L
645.189 353.031 L
645.724 352.901 L
646.258 352.77 L
646.793 352.588 L
647.327 352.509 L
647.862 352.379 L
648.396 352.326 L
648.931 352.222 L
649.465 352.091 L
650 352.065 L
650.056 352.065 L
S
GR
GS
[0.75 0 0 0.75 0 0] CT
0.494 0.184 0.557 RC
1 LJ
2 LW
N
177.944 392.26 M
178 392.265 L
178.535 392.244 L
179.069 392.271 L
179.604 392.219 L
180.138 392.243 L
180.673 392.219 L
181.207 392.24 L
181.742 392.272 L
182.276 392.272 L
182.811 392.324 L
183.345 392.351 L
183.88 392.357 L
184.414 392.335 L
184.949 392.33 L
185.484 392.332 L
186.018 392.337 L
186.553 392.394 L
187.087 392.369 L
187.622 392.369 L
188.156 392.369 L
188.691 392.369 L
189.225 392.369 L
189.76 392.347 L
190.294 392.322 L
190.829 392.318 L
191.364 392.345 L
191.898 392.344 L
192.433 392.372 L
192.967 392.374 L
193.502 392.394 L
194.036 392.394 L
194.571 392.369 L
195.105 392.418 L
195.64 392.389 L
196.174 392.367 L
196.709 392.394 L
197.243 392.369 L
197.778 392.369 L
198.313 392.371 L
198.847 392.348 L
199.382 392.326 L
199.916 392.299 L
200.451 392.327 L
200.985 392.355 L
201.52 392.355 L
202.054 392.352 L
202.589 392.333 L
203.123 392.311 L
203.658 392.314 L
204.193 392.316 L
204.727 392.316 L
205.262 392.336 L
205.796 392.365 L
206.331 392.392 L
206.865 392.397 L
207.4 392.372 L
207.934 392.428 L
208.469 392.453 L
209.003 392.484 L
209.538 392.531 L
210.072 392.513 L
210.607 392.514 L
211.142 392.519 L
211.676 392.545 L
212.211 392.576 L
212.745 392.55 L
213.28 392.554 L
213.814 392.525 L
214.349 392.528 L
214.883 392.554 L
215.418 392.56 L
215.952 392.56 L
216.487 392.584 L
217.022 392.561 L
217.556 392.588 L
218.091 392.59 L
218.625 392.593 L
219.16 392.545 L
219.694 392.521 L
220.229 392.528 L
220.763 392.528 L
221.298 392.526 L
221.832 392.55 L
222.367 392.526 L
222.901 392.525 L
223.436 392.525 L
223.971 392.501 L
224.505 392.535 L
225.04 392.559 L
225.574 392.585 L
226.109 392.556 L
226.643 392.58 L
227.178 392.61 L
227.712 392.609 L
228.247 392.585 L
228.781 392.607 L
229.316 392.607 L
229.851 392.638 L
230.385 392.633 L
230.92 392.585 L
231.454 392.583 L
231.989 392.611 L
232.523 392.633 L
233.058 392.659 L
233.592 392.609 L
234.127 392.637 L
234.661 392.664 L
235.196 392.686 L
235.73 392.769 L
236.265 392.741 L
236.8 392.717 L
237.334 392.719 L
237.869 392.715 L
238.403 392.721 L
238.938 392.693 L
239.472 392.686 L
240.007 392.714 L
240.541 392.738 L
241.076 392.739 L
241.61 392.77 L
242.145 392.798 L
242.68 392.851 L
243.214 392.857 L
243.749 392.827 L
244.283 392.855 L
244.818 392.855 L
245.352 392.825 L
245.887 392.827 L
246.421 392.825 L
246.956 392.832 L
247.49 392.805 L
248.025 392.807 L
248.559 392.858 L
249.094 392.886 L
249.629 392.884 L
250.163 392.886 L
250.698 392.884 L
251.232 392.886 L
251.767 392.808 L
252.301 392.786 L
252.836 392.808 L
253.37 392.81 L
253.905 392.836 L
254.439 392.858 L
254.974 392.862 L
255.508 392.858 L
256.043 392.888 L
256.578 392.889 L
257.112 392.86 L
257.647 392.86 L
258.181 392.832 L
258.716 392.836 L
259.25 392.86 L
259.785 392.831 L
260.319 392.834 L
260.854 392.81 L
261.388 392.786 L
261.923 392.81 L
262.458 392.81 L
262.992 392.786 L
263.527 392.781 L
264.061 392.763 L
264.596 392.784 L
265.13 392.786 L
265.665 392.788 L
266.199 392.814 L
266.734 392.814 L
267.268 392.843 L
267.803 392.867 L
268.337 392.895 L
268.872 392.924 L
269.407 392.929 L
269.941 393.001 L
270.476 392.972 L
271.01 392.939 L
271.545 392.832 L
272.079 392.696 L
272.614 392.619 L
273.148 392.515 L
273.683 392.348 L
274.217 392.21 L
274.752 392.082 L
275.287 391.852 L
275.821 391.633 L
276.356 391.408 L
276.89 391.165 L
277.425 390.95 L
277.959 390.667 L
278.494 390.461 L
279.028 390.228 L
279.563 389.966 L
280.097 389.709 L
280.632 389.406 L
281.166 389.125 L
281.701 388.799 L
282.236 388.48 L
282.77 388.087 L
283.305 387.694 L
283.839 387.327 L
284.374 386.887 L
284.908 386.447 L
285.443 385.983 L
285.977 385.494 L
286.512 385.004 L
287.046 384.491 L
287.581 383.929 L
288.116 383.415 L
288.65 382.828 L
289.185 382.218 L
289.719 381.638 L
290.254 381.024 L
290.788 380.404 L
291.323 379.792 L
291.857 379.163 L
292.392 378.508 L
292.926 377.876 L
293.461 377.17 L
293.995 376.463 L
294.53 375.81 L
295.065 375.186 L
295.599 374.542 L
296.134 373.883 L
296.668 373.216 L
297.203 372.568 L
297.737 371.89 L
298.272 371.221 L
298.806 370.545 L
299.341 369.912 L
299.875 369.288 L
300.41 368.625 L
300.945 367.968 L
301.479 367.264 L
302.014 366.613 L
302.548 365.942 L
303.083 365.251 L
303.617 364.548 L
304.152 363.946 L
304.686 363.329 L
305.221 362.647 L
305.755 362.012 L
306.29 361.372 L
306.824 360.812 L
307.359 360.189 L
307.894 359.594 L
308.428 359.042 L
308.963 358.443 L
309.497 357.89 L
310.032 357.34 L
310.566 356.754 L
311.101 356.225 L
311.635 355.697 L
312.17 355.211 L
312.704 354.697 L
313.239 354.145 L
313.773 353.62 L
314.308 353.164 L
314.843 352.715 L
315.377 352.227 L
315.912 351.791 L
316.446 351.339 L
316.981 350.858 L
317.515 350.473 L
318.05 349.964 L
318.584 349.448 L
319.119 349.002 L
319.653 348.504 L
320.188 348.032 L
320.723 347.58 L
321.257 347.059 L
321.792 346.553 L
322.326 346.039 L
322.861 345.55 L
323.395 345.045 L
323.93 344.503 L
324.464 344.003 L
324.999 343.419 L
325.533 342.909 L
326.068 342.49 L
326.602 341.978 L
327.137 341.522 L
327.672 341.078 L
328.206 340.646 L
328.741 340.319 L
329.275 339.976 L
329.81 339.644 L
330.344 339.268 L
330.879 339.026 L
331.413 338.652 L
331.948 338.377 L
332.482 338.108 L
333.017 337.734 L
333.552 337.435 L
334.086 337.224 L
334.621 336.943 L
335.155 336.69 L
335.69 336.328 L
336.224 335.97 L
336.759 335.652 L
337.293 335.262 L
337.828 334.875 L
338.362 334.411 L
338.897 333.891 L
339.431 333.45 L
339.966 332.91 L
340.501 332.41 L
341.035 331.829 L
341.57 331.309 L
342.104 330.748 L
342.639 330.226 L
343.173 329.687 L
343.708 329.188 L
344.242 328.689 L
344.777 328.276 L
345.311 327.933 L
345.846 327.571 L
346.381 327.147 L
346.915 326.745 L
347.45 326.459 L
347.984 326.061 L
348.519 325.739 L
349.053 325.373 L
349.588 325.081 L
350.122 324.717 L
350.657 324.361 L
351.191 323.988 L
351.726 323.68 L
352.26 323.313 L
352.795 322.863 L
353.33 322.345 L
353.864 321.927 L
354.399 321.41 L
354.933 320.994 L
355.468 320.342 L
356.002 319.836 L
356.537 319.337 L
357.071 318.733 L
357.606 318.107 L
358.14 317.58 L
358.675 317.025 L
359.21 316.485 L
359.744 316.019 L
360.279 315.527 L
360.813 315.08 L
361.348 314.776 L
361.882 314.408 L
362.417 313.995 L
362.951 313.852 L
363.486 313.599 L
364.02 313.261 L
364.555 313.044 L
365.089 312.812 L
365.624 312.68 L
366.159 312.404 L
366.693 312.13 L
367.228 311.871 L
367.762 311.616 L
368.297 311.412 L
368.831 311.089 L
369.366 310.861 L
369.9 310.586 L
370.435 310.319 L
370.969 310.018 L
371.504 309.561 L
372.039 309.104 L
372.573 308.877 L
373.108 308.57 L
373.642 308.195 L
374.177 307.892 L
374.711 307.623 L
375.246 307.439 L
375.78 307.391 L
376.315 307.198 L
376.849 306.974 L
377.384 306.854 L
377.918 306.876 L
378.453 306.784 L
378.988 306.697 L
379.522 306.7 L
380.057 306.605 L
380.591 306.548 L
381.126 306.442 L
381.66 306.395 L
382.195 306.172 L
382.729 305.951 L
383.264 305.805 L
383.798 305.516 L
384.333 305.23 L
384.867 304.911 L
385.402 304.553 L
385.937 304.42 L
386.471 304.235 L
387.006 303.956 L
387.54 303.55 L
388.075 303.296 L
388.609 303.022 L
389.144 302.777 L
389.678 302.546 L
390.213 302.261 L
390.747 301.962 L
391.282 301.72 L
391.817 301.597 L
392.351 301.439 L
392.886 301.339 L
393.42 301.306 L
393.955 301.237 L
394.489 301.091 L
395.024 300.972 L
395.558 300.816 L
396.093 300.72 L
396.627 300.709 L
397.162 300.537 L
397.696 300.269 L
398.231 300.085 L
398.766 300.019 L
399.3 299.761 L
399.835 299.658 L
400.369 299.302 L
400.904 299.161 L
401.438 298.791 L
401.973 298.351 L
402.507 298.127 L
403.042 297.934 L
403.576 297.698 L
404.111 297.348 L
404.646 296.982 L
405.18 296.721 L
405.715 296.402 L
406.249 296.232 L
406.784 295.78 L
407.318 295.644 L
407.853 295.388 L
408.387 295.134 L
408.922 295.264 L
409.456 294.998 L
409.991 294.919 L
410.525 294.689 L
411.06 294.586 L
411.595 294.577 L
412.129 294.43 L
412.664 294.364 L
413.198 294.207 L
413.733 294.227 L
414.267 294.17 L
414.802 294.178 L
415.336 294.156 L
415.871 293.976 L
416.405 293.881 L
416.94 293.705 L
417.475 293.726 L
418.009 293.737 L
418.544 293.567 L
419.078 293.371 L
419.613 293.439 L
420.147 293.489 L
420.682 293.377 L
421.216 293.268 L
421.751 293.348 L
422.285 293.368 L
422.82 293.316 L
423.354 293.356 L
423.889 293.296 L
424.424 293.342 L
424.958 293.429 L
425.493 293.482 L
426.027 293.602 L
426.562 293.766 L
427.096 293.789 L
427.631 294.078 L
428.165 294.227 L
428.7 294.472 L
429.234 294.548 L
429.769 294.735 L
430.304 294.939 L
430.838 295.146 L
431.373 295.224 L
431.907 295.251 L
432.442 295.445 L
432.976 295.448 L
433.511 295.332 L
434.045 295.492 L
434.58 295.516 L
435.114 295.572 L
435.649 295.631 L
436.183 295.705 L
436.718 295.726 L
437.253 295.58 L
437.787 295.536 L
438.322 295.393 L
438.856 295.308 L
439.391 295.294 L
439.925 295.109 L
440.46 295.304 L
440.994 295.33 L
441.529 295.254 L
442.063 295.295 L
442.598 295.397 L
443.133 295.432 L
443.667 295.458 L
444.202 295.438 L
444.736 295.362 L
445.271 295.169 L
445.805 295.167 L
446.34 295.155 L
446.874 294.928 L
447.409 294.717 L
447.943 294.54 L
448.478 294.16 L
449.012 294.071 L
449.547 293.996 L
450.082 293.788 L
450.616 293.861 L
451.151 293.79 L
451.685 293.794 L
452.22 293.564 L
452.754 293.634 L
453.289 293.654 L
453.823 293.791 L
454.358 293.827 L
454.892 293.665 L
455.427 293.694 L
455.961 293.649 L
456.496 293.723 L
457.031 293.671 L
457.565 293.633 L
458.1 293.542 L
458.634 293.699 L
459.169 293.719 L
459.703 293.816 L
460.238 293.917 L
460.772 293.748 L
461.307 293.852 L
461.841 293.904 L
462.376 293.87 L
462.911 293.586 L
463.445 293.653 L
463.98 293.568 L
464.514 293.372 L
465.049 293.433 L
465.583 293.419 L
466.118 293.629 L
466.652 293.83 L
467.187 293.775 L
467.721 293.757 L
468.256 294.091 L
468.79 294.088 L
469.325 294.34 L
469.86 294.556 L
470.394 294.982 L
470.929 295.126 L
471.463 295.48 L
471.998 295.906 L
472.532 295.98 L
473.067 296.623 L
473.601 296.982 L
474.136 297.574 L
474.67 297.959 L
475.205 298.47 L
475.74 298.774 L
476.274 299.374 L
476.809 299.624 L
477.343 300.037 L
477.878 300.436 L
478.412 300.847 L
478.947 301.315 L
479.481 301.724 L
480.016 302.146 L
480.55 302.49 L
481.085 302.628 L
481.619 302.751 L
482.154 302.957 L
482.689 303.532 L
483.223 303.744 L
483.758 304.098 L
484.292 304.471 L
484.827 304.906 L
485.361 305.204 L
485.896 305.422 L
486.43 305.973 L
486.965 306.453 L
487.499 306.897 L
488.034 307.135 L
488.569 307.442 L
489.103 307.904 L
489.638 308.149 L
490.172 308.557 L
490.707 308.885 L
491.241 309.223 L
491.776 309.863 L
492.31 310.199 L
492.845 310.623 L
493.379 311.042 L
493.914 311.225 L
494.448 311.417 L
494.983 311.619 L
495.518 311.815 L
496.052 311.615 L
496.587 311.821 L
497.121 311.937 L
497.656 312.147 L
498.19 312.122 L
498.725 312.242 L
499.259 312.205 L
499.794 312.321 L
500.328 312.519 L
500.863 312.813 L
501.398 313.109 L
501.932 313.327 L
502.467 313.386 L
503.001 313.682 L
503.536 314.082 L
504.07 314.565 L
504.605 314.794 L
505.139 315.019 L
505.674 315.422 L
506.208 315.746 L
506.743 315.908 L
507.277 316.465 L
507.812 316.541 L
508.347 317.277 L
508.881 317.774 L
509.416 318.178 L
509.95 318.597 L
510.485 319.032 L
511.019 319.547 L
511.554 319.896 L
512.088 320.074 L
512.623 320.252 L
513.157 320.603 L
513.692 321.046 L
514.227 321.31 L
514.761 321.588 L
515.296 321.948 L
515.83 322.395 L
516.365 322.497 L
516.899 322.955 L
517.434 322.984 L
517.968 323.182 L
518.503 323.728 L
519.037 324.206 L
519.572 324.677 L
520.106 324.697 L
520.641 324.997 L
521.176 325.475 L
521.71 325.862 L
522.245 326.428 L
522.779 326.913 L
523.314 327.391 L
523.848 327.877 L
524.383 328.367 L
524.917 328.863 L
525.452 329.179 L
525.986 330.029 L
526.521 330.435 L
527.055 330.849 L
527.59 331.445 L
528.125 332.143 L
528.659 332.746 L
529.194 333.08 L
529.728 333.87 L
530.263 334.396 L
530.797 334.833 L
531.332 335.638 L
531.866 335.704 L
532.401 336.416 L
532.935 337.039 L
533.47 337.48 L
534.005 337.655 L
534.539 338.197 L
535.074 338.553 L
535.608 338.914 L
536.143 339.554 L
536.677 340.108 L
537.212 340.191 L
537.746 340.471 L
538.281 340.564 L
538.815 340.861 L
539.35 340.497 L
539.884 339.459 L
540.419 338.231 L
540.954 338.056 L
541.488 337.686 L
542.023 338.082 L
542.557 338.396 L
543.092 337.758 L
543.626 336.919 L
544.161 336.266 L
544.695 335.619 L
545.23 335.259 L
545.764 335.476 L
546.299 335.316 L
546.833 334.762 L
547.368 333.924 L
547.903 333.577 L
548.437 332.934 L
548.972 332.488 L
549.506 332.911 L
550.041 333.157 L
550.575 333.696 L
551.11 334.044 L
551.644 334.206 L
552.179 334.56 L
552.713 335.117 L
553.248 335.776 L
553.783 336.53 L
554.317 336.995 L
554.852 337.761 L
555.386 338.423 L
555.921 338.792 L
556.455 339.376 L
556.99 339.466 L
557.524 340.245 L
558.059 341.02 L
558.593 341.803 L
559.128 342.393 L
559.663 342.788 L
560.197 343.084 L
560.732 343.287 L
561.266 344.073 L
561.801 344.559 L
562.335 344.657 L
562.87 345.243 L
563.404 345.823 L
563.939 346.606 L
564.473 347.584 L
565.008 348.36 L
565.542 349.634 L
566.077 350.615 L
566.612 351.398 L
567.146 352.376 L
567.681 352.963 L
568.215 353.841 L
568.75 355.015 L
569.284 355.797 L
569.819 357.167 L
570.353 358.247 L
570.888 359.324 L
571.422 359.616 L
571.957 360.392 L
572.492 360.881 L
573.026 361.172 L
573.561 361.366 L
574.095 361.458 L
574.63 361.36 L
575.164 361.458 L
575.699 361.458 L
576.233 361.456 L
576.768 360.87 L
577.302 360.678 L
577.837 360.287 L
578.371 359.407 L
578.906 358.62 L
579.441 357.642 L
579.975 356.955 L
580.51 356.663 L
581.044 355.882 L
581.579 355.1 L
582.113 354.023 L
582.648 353.339 L
583.182 352.651 L
583.717 351.863 L
584.251 351.664 L
584.786 351.267 L
585.32 350.875 L
585.855 350.778 L
586.39 350.677 L
586.924 350.579 L
587.459 350.285 L
587.993 350.089 L
588.528 350.576 L
589.062 350.573 L
589.597 350.867 L
590.131 350.864 L
590.666 350.766 L
591.2 351.255 L
591.735 351.449 L
592.27 351.938 L
592.804 351.745 L
593.339 351.449 L
593.873 351.161 L
594.408 350.767 L
594.942 350.28 L
595.477 350.084 L
596.011 349.396 L
596.546 348.612 L
597.08 347.633 L
597.615 346.751 L
598.149 345.38 L
598.684 344.695 L
599.219 343.615 L
599.753 342.828 L
600.288 342.338 L
600.822 341.356 L
601.357 340.372 L
601.891 339.882 L
602.426 339.193 L
602.96 338.511 L
603.495 338.311 L
604.029 338.014 L
604.564 337.908 L
605.099 338.006 L
605.633 338.3 L
606.168 338.691 L
606.702 338.789 L
607.237 339.475 L
607.771 339.961 L
608.306 340.644 L
608.84 341.427 L
609.375 342.208 L
609.909 342.891 L
610.444 343.385 L
610.978 343.676 L
611.513 343.973 L
612.048 344.261 L
612.582 344.061 L
613.117 343.862 L
613.651 343.866 L
614.186 343.758 L
614.72 343.463 L
615.255 343.362 L
615.789 342.868 L
616.324 342.571 L
616.858 342.374 L
617.393 342.073 L
617.928 342.073 L
618.462 341.681 L
618.997 341.68 L
619.531 341.876 L
620.066 342.069 L
620.6 342.465 L
621.135 342.958 L
621.669 343.544 L
622.204 343.835 L
622.738 345.015 L
623.273 345.695 L
623.807 346.477 L
624.342 346.968 L
624.877 347.949 L
625.411 348.827 L
625.946 349.413 L
626.48 350.004 L
627.015 350.2 L
627.549 350.299 L
628.084 350.795 L
628.618 350.599 L
629.153 350.795 L
629.687 350.501 L
630.222 350.302 L
630.756 350.106 L
631.291 350.201 L
631.826 349.318 L
632.36 349.027 L
632.895 348.83 L
633.429 348.83 L
633.964 348.533 L
634.498 348.337 L
635.033 348.138 L
635.567 348.037 L
636.102 348.034 L
636.636 348.326 L
637.171 348.421 L
637.706 348.617 L
638.24 348.522 L
638.775 348.816 L
639.309 349.108 L
639.844 349.105 L
640.378 349.4 L
640.913 349.695 L
641.447 349.689 L
641.982 349.882 L
642.516 349.587 L
643.051 349.195 L
643.586 348.9 L
644.12 348.799 L
644.655 348.21 L
645.189 347.725 L
645.724 347.237 L
646.258 346.743 L
646.793 346.053 L
647.327 345.762 L
647.862 345.267 L
648.396 345.07 L
648.931 344.68 L
649.465 344.193 L
650 344.091 L
650.056 344.091 L
S
GR
GS
[0.75 0 0 0.75 0 0] CT
0.467 0.675 0.188 RC
[8 8] 0 setdash
2 LJ
2 LW
N
311.635 445 M
312.17 444.635 L
312.704 444.265 L
313.239 443.888 L
313.773 443.505 L
314.308 443.116 L
314.843 442.722 L
315.377 442.323 L
315.912 441.918 L
316.446 441.508 L
316.981 441.092 L
317.515 440.672 L
318.05 440.246 L
318.584 439.814 L
319.119 439.377 L
319.653 438.934 L
320.188 438.485 L
320.723 438.031 L
321.257 437.572 L
321.792 437.106 L
322.326 436.635 L
322.861 436.157 L
323.395 435.674 L
323.93 435.185 L
324.464 434.689 L
324.999 434.188 L
325.533 433.68 L
326.068 433.166 L
326.602 432.647 L
327.137 432.122 L
327.672 431.593 L
328.206 431.058 L
328.741 430.518 L
329.275 429.975 L
329.81 429.428 L
330.344 428.876 L
330.879 428.322 L
331.413 427.763 L
331.948 427.201 L
332.482 426.635 L
333.017 426.066 L
333.552 425.493 L
334.086 424.917 L
334.621 424.338 L
335.155 423.755 L
335.69 423.17 L
336.224 422.58 L
336.759 421.986 L
337.293 421.388 L
337.828 420.785 L
338.362 420.178 L
338.897 419.565 L
339.431 418.946 L
339.966 418.321 L
340.501 417.691 L
341.035 417.054 L
341.57 416.41 L
342.104 415.761 L
342.639 415.105 L
343.173 414.442 L
343.708 413.774 L
344.242 413.1 L
344.777 412.421 L
345.311 411.737 L
345.846 411.049 L
346.381 410.357 L
346.915 409.659 L
347.45 408.958 L
347.984 408.253 L
348.519 407.543 L
349.053 406.83 L
349.588 406.112 L
350.122 405.391 L
350.657 404.666 L
351.191 403.936 L
351.726 403.203 L
352.26 402.465 L
352.795 401.723 L
353.33 400.975 L
353.864 400.221 L
354.399 399.462 L
354.933 398.698 L
355.468 397.928 L
356.002 397.15 L
356.537 396.367 L
357.071 395.578 L
357.606 394.781 L
358.14 393.977 L
358.675 393.168 L
359.21 392.351 L
359.744 391.529 L
360.279 390.702 L
360.813 389.869 L
361.348 389.031 L
361.882 388.19 L
362.417 387.344 L
362.951 386.494 L
363.486 385.643 L
364.02 384.788 L
364.555 383.93 L
365.089 383.069 L
365.624 382.206 L
366.159 381.34 L
366.693 380.472 L
367.228 379.6 L
367.762 378.726 L
368.297 377.848 L
368.831 376.968 L
369.366 376.084 L
369.9 375.198 L
370.435 374.308 L
370.969 373.415 L
371.504 372.517 L
372.039 371.615 L
372.573 370.708 L
373.108 369.798 L
373.642 368.884 L
374.177 367.966 L
374.711 367.045 L
375.246 366.121 L
375.78 365.196 L
376.315 364.27 L
376.849 363.341 L
377.384 362.41 L
377.918 361.478 L
378.453 360.546 L
378.988 359.613 L
379.522 358.68 L
380.057 357.745 L
380.591 356.811 L
381.126 355.875 L
381.66 354.938 L
382.195 354 L
382.729 353.059 L
383.264 352.115 L
383.798 351.17 L
384.333 350.221 L
384.867 349.268 L
385.402 348.312 L
385.937 347.353 L
386.471 346.391 L
387.006 345.427 L
387.54 344.46 L
388.075 343.488 L
388.609 342.513 L
389.144 341.535 L
389.678 340.555 L
390.213 339.571 L
390.747 338.584 L
391.282 337.594 L
391.817 336.601 L
392.351 335.607 L
392.886 334.612 L
393.42 333.616 L
393.955 332.619 L
394.489 331.621 L
395.024 330.621 L
395.558 329.62 L
396.093 328.617 L
396.627 327.614 L
397.162 326.61 L
397.696 325.603 L
398.231 324.593 L
398.766 323.582 L
399.3 322.569 L
399.835 321.554 L
400.369 320.536 L
400.904 319.516 L
401.438 318.492 L
401.973 317.464 L
402.507 316.431 L
403.042 315.397 L
403.576 314.36 L
404.111 313.319 L
404.646 312.274 L
405.18 311.226 L
405.715 310.174 L
406.249 309.12 L
406.784 308.061 L
407.318 307 L
407.853 305.936 L
408.387 304.869 L
408.922 303.801 L
409.456 302.732 L
409.991 301.662 L
410.525 300.59 L
411.06 299.515 L
411.595 298.441 L
412.129 297.365 L
412.664 296.288 L
413.198 295.209 L
413.733 294.13 L
414.267 293.051 L
414.802 291.971 L
415.336 290.892 L
415.871 289.811 L
416.405 288.728 L
416.94 287.644 L
417.475 286.559 L
418.009 285.474 L
418.544 284.389 L
419.078 283.301 L
419.613 282.212 L
420.147 281.124 L
420.682 280.036 L
421.216 278.946 L
421.751 277.857 L
422.285 276.767 L
422.82 275.678 L
423.354 274.589 L
423.889 273.499 L
424.424 272.41 L
424.958 271.321 L
425.493 270.233 L
426.027 269.146 L
426.562 268.06 L
427.096 266.976 L
427.631 265.894 L
428.165 264.814 L
428.7 263.736 L
429.234 262.66 L
429.769 261.586 L
430.304 260.514 L
430.838 259.445 L
431.373 258.377 L
431.907 257.31 L
432.442 256.244 L
432.976 255.179 L
433.511 254.114 L
434.045 253.048 L
434.58 251.984 L
435.114 250.921 L
435.649 249.858 L
436.183 248.795 L
436.718 247.734 L
437.253 246.671 L
437.787 245.608 L
438.322 244.543 L
438.856 243.477 L
439.391 242.411 L
439.925 241.343 L
440.46 240.276 L
440.994 239.209 L
441.529 238.143 L
442.063 237.076 L
442.598 236.01 L
443.133 234.945 L
443.667 233.88 L
444.202 232.815 L
444.736 231.75 L
445.271 230.683 L
445.805 229.615 L
446.34 228.547 L
446.874 227.477 L
447.409 226.405 L
447.943 225.331 L
448.478 224.253 L
449.012 223.173 L
449.547 222.092 L
450.082 221.009 L
450.616 219.925 L
451.151 218.841 L
451.685 217.757 L
452.22 216.672 L
452.754 215.586 L
453.289 214.5 L
453.823 213.415 L
454.358 212.331 L
454.892 211.246 L
455.427 210.161 L
455.961 209.075 L
456.496 207.99 L
457.031 206.905 L
457.565 205.819 L
458.1 204.733 L
458.634 203.647 L
459.169 202.562 L
459.703 201.477 L
460.238 200.394 L
460.772 199.31 L
461.307 198.226 L
461.841 197.143 L
462.376 196.06 L
462.911 194.975 L
463.445 193.889 L
463.98 192.803 L
464.514 191.715 L
465.049 190.627 L
465.583 189.538 L
466.118 188.451 L
466.652 187.366 L
467.187 186.282 L
467.721 185.198 L
468.256 184.115 L
468.79 183.035 L
469.325 181.956 L
469.86 180.879 L
470.394 179.806 L
470.929 178.737 L
471.463 177.671 L
471.998 176.609 L
472.532 175.55 L
473.067 174.495 L
473.601 173.446 L
474.136 172.402 L
474.67 171.365 L
475.205 170.332 L
475.74 169.304 L
476.274 168.282 L
476.809 167.264 L
477.343 166.251 L
477.878 165.242 L
478.412 164.238 L
478.947 163.239 L
479.481 162.245 L
480.016 161.256 L
480.55 160.271 L
481.085 159.289 L
481.619 158.309 L
482.154 157.331 L
482.689 156.357 L
483.223 155.387 L
483.758 154.422 L
484.292 153.46 L
484.827 152.503 L
485.361 151.55 L
485.896 150.601 L
486.43 149.655 L
486.965 148.716 L
487.499 147.782 L
488.034 146.853 L
488.569 145.926 L
489.103 145.004 L
489.638 144.086 L
490.172 143.172 L
490.707 142.262 L
491.241 141.356 L
491.776 140.455 L
492.31 139.561 L
492.845 138.67 L
493.379 137.785 L
493.914 136.903 L
494.448 136.024 L
494.983 135.146 L
495.518 134.272 L
496.052 133.397 L
496.587 132.522 L
497.121 131.648 L
497.656 130.777 L
498.19 129.907 L
498.725 129.038 L
499.259 128.169 L
499.794 127.3 L
500.328 126.433 L
500.863 125.569 L
501.398 124.709 L
501.932 123.851 L
502.467 122.996 L
503.001 122.142 L
503.536 121.292 L
504.07 120.448 L
504.605 119.607 L
505.139 118.769 L
505.674 117.935 L
506.208 117.105 L
506.743 116.278 L
507.277 115.456 L
507.812 114.636 L
508.347 113.822 L
508.881 113.015 L
509.416 112.213 L
509.95 111.416 L
510.485 110.624 L
511.019 109.837 L
511.554 109.055 L
512.088 108.277 L
512.623 107.5 L
513.157 106.727 L
513.692 105.958 L
514.227 105.194 L
514.761 104.432 L
515.296 103.675 L
515.83 102.922 L
516.365 102.172 L
S
GR
GS
[0.75 0 0 0.75 0 0] CT
1 GC
N
283 171 M
283 54 L
201 54 L
201 171 L
cp
f
GR
GS
[0.75 0 0 0.75 186 54.75] CT
/Helvetica 16.8 F
GS
[1 0 0 1 0 0] CT
0 0 moveto 
1 -1 scale
(V) t 
GR
GR
GS
[0.75 0 0 0.75 195 60.75] CT
/Helvetica 13.44 F
GS
[1 0 0 1 0 0] CT
0 0 moveto 
1 -1 scale
(D) t 
GR
GR
GS
[0.75 0 0 0.75 202.5 60.75] CT
/Helvetica 13.44 F
GS
[1 0 0 1 0 0] CT
0 0 moveto 
1 -1 scale
(S) t 
GR
GR
GS
[0.75 0 0 0.75 0 0] CT
0.851 0.325 0.098 RC
1 LJ
2 LW
N
205 69.932 M
245 69.932 L
S
GR
GS
[0.75 0 0 0.75 186 75.75] CT
/Helvetica 16.8 F
GS
[1 0 0 1 0 0] CT
0 0 moveto 
1 -1 scale
(I) t 
GR
GR
GS
[0.75 0 0 0.75 189.75 81.75] CT
/Helvetica 13.44 F
GS
[1 0 0 1 0 0] CT
0 0 moveto 
1 -1 scale
(D) t 
GR
GR
GS
[0.75 0 0 0.75 0 0] CT
0.929 0.694 0.125 RC
1 LJ
2 LW
N
205 98.311 M
245 98.311 L
S
GR
GS
[0.75 0 0 0.75 186 97.5] CT
/Helvetica 16.8 F
GS
[1 0 0 1 0 0] CT
0 0 moveto 
1 -1 scale
(P) t 
GR
GR
GS
[0.75 0 0 0.75 195 103.5] CT
/Helvetica 13.44 F
GS
[1 0 0 1 0 0] CT
0 0 moveto 
1 -1 scale
(s) t 
GR
GR
GS
[0.75 0 0 0.75 200.25 103.5] CT
/Helvetica 13.44 F
GS
[1 0 0 1 0 0] CT
0 0 moveto 
1 -1 scale
(w) t 
GR
GR
GS
[0.75 0 0 0.75 0 0] CT
0.494 0.184 0.557 RC
1 LJ
2 LW
N
205 126.689 M
245 126.689 L
S
GR
GS
[0.75 0 0 0.75 186 118.5] CT
/Helvetica 16.8 F
GS
[1 0 0 1 0 0] CT
0 0 moveto 
1 -1 scale
(E) t 
GR
GR
GS
[0.75 0 0 0.75 195 124.5] CT
/Helvetica 13.44 F
GS
[1 0 0 1 0 0] CT
0 0 moveto 
1 -1 scale
(s) t 
GR
GR
GS
[0.75 0 0 0.75 200.25 124.5] CT
/Helvetica 13.44 F
GS
[1 0 0 1 0 0] CT
0 0 moveto 
1 -1 scale
(w) t 
GR
GR
GS
[0.75 0 0 0.75 0 0] CT
0.467 0.675 0.188 RC
[8 8] 0 setdash
2 LJ
2 LW
N
205 155.068 M
245 155.068 L
S
GR
GS
[0.75 0 0 0.75 0 0] CT
0.149 GC
10.0 ML
0.667 LW
N
201 171 M
201 54 L
283 54 L
283 171 L
cp
S
GR
%%Trailer
%%Pages: 1
%%EOF
