%!PS-Adobe-3.0 EPSF-3.0
%%Creator: (MATLAB, The Mathworks, Inc. Version 24.1.0.2603908 \(R2024a\) Update 3. Operating System: Windows 10)
%%Title: (C:/Users/lorde/Documents/MATLAB/Master Lab Course/Exercise 3/E3_Rg10_Eoff4.eps)
%%CreationDate: 2024-06-30T10:04:59
%%Pages: (atend)
%%BoundingBox:     0     0   600   375
%%LanguageLevel: 3
%%EndComments
%%BeginProlog
%%BeginResource: procset (Apache XML Graphics Std ProcSet) 1.2 0
%%Version: 1.2 0
%%Copyright: (Copyright 2001-2003,2010 The Apache Software Foundation. License terms: http://www.apache.org/licenses/LICENSE-2.0)
/bd{bind def}bind def
/ld{load def}bd
/GR/grestore ld
/GS/gsave ld
/RM/rmoveto ld
/C/curveto ld
/t/show ld
/L/lineto ld
/ML/setmiterlimit ld
/CT/concat ld
/f/fill ld
/N/newpath ld
/S/stroke ld
/CC/setcmykcolor ld
/A/ashow ld
/cp/closepath ld
/RC/setrgbcolor ld
/LJ/setlinejoin ld
/GC/setgray ld
/LW/setlinewidth ld
/M/moveto ld
/re {4 2 roll M
1 index 0 rlineto
0 exch rlineto
neg 0 rlineto
cp } bd
/_ctm matrix def
/_tm matrix def
/BT { _ctm currentmatrix pop matrix _tm copy pop 0 0 moveto } bd
/ET { _ctm setmatrix } bd
/iTm { _ctm setmatrix _tm concat } bd
/Tm { _tm astore pop iTm 0 0 moveto } bd
/ux 0.0 def
/uy 0.0 def
/F {
  /Tp exch def
  /Tf exch def
  Tf findfont Tp scalefont setfont
  /cf Tf def  /cs Tp def
} bd
/ULS {currentpoint /uy exch def /ux exch def} bd
/ULE {
  /Tcx currentpoint pop def
  gsave
  newpath
  cf findfont cs scalefont dup
  /FontMatrix get 0 get /Ts exch def /FontInfo get dup
  /UnderlinePosition get Ts mul /To exch def
  /UnderlineThickness get Ts mul /Tt exch def
  ux uy To add moveto  Tcx uy To add lineto
  Tt setlinewidth stroke
  grestore
} bd
/OLE {
  /Tcx currentpoint pop def
  gsave
  newpath
  cf findfont cs scalefont dup
  /FontMatrix get 0 get /Ts exch def /FontInfo get dup
  /UnderlinePosition get Ts mul /To exch def
  /UnderlineThickness get Ts mul /Tt exch def
  ux uy To add cs add moveto Tcx uy To add cs add lineto
  Tt setlinewidth stroke
  grestore
} bd
/SOE {
  /Tcx currentpoint pop def
  gsave
  newpath
  cf findfont cs scalefont dup
  /FontMatrix get 0 get /Ts exch def /FontInfo get dup
  /UnderlinePosition get Ts mul /To exch def
  /UnderlineThickness get Ts mul /Tt exch def
  ux uy To add cs 10 mul 26 idiv add moveto Tcx uy To add cs 10 mul 26 idiv add lineto
  Tt setlinewidth stroke
  grestore
} bd
/QT {
/Y22 exch store
/X22 exch store
/Y21 exch store
/X21 exch store
currentpoint
/Y21 load 2 mul add 3 div exch
/X21 load 2 mul add 3 div exch
/X21 load 2 mul /X22 load add 3 div
/Y21 load 2 mul /Y22 load add 3 div
/X22 load /Y22 load curveto
} bd
/SSPD {
dup length /d exch dict def
{
/v exch def
/k exch def
currentpagedevice k known {
/cpdv currentpagedevice k get def
v cpdv ne {
/upd false def
/nullv v type /nulltype eq def
/nullcpdv cpdv type /nulltype eq def
nullv nullcpdv or
{
/upd true def
} {
/sametype v type cpdv type eq def
sametype {
v type /arraytype eq {
/vlen v length def
/cpdvlen cpdv length def
vlen cpdvlen eq {
0 1 vlen 1 sub {
/i exch def
/obj v i get def
/cpdobj cpdv i get def
obj cpdobj ne {
/upd true def
exit
} if
} for
} {
/upd true def
} ifelse
} {
v type /dicttype eq {
v {
/dv exch def
/dk exch def
/cpddv cpdv dk get def
dv cpddv ne {
/upd true def
exit
} if
} forall
} {
/upd true def
} ifelse
} ifelse
} if
} ifelse
upd true eq {
d k v put
} if
} if
} if
} forall
d length 0 gt {
d setpagedevice
} if
} bd
/RE { % /NewFontName [NewEncodingArray] /FontName RE -
  findfont dup length dict begin
  {
    1 index /FID ne
    {def} {pop pop} ifelse
  } forall
  /Encoding exch def
  /FontName 1 index def
  currentdict definefont pop
  end
} bind def
%%EndResource
%%BeginResource: procset (Apache XML Graphics EPS ProcSet) 1.0 0
%%Version: 1.0 0
%%Copyright: (Copyright 2002-2003 The Apache Software Foundation. License terms: http://www.apache.org/licenses/LICENSE-2.0)
/BeginEPSF { %def
/b4_Inc_state save def         % Save state for cleanup
/dict_count countdictstack def % Count objects on dict stack
/op_count count 1 sub def      % Count objects on operand stack
userdict begin                 % Push userdict on dict stack
/showpage { } def              % Redefine showpage, { } = null proc
0 setgray 0 setlinecap         % Prepare graphics state
1 setlinewidth 0 setlinejoin
10 setmiterlimit [ ] 0 setdash newpath
/languagelevel where           % If level not equal to 1 then
{pop languagelevel             % set strokeadjust and
1 ne                           % overprint to their defaults.
{false setstrokeadjust false setoverprint
} if
} if
} bd
/EndEPSF { %def
count op_count sub {pop} repeat            % Clean up stacks
countdictstack dict_count sub {end} repeat
b4_Inc_state restore
} bd
%%EndResource
%FOPBeginFontDict
%%IncludeResource: font Courier-Oblique
%%IncludeResource: font Courier-BoldOblique
%%IncludeResource: font Courier-Bold
%%IncludeResource: font ZapfDingbats
%%IncludeResource: font Symbol
%%IncludeResource: font Helvetica
%%IncludeResource: font Helvetica-Oblique
%%IncludeResource: font Helvetica-Bold
%%IncludeResource: font Helvetica-BoldOblique
%%IncludeResource: font Times-Roman
%%IncludeResource: font Times-Italic
%%IncludeResource: font Times-Bold
%%IncludeResource: font Times-BoldItalic
%%IncludeResource: font Courier
%FOPEndFontDict
%%BeginResource: encoding WinAnsiEncoding
/WinAnsiEncoding [
/.notdef /.notdef /.notdef /.notdef /.notdef
/.notdef /.notdef /.notdef /.notdef /.notdef
/.notdef /.notdef /.notdef /.notdef /.notdef
/.notdef /.notdef /.notdef /.notdef /.notdef
/.notdef /.notdef /.notdef /.notdef /.notdef
/.notdef /.notdef /.notdef /.notdef /.notdef
/.notdef /.notdef /space /exclam /quotedbl
/numbersign /dollar /percent /ampersand /quotesingle
/parenleft /parenright /asterisk /plus /comma
/hyphen /period /slash /zero /one
/two /three /four /five /six
/seven /eight /nine /colon /semicolon
/less /equal /greater /question /at
/A /B /C /D /E
/F /G /H /I /J
/K /L /M /N /O
/P /Q /R /S /T
/U /V /W /X /Y
/Z /bracketleft /backslash /bracketright /asciicircum
/underscore /quoteleft /a /b /c
/d /e /f /g /h
/i /j /k /l /m
/n /o /p /q /r
/s /t /u /v /w
/x /y /z /braceleft /bar
/braceright /asciitilde /bullet /Euro /bullet
/quotesinglbase /florin /quotedblbase /ellipsis /dagger
/daggerdbl /circumflex /perthousand /Scaron /guilsinglleft
/OE /bullet /Zcaron /bullet /bullet
/quoteleft /quoteright /quotedblleft /quotedblright /bullet
/endash /emdash /asciitilde /trademark /scaron
/guilsinglright /oe /bullet /zcaron /Ydieresis
/space /exclamdown /cent /sterling /currency
/yen /brokenbar /section /dieresis /copyright
/ordfeminine /guillemotleft /logicalnot /sfthyphen /registered
/macron /degree /plusminus /twosuperior /threesuperior
/acute /mu /paragraph /middot /cedilla
/onesuperior /ordmasculine /guillemotright /onequarter /onehalf
/threequarters /questiondown /Agrave /Aacute /Acircumflex
/Atilde /Adieresis /Aring /AE /Ccedilla
/Egrave /Eacute /Ecircumflex /Edieresis /Igrave
/Iacute /Icircumflex /Idieresis /Eth /Ntilde
/Ograve /Oacute /Ocircumflex /Otilde /Odieresis
/multiply /Oslash /Ugrave /Uacute /Ucircumflex
/Udieresis /Yacute /Thorn /germandbls /agrave
/aacute /acircumflex /atilde /adieresis /aring
/ae /ccedilla /egrave /eacute /ecircumflex
/edieresis /igrave /iacute /icircumflex /idieresis
/eth /ntilde /ograve /oacute /ocircumflex
/otilde /odieresis /divide /oslash /ugrave
/uacute /ucircumflex /udieresis /yacute /thorn
/ydieresis
] def
%%EndResource
%FOPBeginFontReencode
/Courier-Oblique findfont
dup length dict begin
  {1 index /FID ne {def} {pop pop} ifelse} forall
  /Encoding WinAnsiEncoding def
  currentdict
end
/Courier-Oblique exch definefont pop
/Courier-BoldOblique findfont
dup length dict begin
  {1 index /FID ne {def} {pop pop} ifelse} forall
  /Encoding WinAnsiEncoding def
  currentdict
end
/Courier-BoldOblique exch definefont pop
/Courier-Bold findfont
dup length dict begin
  {1 index /FID ne {def} {pop pop} ifelse} forall
  /Encoding WinAnsiEncoding def
  currentdict
end
/Courier-Bold exch definefont pop
/Helvetica findfont
dup length dict begin
  {1 index /FID ne {def} {pop pop} ifelse} forall
  /Encoding WinAnsiEncoding def
  currentdict
end
/Helvetica exch definefont pop
/Helvetica-Oblique findfont
dup length dict begin
  {1 index /FID ne {def} {pop pop} ifelse} forall
  /Encoding WinAnsiEncoding def
  currentdict
end
/Helvetica-Oblique exch definefont pop
/Helvetica-Bold findfont
dup length dict begin
  {1 index /FID ne {def} {pop pop} ifelse} forall
  /Encoding WinAnsiEncoding def
  currentdict
end
/Helvetica-Bold exch definefont pop
/Helvetica-BoldOblique findfont
dup length dict begin
  {1 index /FID ne {def} {pop pop} ifelse} forall
  /Encoding WinAnsiEncoding def
  currentdict
end
/Helvetica-BoldOblique exch definefont pop
/Times-Roman findfont
dup length dict begin
  {1 index /FID ne {def} {pop pop} ifelse} forall
  /Encoding WinAnsiEncoding def
  currentdict
end
/Times-Roman exch definefont pop
/Times-Italic findfont
dup length dict begin
  {1 index /FID ne {def} {pop pop} ifelse} forall
  /Encoding WinAnsiEncoding def
  currentdict
end
/Times-Italic exch definefont pop
/Times-Bold findfont
dup length dict begin
  {1 index /FID ne {def} {pop pop} ifelse} forall
  /Encoding WinAnsiEncoding def
  currentdict
end
/Times-Bold exch definefont pop
/Times-BoldItalic findfont
dup length dict begin
  {1 index /FID ne {def} {pop pop} ifelse} forall
  /Encoding WinAnsiEncoding def
  currentdict
end
/Times-BoldItalic exch definefont pop
/Courier findfont
dup length dict begin
  {1 index /FID ne {def} {pop pop} ifelse} forall
  /Encoding WinAnsiEncoding def
  currentdict
end
/Courier exch definefont pop
%FOPEndFontReencode
%%EndProlog
%%Page: 1 1
%%PageBoundingBox: 0 0 600 375
%%BeginPageSetup
[1 0 0 -1 0 375] CT
%%EndPageSetup
GS
[0.75 0 0 0.75 0 0] CT
1 GC
N
0 0 800 500 re
f
GR
GS
[0.75 0 0 0.75 0 0] CT
1 GC
N
0 0 800 500 re
f
GR
GS
[0.75 0 0 0.75 0 0] CT
0.941 GC
N
650 445 M
659 445 L
659 37 L
650 37 L
cp
f
GR
GS
[0.75 0 0 0.75 0 0] CT
0.149 GC
2 setlinecap
1 LJ
0.667 LW
N
650 445 M
659 445 L
S
GR
GS
[0.75 0 0 0.75 0 0] CT
0.929 0.694 0.125 RC
2 setlinecap
1 LJ
0.667 LW
N
659 445 M
659 37 L
S
GR
GS
[0.75 0 0 0.75 0 0] CT
0.929 0.694 0.125 RC
2 setlinecap
1 LJ
0.667 LW
N
659 445 M
654.92 445 L
S
GR
GS
[0.75 0 0 0.75 0 0] CT
0.929 0.694 0.125 RC
2 setlinecap
1 LJ
0.667 LW
N
659 363.4 M
654.92 363.4 L
S
GR
GS
[0.75 0 0 0.75 0 0] CT
0.929 0.694 0.125 RC
2 setlinecap
1 LJ
0.667 LW
N
659 281.8 M
654.92 281.8 L
S
GR
GS
[0.75 0 0 0.75 0 0] CT
0.929 0.694 0.125 RC
2 setlinecap
1 LJ
0.667 LW
N
659 200.2 M
654.92 200.2 L
S
GR
GS
[0.75 0 0 0.75 0 0] CT
0.929 0.694 0.125 RC
2 setlinecap
1 LJ
0.667 LW
N
659 118.6 M
654.92 118.6 L
S
GR
GS
[0.75 0 0 0.75 0 0] CT
0.929 0.694 0.125 RC
2 setlinecap
1 LJ
0.667 LW
N
659 37 M
654.92 37 L
S
GR
GS
[0.75 0 0 0.75 499.05002 333.75] CT
0.929 0.694 0.125 RC
/Helvetica 18.667 F
GS
[1 0 0 1 0 0] CT
0 7 moveto 
1 -1 scale
(-5) t 
GR
GR
GS
[0.75 0 0 0.75 499.05002 272.55] CT
0.929 0.694 0.125 RC
/Helvetica 18.667 F
GS
[1 0 0 1 0 0] CT
0 7 moveto 
1 -1 scale
(0) t 
GR
GR
GS
[0.75 0 0 0.75 499.05002 211.34999] CT
0.929 0.694 0.125 RC
/Helvetica 18.667 F
GS
[1 0 0 1 0 0] CT
0 7 moveto 
1 -1 scale
(5) t 
GR
GR
GS
[0.75 0 0 0.75 499.05002 150.15] CT
0.929 0.694 0.125 RC
/Helvetica 18.667 F
GS
[1 0 0 1 0 0] CT
0 7 moveto 
1 -1 scale
(10) t 
GR
GR
GS
[0.75 0 0 0.75 499.05002 88.95] CT
0.929 0.694 0.125 RC
/Helvetica 18.667 F
GS
[1 0 0 1 0 0] CT
0 7 moveto 
1 -1 scale
(15) t 
GR
GR
GS
[0.75 0 0 0.75 499.05002 27.75] CT
0.929 0.694 0.125 RC
/Helvetica 18.667 F
GS
[1 0 0 1 0 0] CT
0 7 moveto 
1 -1 scale
(20) t 
GR
GR
GS
[0 -0.75 0.75 0 533.25 199.5] CT
0.929 0.694 0.125 RC
/Helvetica 20.533 F
GS
[1 0 0 1 0 0] CT
0 0 moveto 
1 -1 scale
(I) t 
GR
GR
GS
[0 -0.75 0.75 0 540.75 195] CT
0.929 0.694 0.125 RC
/Helvetica 16.427 F
GS
[1 0 0 1 0 0] CT
0 0 moveto 
1 -1 scale
(D) t 
GR
GR
GS
[0 -0.75 0.75 0 533.25 186] CT
0.929 0.694 0.125 RC
/Helvetica 20.533 F
GS
[1 0 0 1 0 0] CT
0 0 moveto 
1 -1 scale
( / A) t 
GR
GR
GS
[0.75 0 0 0.75 0 0] CT
0.941 GC
N
104 445 M
113 445 L
113 37 L
104 37 L
cp
f
GR
GS
[0.75 0 0 0.75 0 0] CT
0.149 GC
2 setlinecap
1 LJ
0.667 LW
N
104 445 M
113 445 L
S
GR
GS
[0.75 0 0 0.75 0 0] CT
0.494 0.184 0.557 RC
2 setlinecap
1 LJ
0.667 LW
N
104 445 M
104 37 L
S
GR
GS
[0.75 0 0 0.75 0 0] CT
0.494 0.184 0.557 RC
2 setlinecap
1 LJ
0.667 LW
N
104 445 M
108.08 445 L
S
GR
GS
[0.75 0 0 0.75 0 0] CT
0.494 0.184 0.557 RC
2 setlinecap
1 LJ
0.667 LW
N
104 386.714 M
108.08 386.714 L
S
GR
GS
[0.75 0 0 0.75 0 0] CT
0.494 0.184 0.557 RC
2 setlinecap
1 LJ
0.667 LW
N
104 328.429 M
108.08 328.429 L
S
GR
GS
[0.75 0 0 0.75 0 0] CT
0.494 0.184 0.557 RC
2 setlinecap
1 LJ
0.667 LW
N
104 270.143 M
108.08 270.143 L
S
GR
GS
[0.75 0 0 0.75 0 0] CT
0.494 0.184 0.557 RC
2 setlinecap
1 LJ
0.667 LW
N
104 211.857 M
108.08 211.857 L
S
GR
GS
[0.75 0 0 0.75 0 0] CT
0.494 0.184 0.557 RC
2 setlinecap
1 LJ
0.667 LW
N
104 153.571 M
108.08 153.571 L
S
GR
GS
[0.75 0 0 0.75 0 0] CT
0.494 0.184 0.557 RC
2 setlinecap
1 LJ
0.667 LW
N
104 95.286 M
108.08 95.286 L
S
GR
GS
[0.75 0 0 0.75 0 0] CT
0.494 0.184 0.557 RC
2 setlinecap
1 LJ
0.667 LW
N
104 37 M
108.08 37 L
S
GR
GS
[0.75 0 0 0.75 73.2 333.75] CT
0.494 0.184 0.557 RC
/Helvetica 18.667 F
GS
[1 0 0 1 0 0] CT
-27 7 moveto 
1 -1 scale
(-50) t 
GR
GR
GS
[0.75 0 0 0.75 73.2 290.03572] CT
0.494 0.184 0.557 RC
/Helvetica 18.667 F
GS
[1 0 0 1 0 0] CT
-11 7 moveto 
1 -1 scale
(0) t 
GR
GR
GS
[0.75 0 0 0.75 73.2 246.32142] CT
0.494 0.184 0.557 RC
/Helvetica 18.667 F
GS
[1 0 0 1 0 0] CT
-21 7 moveto 
1 -1 scale
(50) t 
GR
GR
GS
[0.75 0 0 0.75 73.2 202.60714] CT
0.494 0.184 0.557 RC
/Helvetica 18.667 F
GS
[1 0 0 1 0 0] CT
-32 7 moveto 
1 -1 scale
(100) t 
GR
GR
GS
[0.75 0 0 0.75 73.2 158.89286] CT
0.494 0.184 0.557 RC
/Helvetica 18.667 F
GS
[1 0 0 1 0 0] CT
-32 7 moveto 
1 -1 scale
(150) t 
GR
GR
GS
[0.75 0 0 0.75 73.2 115.17857] CT
0.494 0.184 0.557 RC
/Helvetica 18.667 F
GS
[1 0 0 1 0 0] CT
-32 7 moveto 
1 -1 scale
(200) t 
GR
GR
GS
[0.75 0 0 0.75 73.2 71.46428] CT
0.494 0.184 0.557 RC
/Helvetica 18.667 F
GS
[1 0 0 1 0 0] CT
-32 7 moveto 
1 -1 scale
(250) t 
GR
GR
GS
[0.75 0 0 0.75 73.2 27.75] CT
0.494 0.184 0.557 RC
/Helvetica 18.667 F
GS
[1 0 0 1 0 0] CT
-32 7 moveto 
1 -1 scale
(300) t 
GR
GR
GS
[0 -0.75 0.75 0 36 207.75] CT
0.494 0.184 0.557 RC
/Helvetica 20.533 F
GS
[1 0 0 1 0 0] CT
0 0 moveto 
1 -1 scale
(P) t 
GR
GR
GS
[0 -0.75 0.75 0 43.5 197.25] CT
0.494 0.184 0.557 RC
/Helvetica 16.427 F
GS
[1 0 0 1 0 0] CT
0 0 moveto 
1 -1 scale
(s) t 
GR
GR
GS
[0 -0.75 0.75 0 43.5 190.5] CT
0.494 0.184 0.557 RC
/Helvetica 16.427 F
GS
[1 0 0 1 0 0] CT
0 0 moveto 
1 -1 scale
(w) t 
GR
GR
GS
[0 -0.75 0.75 0 36 181.5] CT
0.494 0.184 0.557 RC
/Helvetica 20.533 F
GS
[1 0 0 1 0 0] CT
0 0 moveto 
1 -1 scale
( / W) t 
GR
GR
GS
[0.75 0 0 0.75 0 0] CT
0.941 GC
N
724 445 M
732 445 L
732 37 L
724 37 L
cp
f
GR
GS
[0.75 0 0 0.75 0 0] CT
0.149 GC
2 setlinecap
1 LJ
0.667 LW
N
724 445 M
732 445 L
S
GR
GS
[0.75 0 0 0.75 0 0] CT
0.467 0.675 0.188 RC
2 setlinecap
1 LJ
0.667 LW
N
732 445 M
732 37 L
S
GR
GS
[0.75 0 0 0.75 0 0] CT
0.467 0.675 0.188 RC
2 setlinecap
1 LJ
0.667 LW
N
732 445 M
727.92 445 L
S
GR
GS
[0.75 0 0 0.75 0 0] CT
0.467 0.675 0.188 RC
2 setlinecap
1 LJ
0.667 LW
N
732 386.714 M
727.92 386.714 L
S
GR
GS
[0.75 0 0 0.75 0 0] CT
0.467 0.675 0.188 RC
2 setlinecap
1 LJ
0.667 LW
N
732 328.429 M
727.92 328.429 L
S
GR
GS
[0.75 0 0 0.75 0 0] CT
0.467 0.675 0.188 RC
2 setlinecap
1 LJ
0.667 LW
N
732 270.143 M
727.92 270.143 L
S
GR
GS
[0.75 0 0 0.75 0 0] CT
0.467 0.675 0.188 RC
2 setlinecap
1 LJ
0.667 LW
N
732 211.857 M
727.92 211.857 L
S
GR
GS
[0.75 0 0 0.75 0 0] CT
0.467 0.675 0.188 RC
2 setlinecap
1 LJ
0.667 LW
N
732 153.571 M
727.92 153.571 L
S
GR
GS
[0.75 0 0 0.75 0 0] CT
0.467 0.675 0.188 RC
2 setlinecap
1 LJ
0.667 LW
N
732 95.286 M
727.92 95.286 L
S
GR
GS
[0.75 0 0 0.75 0 0] CT
0.467 0.675 0.188 RC
2 setlinecap
1 LJ
0.667 LW
N
732 37 M
727.92 37 L
S
GR
GS
[0.75 0 0 0.75 553.80002 333.75] CT
0.467 0.675 0.188 RC
/Helvetica 18.667 F
GS
[1 0 0 1 0 0] CT
0 7 moveto 
1 -1 scale
(0) t 
GR
GR
GS
[0.75 0 0 0.75 553.80002 290.03572] CT
0.467 0.675 0.188 RC
/Helvetica 18.667 F
GS
[1 0 0 1 0 0] CT
0 7 moveto 
1 -1 scale
(5) t 
GR
GR
GS
[0.75 0 0 0.75 553.80002 246.32142] CT
0.467 0.675 0.188 RC
/Helvetica 18.667 F
GS
[1 0 0 1 0 0] CT
0 7 moveto 
1 -1 scale
(10) t 
GR
GR
GS
[0.75 0 0 0.75 553.80002 202.60714] CT
0.467 0.675 0.188 RC
/Helvetica 18.667 F
GS
[1 0 0 1 0 0] CT
0 7 moveto 
1 -1 scale
(15) t 
GR
GR
GS
[0.75 0 0 0.75 553.80002 158.89286] CT
0.467 0.675 0.188 RC
/Helvetica 18.667 F
GS
[1 0 0 1 0 0] CT
0 7 moveto 
1 -1 scale
(20) t 
GR
GR
GS
[0.75 0 0 0.75 553.80002 115.17857] CT
0.467 0.675 0.188 RC
/Helvetica 18.667 F
GS
[1 0 0 1 0 0] CT
0 7 moveto 
1 -1 scale
(25) t 
GR
GR
GS
[0.75 0 0 0.75 553.80002 71.46428] CT
0.467 0.675 0.188 RC
/Helvetica 18.667 F
GS
[1 0 0 1 0 0] CT
0 7 moveto 
1 -1 scale
(30) t 
GR
GR
GS
[0.75 0 0 0.75 553.80002 27.75] CT
0.467 0.675 0.188 RC
/Helvetica 18.667 F
GS
[1 0 0 1 0 0] CT
0 7 moveto 
1 -1 scale
(35) t 
GR
GR
GS
[0 -0.75 0.75 0 588 210] CT
0.467 0.675 0.188 RC
/Helvetica 20.533 F
GS
[1 0 0 1 0 0] CT
0 0 moveto 
1 -1 scale
(E) t 
GR
GR
GS
[0 -0.75 0.75 0 595.5 199.5] CT
0.467 0.675 0.188 RC
/Helvetica 16.427 F
GS
[1 0 0 1 0 0] CT
0 0 moveto 
1 -1 scale
(s) t 
GR
GR
GS
[0 -0.75 0.75 0 595.5 192.75] CT
0.467 0.675 0.188 RC
/Helvetica 16.427 F
GS
[1 0 0 1 0 0] CT
0 0 moveto 
1 -1 scale
(w) t 
GR
GR
GS
[0 -0.75 0.75 0 588 183.75] CT
0.467 0.675 0.188 RC
/Helvetica 20.533 F
GS
[1 0 0 1 0 0] CT
0 0 moveto 
1 -1 scale
( / ) t 
GR
GR
GS
[0 -0.75 0.75 0 588 170.25] CT
0.467 0.675 0.188 RC
N
0.578 3.953 M
0.578 3.828 0.609 3.781 QT
3.688 -8.609 L
3.781 -8.906 4.023 -9.094 QT
4.266 -9.281 4.578 -9.281 QT
4.844 -9.281 5.023 -9.125 QT
5.203 -8.969 5.203 -8.703 QT
5.203 -8.641 5.203 -8.602 QT
5.203 -8.563 5.188 -8.516 QT
3.953 -3.609 L
3.75 -2.734 3.75 -2.109 QT
3.75 -1.328 4.117 -0.82 QT
4.484 -0.313 5.234 -0.313 QT
6.75 -0.313 7.922 -2.219 QT
7.922 -2.25 7.93 -2.258 QT
7.938 -2.266 7.938 -2.281 QT
9.453 -8.375 L
9.531 -8.656 9.781 -8.852 QT
10.031 -9.047 10.344 -9.047 QT
10.578 -9.047 10.773 -8.883 QT
10.969 -8.719 10.969 -8.453 QT
10.969 -8.344 10.938 -8.297 QT
9.438 -2.25 L
9.281 -1.656 9.281 -1.219 QT
9.281 -0.313 9.891 -0.313 QT
10.547 -0.313 10.883 -1.125 QT
11.219 -1.938 11.469 -3.094 QT
11.5 -3.203 11.641 -3.203 QT
11.891 -3.203 L
11.969 -3.203 12.023 -3.141 QT
12.078 -3.078 12.078 -3 QT
11.703 -1.531 11.273 -0.648 QT
10.844 0.234 9.859 0.234 QT
9.156 0.234 8.617 -0.164 QT
8.078 -0.563 7.922 -1.234 QT
7.391 -0.578 6.688 -0.172 QT
5.984 0.234 5.203 0.234 QT
3.891 0.234 3.141 -0.375 QT
2.078 3.859 L
2.016 4.156 1.773 4.344 QT
1.531 4.531 1.219 4.531 QT
0.969 4.531 0.773 4.375 QT
0.578 4.219 0.578 3.953 QT
cp
f
GR
GS
[0 -0.75 0.75 0 588 160.5] CT
0.467 0.675 0.188 RC
/Helvetica 20.533 F
GS
[1 0 0 1 0 0] CT
0 0 moveto 
1 -1 scale
(J) t 
GR
GR
GS
[0.75 0 0 0.75 0 0] CT
1 GC
N
178 445 M
650 445 L
650 37 L
178 37 L
cp
f
GR
GS
[0.75 0 0 0.75 0 0] CT
0.873 GC
1 LJ
0.667 LW
N
178 445 M
178 37 L
S
GR
GS
[0.75 0 0 0.75 0 0] CT
0.873 GC
1 LJ
0.667 LW
N
243.556 445 M
243.556 37 L
S
GR
GS
[0.75 0 0 0.75 0 0] CT
0.873 GC
1 LJ
0.667 LW
N
309.111 445 M
309.111 37 L
S
GR
GS
[0.75 0 0 0.75 0 0] CT
0.873 GC
1 LJ
0.667 LW
N
374.667 445 M
374.667 37 L
S
GR
GS
[0.75 0 0 0.75 0 0] CT
0.873 GC
1 LJ
0.667 LW
N
440.222 445 M
440.222 37 L
S
GR
GS
[0.75 0 0 0.75 0 0] CT
0.873 GC
1 LJ
0.667 LW
N
505.778 445 M
505.778 37 L
S
GR
GS
[0.75 0 0 0.75 0 0] CT
0.873 GC
1 LJ
0.667 LW
N
571.333 445 M
571.333 37 L
S
GR
GS
[0.75 0 0 0.75 0 0] CT
0.873 GC
1 LJ
0.667 LW
N
636.889 445 M
636.889 37 L
S
GR
GS
[0.75 0 0 0.75 0 0] CT
0.873 GC
1 LJ
0.667 LW
N
650 445 M
178 445 L
S
GR
GS
[0.75 0 0 0.75 0 0] CT
0.873 GC
1 LJ
0.667 LW
N
650 386.714 M
178 386.714 L
S
GR
GS
[0.75 0 0 0.75 0 0] CT
0.873 GC
1 LJ
0.667 LW
N
650 328.429 M
178 328.429 L
S
GR
GS
[0.75 0 0 0.75 0 0] CT
0.873 GC
1 LJ
0.667 LW
N
650 270.143 M
178 270.143 L
S
GR
GS
[0.75 0 0 0.75 0 0] CT
0.873 GC
1 LJ
0.667 LW
N
650 211.857 M
178 211.857 L
S
GR
GS
[0.75 0 0 0.75 0 0] CT
0.873 GC
1 LJ
0.667 LW
N
650 153.571 M
178 153.571 L
S
GR
GS
[0.75 0 0 0.75 0 0] CT
0.873 GC
1 LJ
0.667 LW
N
650 95.286 M
178 95.286 L
S
GR
GS
[0.75 0 0 0.75 0 0] CT
0.873 GC
1 LJ
0.667 LW
N
650 37 M
178 37 L
S
GR
GS
[0.75 0 0 0.75 0 0] CT
0.149 GC
2 setlinecap
1 LJ
0.667 LW
N
178 445 M
650 445 L
S
GR
GS
[0.75 0 0 0.75 0 0] CT
0.149 GC
2 setlinecap
1 LJ
0.667 LW
N
178 445 M
178 440.28 L
S
GR
GS
[0.75 0 0 0.75 0 0] CT
0.149 GC
2 setlinecap
1 LJ
0.667 LW
N
243.556 445 M
243.556 440.28 L
S
GR
GS
[0.75 0 0 0.75 0 0] CT
0.149 GC
2 setlinecap
1 LJ
0.667 LW
N
309.111 445 M
309.111 440.28 L
S
GR
GS
[0.75 0 0 0.75 0 0] CT
0.149 GC
2 setlinecap
1 LJ
0.667 LW
N
374.667 445 M
374.667 440.28 L
S
GR
GS
[0.75 0 0 0.75 0 0] CT
0.149 GC
2 setlinecap
1 LJ
0.667 LW
N
440.222 445 M
440.222 440.28 L
S
GR
GS
[0.75 0 0 0.75 0 0] CT
0.149 GC
2 setlinecap
1 LJ
0.667 LW
N
505.778 445 M
505.778 440.28 L
S
GR
GS
[0.75 0 0 0.75 0 0] CT
0.149 GC
2 setlinecap
1 LJ
0.667 LW
N
571.333 445 M
571.333 440.28 L
S
GR
GS
[0.75 0 0 0.75 0 0] CT
0.149 GC
2 setlinecap
1 LJ
0.667 LW
N
636.889 445 M
636.889 440.28 L
S
GR
GS
[0.75 0 0 0.75 133.5 338.55] CT
0.149 GC
/Helvetica 18.667 F
GS
[1 0 0 1 0 0] CT
-5.5 19 moveto 
1 -1 scale
(0) t 
GR
GR
GS
[0.75 0 0 0.75 182.66667 338.55] CT
0.149 GC
/Helvetica 18.667 F
GS
[1 0 0 1 0 0] CT
-10.5 19 moveto 
1 -1 scale
(50) t 
GR
GR
GS
[0.75 0 0 0.75 231.83334 338.55] CT
0.149 GC
/Helvetica 18.667 F
GS
[1 0 0 1 0 0] CT
-16 19 moveto 
1 -1 scale
(100) t 
GR
GR
GS
[0.75 0 0 0.75 280.99999 338.55] CT
0.149 GC
/Helvetica 18.667 F
GS
[1 0 0 1 0 0] CT
-16 19 moveto 
1 -1 scale
(150) t 
GR
GR
GS
[0.75 0 0 0.75 330.16667 338.55] CT
0.149 GC
/Helvetica 18.667 F
GS
[1 0 0 1 0 0] CT
-16 19 moveto 
1 -1 scale
(200) t 
GR
GR
GS
[0.75 0 0 0.75 379.33333 338.55] CT
0.149 GC
/Helvetica 18.667 F
GS
[1 0 0 1 0 0] CT
-16 19 moveto 
1 -1 scale
(250) t 
GR
GR
GS
[0.75 0 0 0.75 428.49998 338.55] CT
0.149 GC
/Helvetica 18.667 F
GS
[1 0 0 1 0 0] CT
-16 19 moveto 
1 -1 scale
(300) t 
GR
GR
GS
[0.75 0 0 0.75 477.66669 338.55] CT
0.149 GC
/Helvetica 18.667 F
GS
[1 0 0 1 0 0] CT
-16 19 moveto 
1 -1 scale
(350) t 
GR
GR
GS
[0.75 0 0 0.75 310.50016 357.55] CT
0.149 GC
/Helvetica 20.533 F
GS
[1 0 0 1 0 0] CT
-42.5 21 moveto 
1 -1 scale
(Time / ns) t 
GR
GR
GS
[0.75 0 0 0.75 0 0] CT
0.149 GC
2 setlinecap
1 LJ
0.667 LW
N
178 445 M
178 37 L
S
GR
GS
[0.75 0 0 0.75 0 0] CT
0.149 GC
2 setlinecap
1 LJ
0.667 LW
N
178 445 M
182.72 445 L
S
GR
GS
[0.75 0 0 0.75 0 0] CT
0.149 GC
2 setlinecap
1 LJ
0.667 LW
N
178 386.714 M
182.72 386.714 L
S
GR
GS
[0.75 0 0 0.75 0 0] CT
0.149 GC
2 setlinecap
1 LJ
0.667 LW
N
178 328.429 M
182.72 328.429 L
S
GR
GS
[0.75 0 0 0.75 0 0] CT
0.149 GC
2 setlinecap
1 LJ
0.667 LW
N
178 270.143 M
182.72 270.143 L
S
GR
GS
[0.75 0 0 0.75 0 0] CT
0.149 GC
2 setlinecap
1 LJ
0.667 LW
N
178 211.857 M
182.72 211.857 L
S
GR
GS
[0.75 0 0 0.75 0 0] CT
0.149 GC
2 setlinecap
1 LJ
0.667 LW
N
178 153.571 M
182.72 153.571 L
S
GR
GS
[0.75 0 0 0.75 0 0] CT
0.149 GC
2 setlinecap
1 LJ
0.667 LW
N
178 95.286 M
182.72 95.286 L
S
GR
GS
[0.75 0 0 0.75 0 0] CT
0.149 GC
2 setlinecap
1 LJ
0.667 LW
N
178 37 M
182.72 37 L
S
GR
GS
[0.75 0 0 0.75 128.7 333.75] CT
0.149 GC
/Helvetica 18.667 F
GS
[1 0 0 1 0 0] CT
-27 7 moveto 
1 -1 scale
(-10) t 
GR
GR
GS
[0.75 0 0 0.75 128.7 290.03572] CT
0.149 GC
/Helvetica 18.667 F
GS
[1 0 0 1 0 0] CT
-11 7 moveto 
1 -1 scale
(0) t 
GR
GR
GS
[0.75 0 0 0.75 128.7 246.32142] CT
0.149 GC
/Helvetica 18.667 F
GS
[1 0 0 1 0 0] CT
-21 7 moveto 
1 -1 scale
(10) t 
GR
GR
GS
[0.75 0 0 0.75 128.7 202.60714] CT
0.149 GC
/Helvetica 18.667 F
GS
[1 0 0 1 0 0] CT
-21 7 moveto 
1 -1 scale
(20) t 
GR
GR
GS
[0.75 0 0 0.75 128.7 158.89286] CT
0.149 GC
/Helvetica 18.667 F
GS
[1 0 0 1 0 0] CT
-21 7 moveto 
1 -1 scale
(30) t 
GR
GR
GS
[0.75 0 0 0.75 128.7 115.17857] CT
0.149 GC
/Helvetica 18.667 F
GS
[1 0 0 1 0 0] CT
-21 7 moveto 
1 -1 scale
(40) t 
GR
GR
GS
[0.75 0 0 0.75 128.7 71.46428] CT
0.149 GC
/Helvetica 18.667 F
GS
[1 0 0 1 0 0] CT
-21 7 moveto 
1 -1 scale
(50) t 
GR
GR
GS
[0.75 0 0 0.75 128.7 27.75] CT
0.149 GC
/Helvetica 18.667 F
GS
[1 0 0 1 0 0] CT
-21 7 moveto 
1 -1 scale
(60) t 
GR
GR
GS
[0 -0.75 0.75 0 95.25 206.25] CT
0.149 GC
/Helvetica 20.533 F
GS
[1 0 0 1 0 0] CT
0 0 moveto 
1 -1 scale
(V) t 
GR
GR
GS
[0 -0.75 0.75 0 102.75 195.75] CT
0.149 GC
/Helvetica 16.427 F
GS
[1 0 0 1 0 0] CT
0 0 moveto 
1 -1 scale
(D) t 
GR
GR
GS
[0 -0.75 0.75 0 102.75 186.75] CT
0.149 GC
/Helvetica 16.427 F
GS
[1 0 0 1 0 0] CT
0 0 moveto 
1 -1 scale
(S) t 
GR
GR
GS
[0 -0.75 0.75 0 95.25 178.5] CT
0.149 GC
/Helvetica 20.533 F
GS
[1 0 0 1 0 0] CT
0 0 moveto 
1 -1 scale
( / V) t 
GR
GR
GS
[0.75 0 0 0.75 0 0] CT
0.851 0.325 0.098 RC
1 LJ
2 LW
N
177.944 390.049 M
178 390.051 L
178.524 390.074 L
179.049 390.098 L
179.573 390.075 L
180.098 390.098 L
180.622 390.098 L
181.147 390.074 L
181.671 390.028 L
182.196 390.005 L
182.72 390.005 L
183.244 390.005 L
183.769 390.005 L
184.293 390.005 L
184.818 390.005 L
185.342 390.005 L
185.867 389.981 L
186.391 390.028 L
186.916 390.051 L
187.44 390.028 L
187.964 390.028 L
188.489 390.051 L
189.013 390.075 L
189.538 390.052 L
190.062 390.052 L
190.587 390.075 L
191.111 390.098 L
191.636 390.098 L
192.16 390.075 L
192.684 390.098 L
193.209 390.145 L
193.733 390.191 L
194.258 390.168 L
194.782 390.191 L
195.307 390.168 L
195.831 390.191 L
196.356 390.191 L
196.88 390.238 L
197.404 390.261 L
197.929 390.284 L
198.453 390.308 L
198.978 390.284 L
199.502 390.308 L
200.027 390.308 L
200.551 390.308 L
201.076 390.308 L
201.6 390.331 L
202.124 390.331 L
202.649 390.331 L
203.173 390.307 L
203.698 390.331 L
204.222 390.284 L
204.747 390.284 L
205.271 390.307 L
205.796 390.307 L
206.32 390.307 L
206.844 390.307 L
207.369 390.307 L
207.893 390.284 L
208.418 390.284 L
208.942 390.307 L
209.467 390.307 L
209.991 390.331 L
210.516 390.331 L
211.04 390.354 L
211.564 390.377 L
212.089 390.33 L
212.613 390.354 L
213.138 390.377 L
213.662 390.377 L
214.187 390.377 L
214.711 390.4 L
215.236 390.447 L
215.76 390.447 L
216.284 390.447 L
216.809 390.4 L
217.333 390.4 L
217.858 390.377 L
218.382 390.33 L
218.907 390.331 L
219.431 390.307 L
219.956 390.33 L
220.48 390.307 L
221.004 390.284 L
221.529 390.26 L
222.053 390.284 L
222.578 390.307 L
223.102 390.284 L
223.627 390.284 L
224.151 390.307 L
224.676 390.353 L
225.2 390.353 L
225.724 390.307 L
226.249 390.307 L
226.773 390.307 L
227.298 390.307 L
227.822 390.307 L
228.347 390.353 L
228.871 390.353 L
229.396 390.353 L
229.92 390.376 L
230.444 390.353 L
230.969 390.353 L
231.493 390.353 L
232.018 390.353 L
232.542 390.376 L
233.067 390.4 L
233.591 390.376 L
234.116 390.376 L
234.64 390.353 L
235.164 390.376 L
235.689 390.376 L
236.213 390.4 L
236.738 390.376 L
237.262 390.353 L
237.787 390.353 L
238.311 390.353 L
238.836 390.33 L
239.36 390.353 L
239.884 390.353 L
240.409 390.353 L
240.933 390.33 L
241.458 390.307 L
241.982 390.33 L
242.507 390.33 L
243.031 390.307 L
243.556 390.353 L
244.08 390.377 L
244.604 390.353 L
245.129 390.377 L
245.653 390.4 L
246.178 390.423 L
246.702 390.423 L
247.227 390.4 L
247.751 390.377 L
248.276 390.377 L
248.8 390.377 L
249.324 390.377 L
249.849 390.377 L
250.373 390.377 L
250.898 390.353 L
251.422 390.33 L
251.947 390.307 L
252.471 390.33 L
252.996 390.284 L
253.52 390.307 L
254.044 390.353 L
254.569 390.353 L
255.093 390.377 L
255.618 390.33 L
256.142 390.33 L
256.667 390.33 L
257.191 390.33 L
257.716 390.306 L
258.24 390.283 L
258.764 390.283 L
259.289 390.26 L
259.813 390.236 L
260.338 390.236 L
260.862 390.19 L
261.387 390.236 L
261.911 390.236 L
262.436 390.283 L
262.96 390.306 L
263.484 390.306 L
264.009 390.329 L
264.533 390.329 L
265.058 390.329 L
265.582 390.329 L
266.107 390.353 L
266.631 390.353 L
267.156 390.376 L
267.68 390.329 L
268.204 390.306 L
268.729 390.306 L
269.253 390.282 L
269.778 390.306 L
270.302 390.306 L
270.827 390.329 L
271.351 390.329 L
271.876 390.352 L
272.4 390.352 L
272.924 390.329 L
273.449 390.329 L
273.973 390.352 L
274.498 390.329 L
275.022 390.352 L
275.547 390.329 L
276.071 390.352 L
276.596 390.352 L
277.12 390.399 L
277.644 390.399 L
278.169 390.422 L
278.693 390.398 L
279.218 390.398 L
279.742 390.398 L
280.267 390.398 L
280.791 390.422 L
281.316 390.422 L
281.84 390.422 L
282.364 390.422 L
282.889 390.422 L
283.413 390.422 L
283.938 390.422 L
284.462 390.398 L
284.987 390.375 L
285.511 390.352 L
286.036 390.375 L
286.56 390.351 L
287.084 390.351 L
287.609 390.351 L
288.133 390.328 L
288.658 390.165 L
289.182 390.002 L
289.707 389.745 L
290.231 389.396 L
290.756 388.976 L
291.28 388.486 L
291.804 387.95 L
292.329 387.344 L
292.853 386.691 L
293.378 385.968 L
293.902 385.269 L
294.427 384.686 L
294.951 384.173 L
295.476 383.59 L
296 383.03 L
296.524 382.471 L
297.049 381.841 L
297.573 381.165 L
298.098 380.466 L
298.622 379.79 L
299.147 379.16 L
299.671 378.484 L
300.196 377.855 L
300.72 377.272 L
301.244 376.642 L
301.769 376.036 L
302.293 375.36 L
302.818 374.754 L
303.342 374.124 L
303.867 373.518 L
304.391 372.912 L
304.916 372.352 L
305.44 371.769 L
305.964 371.21 L
306.489 370.581 L
307.013 370.021 L
307.538 369.462 L
308.062 368.855 L
308.587 368.272 L
309.111 367.666 L
309.636 367.083 L
310.16 366.477 L
310.684 365.848 L
311.209 365.265 L
311.733 364.682 L
312.258 364.006 L
312.782 363.4 L
313.307 362.77 L
313.831 362.164 L
314.356 361.558 L
314.88 360.905 L
315.404 360.299 L
315.929 359.669 L
316.453 359.087 L
316.978 358.457 L
317.502 357.828 L
318.027 357.175 L
318.551 356.592 L
319.076 355.986 L
319.6 355.38 L
320.124 354.774 L
320.649 354.191 L
321.173 353.585 L
321.698 353.002 L
322.222 352.419 L
322.747 351.836 L
323.271 351.253 L
323.796 350.67 L
324.32 350.064 L
324.844 349.458 L
325.369 348.875 L
325.893 348.292 L
326.418 347.686 L
326.942 347.08 L
327.467 346.497 L
327.991 345.891 L
328.516 345.308 L
329.04 344.679 L
329.564 344.096 L
330.089 343.489 L
330.613 342.883 L
331.138 342.277 L
331.662 341.671 L
332.187 341.041 L
332.711 340.388 L
333.236 339.759 L
333.76 339.129 L
334.284 338.5 L
334.809 337.917 L
335.333 337.287 L
335.858 336.658 L
336.382 336.052 L
336.907 335.422 L
337.431 334.84 L
337.956 334.257 L
338.48 333.65 L
339.004 333.068 L
339.529 332.485 L
340.053 331.902 L
340.578 331.296 L
341.102 330.713 L
341.627 330.13 L
342.151 329.5 L
342.676 328.871 L
343.2 328.288 L
343.724 327.705 L
344.249 327.052 L
344.773 326.446 L
345.298 325.84 L
345.822 325.234 L
346.347 324.651 L
346.871 324.022 L
347.396 323.392 L
347.92 322.786 L
348.444 322.18 L
348.969 321.597 L
349.493 320.991 L
350.018 320.385 L
350.542 319.779 L
351.067 319.149 L
351.591 318.566 L
352.116 317.96 L
352.64 317.377 L
353.164 316.771 L
353.689 316.165 L
354.213 315.559 L
354.738 314.929 L
355.262 314.3 L
355.787 313.694 L
356.311 313.111 L
356.836 312.505 L
357.36 311.875 L
357.884 311.269 L
358.409 310.686 L
358.933 310.057 L
359.458 309.474 L
359.982 308.868 L
360.507 308.238 L
361.031 307.609 L
361.556 307.002 L
362.08 306.35 L
362.604 305.743 L
363.129 305.137 L
363.653 304.531 L
364.178 303.948 L
364.702 303.342 L
365.227 302.76 L
365.751 302.13 L
366.276 301.524 L
366.8 300.941 L
367.324 300.288 L
367.849 299.682 L
368.373 299.099 L
368.898 298.493 L
369.422 297.887 L
369.947 297.281 L
370.471 296.651 L
370.996 296.045 L
371.52 295.369 L
372.044 294.716 L
372.569 294.133 L
373.093 293.504 L
373.618 292.874 L
374.142 292.245 L
374.667 291.638 L
375.191 291.032 L
375.716 290.379 L
376.24 289.75 L
376.764 289.12 L
377.289 288.491 L
377.813 287.861 L
378.338 287.232 L
378.862 286.626 L
379.387 285.996 L
379.911 285.39 L
380.436 284.761 L
380.96 284.154 L
381.484 283.525 L
382.009 282.896 L
382.533 282.313 L
383.058 281.683 L
383.582 281.054 L
384.107 280.447 L
384.631 279.818 L
385.156 279.165 L
385.68 278.559 L
386.204 277.93 L
386.729 277.323 L
387.253 276.67 L
387.778 276.041 L
388.302 275.435 L
388.827 274.805 L
389.351 274.222 L
389.876 273.616 L
390.4 272.987 L
390.924 272.334 L
391.449 271.728 L
391.973 271.098 L
392.498 270.469 L
393.022 269.839 L
393.547 269.257 L
394.071 268.627 L
394.596 268.021 L
395.12 267.415 L
395.644 266.785 L
396.169 266.179 L
396.693 265.572 L
397.218 264.943 L
397.742 264.313 L
398.267 263.731 L
398.791 263.101 L
399.316 262.495 L
399.84 261.889 L
400.364 261.236 L
400.889 260.607 L
401.413 260.001 L
401.938 259.418 L
402.462 258.812 L
402.987 258.136 L
403.511 257.506 L
404.036 256.9 L
404.56 256.224 L
405.084 255.594 L
405.609 254.988 L
406.133 254.359 L
406.658 253.729 L
407.182 253.146 L
407.707 252.517 L
408.231 251.91 L
408.756 251.281 L
409.28 250.675 L
409.804 250.022 L
410.329 249.393 L
410.853 248.763 L
411.378 248.157 L
411.902 247.551 L
412.427 246.944 L
412.951 246.292 L
413.476 245.639 L
414 245.009 L
414.524 244.403 L
415.049 243.75 L
415.573 243.121 L
416.098 242.538 L
416.622 241.955 L
417.147 241.372 L
417.671 240.813 L
418.196 240.183 L
418.72 239.554 L
419.244 238.924 L
419.769 238.342 L
420.293 237.712 L
420.818 237.059 L
421.342 236.43 L
421.867 235.8 L
422.391 235.171 L
422.916 234.541 L
423.44 233.935 L
423.964 233.306 L
424.489 232.676 L
425.013 232.093 L
425.538 231.487 L
426.062 230.834 L
426.587 230.228 L
427.111 229.622 L
427.636 229.016 L
428.16 228.41 L
428.684 227.757 L
429.209 227.151 L
429.733 226.544 L
430.258 225.915 L
430.782 225.285 L
431.307 224.679 L
431.831 224.073 L
432.356 223.467 L
432.88 222.861 L
433.404 222.278 L
433.929 221.672 L
434.453 221.089 L
434.978 220.436 L
435.502 219.83 L
436.027 219.2 L
436.551 218.571 L
437.076 217.965 L
437.6 217.382 L
438.124 216.752 L
438.649 216.123 L
439.173 215.517 L
439.698 214.887 L
440.222 214.281 L
440.747 213.652 L
441.271 213.022 L
441.796 212.439 L
442.32 211.833 L
442.844 211.204 L
443.369 210.621 L
443.893 210.038 L
444.418 209.408 L
444.942 208.779 L
445.467 208.173 L
445.991 207.543 L
446.516 206.914 L
447.04 206.307 L
447.564 205.701 L
448.089 205.072 L
448.613 204.442 L
449.138 203.813 L
449.662 203.207 L
450.187 202.554 L
450.711 201.901 L
451.236 201.248 L
451.76 200.619 L
452.284 199.966 L
452.809 199.313 L
453.333 198.684 L
453.858 198.054 L
454.382 197.494 L
454.907 196.842 L
455.431 196.189 L
455.956 195.536 L
456.48 194.883 L
457.004 194.254 L
457.529 193.671 L
458.053 193.041 L
458.578 192.435 L
459.102 191.782 L
459.627 191.153 L
460.151 190.5 L
460.676 189.871 L
461.2 189.265 L
461.724 188.635 L
462.249 188.052 L
462.773 187.446 L
463.298 186.817 L
463.822 186.164 L
464.347 185.511 L
464.871 184.882 L
465.396 184.253 L
465.92 183.646 L
466.444 183.04 L
466.969 182.411 L
467.493 181.735 L
468.018 181.105 L
468.542 180.476 L
469.067 179.846 L
469.591 179.17 L
470.116 178.564 L
470.64 177.934 L
471.164 177.281 L
471.689 176.652 L
472.213 175.999 L
472.738 175.393 L
473.262 174.74 L
473.787 174.134 L
474.311 173.528 L
474.836 172.875 L
475.36 172.269 L
475.884 171.64 L
476.409 171.033 L
476.933 170.381 L
477.458 169.751 L
477.982 169.098 L
478.507 168.492 L
479.031 167.909 L
479.556 167.256 L
480.08 166.627 L
480.604 166.021 L
481.129 165.415 L
481.653 164.785 L
482.178 164.132 L
482.702 163.503 L
483.227 162.85 L
483.751 162.22 L
484.276 161.568 L
484.8 160.915 L
485.324 160.285 L
485.849 159.633 L
486.373 158.98 L
486.898 158.327 L
487.422 157.698 L
487.947 157.115 L
488.471 156.485 L
488.996 155.856 L
489.52 155.25 L
490.044 154.644 L
490.569 153.967 L
491.093 153.338 L
491.618 152.732 L
492.142 152.079 L
492.667 151.45 L
493.191 150.82 L
493.716 150.214 L
494.24 149.584 L
494.764 148.955 L
495.289 148.302 L
495.813 147.673 L
496.338 147.043 L
496.862 146.437 L
497.387 145.784 L
497.911 145.178 L
498.436 144.548 L
498.96 143.942 L
499.484 143.312 L
500.009 142.683 L
500.533 142.03 L
501.058 141.401 L
501.582 140.771 L
502.107 140.142 L
502.631 139.489 L
503.156 138.812 L
503.68 138.183 L
504.204 137.554 L
504.729 136.924 L
505.253 136.295 L
505.778 135.619 L
506.302 134.989 L
506.827 134.383 L
507.351 133.707 L
507.876 133.054 L
508.4 132.425 L
508.924 131.818 L
509.449 131.212 L
509.973 130.559 L
510.498 129.906 L
511.022 129.277 L
511.547 128.671 L
512.071 128.041 L
512.596 127.412 L
513.12 126.806 L
513.644 126.176 L
514.169 125.547 L
514.693 124.894 L
515.218 124.265 L
515.742 123.612 L
516.267 122.982 L
516.791 122.353 L
517.316 121.7 L
517.84 121.094 L
518.364 120.464 L
518.889 119.858 L
519.413 119.229 L
519.938 118.623 L
520.462 118.016 L
520.987 117.41 L
521.511 116.781 L
522.036 116.151 L
522.56 115.522 L
523.084 114.962 L
523.609 114.286 L
524.133 113.657 L
524.658 113.027 L
525.182 112.398 L
525.707 111.768 L
526.231 111.116 L
526.756 110.463 L
527.28 109.857 L
527.804 109.204 L
528.329 108.574 L
528.853 107.898 L
529.378 107.246 L
529.902 106.663 L
530.427 106.057 L
530.951 105.404 L
531.476 104.751 L
532 104.075 L
532.524 103.446 L
533.049 102.816 L
533.573 102.187 L
534.098 101.534 L
534.622 100.928 L
535.147 100.322 L
535.671 99.692 L
536.196 99.063 L
536.72 98.456 L
537.244 97.827 L
537.769 97.221 L
538.293 96.568 L
538.818 95.938 L
539.342 95.285 L
539.867 94.656 L
540.391 94.05 L
540.916 93.444 L
541.44 92.814 L
541.964 92.208 L
542.489 91.602 L
543.013 90.949 L
543.538 90.273 L
544.062 89.644 L
544.587 89.014 L
545.111 88.385 L
545.636 87.755 L
546.16 87.102 L
546.684 86.473 L
547.209 85.867 L
547.733 85.261 L
548.258 84.608 L
548.782 84.002 L
549.307 83.372 L
549.831 82.766 L
550.356 82.183 L
550.88 81.74 L
551.404 81.274 L
551.929 80.924 L
552.453 80.645 L
552.978 80.388 L
553.502 80.225 L
554.027 80.108 L
554.551 80.085 L
555.076 80.132 L
555.6 80.248 L
556.124 80.341 L
556.649 80.271 L
557.173 80.155 L
557.698 80.108 L
558.222 80.015 L
558.747 79.945 L
559.271 79.968 L
559.796 80.038 L
560.32 80.155 L
560.844 80.225 L
561.369 80.248 L
561.893 80.271 L
562.418 80.318 L
562.942 80.318 L
563.467 80.295 L
563.991 80.318 L
564.516 80.341 L
565.04 80.318 L
565.564 80.342 L
566.089 80.318 L
566.613 80.295 L
567.138 80.272 L
567.662 80.225 L
568.187 80.155 L
568.711 80.155 L
569.236 80.085 L
569.76 80.038 L
570.284 79.968 L
570.809 79.945 L
571.333 79.921 L
571.858 79.875 L
572.382 79.851 L
572.907 79.851 L
573.431 79.781 L
573.956 79.781 L
574.48 79.758 L
575.004 79.735 L
575.529 79.711 L
576.053 79.688 L
576.578 79.642 L
577.102 79.665 L
577.627 79.688 L
578.151 79.642 L
578.676 79.595 L
579.2 79.595 L
579.724 79.595 L
580.249 79.595 L
580.773 79.572 L
581.298 79.548 L
581.822 79.525 L
582.347 79.479 L
582.871 79.432 L
583.396 79.385 L
583.92 79.339 L
584.444 79.292 L
584.969 79.222 L
585.493 79.175 L
586.018 79.152 L
586.542 79.129 L
587.067 79.106 L
587.591 79.059 L
588.116 79.059 L
588.64 79.059 L
589.164 79.059 L
589.689 79.036 L
590.213 79.036 L
590.738 79.012 L
591.262 78.989 L
591.787 78.919 L
592.311 78.873 L
592.836 78.873 L
593.36 78.849 L
593.884 78.803 L
594.409 78.803 L
594.933 78.802 L
595.458 78.826 L
595.982 78.803 L
596.507 78.826 L
597.031 78.826 L
597.556 78.802 L
598.08 78.826 L
598.604 78.803 L
599.129 78.803 L
599.653 78.779 L
600.178 78.756 L
600.702 78.733 L
601.227 78.663 L
601.751 78.639 L
602.276 78.57 L
602.8 78.546 L
603.324 78.5 L
603.849 78.453 L
604.373 78.453 L
604.898 78.43 L
605.422 78.406 L
605.947 78.383 L
606.471 78.383 L
606.996 78.36 L
607.52 78.36 L
608.044 78.336 L
608.569 78.29 L
609.093 78.29 L
609.618 78.29 L
610.142 78.266 L
610.667 78.266 L
611.191 78.196 L
611.716 78.196 L
612.24 78.173 L
612.764 78.149 L
613.289 78.173 L
613.813 78.15 L
614.338 78.126 L
614.862 78.103 L
615.387 78.08 L
615.911 78.079 L
616.436 78.033 L
616.96 78.01 L
617.484 77.963 L
618.009 77.963 L
618.533 77.916 L
619.058 77.916 L
619.582 77.916 L
620.107 77.94 L
620.631 77.916 L
621.156 77.893 L
621.68 77.893 L
622.204 77.87 L
622.729 77.87 L
623.253 77.846 L
623.778 77.823 L
624.302 77.823 L
624.827 77.8 L
625.351 77.777 L
625.876 77.753 L
626.4 77.753 L
626.924 77.73 L
627.449 77.707 L
627.973 77.683 L
628.498 77.66 L
629.022 77.637 L
629.547 77.66 L
630.071 77.66 L
630.596 77.59 L
631.12 77.567 L
631.644 77.567 L
632.169 77.544 L
632.693 77.474 L
633.218 77.497 L
633.742 77.52 L
634.267 77.543 L
634.791 77.497 L
635.316 77.474 L
635.84 77.45 L
636.364 77.427 L
636.889 77.427 L
637.413 77.404 L
637.938 77.404 L
638.462 77.38 L
638.987 77.38 L
639.511 77.357 L
640.036 77.334 L
640.56 77.334 L
641.084 77.334 L
641.609 77.31 L
642.133 77.287 L
642.658 77.287 L
643.182 77.264 L
643.707 77.263 L
644.231 77.287 L
644.756 77.263 L
645.28 77.24 L
645.804 77.24 L
646.329 77.24 L
646.853 77.194 L
647.378 77.217 L
647.902 77.217 L
648.427 77.217 L
648.951 77.217 L
649.476 77.24 L
650 77.24 L
650.056 77.238 L
S
GR
GS
[0.75 0 0 0.75 0 0] CT
0.929 0.694 0.125 RC
1 LJ
2 LW
N
177.944 52.308 M
178 52.305 L
178.524 52.331 L
179.049 52.227 L
179.573 52.305 L
180.098 52.253 L
180.622 52.253 L
181.147 52.253 L
181.671 52.096 L
182.196 52.044 L
182.72 52.07 L
183.244 51.992 L
183.769 52.018 L
184.293 51.966 L
184.818 51.94 L
185.342 51.913 L
185.867 51.887 L
186.391 51.835 L
186.916 51.835 L
187.44 51.835 L
187.964 51.887 L
188.489 51.914 L
189.013 51.888 L
189.538 51.94 L
190.062 51.94 L
190.587 51.888 L
191.111 51.809 L
191.636 51.757 L
192.16 51.809 L
192.684 51.835 L
193.209 51.809 L
193.733 51.862 L
194.258 51.783 L
194.782 51.835 L
195.307 51.731 L
195.831 51.679 L
196.356 51.783 L
196.88 51.705 L
197.404 51.626 L
197.929 51.574 L
198.453 51.522 L
198.978 51.444 L
199.502 51.417 L
200.027 51.417 L
200.551 51.365 L
201.076 51.417 L
201.6 51.313 L
202.124 51.417 L
202.649 51.365 L
203.173 51.391 L
203.698 51.286 L
204.222 51.26 L
204.747 51.234 L
205.271 51.286 L
205.796 51.312 L
206.32 51.26 L
206.844 51.312 L
207.369 51.26 L
207.893 51.286 L
208.418 51.286 L
208.942 51.286 L
209.467 51.391 L
209.991 51.391 L
210.516 51.521 L
211.04 51.495 L
211.564 51.547 L
212.089 51.521 L
212.613 51.626 L
213.138 51.521 L
213.662 51.521 L
214.187 51.521 L
214.711 51.443 L
215.236 51.364 L
215.76 51.39 L
216.284 51.364 L
216.809 51.39 L
217.333 51.39 L
217.858 51.391 L
218.382 51.391 L
218.907 51.365 L
219.431 51.26 L
219.956 51.286 L
220.48 51.312 L
221.004 51.26 L
221.529 51.312 L
222.053 51.234 L
222.578 51.26 L
223.102 51.286 L
223.627 51.286 L
224.151 51.26 L
224.676 51.234 L
225.2 51.181 L
225.724 51.129 L
226.249 51.129 L
226.773 51.077 L
227.298 51.077 L
227.822 51.129 L
228.347 51.051 L
228.871 51.051 L
229.396 50.998 L
229.92 51.077 L
230.444 50.972 L
230.969 50.998 L
231.493 51.024 L
232.018 50.946 L
232.542 50.92 L
233.067 50.894 L
233.591 50.841 L
234.116 50.92 L
234.64 50.92 L
235.164 50.972 L
235.689 50.946 L
236.213 50.972 L
236.738 50.972 L
237.262 50.92 L
237.787 50.972 L
238.311 50.972 L
238.836 50.972 L
239.36 50.972 L
239.884 50.972 L
240.409 50.92 L
240.933 50.972 L
241.458 50.972 L
241.982 50.973 L
242.507 50.972 L
243.031 50.946 L
243.556 51.025 L
244.08 50.973 L
244.604 50.92 L
245.129 50.92 L
245.653 50.946 L
246.178 50.972 L
246.702 50.998 L
247.227 51.025 L
247.751 50.946 L
248.276 50.999 L
248.8 51.025 L
249.324 50.999 L
249.849 50.999 L
250.373 51.051 L
250.898 51.051 L
251.422 51.051 L
251.947 51.103 L
252.471 51.129 L
252.996 51.103 L
253.52 51.025 L
254.044 51.051 L
254.569 51.025 L
255.093 51.051 L
255.618 51.155 L
256.142 51.103 L
256.667 51.103 L
257.191 51.155 L
257.716 51.076 L
258.24 51.155 L
258.764 51.207 L
259.289 51.181 L
259.813 51.102 L
260.338 51.128 L
260.862 51.102 L
261.387 51.05 L
261.911 50.998 L
262.436 51.024 L
262.96 50.998 L
263.484 51.076 L
264.009 51.05 L
264.533 51.05 L
265.058 50.919 L
265.582 50.919 L
266.107 50.893 L
266.631 50.893 L
267.156 50.815 L
267.68 50.815 L
268.204 50.762 L
268.729 50.762 L
269.253 50.71 L
269.778 50.71 L
270.302 50.632 L
270.827 50.684 L
271.351 50.632 L
271.876 50.579 L
272.4 50.501 L
272.924 50.527 L
273.449 50.422 L
273.973 50.344 L
274.498 50.318 L
275.022 50.292 L
275.547 50.292 L
276.071 50.292 L
276.596 50.318 L
277.12 50.344 L
277.644 50.344 L
278.169 50.422 L
278.693 50.448 L
279.218 50.396 L
279.742 50.396 L
280.267 50.448 L
280.791 50.448 L
281.316 50.448 L
281.84 50.422 L
282.364 50.396 L
282.889 50.37 L
283.413 50.318 L
283.938 50.344 L
284.462 50.292 L
284.987 50.213 L
285.511 50.187 L
286.036 50.082 L
286.56 50.056 L
287.084 50.082 L
287.609 50.213 L
288.133 50.448 L
288.658 50.84 L
289.182 51.492 L
289.707 52.485 L
290.231 53.738 L
290.756 54.939 L
291.28 55.879 L
291.804 56.506 L
292.329 57.106 L
292.853 57.759 L
293.378 58.699 L
293.902 59.822 L
294.427 61.023 L
294.951 62.25 L
295.476 63.582 L
296 64.6 L
296.524 65.279 L
297.049 65.88 L
297.573 66.533 L
298.098 67.212 L
298.622 67.995 L
299.147 68.752 L
299.671 69.562 L
300.196 70.136 L
300.72 70.319 L
301.244 70.319 L
301.769 69.979 L
302.293 69.588 L
302.818 69.248 L
303.342 68.752 L
303.867 68.412 L
304.391 68.021 L
304.916 67.734 L
305.44 67.42 L
305.964 67.159 L
306.489 67.029 L
307.013 66.898 L
307.538 66.689 L
308.062 66.48 L
308.587 66.402 L
309.111 66.298 L
309.636 66.35 L
310.16 66.741 L
310.684 67.316 L
311.209 68.099 L
311.733 68.909 L
312.258 69.823 L
312.782 70.841 L
313.307 71.938 L
313.831 73.034 L
314.356 74.314 L
314.88 75.593 L
315.404 76.899 L
315.929 77.996 L
316.453 79.04 L
316.978 80.006 L
317.502 80.973 L
318.027 81.86 L
318.551 82.879 L
319.076 83.871 L
319.6 84.707 L
320.124 85.568 L
320.649 86.195 L
321.173 86.639 L
321.698 86.978 L
322.222 87.266 L
322.747 87.475 L
323.271 87.527 L
323.796 87.605 L
324.32 87.657 L
324.844 87.631 L
325.369 87.736 L
325.893 87.893 L
326.418 88.154 L
326.942 88.415 L
327.467 88.78 L
327.991 89.224 L
328.516 89.772 L
329.04 90.451 L
329.564 91.235 L
330.089 92.122 L
330.613 93.088 L
331.138 94.107 L
331.662 95.151 L
332.187 96.378 L
332.711 97.658 L
333.236 98.911 L
333.76 100.191 L
334.284 101.496 L
334.809 102.776 L
335.333 104.055 L
335.858 105.309 L
336.382 106.458 L
336.907 107.45 L
337.431 108.442 L
337.956 109.278 L
338.48 110.035 L
339.004 110.583 L
339.529 111.053 L
340.053 111.419 L
340.578 111.68 L
341.102 111.784 L
341.627 111.967 L
342.151 111.915 L
342.676 111.993 L
343.2 111.993 L
343.724 112.072 L
344.249 112.202 L
344.773 112.489 L
345.298 112.803 L
345.822 113.247 L
346.347 113.847 L
346.871 114.5 L
347.396 115.283 L
347.92 116.119 L
348.444 117.007 L
348.969 118.025 L
349.493 119.018 L
350.018 120.062 L
350.542 121.211 L
351.067 122.334 L
351.591 123.404 L
352.116 124.449 L
352.64 125.337 L
353.164 126.251 L
353.689 127.112 L
354.213 127.713 L
354.738 128.313 L
355.262 128.705 L
355.787 128.992 L
356.311 129.175 L
356.836 129.28 L
357.36 129.28 L
357.884 129.228 L
358.409 129.228 L
358.933 129.306 L
359.458 129.332 L
359.982 129.358 L
360.507 129.541 L
361.031 129.75 L
361.556 130.063 L
362.08 130.403 L
362.604 130.846 L
363.129 131.342 L
363.653 131.891 L
364.178 132.57 L
364.702 133.223 L
365.227 133.902 L
365.751 134.685 L
366.276 135.547 L
366.8 136.356 L
367.324 137.087 L
367.849 137.766 L
368.373 138.419 L
368.898 139.046 L
369.422 139.594 L
369.947 140.09 L
370.471 140.482 L
370.996 140.848 L
371.52 141.187 L
372.044 141.579 L
372.569 141.814 L
373.093 142.101 L
373.618 142.414 L
374.142 142.884 L
374.667 143.328 L
375.191 143.798 L
375.716 144.372 L
376.24 144.868 L
376.764 145.652 L
377.289 146.383 L
377.813 147.192 L
378.338 148.106 L
378.862 148.942 L
379.387 149.934 L
379.911 150.848 L
380.436 151.84 L
380.96 152.754 L
381.484 153.694 L
382.009 154.504 L
382.533 155.287 L
383.058 156.071 L
383.582 156.697 L
384.107 157.376 L
384.631 157.924 L
385.156 158.473 L
385.68 158.812 L
386.204 159.23 L
386.729 159.622 L
387.253 159.883 L
387.778 160.118 L
388.302 160.353 L
388.827 160.64 L
389.351 160.875 L
389.876 161.241 L
390.4 161.58 L
390.924 162.024 L
391.449 162.599 L
391.973 163.199 L
392.498 163.904 L
393.022 164.661 L
393.547 165.445 L
394.071 166.306 L
394.596 167.246 L
395.12 168.212 L
395.644 169.126 L
396.169 169.988 L
396.693 170.823 L
397.218 171.659 L
397.742 172.494 L
398.267 173.252 L
398.791 174.035 L
399.316 174.662 L
399.84 175.367 L
400.364 175.915 L
400.889 176.411 L
401.413 176.777 L
401.938 177.247 L
402.462 177.534 L
402.987 177.822 L
403.511 178.109 L
404.036 178.344 L
404.56 178.657 L
405.084 178.84 L
405.609 179.075 L
406.133 179.414 L
406.658 179.78 L
407.182 180.224 L
407.707 180.641 L
408.231 181.111 L
408.756 181.66 L
409.28 182.182 L
409.804 182.783 L
410.329 183.514 L
410.853 184.193 L
411.378 184.846 L
411.902 185.55 L
412.427 186.229 L
412.951 186.908 L
413.476 187.587 L
414 188.292 L
414.524 188.919 L
415.049 189.441 L
415.573 189.989 L
416.098 190.564 L
416.622 191.034 L
417.147 191.478 L
417.671 192 L
418.196 192.522 L
418.72 192.836 L
419.244 193.228 L
419.769 193.593 L
420.293 193.854 L
420.818 194.22 L
421.342 194.559 L
421.867 194.899 L
422.391 195.395 L
422.916 195.865 L
423.44 196.413 L
423.964 197.014 L
424.489 197.64 L
425.013 198.215 L
425.538 198.92 L
426.062 199.677 L
426.587 200.408 L
427.111 201.139 L
427.636 201.897 L
428.16 202.654 L
428.684 203.411 L
429.209 204.299 L
429.733 205.082 L
430.258 205.892 L
430.782 206.649 L
431.307 207.484 L
431.831 208.19 L
432.356 209.025 L
432.88 209.782 L
433.404 210.54 L
433.929 211.245 L
434.453 212.028 L
434.978 212.681 L
435.502 213.386 L
436.027 213.986 L
436.551 214.744 L
437.076 215.344 L
437.6 216.023 L
438.124 216.623 L
438.649 217.224 L
439.173 217.903 L
439.698 218.478 L
440.222 219.052 L
440.747 219.574 L
441.271 220.305 L
441.796 220.775 L
442.32 221.35 L
442.844 221.82 L
443.369 222.316 L
443.893 222.838 L
444.418 223.308 L
444.942 223.752 L
445.467 224.222 L
445.991 224.666 L
446.516 225.11 L
447.04 225.606 L
447.564 225.998 L
448.089 226.494 L
448.613 226.99 L
449.138 227.434 L
449.662 227.93 L
450.187 228.426 L
450.711 228.87 L
451.236 229.366 L
451.76 229.862 L
452.284 230.384 L
452.809 231.011 L
453.333 231.664 L
453.858 232.291 L
454.382 232.943 L
454.907 233.544 L
455.431 234.092 L
455.956 234.745 L
456.48 235.372 L
457.004 235.946 L
457.529 236.599 L
458.053 237.252 L
458.578 237.643 L
459.102 238.244 L
459.627 238.766 L
460.151 239.184 L
460.676 239.68 L
461.2 240.15 L
461.724 240.568 L
462.249 241.012 L
462.773 241.352 L
463.298 241.639 L
463.822 241.978 L
464.347 242.292 L
464.871 242.684 L
465.396 242.945 L
465.92 243.467 L
466.444 243.911 L
466.969 244.381 L
467.493 244.773 L
468.018 245.295 L
468.542 245.843 L
469.067 246.366 L
469.591 246.992 L
470.116 247.645 L
470.64 248.324 L
471.164 249.029 L
471.689 249.708 L
472.213 250.491 L
472.738 251.144 L
473.262 251.927 L
473.787 252.58 L
474.311 253.39 L
474.836 254.069 L
475.36 254.721 L
475.884 255.296 L
476.409 255.923 L
476.933 256.549 L
477.458 257.124 L
477.982 257.594 L
478.507 258.116 L
479.031 258.586 L
479.556 259.082 L
480.08 259.578 L
480.604 260.048 L
481.129 260.518 L
481.653 261.04 L
482.178 261.563 L
482.702 262.085 L
483.227 262.685 L
483.751 263.207 L
484.276 263.939 L
484.8 264.565 L
485.324 265.297 L
485.849 266.028 L
486.373 266.837 L
486.898 267.569 L
487.422 268.404 L
487.947 269.214 L
488.471 269.971 L
488.996 270.78 L
489.52 271.564 L
490.044 272.373 L
490.569 273.157 L
491.093 273.888 L
491.618 274.567 L
492.142 275.193 L
492.667 275.846 L
493.191 276.473 L
493.716 276.969 L
494.24 277.517 L
494.764 277.935 L
495.289 278.353 L
495.813 278.745 L
496.338 279.136 L
496.862 279.502 L
497.387 279.841 L
497.911 280.18 L
498.436 280.52 L
498.96 280.807 L
499.484 281.277 L
500.009 281.616 L
500.533 282.06 L
501.058 282.504 L
501.582 282.974 L
502.107 283.522 L
502.631 284.097 L
503.156 284.567 L
503.68 285.272 L
504.204 285.899 L
504.729 286.578 L
505.253 287.361 L
505.778 288.04 L
506.302 288.693 L
506.827 289.476 L
507.351 290.155 L
507.876 290.808 L
508.4 291.461 L
508.924 292.009 L
509.449 292.609 L
509.973 293.21 L
510.498 293.811 L
511.022 294.359 L
511.547 294.933 L
512.071 295.429 L
512.596 295.899 L
513.12 296.317 L
513.644 296.813 L
514.169 297.179 L
514.693 297.545 L
515.218 298.041 L
515.742 298.563 L
516.267 298.981 L
516.791 299.503 L
517.316 299.999 L
517.84 300.417 L
518.364 301.044 L
518.889 301.514 L
519.413 302.088 L
519.938 302.663 L
520.462 303.237 L
520.987 303.838 L
521.511 304.439 L
522.036 305.144 L
522.56 305.77 L
523.084 306.397 L
523.609 307.05 L
524.133 307.755 L
524.658 308.329 L
525.182 308.93 L
525.707 309.452 L
526.231 310.079 L
526.756 310.732 L
527.28 311.332 L
527.804 311.828 L
528.329 312.35 L
528.853 312.925 L
529.378 313.473 L
529.902 314.048 L
530.427 314.622 L
530.951 315.145 L
531.476 315.771 L
532 316.346 L
532.524 316.947 L
533.049 317.521 L
533.573 318.148 L
534.098 318.67 L
534.622 319.375 L
535.147 319.897 L
535.671 320.524 L
536.196 321.229 L
536.72 321.856 L
537.244 322.509 L
537.769 323.161 L
538.293 323.762 L
538.818 324.388 L
539.342 324.937 L
539.867 325.59 L
540.391 326.086 L
540.916 326.634 L
541.44 327.235 L
541.964 327.705 L
542.489 328.279 L
543.013 328.828 L
543.538 329.428 L
544.062 329.951 L
544.587 330.499 L
545.111 330.995 L
545.636 331.491 L
546.16 331.961 L
546.684 332.562 L
547.209 333.188 L
547.733 333.711 L
548.258 334.285 L
548.782 334.808 L
549.307 335.33 L
549.831 335.695 L
550.356 335.956 L
550.88 336.191 L
551.404 336.113 L
551.929 335.591 L
552.453 334.964 L
552.978 334.285 L
553.502 333.92 L
554.027 333.789 L
554.551 333.711 L
555.076 333.502 L
555.6 333.136 L
556.124 332.405 L
556.649 331.726 L
557.173 331.074 L
557.698 330.264 L
558.222 329.742 L
558.747 329.585 L
559.271 329.455 L
559.796 329.324 L
560.32 329.219 L
560.844 329.089 L
561.369 328.88 L
561.893 328.723 L
562.418 328.749 L
562.942 329.141 L
563.467 329.794 L
563.991 330.708 L
564.516 331.726 L
565.04 332.771 L
565.564 333.842 L
566.089 334.808 L
566.613 335.852 L
567.138 336.74 L
567.662 337.654 L
568.187 338.516 L
568.711 339.273 L
569.236 340.004 L
569.76 340.787 L
570.284 341.623 L
570.809 342.328 L
571.333 342.954 L
571.858 343.372 L
572.382 343.555 L
572.907 343.528 L
573.431 343.241 L
573.956 342.954 L
574.48 342.562 L
575.004 342.092 L
575.529 341.492 L
576.053 340.865 L
576.578 340.108 L
577.102 339.298 L
577.627 338.593 L
578.151 338.019 L
578.676 337.575 L
579.2 337.236 L
579.724 336.818 L
580.249 336.478 L
580.773 336.139 L
581.298 335.826 L
581.822 335.617 L
582.347 335.434 L
582.871 335.382 L
583.396 335.591 L
583.92 335.852 L
584.444 336.113 L
584.969 336.531 L
585.493 337.079 L
586.018 337.654 L
586.542 338.097 L
587.067 338.672 L
587.591 339.142 L
588.116 339.534 L
588.64 339.873 L
589.164 340.108 L
589.689 340.317 L
590.213 340.343 L
590.738 340.343 L
591.262 340.213 L
591.787 339.925 L
592.311 339.638 L
592.836 339.116 L
593.36 338.62 L
593.884 338.098 L
594.409 337.523 L
594.933 336.766 L
595.458 336.087 L
595.982 335.408 L
596.507 334.729 L
597.031 334.076 L
597.556 333.449 L
598.08 332.797 L
598.604 332.248 L
599.129 331.805 L
599.653 331.491 L
600.178 331.23 L
600.702 331.074 L
601.227 331.048 L
601.751 331.23 L
602.276 331.335 L
602.8 331.805 L
603.324 332.196 L
603.849 332.64 L
604.373 333.241 L
604.898 333.633 L
605.422 334.181 L
605.947 334.599 L
606.471 335.017 L
606.996 335.199 L
607.52 335.382 L
608.044 335.408 L
608.569 335.382 L
609.093 335.304 L
609.618 335.121 L
610.142 334.834 L
610.667 334.546 L
611.191 334.128 L
611.716 333.763 L
612.24 333.371 L
612.764 332.901 L
613.289 332.405 L
613.813 331.909 L
614.338 331.465 L
614.862 331.204 L
615.387 330.89 L
615.911 330.734 L
616.436 330.707 L
616.96 330.838 L
617.484 330.942 L
618.009 331.308 L
618.533 331.674 L
619.058 332.196 L
619.582 332.718 L
620.107 333.267 L
620.631 333.841 L
621.156 334.285 L
621.68 334.781 L
622.204 335.199 L
622.729 335.59 L
623.253 335.852 L
623.778 336.061 L
624.302 336.217 L
624.827 336.296 L
625.351 336.322 L
625.876 336.27 L
626.4 336.191 L
626.924 336.087 L
627.449 335.982 L
627.973 335.799 L
628.498 335.538 L
629.022 335.303 L
629.547 335.147 L
630.071 335.095 L
630.596 335.042 L
631.12 335.016 L
631.644 334.99 L
632.169 335.147 L
632.693 335.303 L
633.218 335.565 L
633.742 335.799 L
634.267 336.061 L
634.791 336.426 L
635.316 336.687 L
635.84 336.949 L
636.364 337.131 L
636.889 337.314 L
637.413 337.445 L
637.938 337.471 L
638.462 337.445 L
638.987 337.262 L
639.511 337.131 L
640.036 336.896 L
640.56 336.557 L
641.084 336.217 L
641.609 335.826 L
642.133 335.408 L
642.658 335.094 L
643.182 334.781 L
643.707 334.494 L
644.231 334.285 L
644.756 333.997 L
645.28 333.893 L
645.804 333.841 L
646.329 333.763 L
646.853 333.841 L
647.378 333.893 L
647.902 334.05 L
648.427 334.285 L
648.951 334.52 L
649.476 334.911 L
650 335.199 L
650.056 335.235 L
S
GR
GS
[0.75 0 0 0.75 0 0] CT
0.494 0.184 0.557 RC
1 LJ
2 LW
N
177.944 399.426 M
178 399.436 L
178.524 399.524 L
179.049 399.617 L
179.573 399.525 L
180.098 399.616 L
180.622 399.616 L
181.147 399.527 L
181.671 399.355 L
182.196 399.269 L
182.72 399.268 L
183.244 399.271 L
183.769 399.27 L
184.293 399.272 L
184.818 399.273 L
185.342 399.274 L
185.867 399.186 L
186.391 399.367 L
186.916 399.456 L
187.44 399.367 L
187.964 399.365 L
188.489 399.453 L
189.013 399.543 L
189.538 399.452 L
190.062 399.452 L
190.587 399.543 L
191.111 399.635 L
191.636 399.638 L
192.16 399.547 L
192.684 399.634 L
193.209 399.814 L
193.733 399.99 L
194.258 399.904 L
194.782 399.991 L
195.307 399.906 L
195.831 399.997 L
196.356 399.992 L
196.88 400.174 L
197.404 400.266 L
197.929 400.357 L
198.453 400.448 L
198.978 400.363 L
199.502 400.453 L
200.027 400.453 L
200.551 400.455 L
201.076 400.453 L
201.6 400.546 L
202.124 400.541 L
202.649 400.543 L
203.173 400.453 L
203.698 400.547 L
204.222 400.369 L
204.747 400.37 L
205.271 400.457 L
205.796 400.456 L
206.32 400.458 L
206.844 400.456 L
207.369 400.459 L
207.893 400.369 L
208.418 400.369 L
208.942 400.458 L
209.467 400.453 L
209.991 400.542 L
210.516 400.536 L
211.04 400.626 L
211.564 400.713 L
212.089 400.535 L
212.613 400.62 L
213.138 400.714 L
213.662 400.714 L
214.187 400.713 L
214.711 400.806 L
215.236 400.987 L
215.76 400.986 L
216.284 400.987 L
216.809 400.808 L
217.333 400.808 L
217.858 400.72 L
218.382 400.541 L
218.907 400.543 L
219.431 400.458 L
219.956 400.546 L
220.48 400.456 L
221.004 400.369 L
221.529 400.277 L
222.053 400.369 L
222.578 400.457 L
223.102 400.366 L
223.627 400.366 L
224.151 400.456 L
224.676 400.636 L
225.2 400.638 L
225.724 400.462 L
226.249 400.462 L
226.773 400.464 L
227.298 400.464 L
227.822 400.462 L
228.347 400.644 L
228.871 400.643 L
229.396 400.646 L
229.92 400.731 L
230.444 400.646 L
230.969 400.645 L
231.493 400.644 L
232.018 400.647 L
232.542 400.738 L
233.067 400.828 L
233.591 400.741 L
234.116 400.738 L
234.64 400.649 L
235.164 400.736 L
235.689 400.737 L
236.213 400.825 L
236.738 400.736 L
237.262 400.649 L
237.787 400.647 L
238.311 400.647 L
238.836 400.557 L
239.36 400.647 L
239.884 400.647 L
240.409 400.65 L
240.933 400.558 L
241.458 400.469 L
241.982 400.559 L
242.507 400.558 L
243.031 400.47 L
243.556 400.645 L
244.08 400.737 L
244.604 400.65 L
245.129 400.739 L
245.653 400.828 L
246.178 400.915 L
246.702 400.914 L
247.227 400.824 L
247.751 400.738 L
248.276 400.736 L
248.8 400.735 L
249.324 400.736 L
249.849 400.736 L
250.373 400.734 L
250.898 400.644 L
251.422 400.555 L
251.947 400.464 L
252.471 400.552 L
252.996 400.374 L
253.52 400.467 L
254.044 400.644 L
254.569 400.645 L
255.093 400.733 L
255.618 400.55 L
256.142 400.552 L
256.667 400.552 L
257.191 400.549 L
257.716 400.463 L
258.24 400.37 L
258.764 400.367 L
259.289 400.28 L
259.813 400.194 L
260.338 400.192 L
260.862 400.015 L
261.387 400.195 L
261.911 400.197 L
262.436 400.375 L
262.96 400.466 L
263.484 400.462 L
264.009 400.552 L
264.533 400.552 L
265.058 400.558 L
265.582 400.558 L
266.107 400.648 L
266.631 400.648 L
267.156 400.74 L
267.68 400.562 L
268.204 400.475 L
268.729 400.475 L
269.253 400.387 L
269.778 400.477 L
270.302 400.48 L
270.827 400.567 L
271.351 400.569 L
271.876 400.66 L
272.4 400.663 L
272.924 400.573 L
273.449 400.577 L
273.973 400.67 L
274.498 400.582 L
275.022 400.672 L
275.547 400.583 L
276.071 400.672 L
276.596 400.671 L
277.12 400.849 L
277.644 400.849 L
278.169 400.935 L
278.693 400.844 L
279.218 400.846 L
279.742 400.846 L
280.267 400.844 L
280.791 400.933 L
281.316 400.933 L
281.84 400.935 L
282.364 400.936 L
282.889 400.937 L
283.413 400.939 L
283.938 400.938 L
284.462 400.85 L
284.987 400.764 L
285.511 400.676 L
286.036 400.77 L
286.56 400.681 L
287.084 400.68 L
287.609 400.674 L
288.133 400.574 L
288.658 399.932 L
289.182 399.28 L
289.707 398.263 L
290.231 396.89 L
290.756 395.264 L
291.28 393.393 L
291.804 391.362 L
292.329 389.077 L
292.853 386.627 L
293.378 383.928 L
293.902 381.336 L
294.427 379.198 L
294.951 377.335 L
295.476 375.235 L
296 373.225 L
296.524 371.211 L
297.049 368.947 L
297.573 366.527 L
298.098 364.034 L
298.622 361.647 L
299.147 359.438 L
299.671 357.079 L
300.196 354.874 L
300.72 352.8 L
301.244 350.539 L
301.769 348.317 L
302.293 345.832 L
302.818 343.599 L
303.342 341.253 L
303.867 339.009 L
304.391 336.752 L
304.916 334.676 L
305.44 332.506 L
305.964 330.428 L
306.489 328.116 L
307.013 326.058 L
307.538 323.98 L
308.062 321.73 L
308.587 319.592 L
309.111 317.361 L
309.636 315.251 L
310.16 313.142 L
310.684 311.001 L
311.209 309.091 L
311.733 307.201 L
312.258 305.015 L
312.782 303.126 L
313.307 301.19 L
313.831 299.355 L
314.356 297.593 L
314.88 295.685 L
315.404 293.969 L
315.929 292.122 L
316.453 290.438 L
316.978 288.578 L
317.502 286.735 L
318.027 284.796 L
318.551 283.161 L
319.076 281.451 L
319.6 279.695 L
320.124 277.962 L
320.649 276.228 L
321.173 274.349 L
321.698 272.512 L
322.222 270.659 L
322.747 268.776 L
323.271 266.828 L
323.796 264.891 L
324.32 262.866 L
324.844 260.806 L
325.369 258.885 L
325.893 256.99 L
326.418 255.068 L
326.942 253.15 L
327.467 251.366 L
327.991 249.548 L
328.516 247.868 L
329.04 246.106 L
329.564 244.566 L
330.089 243.014 L
330.613 241.517 L
331.138 240.064 L
331.662 238.639 L
332.187 237.257 L
332.711 235.847 L
333.236 234.518 L
333.76 233.224 L
334.284 231.965 L
334.809 230.859 L
335.333 229.624 L
335.858 228.392 L
336.382 227.188 L
336.907 225.829 L
337.431 224.632 L
337.956 223.348 L
338.48 221.953 L
339.004 220.504 L
339.529 219.01 L
340.053 217.453 L
340.578 215.759 L
341.102 214.032 L
341.627 212.362 L
342.151 210.386 L
342.676 208.501 L
343.2 206.706 L
343.724 204.967 L
344.249 203.051 L
344.773 201.397 L
345.298 199.767 L
345.822 198.24 L
346.347 196.91 L
346.871 195.487 L
347.396 194.174 L
347.92 192.986 L
348.444 191.851 L
348.969 190.904 L
349.493 189.881 L
350.018 188.914 L
350.542 188.049 L
351.067 187.11 L
351.591 186.282 L
352.116 185.379 L
352.64 184.427 L
353.164 183.442 L
353.689 182.426 L
354.213 181.194 L
354.738 179.904 L
355.262 178.438 L
355.787 176.952 L
356.311 175.443 L
356.836 173.798 L
357.36 171.992 L
357.884 170.205 L
358.409 168.532 L
358.933 166.799 L
359.458 165.152 L
359.982 163.438 L
360.507 161.808 L
361.031 160.206 L
361.556 158.777 L
362.08 157.245 L
362.604 155.954 L
363.129 154.722 L
363.653 153.551 L
364.178 152.586 L
364.702 151.539 L
365.227 150.593 L
365.751 149.635 L
366.276 148.836 L
366.8 148.059 L
367.324 147.017 L
367.849 146.06 L
368.373 145.149 L
368.898 144.155 L
369.422 143.085 L
369.947 141.967 L
370.471 140.676 L
370.996 139.427 L
371.52 137.963 L
372.044 136.627 L
372.569 135.309 L
373.093 133.927 L
373.618 132.58 L
374.142 131.419 L
374.667 130.298 L
375.191 129.214 L
375.716 128.135 L
376.24 127.036 L
376.764 126.287 L
377.289 125.487 L
377.813 124.794 L
378.338 124.239 L
378.862 123.665 L
379.387 123.236 L
379.911 122.785 L
380.436 122.385 L
380.96 121.962 L
381.484 121.526 L
382.009 120.938 L
382.533 120.448 L
383.058 119.851 L
383.582 119.063 L
384.107 118.411 L
384.631 117.54 L
385.156 116.62 L
385.68 115.547 L
386.204 114.526 L
386.729 113.534 L
387.253 112.256 L
387.778 111.004 L
388.302 109.815 L
388.827 108.642 L
389.351 107.518 L
389.876 106.52 L
390.4 105.434 L
390.924 104.442 L
391.449 103.756 L
391.973 103.057 L
392.498 102.517 L
393.022 102.063 L
393.547 101.771 L
394.071 101.491 L
394.596 101.393 L
395.12 101.348 L
395.644 101.186 L
396.169 101.015 L
396.693 100.818 L
397.218 100.58 L
397.742 100.354 L
398.267 100.132 L
398.791 99.851 L
399.316 99.399 L
399.84 99.076 L
400.364 98.415 L
400.889 97.735 L
401.413 96.914 L
401.938 96.314 L
402.462 95.382 L
402.987 94.295 L
403.511 93.318 L
404.036 92.316 L
404.56 91.283 L
405.084 90.152 L
405.609 89.16 L
406.133 88.288 L
406.658 87.464 L
407.182 86.879 L
407.707 86.153 L
408.231 85.572 L
408.756 85.076 L
409.28 84.597 L
409.804 84.153 L
410.329 83.99 L
410.853 83.751 L
411.378 83.527 L
411.902 83.403 L
412.427 83.245 L
412.951 82.996 L
413.476 82.758 L
414 82.626 L
414.524 82.418 L
415.049 81.937 L
415.573 81.56 L
416.098 81.336 L
416.622 80.935 L
417.147 80.495 L
417.671 80.249 L
418.196 79.865 L
418.72 79.113 L
419.244 78.506 L
419.769 77.956 L
420.293 77.123 L
420.818 76.437 L
421.342 75.757 L
421.867 75.082 L
422.391 74.703 L
422.916 74.284 L
423.44 74.066 L
423.964 73.906 L
424.489 73.806 L
425.013 73.71 L
425.538 73.825 L
426.062 73.956 L
426.587 74.141 L
427.111 74.338 L
427.636 74.596 L
428.16 74.865 L
428.684 75.054 L
429.209 75.602 L
429.733 75.958 L
430.258 76.331 L
430.782 76.614 L
431.307 77.109 L
431.831 77.357 L
432.356 77.875 L
432.88 78.249 L
433.404 78.677 L
433.929 78.968 L
434.453 79.471 L
434.978 79.591 L
435.502 79.912 L
436.027 79.988 L
436.551 80.395 L
437.076 80.533 L
437.6 80.884 L
438.124 80.998 L
438.649 81.121 L
439.173 81.46 L
439.698 81.547 L
440.222 81.685 L
440.747 81.679 L
441.271 82.126 L
441.796 82.107 L
442.32 82.279 L
442.844 82.194 L
443.369 82.254 L
443.893 82.377 L
444.418 82.313 L
444.942 82.2 L
445.467 82.191 L
445.991 82.092 L
446.516 82 L
447.04 82.07 L
447.564 81.916 L
448.089 81.96 L
448.613 82.011 L
449.138 81.954 L
449.662 82.06 L
450.187 82.096 L
450.711 82.022 L
451.236 82.073 L
451.76 82.17 L
452.284 82.297 L
452.809 82.673 L
453.333 83.155 L
453.858 83.588 L
454.382 84.202 L
454.907 84.556 L
455.431 84.797 L
455.956 85.291 L
456.48 85.736 L
457.004 86.104 L
457.529 86.737 L
458.053 87.308 L
458.578 87.304 L
459.102 87.732 L
459.627 88.019 L
460.151 88.026 L
460.676 88.265 L
461.2 88.484 L
461.724 88.547 L
462.249 88.751 L
462.773 88.671 L
463.298 88.433 L
463.822 88.294 L
464.347 88.095 L
464.871 88.13 L
465.396 87.847 L
465.92 88.252 L
466.444 88.469 L
466.969 88.724 L
467.493 88.722 L
468.018 89.123 L
468.542 89.597 L
469.067 90.015 L
469.591 90.638 L
470.116 91.439 L
470.64 92.283 L
471.164 93.172 L
471.689 94.038 L
472.213 95.151 L
472.738 96.002 L
473.262 97.139 L
473.787 98.012 L
474.311 99.304 L
474.836 100.203 L
475.36 101.106 L
475.884 101.782 L
476.409 102.635 L
476.933 103.437 L
477.458 104.141 L
477.982 104.544 L
478.507 105.154 L
479.031 105.663 L
479.556 106.158 L
480.08 106.691 L
480.604 107.191 L
481.129 107.698 L
481.653 108.325 L
482.178 108.93 L
482.702 109.573 L
483.227 110.41 L
483.751 111.069 L
484.276 112.286 L
484.8 113.224 L
485.324 114.491 L
485.849 115.741 L
486.373 117.222 L
486.898 118.495 L
487.422 120.101 L
487.947 121.7 L
488.471 123.11 L
488.996 124.68 L
489.52 126.214 L
490.044 127.834 L
490.569 129.314 L
491.093 130.709 L
491.618 131.99 L
492.142 133.082 L
492.667 134.284 L
493.191 135.42 L
493.716 136.212 L
494.24 137.139 L
494.764 137.694 L
495.289 138.231 L
495.813 138.722 L
496.338 139.219 L
496.862 139.669 L
497.387 139.999 L
497.911 140.384 L
498.436 140.749 L
498.96 140.987 L
499.484 141.752 L
500.009 142.133 L
500.533 142.811 L
501.058 143.518 L
501.582 144.31 L
502.107 145.346 L
502.631 146.447 L
503.156 147.218 L
503.68 148.757 L
504.204 150.068 L
504.729 151.549 L
505.253 153.361 L
505.778 154.82 L
506.302 156.252 L
506.827 158.12 L
507.351 159.612 L
507.876 161.055 L
508.4 162.53 L
508.924 163.708 L
509.449 165.058 L
509.973 166.377 L
510.498 167.705 L
511.022 168.899 L
511.547 170.202 L
512.071 171.246 L
512.596 172.216 L
513.12 173.045 L
513.644 174.112 L
514.169 174.768 L
514.693 175.412 L
515.218 176.5 L
515.742 177.661 L
516.267 178.511 L
516.791 179.707 L
517.316 180.806 L
517.84 181.695 L
518.364 183.255 L
518.889 184.329 L
519.413 185.734 L
519.938 187.166 L
520.462 188.606 L
520.987 190.142 L
521.511 191.669 L
522.036 193.552 L
522.56 195.185 L
523.084 196.877 L
523.609 198.585 L
524.133 200.509 L
524.658 202.007 L
525.182 203.601 L
525.707 204.94 L
526.231 206.625 L
526.756 208.409 L
527.28 210.055 L
527.804 211.326 L
528.329 212.708 L
528.853 214.248 L
529.378 215.723 L
529.902 217.338 L
530.427 218.947 L
530.951 220.357 L
531.476 222.137 L
532 223.732 L
532.524 225.455 L
533.049 227.095 L
533.573 228.926 L
534.098 230.389 L
534.622 232.527 L
535.147 234.033 L
535.671 235.901 L
536.196 238.056 L
536.72 239.956 L
537.244 241.947 L
537.769 243.959 L
538.293 245.772 L
538.818 247.699 L
539.342 249.346 L
539.867 251.385 L
540.391 252.884 L
540.916 254.578 L
541.44 256.457 L
541.964 257.885 L
542.489 259.698 L
543.013 261.405 L
543.538 263.3 L
544.062 264.94 L
544.587 266.682 L
545.111 268.242 L
545.636 269.81 L
546.16 271.28 L
546.684 273.247 L
547.209 275.328 L
547.733 277.034 L
548.258 278.923 L
548.782 280.645 L
549.307 282.365 L
549.831 283.519 L
550.356 284.295 L
550.88 285.025 L
551.404 284.576 L
551.929 282.503 L
552.453 280.056 L
552.978 277.418 L
553.502 275.987 L
554.027 275.454 L
554.551 275.151 L
555.076 274.383 L
555.6 273.053 L
556.124 270.343 L
556.649 267.766 L
557.173 265.269 L
557.698 262.209 L
558.222 260.208 L
558.747 259.59 L
559.271 259.109 L
559.796 258.647 L
560.32 258.303 L
560.844 257.842 L
561.369 257.067 L
561.893 256.488 L
562.418 256.606 L
562.942 258.077 L
563.467 260.519 L
563.991 263.96 L
564.516 267.794 L
565.04 271.707 L
565.564 275.735 L
566.089 279.355 L
566.613 283.269 L
567.138 286.595 L
567.662 290.012 L
568.187 293.227 L
568.711 296.072 L
569.236 298.798 L
569.76 301.729 L
570.284 304.85 L
570.809 307.494 L
571.333 309.844 L
571.858 311.403 L
572.382 312.084 L
572.907 311.986 L
573.431 310.888 L
573.956 309.808 L
574.48 308.328 L
575.004 306.554 L
575.529 304.289 L
576.053 301.925 L
576.578 299.062 L
577.102 296.023 L
577.627 293.378 L
578.151 291.202 L
578.676 289.516 L
579.2 288.239 L
579.724 286.666 L
580.249 285.389 L
580.773 284.103 L
581.298 282.916 L
581.822 282.122 L
582.347 281.418 L
582.871 281.205 L
583.396 281.976 L
583.92 282.944 L
584.444 283.912 L
584.969 285.463 L
585.493 287.514 L
586.018 289.672 L
586.542 291.338 L
587.067 293.497 L
587.591 295.254 L
588.116 296.731 L
588.64 298.011 L
589.164 298.897 L
589.689 299.678 L
590.213 299.777 L
590.738 299.77 L
591.262 299.271 L
591.787 298.168 L
592.311 297.071 L
592.836 295.101 L
593.36 293.222 L
593.884 291.237 L
594.409 289.07 L
594.933 286.212 L
595.458 283.658 L
595.982 281.089 L
596.507 278.534 L
597.031 276.071 L
597.556 273.698 L
598.08 271.244 L
598.604 269.166 L
599.129 267.492 L
599.653 266.3 L
600.178 265.306 L
600.702 264.705 L
601.227 264.579 L
601.751 265.26 L
602.276 265.627 L
602.8 267.393 L
603.324 268.854 L
603.849 270.513 L
604.373 272.782 L
604.898 274.253 L
605.422 276.316 L
605.947 277.886 L
606.471 279.465 L
606.996 280.148 L
607.52 280.839 L
608.044 280.929 L
608.569 280.814 L
609.093 280.519 L
609.618 279.828 L
610.142 278.734 L
610.667 277.647 L
611.191 276.043 L
611.716 274.66 L
612.24 273.17 L
612.764 271.384 L
613.289 269.517 L
613.813 267.633 L
614.338 265.945 L
614.862 264.948 L
615.387 263.753 L
615.911 263.16 L
616.436 263.043 L
616.96 263.527 L
617.484 263.904 L
618.009 265.287 L
618.533 266.653 L
619.058 268.63 L
619.582 270.605 L
620.107 272.689 L
620.631 274.854 L
621.156 276.526 L
621.68 278.404 L
622.204 279.977 L
622.729 281.459 L
623.253 282.44 L
623.778 283.223 L
624.302 283.816 L
624.827 284.105 L
625.351 284.196 L
625.876 283.99 L
626.4 283.694 L
626.924 283.29 L
627.449 282.887 L
627.973 282.187 L
628.498 281.19 L
629.022 280.292 L
629.547 279.707 L
630.071 279.509 L
630.596 279.287 L
631.12 279.18 L
631.644 279.081 L
632.169 279.667 L
632.693 280.236 L
633.218 281.234 L
633.742 282.132 L
634.267 283.129 L
634.791 284.499 L
635.316 285.481 L
635.84 286.464 L
636.364 287.148 L
636.889 287.841 L
637.413 288.328 L
637.938 288.427 L
638.462 288.321 L
638.987 287.628 L
639.511 287.125 L
640.036 286.227 L
640.56 284.94 L
641.084 283.653 L
641.609 282.16 L
642.133 280.567 L
642.658 279.379 L
643.182 278.183 L
643.707 277.093 L
644.231 276.309 L
644.756 275.211 L
645.28 274.807 L
645.804 274.609 L
646.329 274.312 L
646.853 274.592 L
647.378 274.798 L
647.902 275.393 L
648.427 276.284 L
648.951 277.175 L
649.476 278.669 L
650 279.759 L
650.056 279.896 L
S
GR
GS
[0.75 0 0 0.75 0 0] CT
0.467 0.675 0.188 RC
[8 8] 0 setdash
2 LJ
2 LW
N
309.111 445 M
309.636 444.718 L
310.16 444.428 L
310.684 444.13 L
311.209 443.823 L
311.733 443.509 L
312.258 443.186 L
312.782 442.856 L
313.307 442.518 L
313.831 442.172 L
314.356 441.819 L
314.88 441.459 L
315.404 441.091 L
315.929 440.716 L
316.453 440.335 L
316.978 439.946 L
317.502 439.549 L
318.027 439.146 L
318.551 438.735 L
319.076 438.317 L
319.6 437.893 L
320.124 437.461 L
320.649 437.023 L
321.173 436.577 L
321.698 436.124 L
322.222 435.663 L
322.747 435.195 L
323.271 434.72 L
323.796 434.236 L
324.32 433.745 L
324.844 433.245 L
325.369 432.738 L
325.893 432.223 L
326.418 431.7 L
326.942 431.17 L
327.467 430.632 L
327.991 430.087 L
328.516 429.535 L
329.04 428.976 L
329.564 428.41 L
330.089 427.839 L
330.613 427.261 L
331.138 426.677 L
331.662 426.088 L
332.187 425.493 L
332.711 424.892 L
333.236 424.286 L
333.76 423.674 L
334.284 423.058 L
334.809 422.437 L
335.333 421.811 L
335.858 421.18 L
336.382 420.544 L
336.907 419.903 L
337.431 419.258 L
337.956 418.607 L
338.48 417.95 L
339.004 417.288 L
339.529 416.621 L
340.053 415.947 L
340.578 415.266 L
341.102 414.579 L
341.627 413.885 L
342.151 413.184 L
342.676 412.474 L
343.2 411.758 L
343.724 411.034 L
344.249 410.304 L
344.773 409.566 L
345.298 408.821 L
345.822 408.07 L
346.347 407.314 L
346.871 406.552 L
347.396 405.784 L
347.92 405.012 L
348.444 404.234 L
348.969 403.453 L
349.493 402.668 L
350.018 401.879 L
350.542 401.086 L
351.067 400.289 L
351.591 399.489 L
352.116 398.685 L
352.64 397.878 L
353.164 397.067 L
353.689 396.252 L
354.213 395.432 L
354.738 394.608 L
355.262 393.778 L
355.787 392.941 L
356.311 392.099 L
356.836 391.251 L
357.36 390.396 L
357.884 389.533 L
358.409 388.664 L
358.933 387.788 L
359.458 386.905 L
359.982 386.015 L
360.507 385.119 L
361.031 384.216 L
361.556 383.307 L
362.08 382.392 L
362.604 381.472 L
363.129 380.546 L
363.653 379.616 L
364.178 378.681 L
364.702 377.743 L
365.227 376.8 L
365.751 375.854 L
366.276 374.904 L
366.8 373.951 L
367.324 372.994 L
367.849 372.033 L
368.373 371.069 L
368.898 370.101 L
369.422 369.128 L
369.947 368.151 L
370.471 367.17 L
370.996 366.183 L
371.52 365.191 L
372.044 364.194 L
372.569 363.191 L
373.093 362.182 L
373.618 361.168 L
374.142 360.149 L
374.667 359.126 L
375.191 358.098 L
375.716 357.066 L
376.24 356.03 L
376.764 354.989 L
377.289 353.946 L
377.813 352.9 L
378.338 351.851 L
378.862 350.8 L
379.387 349.747 L
379.911 348.692 L
380.436 347.635 L
380.96 346.577 L
381.484 345.517 L
382.009 344.456 L
382.533 343.391 L
383.058 342.325 L
383.582 341.256 L
384.107 340.184 L
384.631 339.109 L
385.156 338.031 L
385.68 336.948 L
386.204 335.861 L
386.729 334.771 L
387.253 333.675 L
387.778 332.575 L
388.302 331.47 L
388.827 330.36 L
389.351 329.245 L
389.876 328.127 L
390.4 327.004 L
390.924 325.877 L
391.449 324.746 L
391.973 323.613 L
392.498 322.477 L
393.022 321.34 L
393.547 320.2 L
394.071 319.06 L
394.596 317.919 L
395.12 316.778 L
395.644 315.636 L
396.169 314.493 L
396.693 313.35 L
397.218 312.206 L
397.742 311.061 L
398.267 309.915 L
398.791 308.768 L
399.316 307.62 L
399.84 306.47 L
400.364 305.318 L
400.889 304.164 L
401.413 303.006 L
401.938 301.846 L
402.462 300.682 L
402.987 299.515 L
403.511 298.343 L
404.036 297.167 L
404.56 295.988 L
405.084 294.804 L
405.609 293.616 L
406.133 292.424 L
406.658 291.228 L
407.182 290.03 L
407.707 288.829 L
408.231 287.626 L
408.756 286.42 L
409.28 285.213 L
409.804 284.003 L
410.329 282.793 L
410.853 281.581 L
411.378 280.369 L
411.902 279.156 L
412.427 277.943 L
412.951 276.728 L
413.476 275.513 L
414 274.297 L
414.524 273.08 L
415.049 271.862 L
415.573 270.642 L
416.098 269.421 L
416.622 268.199 L
417.147 266.975 L
417.671 265.749 L
418.196 264.523 L
418.72 263.294 L
419.244 262.062 L
419.769 260.828 L
420.293 259.591 L
420.818 258.352 L
421.342 257.109 L
421.867 255.864 L
422.391 254.617 L
422.916 253.368 L
423.44 252.118 L
423.964 250.867 L
424.489 249.615 L
425.013 248.364 L
425.538 247.112 L
426.062 245.861 L
426.587 244.61 L
427.111 243.36 L
427.636 242.111 L
428.16 240.863 L
428.684 239.616 L
429.209 238.37 L
429.733 237.127 L
430.258 235.884 L
430.782 234.644 L
431.307 233.404 L
431.831 232.166 L
432.356 230.93 L
432.88 229.695 L
433.404 228.462 L
433.929 227.231 L
434.453 226.001 L
434.978 224.772 L
435.502 223.544 L
436.027 222.317 L
436.551 221.091 L
437.076 219.866 L
437.6 218.642 L
438.124 217.419 L
438.649 216.196 L
439.173 214.974 L
439.698 213.754 L
440.222 212.533 L
440.747 211.313 L
441.271 210.094 L
441.796 208.875 L
442.32 207.657 L
442.844 206.439 L
443.369 205.221 L
443.893 204.004 L
444.418 202.786 L
444.942 201.569 L
445.467 200.351 L
445.991 199.132 L
446.516 197.914 L
447.04 196.695 L
447.564 195.476 L
448.089 194.257 L
448.613 193.038 L
449.138 191.819 L
449.662 190.6 L
450.187 189.382 L
450.711 188.163 L
451.236 186.944 L
451.76 185.726 L
452.284 184.508 L
452.809 183.291 L
453.333 182.076 L
453.858 180.863 L
454.382 179.651 L
454.907 178.442 L
455.431 177.234 L
455.956 176.027 L
456.48 174.822 L
457.004 173.619 L
457.529 172.418 L
458.053 171.219 L
458.578 170.022 L
459.102 168.825 L
459.627 167.629 L
460.151 166.435 L
460.676 165.24 L
461.2 164.047 L
461.724 162.854 L
462.249 161.662 L
462.773 160.47 L
463.298 159.277 L
463.822 158.084 L
464.347 156.89 L
464.871 155.695 L
465.396 154.501 L
465.92 153.306 L
466.444 152.112 L
466.969 150.92 L
467.493 149.728 L
468.018 148.537 L
468.542 147.347 L
469.067 146.16 L
469.591 144.974 L
470.116 143.792 L
470.64 142.612 L
471.164 141.436 L
471.689 140.264 L
472.213 139.095 L
472.738 137.931 L
473.262 136.77 L
473.787 135.614 L
474.311 134.461 L
474.836 133.314 L
475.36 132.169 L
475.884 131.028 L
476.409 129.89 L
476.933 128.755 L
477.458 127.624 L
477.982 126.494 L
478.507 125.367 L
479.031 124.242 L
479.556 123.118 L
480.08 121.997 L
480.604 120.878 L
481.129 119.761 L
481.653 118.646 L
482.178 117.534 L
482.702 116.424 L
483.227 115.317 L
483.751 114.213 L
484.276 113.113 L
484.8 112.017 L
485.324 110.926 L
485.849 109.839 L
486.373 108.758 L
486.898 107.683 L
487.422 106.613 L
487.947 105.55 L
488.471 104.493 L
488.996 103.442 L
489.52 102.397 L
490.044 101.358 L
490.569 100.325 L
491.093 99.298 L
491.618 98.277 L
492.142 97.26 L
492.667 96.248 L
493.191 95.241 L
493.716 94.237 L
494.24 93.237 L
494.764 92.24 L
495.289 91.245 L
495.813 90.252 L
496.338 89.261 L
496.862 88.272 L
497.387 87.284 L
497.911 86.298 L
498.436 85.314 L
498.96 84.33 L
499.484 83.349 L
500.009 82.37 L
500.533 81.393 L
501.058 80.419 L
501.582 79.447 L
502.107 78.48 L
502.631 77.516 L
503.156 76.557 L
503.68 75.602 L
504.204 74.653 L
504.729 73.709 L
505.253 72.772 L
505.778 71.842 L
506.302 70.917 L
506.827 69.999 L
507.351 69.087 L
507.876 68.182 L
508.4 67.282 L
508.924 66.388 L
509.449 65.499 L
509.973 64.615 L
510.498 63.736 L
511.022 62.862 L
511.547 61.994 L
512.071 61.13 L
512.596 60.27 L
513.12 59.413 L
513.644 58.561 L
514.169 57.712 L
514.693 56.865 L
515.218 56.022 L
515.742 55.184 L
516.267 54.349 L
516.791 53.519 L
517.316 52.693 L
517.84 51.871 L
518.364 51.054 L
518.889 50.242 L
S
GR
GS
[0.75 0 0 0.75 0 0] CT
1 GC
N
279 190 M
279 73 L
197 73 L
197 190 L
cp
f
GR
GS
[0.75 0 0 0.75 183 69] CT
/Helvetica 16.8 F
GS
[1 0 0 1 0 0] CT
0 0 moveto 
1 -1 scale
(V) t 
GR
GR
GS
[0.75 0 0 0.75 192 75] CT
/Helvetica 13.44 F
GS
[1 0 0 1 0 0] CT
0 0 moveto 
1 -1 scale
(D) t 
GR
GR
GS
[0.75 0 0 0.75 199.5 75] CT
/Helvetica 13.44 F
GS
[1 0 0 1 0 0] CT
0 0 moveto 
1 -1 scale
(S) t 
GR
GR
GS
[0.75 0 0 0.75 0 0] CT
0.851 0.325 0.098 RC
1 LJ
2 LW
N
201 88.932 M
241 88.932 L
S
GR
GS
[0.75 0 0 0.75 183 90] CT
/Helvetica 16.8 F
GS
[1 0 0 1 0 0] CT
0 0 moveto 
1 -1 scale
(I) t 
GR
GR
GS
[0.75 0 0 0.75 186.75 96] CT
/Helvetica 13.44 F
GS
[1 0 0 1 0 0] CT
0 0 moveto 
1 -1 scale
(D) t 
GR
GR
GS
[0.75 0 0 0.75 0 0] CT
0.929 0.694 0.125 RC
1 LJ
2 LW
N
201 117.311 M
241 117.311 L
S
GR
GS
[0.75 0 0 0.75 183 111.75] CT
/Helvetica 16.8 F
GS
[1 0 0 1 0 0] CT
0 0 moveto 
1 -1 scale
(P) t 
GR
GR
GS
[0.75 0 0 0.75 192 117.75] CT
/Helvetica 13.44 F
GS
[1 0 0 1 0 0] CT
0 0 moveto 
1 -1 scale
(s) t 
GR
GR
GS
[0.75 0 0 0.75 197.25 117.75] CT
/Helvetica 13.44 F
GS
[1 0 0 1 0 0] CT
0 0 moveto 
1 -1 scale
(w) t 
GR
GR
GS
[0.75 0 0 0.75 0 0] CT
0.494 0.184 0.557 RC
1 LJ
2 LW
N
201 145.689 M
241 145.689 L
S
GR
GS
[0.75 0 0 0.75 183 132.75] CT
/Helvetica 16.8 F
GS
[1 0 0 1 0 0] CT
0 0 moveto 
1 -1 scale
(E) t 
GR
GR
GS
[0.75 0 0 0.75 192 138.75] CT
/Helvetica 13.44 F
GS
[1 0 0 1 0 0] CT
0 0 moveto 
1 -1 scale
(s) t 
GR
GR
GS
[0.75 0 0 0.75 197.25 138.75] CT
/Helvetica 13.44 F
GS
[1 0 0 1 0 0] CT
0 0 moveto 
1 -1 scale
(w) t 
GR
GR
GS
[0.75 0 0 0.75 0 0] CT
0.467 0.675 0.188 RC
[8 8] 0 setdash
2 LJ
2 LW
N
201 174.068 M
241 174.068 L
S
GR
GS
[0.75 0 0 0.75 0 0] CT
0.149 GC
10.0 ML
0.667 LW
N
197 190 M
197 73 L
279 73 L
279 190 L
cp
S
GR
%%Trailer
%%Pages: 1
%%EOF
