%!PS-Adobe-3.0 EPSF-3.0
%%Creator: (MATLAB, The Mathworks, Inc. Version 24.1.0.2603908 \(R2024a\) Update 3. Operating System: Windows 10)
%%Title: (C:/Users/lorde/Documents/MATLAB/Master Lab Course/Exercise 3/E3_Rg30_all_Eoff.eps)
%%CreationDate: 2024-06-29T11:56:53
%%Pages: (atend)
%%BoundingBox:     0     0   420   315
%%LanguageLevel: 3
%%EndComments
%%BeginProlog
%%BeginResource: procset (Apache XML Graphics Std ProcSet) 1.2 0
%%Version: 1.2 0
%%Copyright: (Copyright 2001-2003,2010 The Apache Software Foundation. License terms: http://www.apache.org/licenses/LICENSE-2.0)
/bd{bind def}bind def
/ld{load def}bd
/GR/grestore ld
/GS/gsave ld
/RM/rmoveto ld
/C/curveto ld
/t/show ld
/L/lineto ld
/ML/setmiterlimit ld
/CT/concat ld
/f/fill ld
/N/newpath ld
/S/stroke ld
/CC/setcmykcolor ld
/A/ashow ld
/cp/closepath ld
/RC/setrgbcolor ld
/LJ/setlinejoin ld
/GC/setgray ld
/LW/setlinewidth ld
/M/moveto ld
/re {4 2 roll M
1 index 0 rlineto
0 exch rlineto
neg 0 rlineto
cp } bd
/_ctm matrix def
/_tm matrix def
/BT { _ctm currentmatrix pop matrix _tm copy pop 0 0 moveto } bd
/ET { _ctm setmatrix } bd
/iTm { _ctm setmatrix _tm concat } bd
/Tm { _tm astore pop iTm 0 0 moveto } bd
/ux 0.0 def
/uy 0.0 def
/F {
  /Tp exch def
  /Tf exch def
  Tf findfont Tp scalefont setfont
  /cf Tf def  /cs Tp def
} bd
/ULS {currentpoint /uy exch def /ux exch def} bd
/ULE {
  /Tcx currentpoint pop def
  gsave
  newpath
  cf findfont cs scalefont dup
  /FontMatrix get 0 get /Ts exch def /FontInfo get dup
  /UnderlinePosition get Ts mul /To exch def
  /UnderlineThickness get Ts mul /Tt exch def
  ux uy To add moveto  Tcx uy To add lineto
  Tt setlinewidth stroke
  grestore
} bd
/OLE {
  /Tcx currentpoint pop def
  gsave
  newpath
  cf findfont cs scalefont dup
  /FontMatrix get 0 get /Ts exch def /FontInfo get dup
  /UnderlinePosition get Ts mul /To exch def
  /UnderlineThickness get Ts mul /Tt exch def
  ux uy To add cs add moveto Tcx uy To add cs add lineto
  Tt setlinewidth stroke
  grestore
} bd
/SOE {
  /Tcx currentpoint pop def
  gsave
  newpath
  cf findfont cs scalefont dup
  /FontMatrix get 0 get /Ts exch def /FontInfo get dup
  /UnderlinePosition get Ts mul /To exch def
  /UnderlineThickness get Ts mul /Tt exch def
  ux uy To add cs 10 mul 26 idiv add moveto Tcx uy To add cs 10 mul 26 idiv add lineto
  Tt setlinewidth stroke
  grestore
} bd
/QT {
/Y22 exch store
/X22 exch store
/Y21 exch store
/X21 exch store
currentpoint
/Y21 load 2 mul add 3 div exch
/X21 load 2 mul add 3 div exch
/X21 load 2 mul /X22 load add 3 div
/Y21 load 2 mul /Y22 load add 3 div
/X22 load /Y22 load curveto
} bd
/SSPD {
dup length /d exch dict def
{
/v exch def
/k exch def
currentpagedevice k known {
/cpdv currentpagedevice k get def
v cpdv ne {
/upd false def
/nullv v type /nulltype eq def
/nullcpdv cpdv type /nulltype eq def
nullv nullcpdv or
{
/upd true def
} {
/sametype v type cpdv type eq def
sametype {
v type /arraytype eq {
/vlen v length def
/cpdvlen cpdv length def
vlen cpdvlen eq {
0 1 vlen 1 sub {
/i exch def
/obj v i get def
/cpdobj cpdv i get def
obj cpdobj ne {
/upd true def
exit
} if
} for
} {
/upd true def
} ifelse
} {
v type /dicttype eq {
v {
/dv exch def
/dk exch def
/cpddv cpdv dk get def
dv cpddv ne {
/upd true def
exit
} if
} forall
} {
/upd true def
} ifelse
} ifelse
} if
} ifelse
upd true eq {
d k v put
} if
} if
} if
} forall
d length 0 gt {
d setpagedevice
} if
} bd
/RE { % /NewFontName [NewEncodingArray] /FontName RE -
  findfont dup length dict begin
  {
    1 index /FID ne
    {def} {pop pop} ifelse
  } forall
  /Encoding exch def
  /FontName 1 index def
  currentdict definefont pop
  end
} bind def
%%EndResource
%%BeginResource: procset (Apache XML Graphics EPS ProcSet) 1.0 0
%%Version: 1.0 0
%%Copyright: (Copyright 2002-2003 The Apache Software Foundation. License terms: http://www.apache.org/licenses/LICENSE-2.0)
/BeginEPSF { %def
/b4_Inc_state save def         % Save state for cleanup
/dict_count countdictstack def % Count objects on dict stack
/op_count count 1 sub def      % Count objects on operand stack
userdict begin                 % Push userdict on dict stack
/showpage { } def              % Redefine showpage, { } = null proc
0 setgray 0 setlinecap         % Prepare graphics state
1 setlinewidth 0 setlinejoin
10 setmiterlimit [ ] 0 setdash newpath
/languagelevel where           % If level not equal to 1 then
{pop languagelevel             % set strokeadjust and
1 ne                           % overprint to their defaults.
{false setstrokeadjust false setoverprint
} if
} if
} bd
/EndEPSF { %def
count op_count sub {pop} repeat            % Clean up stacks
countdictstack dict_count sub {end} repeat
b4_Inc_state restore
} bd
%%EndResource
%FOPBeginFontDict
%%IncludeResource: font Courier-Oblique
%%IncludeResource: font Courier-BoldOblique
%%IncludeResource: font Courier-Bold
%%IncludeResource: font ZapfDingbats
%%IncludeResource: font Symbol
%%IncludeResource: font Helvetica
%%IncludeResource: font Helvetica-Oblique
%%IncludeResource: font Helvetica-Bold
%%IncludeResource: font Helvetica-BoldOblique
%%IncludeResource: font Times-Roman
%%IncludeResource: font Times-Italic
%%IncludeResource: font Times-Bold
%%IncludeResource: font Times-BoldItalic
%%IncludeResource: font Courier
%FOPEndFontDict
%%BeginResource: encoding WinAnsiEncoding
/WinAnsiEncoding [
/.notdef /.notdef /.notdef /.notdef /.notdef
/.notdef /.notdef /.notdef /.notdef /.notdef
/.notdef /.notdef /.notdef /.notdef /.notdef
/.notdef /.notdef /.notdef /.notdef /.notdef
/.notdef /.notdef /.notdef /.notdef /.notdef
/.notdef /.notdef /.notdef /.notdef /.notdef
/.notdef /.notdef /space /exclam /quotedbl
/numbersign /dollar /percent /ampersand /quotesingle
/parenleft /parenright /asterisk /plus /comma
/hyphen /period /slash /zero /one
/two /three /four /five /six
/seven /eight /nine /colon /semicolon
/less /equal /greater /question /at
/A /B /C /D /E
/F /G /H /I /J
/K /L /M /N /O
/P /Q /R /S /T
/U /V /W /X /Y
/Z /bracketleft /backslash /bracketright /asciicircum
/underscore /quoteleft /a /b /c
/d /e /f /g /h
/i /j /k /l /m
/n /o /p /q /r
/s /t /u /v /w
/x /y /z /braceleft /bar
/braceright /asciitilde /bullet /Euro /bullet
/quotesinglbase /florin /quotedblbase /ellipsis /dagger
/daggerdbl /circumflex /perthousand /Scaron /guilsinglleft
/OE /bullet /Zcaron /bullet /bullet
/quoteleft /quoteright /quotedblleft /quotedblright /bullet
/endash /emdash /asciitilde /trademark /scaron
/guilsinglright /oe /bullet /zcaron /Ydieresis
/space /exclamdown /cent /sterling /currency
/yen /brokenbar /section /dieresis /copyright
/ordfeminine /guillemotleft /logicalnot /sfthyphen /registered
/macron /degree /plusminus /twosuperior /threesuperior
/acute /mu /paragraph /middot /cedilla
/onesuperior /ordmasculine /guillemotright /onequarter /onehalf
/threequarters /questiondown /Agrave /Aacute /Acircumflex
/Atilde /Adieresis /Aring /AE /Ccedilla
/Egrave /Eacute /Ecircumflex /Edieresis /Igrave
/Iacute /Icircumflex /Idieresis /Eth /Ntilde
/Ograve /Oacute /Ocircumflex /Otilde /Odieresis
/multiply /Oslash /Ugrave /Uacute /Ucircumflex
/Udieresis /Yacute /Thorn /germandbls /agrave
/aacute /acircumflex /atilde /adieresis /aring
/ae /ccedilla /egrave /eacute /ecircumflex
/edieresis /igrave /iacute /icircumflex /idieresis
/eth /ntilde /ograve /oacute /ocircumflex
/otilde /odieresis /divide /oslash /ugrave
/uacute /ucircumflex /udieresis /yacute /thorn
/ydieresis
] def
%%EndResource
%FOPBeginFontReencode
/Courier-Oblique findfont
dup length dict begin
  {1 index /FID ne {def} {pop pop} ifelse} forall
  /Encoding WinAnsiEncoding def
  currentdict
end
/Courier-Oblique exch definefont pop
/Courier-BoldOblique findfont
dup length dict begin
  {1 index /FID ne {def} {pop pop} ifelse} forall
  /Encoding WinAnsiEncoding def
  currentdict
end
/Courier-BoldOblique exch definefont pop
/Courier-Bold findfont
dup length dict begin
  {1 index /FID ne {def} {pop pop} ifelse} forall
  /Encoding WinAnsiEncoding def
  currentdict
end
/Courier-Bold exch definefont pop
/Helvetica findfont
dup length dict begin
  {1 index /FID ne {def} {pop pop} ifelse} forall
  /Encoding WinAnsiEncoding def
  currentdict
end
/Helvetica exch definefont pop
/Helvetica-Oblique findfont
dup length dict begin
  {1 index /FID ne {def} {pop pop} ifelse} forall
  /Encoding WinAnsiEncoding def
  currentdict
end
/Helvetica-Oblique exch definefont pop
/Helvetica-Bold findfont
dup length dict begin
  {1 index /FID ne {def} {pop pop} ifelse} forall
  /Encoding WinAnsiEncoding def
  currentdict
end
/Helvetica-Bold exch definefont pop
/Helvetica-BoldOblique findfont
dup length dict begin
  {1 index /FID ne {def} {pop pop} ifelse} forall
  /Encoding WinAnsiEncoding def
  currentdict
end
/Helvetica-BoldOblique exch definefont pop
/Times-Roman findfont
dup length dict begin
  {1 index /FID ne {def} {pop pop} ifelse} forall
  /Encoding WinAnsiEncoding def
  currentdict
end
/Times-Roman exch definefont pop
/Times-Italic findfont
dup length dict begin
  {1 index /FID ne {def} {pop pop} ifelse} forall
  /Encoding WinAnsiEncoding def
  currentdict
end
/Times-Italic exch definefont pop
/Times-Bold findfont
dup length dict begin
  {1 index /FID ne {def} {pop pop} ifelse} forall
  /Encoding WinAnsiEncoding def
  currentdict
end
/Times-Bold exch definefont pop
/Times-BoldItalic findfont
dup length dict begin
  {1 index /FID ne {def} {pop pop} ifelse} forall
  /Encoding WinAnsiEncoding def
  currentdict
end
/Times-BoldItalic exch definefont pop
/Courier findfont
dup length dict begin
  {1 index /FID ne {def} {pop pop} ifelse} forall
  /Encoding WinAnsiEncoding def
  currentdict
end
/Courier exch definefont pop
%FOPEndFontReencode
%%EndProlog
%%Page: 1 1
%%PageBoundingBox: 0 0 420 315
%%BeginPageSetup
[1 0 0 -1 0 315] CT
%%EndPageSetup
GS
[0.75 0 0 0.75 0 0] CT
1 GC
N
0 0 560 420 re
f
GR
GS
[0.75 0 0 0.75 0 0] CT
1 GC
N
0 0 560 420 re
f
GR
GS
[0.75 0 0 0.75 0 0] CT
1 GC
N
73 372 M
507 372 L
507 31 L
73 31 L
cp
f
GR
GS
[0.75 0 0 0.75 0 0] CT
0.873 GC
1 LJ
0.667 LW
N
73 372 M
73 31 L
S
GR
GS
[0.75 0 0 0.75 0 0] CT
0.873 GC
1 LJ
0.667 LW
N
127.25 372 M
127.25 31 L
S
GR
GS
[0.75 0 0 0.75 0 0] CT
0.873 GC
1 LJ
0.667 LW
N
181.5 372 M
181.5 31 L
S
GR
GS
[0.75 0 0 0.75 0 0] CT
0.873 GC
1 LJ
0.667 LW
N
235.75 372 M
235.75 31 L
S
GR
GS
[0.75 0 0 0.75 0 0] CT
0.873 GC
1 LJ
0.667 LW
N
290 372 M
290 31 L
S
GR
GS
[0.75 0 0 0.75 0 0] CT
0.873 GC
1 LJ
0.667 LW
N
344.25 372 M
344.25 31 L
S
GR
GS
[0.75 0 0 0.75 0 0] CT
0.873 GC
1 LJ
0.667 LW
N
398.5 372 M
398.5 31 L
S
GR
GS
[0.75 0 0 0.75 0 0] CT
0.873 GC
1 LJ
0.667 LW
N
452.75 372 M
452.75 31 L
S
GR
GS
[0.75 0 0 0.75 0 0] CT
0.873 GC
1 LJ
0.667 LW
N
507 372 M
507 31 L
S
GR
GS
[0.75 0 0 0.75 0 0] CT
0.873 GC
1 LJ
0.667 LW
N
507 372 M
73 372 L
S
GR
GS
[0.75 0 0 0.75 0 0] CT
0.873 GC
1 LJ
0.667 LW
N
507 337.9 M
73 337.9 L
S
GR
GS
[0.75 0 0 0.75 0 0] CT
0.873 GC
1 LJ
0.667 LW
N
507 303.8 M
73 303.8 L
S
GR
GS
[0.75 0 0 0.75 0 0] CT
0.873 GC
1 LJ
0.667 LW
N
507 269.7 M
73 269.7 L
S
GR
GS
[0.75 0 0 0.75 0 0] CT
0.873 GC
1 LJ
0.667 LW
N
507 235.6 M
73 235.6 L
S
GR
GS
[0.75 0 0 0.75 0 0] CT
0.873 GC
1 LJ
0.667 LW
N
507 201.5 M
73 201.5 L
S
GR
GS
[0.75 0 0 0.75 0 0] CT
0.873 GC
1 LJ
0.667 LW
N
507 167.4 M
73 167.4 L
S
GR
GS
[0.75 0 0 0.75 0 0] CT
0.873 GC
1 LJ
0.667 LW
N
507 133.3 M
73 133.3 L
S
GR
GS
[0.75 0 0 0.75 0 0] CT
0.873 GC
1 LJ
0.667 LW
N
507 99.2 M
73 99.2 L
S
GR
GS
[0.75 0 0 0.75 0 0] CT
0.873 GC
1 LJ
0.667 LW
N
507 65.1 M
73 65.1 L
S
GR
GS
[0.75 0 0 0.75 0 0] CT
0.873 GC
1 LJ
0.667 LW
N
507 31 M
73 31 L
S
GR
GS
[0.75 0 0 0.75 0 0] CT
0.149 GC
2 setlinecap
1 LJ
0.667 LW
N
73 372 M
507 372 L
S
GR
GS
[0.75 0 0 0.75 0 0] CT
0.149 GC
2 setlinecap
1 LJ
0.667 LW
N
73 372 M
73 367.66 L
S
GR
GS
[0.75 0 0 0.75 0 0] CT
0.149 GC
2 setlinecap
1 LJ
0.667 LW
N
127.25 372 M
127.25 367.66 L
S
GR
GS
[0.75 0 0 0.75 0 0] CT
0.149 GC
2 setlinecap
1 LJ
0.667 LW
N
181.5 372 M
181.5 367.66 L
S
GR
GS
[0.75 0 0 0.75 0 0] CT
0.149 GC
2 setlinecap
1 LJ
0.667 LW
N
235.75 372 M
235.75 367.66 L
S
GR
GS
[0.75 0 0 0.75 0 0] CT
0.149 GC
2 setlinecap
1 LJ
0.667 LW
N
290 372 M
290 367.66 L
S
GR
GS
[0.75 0 0 0.75 0 0] CT
0.149 GC
2 setlinecap
1 LJ
0.667 LW
N
344.25 372 M
344.25 367.66 L
S
GR
GS
[0.75 0 0 0.75 0 0] CT
0.149 GC
2 setlinecap
1 LJ
0.667 LW
N
398.5 372 M
398.5 367.66 L
S
GR
GS
[0.75 0 0 0.75 0 0] CT
0.149 GC
2 setlinecap
1 LJ
0.667 LW
N
452.75 372 M
452.75 367.66 L
S
GR
GS
[0.75 0 0 0.75 0 0] CT
0.149 GC
2 setlinecap
1 LJ
0.667 LW
N
507 372 M
507 367.66 L
S
GR
GS
[0.75 0 0 0.75 54.75 283.00001] CT
0.149 GC
/Helvetica 13.333 F
GS
[1 0 0 1 0 0] CT
-4 14 moveto 
1 -1 scale
(0) t 
GR
GR
GS
[0.75 0 0 0.75 95.4375 283.00001] CT
0.149 GC
/Helvetica 13.333 F
GS
[1 0 0 1 0 0] CT
-7.5 14 moveto 
1 -1 scale
(10) t 
GR
GR
GS
[0.75 0 0 0.75 136.125 283.00001] CT
0.149 GC
/Helvetica 13.333 F
GS
[1 0 0 1 0 0] CT
-7.5 14 moveto 
1 -1 scale
(20) t 
GR
GR
GS
[0.75 0 0 0.75 176.8125 283.00001] CT
0.149 GC
/Helvetica 13.333 F
GS
[1 0 0 1 0 0] CT
-7.5 14 moveto 
1 -1 scale
(30) t 
GR
GR
GS
[0.75 0 0 0.75 217.5 283.00001] CT
0.149 GC
/Helvetica 13.333 F
GS
[1 0 0 1 0 0] CT
-7.5 14 moveto 
1 -1 scale
(40) t 
GR
GR
GS
[0.75 0 0 0.75 258.1875 283.00001] CT
0.149 GC
/Helvetica 13.333 F
GS
[1 0 0 1 0 0] CT
-7.5 14 moveto 
1 -1 scale
(50) t 
GR
GR
GS
[0.75 0 0 0.75 298.875 283.00001] CT
0.149 GC
/Helvetica 13.333 F
GS
[1 0 0 1 0 0] CT
-7.5 14 moveto 
1 -1 scale
(60) t 
GR
GR
GS
[0.75 0 0 0.75 339.5625 283.00001] CT
0.149 GC
/Helvetica 13.333 F
GS
[1 0 0 1 0 0] CT
-7.5 14 moveto 
1 -1 scale
(70) t 
GR
GR
GS
[0.75 0 0 0.75 380.25 283.00001] CT
0.149 GC
/Helvetica 13.333 F
GS
[1 0 0 1 0 0] CT
-7.5 14 moveto 
1 -1 scale
(80) t 
GR
GR
GS
[0.75 0 0 0.75 217.50016 297] CT
0.149 GC
/Helvetica 18.667 F
GS
[1 0 0 1 0 0] CT
-35.5 19 moveto 
1 -1 scale
(time / ns) t 
GR
GR
GS
[0.75 0 0 0.75 0 0] CT
0.149 GC
2 setlinecap
1 LJ
0.667 LW
N
73 372 M
73 31 L
S
GR
GS
[0.75 0 0 0.75 0 0] CT
0.149 GC
2 setlinecap
1 LJ
0.667 LW
N
73 372 M
77.34 372 L
S
GR
GS
[0.75 0 0 0.75 0 0] CT
0.149 GC
2 setlinecap
1 LJ
0.667 LW
N
73 337.9 M
77.34 337.9 L
S
GR
GS
[0.75 0 0 0.75 0 0] CT
0.149 GC
2 setlinecap
1 LJ
0.667 LW
N
73 303.8 M
77.34 303.8 L
S
GR
GS
[0.75 0 0 0.75 0 0] CT
0.149 GC
2 setlinecap
1 LJ
0.667 LW
N
73 269.7 M
77.34 269.7 L
S
GR
GS
[0.75 0 0 0.75 0 0] CT
0.149 GC
2 setlinecap
1 LJ
0.667 LW
N
73 235.6 M
77.34 235.6 L
S
GR
GS
[0.75 0 0 0.75 0 0] CT
0.149 GC
2 setlinecap
1 LJ
0.667 LW
N
73 201.5 M
77.34 201.5 L
S
GR
GS
[0.75 0 0 0.75 0 0] CT
0.149 GC
2 setlinecap
1 LJ
0.667 LW
N
73 167.4 M
77.34 167.4 L
S
GR
GS
[0.75 0 0 0.75 0 0] CT
0.149 GC
2 setlinecap
1 LJ
0.667 LW
N
73 133.3 M
77.34 133.3 L
S
GR
GS
[0.75 0 0 0.75 0 0] CT
0.149 GC
2 setlinecap
1 LJ
0.667 LW
N
73 99.2 M
77.34 99.2 L
S
GR
GS
[0.75 0 0 0.75 0 0] CT
0.149 GC
2 setlinecap
1 LJ
0.667 LW
N
73 65.1 M
77.34 65.1 L
S
GR
GS
[0.75 0 0 0.75 0 0] CT
0.149 GC
2 setlinecap
1 LJ
0.667 LW
N
73 31 M
77.34 31 L
S
GR
GS
[0.75 0 0 0.75 50.75 279] CT
0.149 GC
/Helvetica 13.333 F
GS
[1 0 0 1 0 0] CT
-8 5.5 moveto 
1 -1 scale
(0) t 
GR
GR
GS
[0.75 0 0 0.75 50.75 253.425] CT
0.149 GC
/Helvetica 13.333 F
GS
[1 0 0 1 0 0] CT
-8 5.5 moveto 
1 -1 scale
(5) t 
GR
GR
GS
[0.75 0 0 0.75 50.75 227.84999] CT
0.149 GC
/Helvetica 13.333 F
GS
[1 0 0 1 0 0] CT
-15 5.5 moveto 
1 -1 scale
(10) t 
GR
GR
GS
[0.75 0 0 0.75 50.75 202.27501] CT
0.149 GC
/Helvetica 13.333 F
GS
[1 0 0 1 0 0] CT
-15 5.5 moveto 
1 -1 scale
(15) t 
GR
GR
GS
[0.75 0 0 0.75 50.75 176.7] CT
0.149 GC
/Helvetica 13.333 F
GS
[1 0 0 1 0 0] CT
-15 5.5 moveto 
1 -1 scale
(20) t 
GR
GR
GS
[0.75 0 0 0.75 50.75 151.125] CT
0.149 GC
/Helvetica 13.333 F
GS
[1 0 0 1 0 0] CT
-15 5.5 moveto 
1 -1 scale
(25) t 
GR
GR
GS
[0.75 0 0 0.75 50.75 125.55] CT
0.149 GC
/Helvetica 13.333 F
GS
[1 0 0 1 0 0] CT
-15 5.5 moveto 
1 -1 scale
(30) t 
GR
GR
GS
[0.75 0 0 0.75 50.75 99.975] CT
0.149 GC
/Helvetica 13.333 F
GS
[1 0 0 1 0 0] CT
-15 5.5 moveto 
1 -1 scale
(35) t 
GR
GR
GS
[0.75 0 0 0.75 50.75 74.4] CT
0.149 GC
/Helvetica 13.333 F
GS
[1 0 0 1 0 0] CT
-15 5.5 moveto 
1 -1 scale
(40) t 
GR
GR
GS
[0.75 0 0 0.75 50.75 48.825] CT
0.149 GC
/Helvetica 13.333 F
GS
[1 0 0 1 0 0] CT
-15 5.5 moveto 
1 -1 scale
(45) t 
GR
GR
GS
[0.75 0 0 0.75 50.75 23.25] CT
0.149 GC
/Helvetica 13.333 F
GS
[1 0 0 1 0 0] CT
-15 5.5 moveto 
1 -1 scale
(50) t 
GR
GR
GS
[0 -0.75 0.75 0 33 187.5] CT
0.149 GC
/Helvetica 18.667 F
GS
[1 0 0 1 0 0] CT
0 0 moveto 
1 -1 scale
(Energy / ) t 
GR
GR
GS
[0 -0.75 0.75 0 33 131.25] CT
0.149 GC
N
0.531 3.578 M
0.531 3.453 0.547 3.422 QT
3.344 -7.797 L
3.422 -8.063 3.641 -8.227 QT
3.859 -8.391 4.141 -8.391 QT
4.375 -8.391 4.547 -8.25 QT
4.719 -8.109 4.719 -7.875 QT
4.719 -7.813 4.711 -7.781 QT
4.703 -7.75 4.688 -7.703 QT
3.578 -3.266 L
3.391 -2.484 3.391 -1.906 QT
3.391 -1.203 3.719 -0.742 QT
4.047 -0.281 4.734 -0.281 QT
6.109 -0.281 7.156 -2.016 QT
7.172 -2.031 7.18 -2.039 QT
7.188 -2.047 7.188 -2.063 QT
8.547 -7.578 L
8.625 -7.828 8.852 -8.008 QT
9.078 -8.188 9.359 -8.188 QT
9.578 -8.188 9.75 -8.039 QT
9.922 -7.891 9.922 -7.656 QT
9.922 -7.547 9.906 -7.5 QT
8.531 -2.031 L
8.391 -1.5 8.391 -1.109 QT
8.391 -0.281 8.953 -0.281 QT
9.547 -0.281 9.852 -1.016 QT
10.156 -1.75 10.375 -2.797 QT
10.406 -2.906 10.531 -2.906 QT
10.75 -2.906 L
10.828 -2.906 10.875 -2.844 QT
10.922 -2.781 10.922 -2.719 QT
10.594 -1.391 10.203 -0.586 QT
9.813 0.219 8.922 0.219 QT
8.281 0.219 7.797 -0.148 QT
7.313 -0.516 7.156 -1.125 QT
6.688 -0.531 6.055 -0.156 QT
5.422 0.219 4.719 0.219 QT
3.531 0.219 2.844 -0.344 QT
1.891 3.5 L
1.828 3.766 1.602 3.93 QT
1.375 4.094 1.109 4.094 QT
0.875 4.094 0.703 3.953 QT
0.531 3.813 0.531 3.578 QT
cp
f
GR
GS
[0 -0.75 0.75 0 33 122.25] CT
0.149 GC
/Helvetica 18.667 F
GS
[1 0 0 1 0 0] CT
0 0 moveto 
1 -1 scale
(J) t 
GR
GR
GS
[0.75 0 0 0.75 0 0] CT
0 0.447 0.741 RC
1 LJ
2 LW
N
73 372 M
75.17 371.89 L
77.34 371.77 L
79.51 371.64 L
81.68 371.499 L
83.85 371.347 L
86.02 371.183 L
88.19 371.007 L
90.36 370.819 L
92.53 370.617 L
94.7 370.401 L
96.87 370.171 L
99.04 369.925 L
101.21 369.664 L
103.38 369.388 L
105.55 369.097 L
107.72 368.79 L
109.89 368.466 L
112.06 368.126 L
114.23 367.769 L
116.4 367.395 L
118.57 367.004 L
120.74 366.595 L
122.91 366.168 L
125.08 365.723 L
127.25 365.258 L
129.42 364.772 L
131.59 364.268 L
133.76 363.744 L
135.93 363.2 L
138.1 362.636 L
140.27 362.052 L
142.44 361.447 L
144.61 360.821 L
146.78 360.174 L
148.95 359.506 L
151.12 358.818 L
153.29 358.109 L
155.46 357.379 L
157.63 356.628 L
159.8 355.855 L
161.97 355.064 L
164.14 354.257 L
166.31 353.433 L
168.48 352.592 L
170.65 351.733 L
172.82 350.857 L
174.99 349.965 L
177.16 349.056 L
179.33 348.132 L
181.5 347.194 L
183.67 346.244 L
185.84 345.279 L
188.01 344.301 L
190.18 343.308 L
192.35 342.303 L
194.52 341.285 L
196.69 340.257 L
198.86 339.22 L
201.03 338.175 L
203.2 337.125 L
205.37 336.071 L
207.54 335.014 L
209.71 333.956 L
211.88 332.898 L
214.05 331.842 L
216.22 330.791 L
218.39 329.745 L
220.56 328.706 L
222.73 327.677 L
224.9 326.658 L
227.07 325.647 L
229.24 324.644 L
231.41 323.649 L
233.58 322.665 L
235.75 321.692 L
237.92 320.73 L
240.09 319.779 L
242.26 318.84 L
244.43 317.912 L
246.6 316.995 L
248.77 316.09 L
250.94 315.195 L
253.11 314.311 L
255.28 313.434 L
257.45 312.565 L
259.62 311.702 L
261.79 310.845 L
263.96 309.995 L
266.13 309.151 L
268.3 308.311 L
270.47 307.477 L
272.64 306.646 L
274.81 305.818 L
276.98 304.992 L
279.15 304.169 L
281.32 303.349 L
283.49 302.531 L
285.66 301.715 L
287.83 300.901 L
290 300.092 L
292.17 299.286 L
294.34 298.484 L
296.51 297.688 L
298.68 296.898 L
300.85 296.113 L
303.02 295.335 L
305.19 294.563 L
307.36 293.796 L
309.53 293.037 L
311.7 292.286 L
313.87 291.542 L
316.04 290.806 L
318.21 290.077 L
320.38 289.356 L
322.55 288.643 L
324.72 287.938 L
326.89 287.24 L
329.06 286.546 L
331.23 285.858 L
333.4 285.176 L
335.57 284.498 L
337.74 283.824 L
339.91 283.155 L
342.08 282.49 L
344.25 281.826 L
346.42 281.164 L
348.59 280.503 L
350.76 279.843 L
352.93 279.183 L
355.1 278.523 L
357.27 277.86 L
359.44 277.197 L
361.61 276.532 L
363.78 275.866 L
365.95 275.198 L
368.12 274.532 L
370.29 273.866 L
372.46 273.2 L
374.63 272.535 L
376.8 271.873 L
378.97 271.212 L
381.14 270.554 L
383.31 269.899 L
385.48 269.247 L
387.65 268.6 L
389.82 267.956 L
391.99 267.314 L
394.16 266.676 L
396.33 266.042 L
398.5 265.412 L
400.67 264.787 L
402.84 264.165 L
405.01 263.547 L
407.18 262.932 L
409.35 262.322 L
411.52 261.714 L
413.69 261.109 L
415.86 260.505 L
418.03 259.903 L
420.2 259.303 L
422.37 258.705 L
424.54 258.108 L
426.71 257.51 L
428.88 256.916 L
431.05 256.324 L
433.22 255.733 L
435.39 255.144 L
437.56 254.558 L
439.73 253.975 L
441.9 253.396 L
444.07 252.82 L
446.24 252.247 L
448.41 251.677 L
450.58 251.112 L
452.75 250.553 L
454.92 249.998 L
457.09 249.448 L
459.26 248.904 L
461.43 248.365 L
463.6 247.832 L
465.77 247.305 L
467.94 246.782 L
470.11 246.263 L
472.28 245.748 L
474.45 245.237 L
476.62 244.731 L
478.79 244.228 L
480.96 243.73 L
483.13 243.233 L
485.3 242.739 L
487.47 242.247 L
489.64 241.757 L
491.81 241.27 L
493.98 240.786 L
496.15 240.305 L
498.32 239.828 L
500.49 239.354 L
502.66 238.884 L
S
GR
GS
[0.75 0 0 0.75 0 0] CT
0.851 0.325 0.098 RC
1 LJ
2 LW
N
73 372 M
75.17 371.805 L
77.34 371.592 L
79.51 371.36 L
81.68 371.108 L
83.85 370.834 L
86.02 370.537 L
88.19 370.217 L
90.36 369.87 L
92.53 369.498 L
94.7 369.098 L
96.87 368.669 L
99.04 368.212 L
101.21 367.725 L
103.38 367.208 L
105.55 366.661 L
107.72 366.082 L
109.89 365.469 L
112.06 364.823 L
114.23 364.143 L
116.4 363.428 L
118.57 362.677 L
120.74 361.889 L
122.91 361.061 L
125.08 360.195 L
127.25 359.29 L
129.42 358.343 L
131.59 357.355 L
133.76 356.324 L
135.93 355.25 L
138.1 354.132 L
140.27 352.969 L
142.44 351.762 L
144.61 350.517 L
146.78 349.239 L
148.95 347.929 L
151.12 346.587 L
153.29 345.209 L
155.46 343.797 L
157.63 342.35 L
159.8 340.871 L
161.97 339.364 L
164.14 337.83 L
166.31 336.272 L
168.48 334.688 L
170.65 333.08 L
172.82 331.447 L
174.99 329.791 L
177.16 328.113 L
179.33 326.415 L
181.5 324.697 L
183.67 322.964 L
185.84 321.218 L
188.01 319.462 L
190.18 317.697 L
192.35 315.927 L
194.52 314.155 L
196.69 312.387 L
198.86 310.625 L
201.03 308.873 L
203.2 307.135 L
205.37 305.412 L
207.54 303.704 L
209.71 302.01 L
211.88 300.327 L
214.05 298.656 L
216.22 296.999 L
218.39 295.36 L
220.56 293.739 L
222.73 292.138 L
224.9 290.558 L
227.07 288.996 L
229.24 287.45 L
231.41 285.922 L
233.58 284.41 L
235.75 282.914 L
237.92 281.433 L
240.09 279.964 L
242.26 278.508 L
244.43 277.064 L
246.6 275.629 L
248.77 274.202 L
250.94 272.783 L
253.11 271.372 L
255.28 269.969 L
257.45 268.573 L
259.62 267.182 L
261.79 265.797 L
263.96 264.416 L
266.13 263.037 L
268.3 261.66 L
270.47 260.289 L
272.64 258.922 L
274.81 257.562 L
276.98 256.207 L
279.15 254.858 L
281.32 253.518 L
283.49 252.188 L
285.66 250.867 L
287.83 249.556 L
290 248.254 L
292.17 246.964 L
294.34 245.685 L
296.51 244.418 L
298.68 243.165 L
300.85 241.925 L
303.02 240.698 L
305.19 239.484 L
307.36 238.282 L
309.53 237.091 L
311.7 235.912 L
313.87 234.743 L
316.04 233.584 L
318.21 232.435 L
320.38 231.293 L
322.55 230.16 L
324.72 229.034 L
326.89 227.914 L
329.06 226.798 L
331.23 225.688 L
333.4 224.582 L
335.57 223.479 L
337.74 222.378 L
339.91 221.277 L
342.08 220.177 L
344.25 219.08 L
346.42 217.983 L
348.59 216.889 L
350.76 215.796 L
352.93 214.704 L
355.1 213.614 L
357.27 212.528 L
359.44 211.446 L
361.61 210.368 L
363.78 209.296 L
365.95 208.23 L
368.12 207.171 L
370.29 206.118 L
372.46 205.071 L
374.63 204.033 L
376.8 203.002 L
378.97 201.979 L
381.14 200.962 L
383.31 199.952 L
385.48 198.95 L
387.65 197.956 L
389.82 196.969 L
391.99 195.988 L
394.16 195.014 L
396.33 194.045 L
398.5 193.081 L
400.67 192.122 L
402.84 191.166 L
405.01 190.213 L
407.18 189.263 L
409.35 188.315 L
411.52 187.37 L
413.69 186.427 L
415.86 185.487 L
418.03 184.548 L
420.2 183.612 L
422.37 182.677 L
424.54 181.747 L
426.71 180.822 L
428.88 179.905 L
431.05 178.994 L
433.22 178.09 L
435.39 177.193 L
437.56 176.303 L
439.73 175.422 L
441.9 174.549 L
444.07 173.685 L
446.24 172.829 L
448.41 171.983 L
450.58 171.146 L
452.75 170.319 L
454.92 169.501 L
457.09 168.694 L
459.26 167.896 L
461.43 167.107 L
463.6 166.326 L
465.77 165.553 L
467.94 164.788 L
470.11 164.029 L
472.28 163.279 L
474.45 162.537 L
476.62 161.803 L
478.79 161.074 L
480.96 160.352 L
483.13 159.636 L
485.3 158.927 L
487.47 158.224 L
489.64 157.526 L
491.81 156.835 L
493.98 156.151 L
496.15 155.473 L
S
GR
GS
[0.75 0 0 0.75 0 0] CT
0.929 0.694 0.125 RC
1 LJ
2 LW
N
73 372 M
75.17 371.649 L
77.34 371.267 L
79.51 370.853 L
81.68 370.407 L
83.85 369.925 L
86.02 369.408 L
88.19 368.852 L
90.36 368.256 L
92.53 367.619 L
94.7 366.939 L
96.87 366.216 L
99.04 365.447 L
101.21 364.631 L
103.38 363.766 L
105.55 362.853 L
107.72 361.889 L
109.89 360.872 L
112.06 359.801 L
114.23 358.676 L
116.4 357.493 L
118.57 356.251 L
120.74 354.949 L
122.91 353.585 L
125.08 352.155 L
127.25 350.66 L
129.42 349.103 L
131.59 347.49 L
133.76 345.827 L
135.93 344.12 L
138.1 342.366 L
140.27 340.568 L
142.44 338.724 L
144.61 336.835 L
146.78 334.901 L
148.95 332.925 L
151.12 330.911 L
153.29 328.863 L
155.46 326.781 L
157.63 324.666 L
159.8 322.519 L
161.97 320.342 L
164.14 318.135 L
166.31 315.901 L
168.48 313.643 L
170.65 311.365 L
172.82 309.069 L
174.99 306.76 L
177.16 304.441 L
179.33 302.116 L
181.5 299.789 L
183.67 297.464 L
185.84 295.146 L
188.01 292.842 L
190.18 290.557 L
192.35 288.295 L
194.52 286.052 L
196.69 283.827 L
198.86 281.62 L
201.03 279.429 L
203.2 277.256 L
205.37 275.104 L
207.54 272.973 L
209.71 270.864 L
211.88 268.778 L
214.05 266.718 L
216.22 264.68 L
218.39 262.663 L
220.56 260.668 L
222.73 258.693 L
224.9 256.738 L
227.07 254.803 L
229.24 252.886 L
231.41 250.985 L
233.58 249.098 L
235.75 247.224 L
237.92 245.363 L
240.09 243.513 L
242.26 241.675 L
244.43 239.845 L
246.6 238.025 L
248.77 236.214 L
250.94 234.41 L
253.11 232.613 L
255.28 230.821 L
257.45 229.037 L
259.62 227.259 L
261.79 225.489 L
263.96 223.728 L
266.13 221.976 L
268.3 220.234 L
270.47 218.501 L
272.64 216.782 L
274.81 215.079 L
276.98 213.391 L
279.15 211.717 L
281.32 210.059 L
283.49 208.416 L
285.66 206.79 L
287.83 205.18 L
290 203.586 L
292.17 202.01 L
294.34 200.45 L
296.51 198.906 L
298.68 197.378 L
300.85 195.866 L
303.02 194.368 L
305.19 192.884 L
307.36 191.412 L
309.53 189.95 L
311.7 188.499 L
313.87 187.056 L
316.04 185.622 L
318.21 184.196 L
320.38 182.777 L
322.55 181.363 L
324.72 179.955 L
326.89 178.551 L
329.06 177.15 L
331.23 175.753 L
333.4 174.359 L
335.57 172.97 L
337.74 171.584 L
339.91 170.201 L
342.08 168.823 L
344.25 167.451 L
346.42 166.086 L
348.59 164.728 L
350.76 163.379 L
352.93 162.038 L
355.1 160.707 L
357.27 159.385 L
359.44 158.075 L
361.61 156.775 L
363.78 155.486 L
365.95 154.209 L
368.12 152.943 L
370.29 151.688 L
372.46 150.444 L
374.63 149.21 L
376.8 147.985 L
378.97 146.769 L
381.14 145.562 L
383.31 144.365 L
385.48 143.175 L
387.65 141.991 L
389.82 140.813 L
391.99 139.64 L
394.16 138.475 L
396.33 137.316 L
398.5 136.163 L
400.67 135.015 L
402.84 133.87 L
405.01 132.729 L
407.18 131.595 L
409.35 130.467 L
411.52 129.347 L
413.69 128.236 L
415.86 127.135 L
418.03 126.043 L
420.2 124.961 L
422.37 123.89 L
424.54 122.829 L
426.71 121.78 L
428.88 120.743 L
431.05 119.718 L
433.22 118.705 L
435.39 117.705 L
437.56 116.718 L
439.73 115.744 L
441.9 114.783 L
444.07 113.835 L
446.24 112.901 L
448.41 111.978 L
450.58 111.068 L
452.75 110.17 L
454.92 109.285 L
457.09 108.41 L
459.26 107.545 L
461.43 106.69 L
463.6 105.845 L
465.77 105.01 L
467.94 104.185 L
470.11 103.369 L
472.28 102.561 L
474.45 101.762 L
476.62 100.971 L
478.79 100.189 L
480.96 99.416 L
483.13 98.649 L
485.3 97.891 L
S
GR
GS
[0.75 0 0 0.75 0 0] CT
0.494 0.184 0.557 RC
1 LJ
2 LW
N
73 372 M
75.17 371.666 L
77.34 371.301 L
79.51 370.905 L
81.68 370.474 L
83.85 370.005 L
86.02 369.496 L
88.19 368.944 L
90.36 368.346 L
92.53 367.701 L
94.7 367.005 L
96.87 366.257 L
99.04 365.456 L
101.21 364.599 L
103.38 363.683 L
105.55 362.709 L
107.72 361.672 L
109.89 360.572 L
112.06 359.406 L
114.23 358.171 L
116.4 356.868 L
118.57 355.491 L
120.74 354.039 L
122.91 352.509 L
125.08 350.897 L
127.25 349.201 L
129.42 347.417 L
131.59 345.548 L
133.76 343.601 L
135.93 341.582 L
138.1 339.499 L
140.27 337.353 L
142.44 335.146 L
144.61 332.878 L
146.78 330.55 L
148.95 328.163 L
151.12 325.721 L
153.29 323.228 L
155.46 320.689 L
157.63 318.107 L
159.8 315.485 L
161.97 312.822 L
164.14 310.121 L
166.31 307.384 L
168.48 304.611 L
170.65 301.807 L
172.82 298.976 L
174.99 296.122 L
177.16 293.251 L
179.33 290.366 L
181.5 287.472 L
183.67 284.573 L
185.84 281.676 L
188.01 278.787 L
190.18 275.912 L
192.35 273.059 L
194.52 270.233 L
196.69 267.436 L
198.86 264.663 L
201.03 261.914 L
203.2 259.188 L
205.37 256.484 L
207.54 253.803 L
209.71 251.147 L
211.88 248.517 L
214.05 245.914 L
216.22 243.339 L
218.39 240.791 L
220.56 238.267 L
222.73 235.766 L
224.9 233.288 L
227.07 230.831 L
229.24 228.394 L
231.41 225.978 L
233.58 223.583 L
235.75 221.205 L
237.92 218.844 L
240.09 216.499 L
242.26 214.169 L
244.43 211.854 L
246.6 209.554 L
248.77 207.267 L
250.94 204.991 L
253.11 202.725 L
255.28 200.47 L
257.45 198.223 L
259.62 195.985 L
261.79 193.756 L
263.96 191.537 L
266.13 189.329 L
268.3 187.133 L
270.47 184.949 L
272.64 182.779 L
274.81 180.624 L
276.98 178.486 L
279.15 176.365 L
281.32 174.26 L
283.49 172.173 L
285.66 170.105 L
287.83 168.057 L
290 166.03 L
292.17 164.023 L
294.34 162.037 L
296.51 160.073 L
298.68 158.13 L
300.85 156.205 L
303.02 154.299 L
305.19 152.409 L
307.36 150.537 L
309.53 148.682 L
311.7 146.841 L
313.87 145.014 L
316.04 143.199 L
318.21 141.395 L
320.38 139.602 L
322.55 137.818 L
324.72 136.042 L
326.89 134.275 L
329.06 132.515 L
331.23 130.763 L
333.4 129.017 L
335.57 127.278 L
337.74 125.546 L
339.91 123.821 L
342.08 122.102 L
344.25 120.391 L
346.42 118.689 L
348.59 116.996 L
350.76 115.312 L
352.93 113.638 L
355.1 111.976 L
357.27 110.326 L
359.44 108.69 L
361.61 107.067 L
363.78 105.458 L
365.95 103.863 L
368.12 102.282 L
370.29 100.715 L
372.46 99.161 L
374.63 97.621 L
376.8 96.094 L
378.97 94.581 L
381.14 93.083 L
383.31 91.596 L
385.48 90.119 L
387.65 88.654 L
389.82 87.199 L
391.99 85.755 L
394.16 84.32 L
396.33 82.893 L
398.5 81.473 L
400.67 80.062 L
402.84 78.658 L
405.01 77.263 L
407.18 75.875 L
409.35 74.494 L
411.52 73.122 L
413.69 71.759 L
415.86 70.406 L
418.03 69.067 L
420.2 67.74 L
422.37 66.426 L
424.54 65.126 L
426.71 63.839 L
428.88 62.567 L
431.05 61.309 L
433.22 60.068 L
435.39 58.841 L
437.56 57.631 L
439.73 56.438 L
441.9 55.261 L
444.07 54.103 L
446.24 52.961 L
448.41 51.834 L
450.58 50.723 L
452.75 49.628 L
454.92 48.547 L
457.09 47.479 L
459.26 46.425 L
461.43 45.387 L
463.6 44.364 L
465.77 43.355 L
467.94 42.36 L
470.11 41.378 L
472.28 40.408 L
474.45 39.452 L
476.62 38.509 L
478.79 37.579 L
480.96 36.663 L
483.13 35.759 L
485.3 34.865 L
487.47 33.982 L
489.64 33.111 L
491.81 32.251 L
493.98 31.402 L
S
GR
GS
[0.75 0 0 0.75 0 0] CT
1 GC
N
178 111 M
178 42 L
95 42 L
95 111 L
cp
f
GR
GS
[0.75 0 0 0.75 106.5 38.94604] CT
/Helvetica 12 F
GS
[1 0 0 1 0 0] CT
0 5 moveto 
1 -1 scale
(7.5A) t 
GR
GR
GS
[0.75 0 0 0.75 0 0] CT
0 0.447 0.741 RC
1 LJ
2 LW
N
99 51.928 M
139 51.928 L
S
GR
GS
[0.75 0 0 0.75 106.5 51.23201] CT
/Helvetica 12 F
GS
[1 0 0 1 0 0] CT
0 5 moveto 
1 -1 scale
(12.8A) t 
GR
GR
GS
[0.75 0 0 0.75 0 0] CT
0.851 0.325 0.098 RC
1 LJ
2 LW
N
99 68.309 M
139 68.309 L
S
GR
GS
[0.75 0 0 0.75 106.5 63.51799] CT
/Helvetica 12 F
GS
[1 0 0 1 0 0] CT
0 5 moveto 
1 -1 scale
(17.0A) t 
GR
GR
GS
[0.75 0 0 0.75 0 0] CT
0.929 0.694 0.125 RC
1 LJ
2 LW
N
99 84.691 M
139 84.691 L
S
GR
GS
[0.75 0 0 0.75 106.5 75.80396] CT
/Helvetica 12 F
GS
[1 0 0 1 0 0] CT
0 5 moveto 
1 -1 scale
(21.2A) t 
GR
GR
GS
[0.75 0 0 0.75 0 0] CT
0.494 0.184 0.557 RC
1 LJ
2 LW
N
99 101.072 M
139 101.072 L
S
GR
GS
[0.75 0 0 0.75 0 0] CT
0.149 GC
10.0 ML
0.667 LW
N
95 111 M
95 42 L
178 42 L
178 111 L
cp
S
GR
%%Trailer
%%Pages: 1
%%EOF
