%!PS-Adobe-3.0 EPSF-3.0
%%Creator: (MATLAB, The Mathworks, Inc. Version 24.1.0.2603908 \(R2024a\) Update 3. Operating System: Windows 10)
%%Title: (C:/Users/lorde/Documents/MATLAB/Master Lab Course/Exercise 3/E3_Rg10_Eon3.eps)
%%CreationDate: 2024-06-30T10:06:53
%%Pages: (atend)
%%BoundingBox:     0     0   600   375
%%LanguageLevel: 3
%%EndComments
%%BeginProlog
%%BeginResource: procset (Apache XML Graphics Std ProcSet) 1.2 0
%%Version: 1.2 0
%%Copyright: (Copyright 2001-2003,2010 The Apache Software Foundation. License terms: http://www.apache.org/licenses/LICENSE-2.0)
/bd{bind def}bind def
/ld{load def}bd
/GR/grestore ld
/GS/gsave ld
/RM/rmoveto ld
/C/curveto ld
/t/show ld
/L/lineto ld
/ML/setmiterlimit ld
/CT/concat ld
/f/fill ld
/N/newpath ld
/S/stroke ld
/CC/setcmykcolor ld
/A/ashow ld
/cp/closepath ld
/RC/setrgbcolor ld
/LJ/setlinejoin ld
/GC/setgray ld
/LW/setlinewidth ld
/M/moveto ld
/re {4 2 roll M
1 index 0 rlineto
0 exch rlineto
neg 0 rlineto
cp } bd
/_ctm matrix def
/_tm matrix def
/BT { _ctm currentmatrix pop matrix _tm copy pop 0 0 moveto } bd
/ET { _ctm setmatrix } bd
/iTm { _ctm setmatrix _tm concat } bd
/Tm { _tm astore pop iTm 0 0 moveto } bd
/ux 0.0 def
/uy 0.0 def
/F {
  /Tp exch def
  /Tf exch def
  Tf findfont Tp scalefont setfont
  /cf Tf def  /cs Tp def
} bd
/ULS {currentpoint /uy exch def /ux exch def} bd
/ULE {
  /Tcx currentpoint pop def
  gsave
  newpath
  cf findfont cs scalefont dup
  /FontMatrix get 0 get /Ts exch def /FontInfo get dup
  /UnderlinePosition get Ts mul /To exch def
  /UnderlineThickness get Ts mul /Tt exch def
  ux uy To add moveto  Tcx uy To add lineto
  Tt setlinewidth stroke
  grestore
} bd
/OLE {
  /Tcx currentpoint pop def
  gsave
  newpath
  cf findfont cs scalefont dup
  /FontMatrix get 0 get /Ts exch def /FontInfo get dup
  /UnderlinePosition get Ts mul /To exch def
  /UnderlineThickness get Ts mul /Tt exch def
  ux uy To add cs add moveto Tcx uy To add cs add lineto
  Tt setlinewidth stroke
  grestore
} bd
/SOE {
  /Tcx currentpoint pop def
  gsave
  newpath
  cf findfont cs scalefont dup
  /FontMatrix get 0 get /Ts exch def /FontInfo get dup
  /UnderlinePosition get Ts mul /To exch def
  /UnderlineThickness get Ts mul /Tt exch def
  ux uy To add cs 10 mul 26 idiv add moveto Tcx uy To add cs 10 mul 26 idiv add lineto
  Tt setlinewidth stroke
  grestore
} bd
/QT {
/Y22 exch store
/X22 exch store
/Y21 exch store
/X21 exch store
currentpoint
/Y21 load 2 mul add 3 div exch
/X21 load 2 mul add 3 div exch
/X21 load 2 mul /X22 load add 3 div
/Y21 load 2 mul /Y22 load add 3 div
/X22 load /Y22 load curveto
} bd
/SSPD {
dup length /d exch dict def
{
/v exch def
/k exch def
currentpagedevice k known {
/cpdv currentpagedevice k get def
v cpdv ne {
/upd false def
/nullv v type /nulltype eq def
/nullcpdv cpdv type /nulltype eq def
nullv nullcpdv or
{
/upd true def
} {
/sametype v type cpdv type eq def
sametype {
v type /arraytype eq {
/vlen v length def
/cpdvlen cpdv length def
vlen cpdvlen eq {
0 1 vlen 1 sub {
/i exch def
/obj v i get def
/cpdobj cpdv i get def
obj cpdobj ne {
/upd true def
exit
} if
} for
} {
/upd true def
} ifelse
} {
v type /dicttype eq {
v {
/dv exch def
/dk exch def
/cpddv cpdv dk get def
dv cpddv ne {
/upd true def
exit
} if
} forall
} {
/upd true def
} ifelse
} ifelse
} if
} ifelse
upd true eq {
d k v put
} if
} if
} if
} forall
d length 0 gt {
d setpagedevice
} if
} bd
/RE { % /NewFontName [NewEncodingArray] /FontName RE -
  findfont dup length dict begin
  {
    1 index /FID ne
    {def} {pop pop} ifelse
  } forall
  /Encoding exch def
  /FontName 1 index def
  currentdict definefont pop
  end
} bind def
%%EndResource
%%BeginResource: procset (Apache XML Graphics EPS ProcSet) 1.0 0
%%Version: 1.0 0
%%Copyright: (Copyright 2002-2003 The Apache Software Foundation. License terms: http://www.apache.org/licenses/LICENSE-2.0)
/BeginEPSF { %def
/b4_Inc_state save def         % Save state for cleanup
/dict_count countdictstack def % Count objects on dict stack
/op_count count 1 sub def      % Count objects on operand stack
userdict begin                 % Push userdict on dict stack
/showpage { } def              % Redefine showpage, { } = null proc
0 setgray 0 setlinecap         % Prepare graphics state
1 setlinewidth 0 setlinejoin
10 setmiterlimit [ ] 0 setdash newpath
/languagelevel where           % If level not equal to 1 then
{pop languagelevel             % set strokeadjust and
1 ne                           % overprint to their defaults.
{false setstrokeadjust false setoverprint
} if
} if
} bd
/EndEPSF { %def
count op_count sub {pop} repeat            % Clean up stacks
countdictstack dict_count sub {end} repeat
b4_Inc_state restore
} bd
%%EndResource
%FOPBeginFontDict
%%IncludeResource: font Courier-Oblique
%%IncludeResource: font Courier-BoldOblique
%%IncludeResource: font Courier-Bold
%%IncludeResource: font ZapfDingbats
%%IncludeResource: font Symbol
%%IncludeResource: font Helvetica
%%IncludeResource: font Helvetica-Oblique
%%IncludeResource: font Helvetica-Bold
%%IncludeResource: font Helvetica-BoldOblique
%%IncludeResource: font Times-Roman
%%IncludeResource: font Times-Italic
%%IncludeResource: font Times-Bold
%%IncludeResource: font Times-BoldItalic
%%IncludeResource: font Courier
%FOPEndFontDict
%%BeginResource: encoding WinAnsiEncoding
/WinAnsiEncoding [
/.notdef /.notdef /.notdef /.notdef /.notdef
/.notdef /.notdef /.notdef /.notdef /.notdef
/.notdef /.notdef /.notdef /.notdef /.notdef
/.notdef /.notdef /.notdef /.notdef /.notdef
/.notdef /.notdef /.notdef /.notdef /.notdef
/.notdef /.notdef /.notdef /.notdef /.notdef
/.notdef /.notdef /space /exclam /quotedbl
/numbersign /dollar /percent /ampersand /quotesingle
/parenleft /parenright /asterisk /plus /comma
/hyphen /period /slash /zero /one
/two /three /four /five /six
/seven /eight /nine /colon /semicolon
/less /equal /greater /question /at
/A /B /C /D /E
/F /G /H /I /J
/K /L /M /N /O
/P /Q /R /S /T
/U /V /W /X /Y
/Z /bracketleft /backslash /bracketright /asciicircum
/underscore /quoteleft /a /b /c
/d /e /f /g /h
/i /j /k /l /m
/n /o /p /q /r
/s /t /u /v /w
/x /y /z /braceleft /bar
/braceright /asciitilde /bullet /Euro /bullet
/quotesinglbase /florin /quotedblbase /ellipsis /dagger
/daggerdbl /circumflex /perthousand /Scaron /guilsinglleft
/OE /bullet /Zcaron /bullet /bullet
/quoteleft /quoteright /quotedblleft /quotedblright /bullet
/endash /emdash /asciitilde /trademark /scaron
/guilsinglright /oe /bullet /zcaron /Ydieresis
/space /exclamdown /cent /sterling /currency
/yen /brokenbar /section /dieresis /copyright
/ordfeminine /guillemotleft /logicalnot /sfthyphen /registered
/macron /degree /plusminus /twosuperior /threesuperior
/acute /mu /paragraph /middot /cedilla
/onesuperior /ordmasculine /guillemotright /onequarter /onehalf
/threequarters /questiondown /Agrave /Aacute /Acircumflex
/Atilde /Adieresis /Aring /AE /Ccedilla
/Egrave /Eacute /Ecircumflex /Edieresis /Igrave
/Iacute /Icircumflex /Idieresis /Eth /Ntilde
/Ograve /Oacute /Ocircumflex /Otilde /Odieresis
/multiply /Oslash /Ugrave /Uacute /Ucircumflex
/Udieresis /Yacute /Thorn /germandbls /agrave
/aacute /acircumflex /atilde /adieresis /aring
/ae /ccedilla /egrave /eacute /ecircumflex
/edieresis /igrave /iacute /icircumflex /idieresis
/eth /ntilde /ograve /oacute /ocircumflex
/otilde /odieresis /divide /oslash /ugrave
/uacute /ucircumflex /udieresis /yacute /thorn
/ydieresis
] def
%%EndResource
%FOPBeginFontReencode
/Courier-Oblique findfont
dup length dict begin
  {1 index /FID ne {def} {pop pop} ifelse} forall
  /Encoding WinAnsiEncoding def
  currentdict
end
/Courier-Oblique exch definefont pop
/Courier-BoldOblique findfont
dup length dict begin
  {1 index /FID ne {def} {pop pop} ifelse} forall
  /Encoding WinAnsiEncoding def
  currentdict
end
/Courier-BoldOblique exch definefont pop
/Courier-Bold findfont
dup length dict begin
  {1 index /FID ne {def} {pop pop} ifelse} forall
  /Encoding WinAnsiEncoding def
  currentdict
end
/Courier-Bold exch definefont pop
/Helvetica findfont
dup length dict begin
  {1 index /FID ne {def} {pop pop} ifelse} forall
  /Encoding WinAnsiEncoding def
  currentdict
end
/Helvetica exch definefont pop
/Helvetica-Oblique findfont
dup length dict begin
  {1 index /FID ne {def} {pop pop} ifelse} forall
  /Encoding WinAnsiEncoding def
  currentdict
end
/Helvetica-Oblique exch definefont pop
/Helvetica-Bold findfont
dup length dict begin
  {1 index /FID ne {def} {pop pop} ifelse} forall
  /Encoding WinAnsiEncoding def
  currentdict
end
/Helvetica-Bold exch definefont pop
/Helvetica-BoldOblique findfont
dup length dict begin
  {1 index /FID ne {def} {pop pop} ifelse} forall
  /Encoding WinAnsiEncoding def
  currentdict
end
/Helvetica-BoldOblique exch definefont pop
/Times-Roman findfont
dup length dict begin
  {1 index /FID ne {def} {pop pop} ifelse} forall
  /Encoding WinAnsiEncoding def
  currentdict
end
/Times-Roman exch definefont pop
/Times-Italic findfont
dup length dict begin
  {1 index /FID ne {def} {pop pop} ifelse} forall
  /Encoding WinAnsiEncoding def
  currentdict
end
/Times-Italic exch definefont pop
/Times-Bold findfont
dup length dict begin
  {1 index /FID ne {def} {pop pop} ifelse} forall
  /Encoding WinAnsiEncoding def
  currentdict
end
/Times-Bold exch definefont pop
/Times-BoldItalic findfont
dup length dict begin
  {1 index /FID ne {def} {pop pop} ifelse} forall
  /Encoding WinAnsiEncoding def
  currentdict
end
/Times-BoldItalic exch definefont pop
/Courier findfont
dup length dict begin
  {1 index /FID ne {def} {pop pop} ifelse} forall
  /Encoding WinAnsiEncoding def
  currentdict
end
/Courier exch definefont pop
%FOPEndFontReencode
%%EndProlog
%%Page: 1 1
%%PageBoundingBox: 0 0 600 375
%%BeginPageSetup
[1 0 0 -1 0 375] CT
%%EndPageSetup
GS
[0.75 0 0 0.75 0 0] CT
1 GC
N
0 0 800 500 re
f
GR
GS
[0.75 0 0 0.75 0 0] CT
1 GC
N
0 0 800 500 re
f
GR
GS
[0.75 0 0 0.75 0 0] CT
0.941 GC
N
650 445 M
659 445 L
659 37 L
650 37 L
cp
f
GR
GS
[0.75 0 0 0.75 0 0] CT
0.149 GC
2 setlinecap
1 LJ
0.667 LW
N
650 445 M
659 445 L
S
GR
GS
[0.75 0 0 0.75 0 0] CT
0.929 0.694 0.125 RC
2 setlinecap
1 LJ
0.667 LW
N
659 445 M
659 37 L
S
GR
GS
[0.75 0 0 0.75 0 0] CT
0.929 0.694 0.125 RC
2 setlinecap
1 LJ
0.667 LW
N
659 445 M
654.92 445 L
S
GR
GS
[0.75 0 0 0.75 0 0] CT
0.929 0.694 0.125 RC
2 setlinecap
1 LJ
0.667 LW
N
659 363.4 M
654.92 363.4 L
S
GR
GS
[0.75 0 0 0.75 0 0] CT
0.929 0.694 0.125 RC
2 setlinecap
1 LJ
0.667 LW
N
659 281.8 M
654.92 281.8 L
S
GR
GS
[0.75 0 0 0.75 0 0] CT
0.929 0.694 0.125 RC
2 setlinecap
1 LJ
0.667 LW
N
659 200.2 M
654.92 200.2 L
S
GR
GS
[0.75 0 0 0.75 0 0] CT
0.929 0.694 0.125 RC
2 setlinecap
1 LJ
0.667 LW
N
659 118.6 M
654.92 118.6 L
S
GR
GS
[0.75 0 0 0.75 0 0] CT
0.929 0.694 0.125 RC
2 setlinecap
1 LJ
0.667 LW
N
659 37 M
654.92 37 L
S
GR
GS
[0.75 0 0 0.75 499.05002 333.75] CT
0.929 0.694 0.125 RC
/Helvetica 18.667 F
GS
[1 0 0 1 0 0] CT
0 7 moveto 
1 -1 scale
(-5) t 
GR
GR
GS
[0.75 0 0 0.75 499.05002 272.55] CT
0.929 0.694 0.125 RC
/Helvetica 18.667 F
GS
[1 0 0 1 0 0] CT
0 7 moveto 
1 -1 scale
(0) t 
GR
GR
GS
[0.75 0 0 0.75 499.05002 211.34999] CT
0.929 0.694 0.125 RC
/Helvetica 18.667 F
GS
[1 0 0 1 0 0] CT
0 7 moveto 
1 -1 scale
(5) t 
GR
GR
GS
[0.75 0 0 0.75 499.05002 150.15] CT
0.929 0.694 0.125 RC
/Helvetica 18.667 F
GS
[1 0 0 1 0 0] CT
0 7 moveto 
1 -1 scale
(10) t 
GR
GR
GS
[0.75 0 0 0.75 499.05002 88.95] CT
0.929 0.694 0.125 RC
/Helvetica 18.667 F
GS
[1 0 0 1 0 0] CT
0 7 moveto 
1 -1 scale
(15) t 
GR
GR
GS
[0.75 0 0 0.75 499.05002 27.75] CT
0.929 0.694 0.125 RC
/Helvetica 18.667 F
GS
[1 0 0 1 0 0] CT
0 7 moveto 
1 -1 scale
(20) t 
GR
GR
GS
[0 -0.75 0.75 0 533.25 199.5] CT
0.929 0.694 0.125 RC
/Helvetica 20.533 F
GS
[1 0 0 1 0 0] CT
0 0 moveto 
1 -1 scale
(I) t 
GR
GR
GS
[0 -0.75 0.75 0 540.75 195] CT
0.929 0.694 0.125 RC
/Helvetica 16.427 F
GS
[1 0 0 1 0 0] CT
0 0 moveto 
1 -1 scale
(D) t 
GR
GR
GS
[0 -0.75 0.75 0 533.25 186] CT
0.929 0.694 0.125 RC
/Helvetica 20.533 F
GS
[1 0 0 1 0 0] CT
0 0 moveto 
1 -1 scale
( / A) t 
GR
GR
GS
[0.75 0 0 0.75 0 0] CT
0.941 GC
N
104 445 M
113 445 L
113 37 L
104 37 L
cp
f
GR
GS
[0.75 0 0 0.75 0 0] CT
0.149 GC
2 setlinecap
1 LJ
0.667 LW
N
104 445 M
113 445 L
S
GR
GS
[0.75 0 0 0.75 0 0] CT
0.494 0.184 0.557 RC
2 setlinecap
1 LJ
0.667 LW
N
104 445 M
104 37 L
S
GR
GS
[0.75 0 0 0.75 0 0] CT
0.494 0.184 0.557 RC
2 setlinecap
1 LJ
0.667 LW
N
104 445 M
108.08 445 L
S
GR
GS
[0.75 0 0 0.75 0 0] CT
0.494 0.184 0.557 RC
2 setlinecap
1 LJ
0.667 LW
N
104 386.714 M
108.08 386.714 L
S
GR
GS
[0.75 0 0 0.75 0 0] CT
0.494 0.184 0.557 RC
2 setlinecap
1 LJ
0.667 LW
N
104 328.429 M
108.08 328.429 L
S
GR
GS
[0.75 0 0 0.75 0 0] CT
0.494 0.184 0.557 RC
2 setlinecap
1 LJ
0.667 LW
N
104 270.143 M
108.08 270.143 L
S
GR
GS
[0.75 0 0 0.75 0 0] CT
0.494 0.184 0.557 RC
2 setlinecap
1 LJ
0.667 LW
N
104 211.857 M
108.08 211.857 L
S
GR
GS
[0.75 0 0 0.75 0 0] CT
0.494 0.184 0.557 RC
2 setlinecap
1 LJ
0.667 LW
N
104 153.571 M
108.08 153.571 L
S
GR
GS
[0.75 0 0 0.75 0 0] CT
0.494 0.184 0.557 RC
2 setlinecap
1 LJ
0.667 LW
N
104 95.286 M
108.08 95.286 L
S
GR
GS
[0.75 0 0 0.75 0 0] CT
0.494 0.184 0.557 RC
2 setlinecap
1 LJ
0.667 LW
N
104 37 M
108.08 37 L
S
GR
GS
[0.75 0 0 0.75 73.2 333.75] CT
0.494 0.184 0.557 RC
/Helvetica 18.667 F
GS
[1 0 0 1 0 0] CT
-27 7 moveto 
1 -1 scale
(-50) t 
GR
GR
GS
[0.75 0 0 0.75 73.2 290.03572] CT
0.494 0.184 0.557 RC
/Helvetica 18.667 F
GS
[1 0 0 1 0 0] CT
-11 7 moveto 
1 -1 scale
(0) t 
GR
GR
GS
[0.75 0 0 0.75 73.2 246.32142] CT
0.494 0.184 0.557 RC
/Helvetica 18.667 F
GS
[1 0 0 1 0 0] CT
-21 7 moveto 
1 -1 scale
(50) t 
GR
GR
GS
[0.75 0 0 0.75 73.2 202.60714] CT
0.494 0.184 0.557 RC
/Helvetica 18.667 F
GS
[1 0 0 1 0 0] CT
-32 7 moveto 
1 -1 scale
(100) t 
GR
GR
GS
[0.75 0 0 0.75 73.2 158.89286] CT
0.494 0.184 0.557 RC
/Helvetica 18.667 F
GS
[1 0 0 1 0 0] CT
-32 7 moveto 
1 -1 scale
(150) t 
GR
GR
GS
[0.75 0 0 0.75 73.2 115.17857] CT
0.494 0.184 0.557 RC
/Helvetica 18.667 F
GS
[1 0 0 1 0 0] CT
-32 7 moveto 
1 -1 scale
(200) t 
GR
GR
GS
[0.75 0 0 0.75 73.2 71.46428] CT
0.494 0.184 0.557 RC
/Helvetica 18.667 F
GS
[1 0 0 1 0 0] CT
-32 7 moveto 
1 -1 scale
(250) t 
GR
GR
GS
[0.75 0 0 0.75 73.2 27.75] CT
0.494 0.184 0.557 RC
/Helvetica 18.667 F
GS
[1 0 0 1 0 0] CT
-32 7 moveto 
1 -1 scale
(300) t 
GR
GR
GS
[0 -0.75 0.75 0 36 207.75] CT
0.494 0.184 0.557 RC
/Helvetica 20.533 F
GS
[1 0 0 1 0 0] CT
0 0 moveto 
1 -1 scale
(P) t 
GR
GR
GS
[0 -0.75 0.75 0 43.5 197.25] CT
0.494 0.184 0.557 RC
/Helvetica 16.427 F
GS
[1 0 0 1 0 0] CT
0 0 moveto 
1 -1 scale
(s) t 
GR
GR
GS
[0 -0.75 0.75 0 43.5 190.5] CT
0.494 0.184 0.557 RC
/Helvetica 16.427 F
GS
[1 0 0 1 0 0] CT
0 0 moveto 
1 -1 scale
(w) t 
GR
GR
GS
[0 -0.75 0.75 0 36 181.5] CT
0.494 0.184 0.557 RC
/Helvetica 20.533 F
GS
[1 0 0 1 0 0] CT
0 0 moveto 
1 -1 scale
( / W) t 
GR
GR
GS
[0.75 0 0 0.75 0 0] CT
0.941 GC
N
724 445 M
732 445 L
732 37 L
724 37 L
cp
f
GR
GS
[0.75 0 0 0.75 0 0] CT
0.149 GC
2 setlinecap
1 LJ
0.667 LW
N
724 445 M
732 445 L
S
GR
GS
[0.75 0 0 0.75 0 0] CT
0.467 0.675 0.188 RC
2 setlinecap
1 LJ
0.667 LW
N
732 445 M
732 37 L
S
GR
GS
[0.75 0 0 0.75 0 0] CT
0.467 0.675 0.188 RC
2 setlinecap
1 LJ
0.667 LW
N
732 445 M
727.92 445 L
S
GR
GS
[0.75 0 0 0.75 0 0] CT
0.467 0.675 0.188 RC
2 setlinecap
1 LJ
0.667 LW
N
732 386.714 M
727.92 386.714 L
S
GR
GS
[0.75 0 0 0.75 0 0] CT
0.467 0.675 0.188 RC
2 setlinecap
1 LJ
0.667 LW
N
732 328.429 M
727.92 328.429 L
S
GR
GS
[0.75 0 0 0.75 0 0] CT
0.467 0.675 0.188 RC
2 setlinecap
1 LJ
0.667 LW
N
732 270.143 M
727.92 270.143 L
S
GR
GS
[0.75 0 0 0.75 0 0] CT
0.467 0.675 0.188 RC
2 setlinecap
1 LJ
0.667 LW
N
732 211.857 M
727.92 211.857 L
S
GR
GS
[0.75 0 0 0.75 0 0] CT
0.467 0.675 0.188 RC
2 setlinecap
1 LJ
0.667 LW
N
732 153.571 M
727.92 153.571 L
S
GR
GS
[0.75 0 0 0.75 0 0] CT
0.467 0.675 0.188 RC
2 setlinecap
1 LJ
0.667 LW
N
732 95.286 M
727.92 95.286 L
S
GR
GS
[0.75 0 0 0.75 0 0] CT
0.467 0.675 0.188 RC
2 setlinecap
1 LJ
0.667 LW
N
732 37 M
727.92 37 L
S
GR
GS
[0.75 0 0 0.75 553.80002 333.75] CT
0.467 0.675 0.188 RC
/Helvetica 18.667 F
GS
[1 0 0 1 0 0] CT
0 7 moveto 
1 -1 scale
(0) t 
GR
GR
GS
[0.75 0 0 0.75 553.80002 290.03572] CT
0.467 0.675 0.188 RC
/Helvetica 18.667 F
GS
[1 0 0 1 0 0] CT
0 7 moveto 
1 -1 scale
(5) t 
GR
GR
GS
[0.75 0 0 0.75 553.80002 246.32142] CT
0.467 0.675 0.188 RC
/Helvetica 18.667 F
GS
[1 0 0 1 0 0] CT
0 7 moveto 
1 -1 scale
(10) t 
GR
GR
GS
[0.75 0 0 0.75 553.80002 202.60714] CT
0.467 0.675 0.188 RC
/Helvetica 18.667 F
GS
[1 0 0 1 0 0] CT
0 7 moveto 
1 -1 scale
(15) t 
GR
GR
GS
[0.75 0 0 0.75 553.80002 158.89286] CT
0.467 0.675 0.188 RC
/Helvetica 18.667 F
GS
[1 0 0 1 0 0] CT
0 7 moveto 
1 -1 scale
(20) t 
GR
GR
GS
[0.75 0 0 0.75 553.80002 115.17857] CT
0.467 0.675 0.188 RC
/Helvetica 18.667 F
GS
[1 0 0 1 0 0] CT
0 7 moveto 
1 -1 scale
(25) t 
GR
GR
GS
[0.75 0 0 0.75 553.80002 71.46428] CT
0.467 0.675 0.188 RC
/Helvetica 18.667 F
GS
[1 0 0 1 0 0] CT
0 7 moveto 
1 -1 scale
(30) t 
GR
GR
GS
[0.75 0 0 0.75 553.80002 27.75] CT
0.467 0.675 0.188 RC
/Helvetica 18.667 F
GS
[1 0 0 1 0 0] CT
0 7 moveto 
1 -1 scale
(35) t 
GR
GR
GS
[0 -0.75 0.75 0 588 210] CT
0.467 0.675 0.188 RC
/Helvetica 20.533 F
GS
[1 0 0 1 0 0] CT
0 0 moveto 
1 -1 scale
(E) t 
GR
GR
GS
[0 -0.75 0.75 0 595.5 199.5] CT
0.467 0.675 0.188 RC
/Helvetica 16.427 F
GS
[1 0 0 1 0 0] CT
0 0 moveto 
1 -1 scale
(s) t 
GR
GR
GS
[0 -0.75 0.75 0 595.5 192.75] CT
0.467 0.675 0.188 RC
/Helvetica 16.427 F
GS
[1 0 0 1 0 0] CT
0 0 moveto 
1 -1 scale
(w) t 
GR
GR
GS
[0 -0.75 0.75 0 588 183.75] CT
0.467 0.675 0.188 RC
/Helvetica 20.533 F
GS
[1 0 0 1 0 0] CT
0 0 moveto 
1 -1 scale
( / ) t 
GR
GR
GS
[0 -0.75 0.75 0 588 170.25] CT
0.467 0.675 0.188 RC
N
0.578 3.953 M
0.578 3.828 0.609 3.781 QT
3.688 -8.609 L
3.781 -8.906 4.023 -9.094 QT
4.266 -9.281 4.578 -9.281 QT
4.844 -9.281 5.023 -9.125 QT
5.203 -8.969 5.203 -8.703 QT
5.203 -8.641 5.203 -8.602 QT
5.203 -8.563 5.188 -8.516 QT
3.953 -3.609 L
3.75 -2.734 3.75 -2.109 QT
3.75 -1.328 4.117 -0.82 QT
4.484 -0.313 5.234 -0.313 QT
6.75 -0.313 7.922 -2.219 QT
7.922 -2.25 7.93 -2.258 QT
7.938 -2.266 7.938 -2.281 QT
9.453 -8.375 L
9.531 -8.656 9.781 -8.852 QT
10.031 -9.047 10.344 -9.047 QT
10.578 -9.047 10.773 -8.883 QT
10.969 -8.719 10.969 -8.453 QT
10.969 -8.344 10.938 -8.297 QT
9.438 -2.25 L
9.281 -1.656 9.281 -1.219 QT
9.281 -0.313 9.891 -0.313 QT
10.547 -0.313 10.883 -1.125 QT
11.219 -1.938 11.469 -3.094 QT
11.5 -3.203 11.641 -3.203 QT
11.891 -3.203 L
11.969 -3.203 12.023 -3.141 QT
12.078 -3.078 12.078 -3 QT
11.703 -1.531 11.273 -0.648 QT
10.844 0.234 9.859 0.234 QT
9.156 0.234 8.617 -0.164 QT
8.078 -0.563 7.922 -1.234 QT
7.391 -0.578 6.688 -0.172 QT
5.984 0.234 5.203 0.234 QT
3.891 0.234 3.141 -0.375 QT
2.078 3.859 L
2.016 4.156 1.773 4.344 QT
1.531 4.531 1.219 4.531 QT
0.969 4.531 0.773 4.375 QT
0.578 4.219 0.578 3.953 QT
cp
f
GR
GS
[0 -0.75 0.75 0 588 160.5] CT
0.467 0.675 0.188 RC
/Helvetica 20.533 F
GS
[1 0 0 1 0 0] CT
0 0 moveto 
1 -1 scale
(J) t 
GR
GR
GS
[0.75 0 0 0.75 0 0] CT
1 GC
N
178 445 M
650 445 L
650 37 L
178 37 L
cp
f
GR
GS
[0.75 0 0 0.75 0 0] CT
0.873 GC
1 LJ
0.667 LW
N
178 445 M
178 37 L
S
GR
GS
[0.75 0 0 0.75 0 0] CT
0.873 GC
1 LJ
0.667 LW
N
240.302 445 M
240.302 37 L
S
GR
GS
[0.75 0 0 0.75 0 0] CT
0.873 GC
1 LJ
0.667 LW
N
302.604 445 M
302.604 37 L
S
GR
GS
[0.75 0 0 0.75 0 0] CT
0.873 GC
1 LJ
0.667 LW
N
364.906 445 M
364.906 37 L
S
GR
GS
[0.75 0 0 0.75 0 0] CT
0.873 GC
1 LJ
0.667 LW
N
427.208 445 M
427.208 37 L
S
GR
GS
[0.75 0 0 0.75 0 0] CT
0.873 GC
1 LJ
0.667 LW
N
489.51 445 M
489.51 37 L
S
GR
GS
[0.75 0 0 0.75 0 0] CT
0.873 GC
1 LJ
0.667 LW
N
551.812 445 M
551.812 37 L
S
GR
GS
[0.75 0 0 0.75 0 0] CT
0.873 GC
1 LJ
0.667 LW
N
614.114 445 M
614.114 37 L
S
GR
GS
[0.75 0 0 0.75 0 0] CT
0.873 GC
1 LJ
0.667 LW
N
650 445 M
178 445 L
S
GR
GS
[0.75 0 0 0.75 0 0] CT
0.873 GC
1 LJ
0.667 LW
N
650 386.714 M
178 386.714 L
S
GR
GS
[0.75 0 0 0.75 0 0] CT
0.873 GC
1 LJ
0.667 LW
N
650 328.429 M
178 328.429 L
S
GR
GS
[0.75 0 0 0.75 0 0] CT
0.873 GC
1 LJ
0.667 LW
N
650 270.143 M
178 270.143 L
S
GR
GS
[0.75 0 0 0.75 0 0] CT
0.873 GC
1 LJ
0.667 LW
N
650 211.857 M
178 211.857 L
S
GR
GS
[0.75 0 0 0.75 0 0] CT
0.873 GC
1 LJ
0.667 LW
N
650 153.571 M
178 153.571 L
S
GR
GS
[0.75 0 0 0.75 0 0] CT
0.873 GC
1 LJ
0.667 LW
N
650 95.286 M
178 95.286 L
S
GR
GS
[0.75 0 0 0.75 0 0] CT
0.873 GC
1 LJ
0.667 LW
N
650 37 M
178 37 L
S
GR
GS
[0.75 0 0 0.75 0 0] CT
0.149 GC
2 setlinecap
1 LJ
0.667 LW
N
178 445 M
650 445 L
S
GR
GS
[0.75 0 0 0.75 0 0] CT
0.149 GC
2 setlinecap
1 LJ
0.667 LW
N
178 445 M
178 440.28 L
S
GR
GS
[0.75 0 0 0.75 0 0] CT
0.149 GC
2 setlinecap
1 LJ
0.667 LW
N
240.302 445 M
240.302 440.28 L
S
GR
GS
[0.75 0 0 0.75 0 0] CT
0.149 GC
2 setlinecap
1 LJ
0.667 LW
N
302.604 445 M
302.604 440.28 L
S
GR
GS
[0.75 0 0 0.75 0 0] CT
0.149 GC
2 setlinecap
1 LJ
0.667 LW
N
364.906 445 M
364.906 440.28 L
S
GR
GS
[0.75 0 0 0.75 0 0] CT
0.149 GC
2 setlinecap
1 LJ
0.667 LW
N
427.208 445 M
427.208 440.28 L
S
GR
GS
[0.75 0 0 0.75 0 0] CT
0.149 GC
2 setlinecap
1 LJ
0.667 LW
N
489.51 445 M
489.51 440.28 L
S
GR
GS
[0.75 0 0 0.75 0 0] CT
0.149 GC
2 setlinecap
1 LJ
0.667 LW
N
551.812 445 M
551.812 440.28 L
S
GR
GS
[0.75 0 0 0.75 0 0] CT
0.149 GC
2 setlinecap
1 LJ
0.667 LW
N
614.114 445 M
614.114 440.28 L
S
GR
GS
[0.75 0 0 0.75 133.5 338.55] CT
0.149 GC
/Helvetica 18.667 F
GS
[1 0 0 1 0 0] CT
-5.5 19 moveto 
1 -1 scale
(0) t 
GR
GR
GS
[0.75 0 0 0.75 180.2265 338.55] CT
0.149 GC
/Helvetica 18.667 F
GS
[1 0 0 1 0 0] CT
-10.5 19 moveto 
1 -1 scale
(50) t 
GR
GR
GS
[0.75 0 0 0.75 226.953 338.55] CT
0.149 GC
/Helvetica 18.667 F
GS
[1 0 0 1 0 0] CT
-16 19 moveto 
1 -1 scale
(100) t 
GR
GR
GS
[0.75 0 0 0.75 273.6795 338.55] CT
0.149 GC
/Helvetica 18.667 F
GS
[1 0 0 1 0 0] CT
-16 19 moveto 
1 -1 scale
(150) t 
GR
GR
GS
[0.75 0 0 0.75 320.40603 338.55] CT
0.149 GC
/Helvetica 18.667 F
GS
[1 0 0 1 0 0] CT
-16 19 moveto 
1 -1 scale
(200) t 
GR
GR
GS
[0.75 0 0 0.75 367.13253 338.55] CT
0.149 GC
/Helvetica 18.667 F
GS
[1 0 0 1 0 0] CT
-16 19 moveto 
1 -1 scale
(250) t 
GR
GR
GS
[0.75 0 0 0.75 413.85901 338.55] CT
0.149 GC
/Helvetica 18.667 F
GS
[1 0 0 1 0 0] CT
-16 19 moveto 
1 -1 scale
(300) t 
GR
GR
GS
[0.75 0 0 0.75 460.58556 338.55] CT
0.149 GC
/Helvetica 18.667 F
GS
[1 0 0 1 0 0] CT
-16 19 moveto 
1 -1 scale
(350) t 
GR
GR
GS
[0.75 0 0 0.75 310.50016 357.55] CT
0.149 GC
/Helvetica 20.533 F
GS
[1 0 0 1 0 0] CT
-42.5 21 moveto 
1 -1 scale
(Time / ns) t 
GR
GR
GS
[0.75 0 0 0.75 0 0] CT
0.149 GC
2 setlinecap
1 LJ
0.667 LW
N
178 445 M
178 37 L
S
GR
GS
[0.75 0 0 0.75 0 0] CT
0.149 GC
2 setlinecap
1 LJ
0.667 LW
N
178 445 M
182.72 445 L
S
GR
GS
[0.75 0 0 0.75 0 0] CT
0.149 GC
2 setlinecap
1 LJ
0.667 LW
N
178 386.714 M
182.72 386.714 L
S
GR
GS
[0.75 0 0 0.75 0 0] CT
0.149 GC
2 setlinecap
1 LJ
0.667 LW
N
178 328.429 M
182.72 328.429 L
S
GR
GS
[0.75 0 0 0.75 0 0] CT
0.149 GC
2 setlinecap
1 LJ
0.667 LW
N
178 270.143 M
182.72 270.143 L
S
GR
GS
[0.75 0 0 0.75 0 0] CT
0.149 GC
2 setlinecap
1 LJ
0.667 LW
N
178 211.857 M
182.72 211.857 L
S
GR
GS
[0.75 0 0 0.75 0 0] CT
0.149 GC
2 setlinecap
1 LJ
0.667 LW
N
178 153.571 M
182.72 153.571 L
S
GR
GS
[0.75 0 0 0.75 0 0] CT
0.149 GC
2 setlinecap
1 LJ
0.667 LW
N
178 95.286 M
182.72 95.286 L
S
GR
GS
[0.75 0 0 0.75 0 0] CT
0.149 GC
2 setlinecap
1 LJ
0.667 LW
N
178 37 M
182.72 37 L
S
GR
GS
[0.75 0 0 0.75 128.7 333.75] CT
0.149 GC
/Helvetica 18.667 F
GS
[1 0 0 1 0 0] CT
-27 7 moveto 
1 -1 scale
(-10) t 
GR
GR
GS
[0.75 0 0 0.75 128.7 290.03572] CT
0.149 GC
/Helvetica 18.667 F
GS
[1 0 0 1 0 0] CT
-11 7 moveto 
1 -1 scale
(0) t 
GR
GR
GS
[0.75 0 0 0.75 128.7 246.32142] CT
0.149 GC
/Helvetica 18.667 F
GS
[1 0 0 1 0 0] CT
-21 7 moveto 
1 -1 scale
(10) t 
GR
GR
GS
[0.75 0 0 0.75 128.7 202.60714] CT
0.149 GC
/Helvetica 18.667 F
GS
[1 0 0 1 0 0] CT
-21 7 moveto 
1 -1 scale
(20) t 
GR
GR
GS
[0.75 0 0 0.75 128.7 158.89286] CT
0.149 GC
/Helvetica 18.667 F
GS
[1 0 0 1 0 0] CT
-21 7 moveto 
1 -1 scale
(30) t 
GR
GR
GS
[0.75 0 0 0.75 128.7 115.17857] CT
0.149 GC
/Helvetica 18.667 F
GS
[1 0 0 1 0 0] CT
-21 7 moveto 
1 -1 scale
(40) t 
GR
GR
GS
[0.75 0 0 0.75 128.7 71.46428] CT
0.149 GC
/Helvetica 18.667 F
GS
[1 0 0 1 0 0] CT
-21 7 moveto 
1 -1 scale
(50) t 
GR
GR
GS
[0.75 0 0 0.75 128.7 27.75] CT
0.149 GC
/Helvetica 18.667 F
GS
[1 0 0 1 0 0] CT
-21 7 moveto 
1 -1 scale
(60) t 
GR
GR
GS
[0 -0.75 0.75 0 95.25 206.25] CT
0.149 GC
/Helvetica 20.533 F
GS
[1 0 0 1 0 0] CT
0 0 moveto 
1 -1 scale
(V) t 
GR
GR
GS
[0 -0.75 0.75 0 102.75 195.75] CT
0.149 GC
/Helvetica 16.427 F
GS
[1 0 0 1 0 0] CT
0 0 moveto 
1 -1 scale
(D) t 
GR
GR
GS
[0 -0.75 0.75 0 102.75 186.75] CT
0.149 GC
/Helvetica 16.427 F
GS
[1 0 0 1 0 0] CT
0 0 moveto 
1 -1 scale
(S) t 
GR
GR
GS
[0 -0.75 0.75 0 95.25 178.5] CT
0.149 GC
/Helvetica 20.533 F
GS
[1 0 0 1 0 0] CT
0 0 moveto 
1 -1 scale
( / V) t 
GR
GR
GS
[0.75 0 0 0.75 0 0] CT
0.851 0.325 0.098 RC
1 LJ
2 LW
N
177.944 79.479 M
178 79.479 L
178.498 79.456 L
178.997 79.456 L
179.495 79.479 L
179.994 79.479 L
180.492 79.456 L
180.99 79.409 L
181.489 79.386 L
181.987 79.432 L
182.486 79.456 L
182.984 79.479 L
183.483 79.479 L
183.981 79.526 L
184.479 79.572 L
184.978 79.549 L
185.476 79.526 L
185.975 79.573 L
186.473 79.596 L
186.971 79.619 L
187.47 79.619 L
187.968 79.619 L
188.467 79.596 L
188.965 79.596 L
189.464 79.596 L
189.962 79.596 L
190.46 79.619 L
190.959 79.619 L
191.457 79.596 L
191.956 79.619 L
192.454 79.619 L
192.952 79.619 L
193.451 79.619 L
193.949 79.643 L
194.448 79.643 L
194.946 79.689 L
195.445 79.713 L
195.943 79.759 L
196.441 79.783 L
196.94 79.783 L
197.438 79.783 L
197.937 79.759 L
198.435 79.783 L
198.933 79.783 L
199.432 79.783 L
199.93 79.806 L
200.429 79.806 L
200.927 79.806 L
201.426 79.806 L
201.924 79.783 L
202.422 79.783 L
202.921 79.759 L
203.419 79.783 L
203.918 79.806 L
204.416 79.829 L
204.914 79.829 L
205.413 79.876 L
205.911 79.876 L
206.41 79.899 L
206.908 79.876 L
207.407 79.876 L
207.905 79.922 L
208.403 79.922 L
208.902 79.922 L
209.4 79.946 L
209.899 79.969 L
210.397 79.992 L
210.895 80.015 L
211.394 79.992 L
211.892 79.992 L
212.391 79.992 L
212.889 80.015 L
213.388 80.015 L
213.886 80.039 L
214.384 80.015 L
214.883 80.015 L
215.381 80.038 L
215.88 80.039 L
216.378 80.039 L
216.876 80.015 L
217.375 80.038 L
217.873 80.085 L
218.372 80.132 L
218.87 80.155 L
219.369 80.132 L
219.867 80.108 L
220.365 80.132 L
220.864 80.109 L
221.362 80.109 L
221.861 80.109 L
222.359 80.062 L
222.857 80.062 L
223.356 80.062 L
223.854 80.062 L
224.353 80.039 L
224.851 80.015 L
225.35 80.039 L
225.848 80.062 L
226.346 80.062 L
226.845 80.108 L
227.343 80.108 L
227.842 80.062 L
228.34 80.039 L
228.838 80.039 L
229.337 80.062 L
229.835 80.085 L
230.334 80.109 L
230.832 80.109 L
231.331 80.132 L
231.829 80.132 L
232.327 80.132 L
232.826 80.109 L
233.324 80.109 L
233.823 80.155 L
234.321 80.178 L
234.819 80.155 L
235.318 80.178 L
235.816 80.178 L
236.315 80.202 L
236.813 80.178 L
237.312 80.132 L
237.81 80.132 L
238.308 80.132 L
238.807 80.178 L
239.305 80.225 L
239.804 80.225 L
240.302 80.248 L
240.8 80.248 L
241.299 80.225 L
241.797 80.225 L
242.296 80.225 L
242.794 80.202 L
243.293 80.178 L
243.791 80.202 L
244.289 80.202 L
244.788 80.225 L
245.286 80.248 L
245.785 80.272 L
246.283 80.225 L
246.781 80.202 L
247.28 80.225 L
247.778 80.225 L
248.277 80.248 L
248.775 80.248 L
249.273 80.248 L
249.772 80.225 L
250.27 80.225 L
250.769 80.248 L
251.267 80.272 L
251.766 80.248 L
252.264 80.272 L
252.762 80.272 L
253.261 80.295 L
253.759 80.318 L
254.258 80.342 L
254.756 80.365 L
255.254 80.388 L
255.753 80.412 L
256.251 80.412 L
256.75 80.412 L
257.248 80.412 L
257.747 80.412 L
258.245 80.458 L
258.743 80.482 L
259.242 80.482 L
259.74 80.435 L
260.239 80.435 L
260.737 80.435 L
261.235 80.458 L
261.734 80.458 L
262.232 80.482 L
262.731 80.435 L
263.229 80.458 L
263.728 80.482 L
264.226 80.482 L
264.724 80.482 L
265.223 80.482 L
265.721 80.505 L
266.22 80.528 L
266.718 80.505 L
267.216 80.552 L
267.715 80.575 L
268.213 80.575 L
268.712 80.598 L
269.21 80.598 L
269.709 80.622 L
270.207 80.645 L
270.705 80.645 L
271.204 80.668 L
271.702 80.668 L
272.201 80.668 L
272.699 80.645 L
273.197 80.622 L
273.696 80.622 L
274.194 80.622 L
274.693 80.668 L
275.191 80.692 L
275.69 80.692 L
276.188 80.692 L
276.686 80.645 L
277.185 80.668 L
277.683 80.691 L
278.182 80.668 L
278.68 80.645 L
279.178 80.692 L
279.677 80.738 L
280.175 80.738 L
280.674 80.762 L
281.172 80.738 L
281.671 80.785 L
282.169 80.832 L
282.667 80.832 L
283.166 80.855 L
283.664 80.855 L
284.163 80.832 L
284.661 80.855 L
285.159 80.878 L
285.658 80.925 L
286.156 80.902 L
286.655 80.902 L
287.153 80.925 L
287.652 80.948 L
288.15 80.902 L
288.648 80.901 L
289.147 80.878 L
289.645 80.878 L
290.144 80.878 L
290.642 80.878 L
291.14 80.902 L
291.639 80.948 L
292.137 80.971 L
292.636 80.971 L
293.134 80.995 L
293.633 80.995 L
294.131 80.995 L
294.629 80.995 L
295.128 80.995 L
295.626 80.971 L
296.125 80.995 L
296.623 80.995 L
297.121 81.018 L
297.62 80.995 L
298.118 80.995 L
298.617 81.018 L
299.115 81.088 L
299.614 81.158 L
300.112 81.275 L
300.61 81.391 L
301.109 81.508 L
301.607 81.624 L
302.106 81.788 L
302.604 81.951 L
303.102 82.207 L
303.601 82.487 L
304.099 82.86 L
304.598 83.21 L
305.096 83.583 L
305.595 84.003 L
306.093 84.422 L
306.591 84.888 L
307.09 85.355 L
307.588 85.844 L
308.087 86.334 L
308.585 86.847 L
309.083 87.406 L
309.582 87.966 L
310.08 88.572 L
310.579 89.155 L
311.077 89.761 L
311.576 90.39 L
312.074 91.02 L
312.572 91.626 L
313.071 92.232 L
313.569 92.885 L
314.068 93.561 L
314.566 94.167 L
315.064 94.773 L
315.563 95.426 L
316.061 96.056 L
316.56 96.685 L
317.058 97.291 L
317.556 97.898 L
318.055 98.55 L
318.553 99.18 L
319.052 99.833 L
319.55 100.462 L
320.049 101.068 L
320.547 101.698 L
321.045 102.304 L
321.544 102.91 L
322.042 103.563 L
322.541 104.169 L
323.039 104.752 L
323.537 105.405 L
324.036 106.011 L
324.534 106.64 L
325.033 107.246 L
325.531 107.876 L
326.03 108.505 L
326.528 109.088 L
327.026 109.718 L
327.525 110.324 L
328.023 110.953 L
328.522 111.583 L
329.02 112.189 L
329.518 112.818 L
330.017 113.494 L
330.515 114.147 L
331.014 114.776 L
331.512 115.383 L
332.011 116.012 L
332.509 116.618 L
333.007 117.224 L
333.506 117.807 L
334.004 118.436 L
334.503 119.066 L
335.001 119.672 L
335.499 120.279 L
335.998 120.908 L
336.496 121.561 L
336.995 122.167 L
337.493 122.773 L
337.992 123.426 L
338.49 124.009 L
338.988 124.615 L
339.487 125.268 L
339.985 125.874 L
340.484 126.433 L
340.982 127.016 L
341.48 127.669 L
341.979 128.299 L
342.477 128.905 L
342.976 129.534 L
343.474 130.187 L
343.973 130.793 L
344.471 131.446 L
344.969 132.075 L
345.468 132.682 L
345.966 133.311 L
346.465 133.917 L
346.963 134.547 L
347.461 135.153 L
347.96 135.806 L
348.458 136.459 L
348.957 137.088 L
349.455 137.741 L
349.954 138.37 L
350.452 138.976 L
350.95 139.582 L
351.449 140.235 L
351.947 140.841 L
352.446 141.448 L
352.944 142.1 L
353.442 142.706 L
353.941 143.359 L
354.439 143.989 L
354.938 144.618 L
355.436 145.201 L
355.935 145.854 L
356.433 146.507 L
356.931 147.136 L
357.43 147.765 L
357.928 148.395 L
358.427 149.001 L
358.925 149.607 L
359.423 150.214 L
359.922 150.843 L
360.42 151.449 L
360.919 152.079 L
361.417 152.708 L
361.916 153.314 L
362.414 153.92 L
362.912 154.527 L
363.411 155.156 L
363.909 155.786 L
364.408 156.462 L
364.906 157.068 L
365.404 157.674 L
365.903 158.257 L
366.401 158.863 L
366.9 159.493 L
367.398 160.099 L
367.897 160.728 L
368.395 161.334 L
368.893 161.964 L
369.392 162.593 L
369.89 163.223 L
370.389 163.852 L
370.887 164.482 L
371.385 165.112 L
371.884 165.718 L
372.382 166.324 L
372.881 166.93 L
373.379 167.536 L
373.878 168.143 L
374.376 168.795 L
374.874 169.402 L
375.373 170.031 L
375.871 170.707 L
376.37 171.36 L
376.868 171.966 L
377.366 172.549 L
377.865 173.178 L
378.363 173.831 L
378.862 174.437 L
379.36 175.09 L
379.858 175.673 L
380.357 176.279 L
380.855 176.885 L
381.354 177.468 L
381.852 178.075 L
382.351 178.704 L
382.849 179.31 L
383.347 179.986 L
383.846 180.616 L
384.344 181.245 L
384.843 181.875 L
385.341 182.481 L
385.84 183.111 L
386.338 183.74 L
386.836 184.393 L
387.335 185.022 L
387.833 185.628 L
388.332 186.234 L
388.83 186.841 L
389.328 187.47 L
389.827 188.053 L
390.325 188.682 L
390.824 189.312 L
391.322 189.941 L
391.82 190.571 L
392.319 191.177 L
392.817 191.783 L
393.316 192.413 L
393.814 193.019 L
394.313 193.625 L
394.811 194.231 L
395.309 194.884 L
395.808 195.467 L
396.306 196.05 L
396.805 196.703 L
397.303 197.285 L
397.801 197.868 L
398.3 198.475 L
398.798 199.081 L
399.297 199.687 L
399.795 200.27 L
400.294 200.876 L
400.792 201.482 L
401.29 202.135 L
401.789 202.741 L
402.287 203.324 L
402.786 203.93 L
403.284 204.56 L
403.782 205.189 L
404.281 205.819 L
404.779 206.425 L
405.278 207.055 L
405.776 207.684 L
406.275 208.313 L
406.773 208.943 L
407.271 209.572 L
407.77 210.155 L
408.268 210.715 L
408.767 211.321 L
409.265 211.927 L
409.763 212.557 L
410.262 213.21 L
410.76 213.862 L
411.259 214.469 L
411.757 215.098 L
412.256 215.704 L
412.754 216.334 L
413.252 216.963 L
413.751 217.546 L
414.249 218.175 L
414.748 218.758 L
415.246 219.365 L
415.744 219.971 L
416.243 220.647 L
416.741 221.253 L
417.24 221.906 L
417.738 222.535 L
418.237 223.118 L
418.735 223.678 L
419.233 224.284 L
419.732 224.89 L
420.23 225.496 L
420.729 226.102 L
421.227 226.732 L
421.725 227.361 L
422.224 227.991 L
422.722 228.597 L
423.221 229.18 L
423.719 229.809 L
424.218 230.392 L
424.716 231.021 L
425.214 231.628 L
425.713 232.257 L
426.211 232.886 L
426.71 233.493 L
427.208 234.099 L
427.706 234.728 L
428.205 235.358 L
428.703 235.964 L
429.202 236.617 L
429.7 237.246 L
430.199 237.876 L
430.697 238.505 L
431.195 239.135 L
431.694 239.741 L
432.192 240.347 L
432.691 240.976 L
433.189 241.559 L
433.687 242.142 L
434.186 242.772 L
434.684 243.424 L
435.183 244.007 L
435.681 244.59 L
436.18 245.196 L
436.678 245.849 L
437.176 246.502 L
437.675 247.132 L
438.173 247.761 L
438.672 248.344 L
439.17 248.95 L
439.668 249.579 L
440.167 250.162 L
440.665 250.768 L
441.164 251.351 L
441.662 251.957 L
442.16 252.587 L
442.659 253.193 L
443.157 253.823 L
443.656 254.475 L
444.154 255.058 L
444.653 255.641 L
445.151 256.247 L
445.649 256.83 L
446.148 257.46 L
446.646 258.089 L
447.145 258.672 L
447.643 259.301 L
448.142 259.931 L
448.64 260.584 L
449.138 261.19 L
449.637 261.796 L
450.135 262.402 L
450.634 263.032 L
451.132 263.638 L
451.63 264.244 L
452.129 264.873 L
452.627 265.48 L
453.126 266.086 L
453.624 266.692 L
454.122 267.322 L
454.621 267.928 L
455.119 268.534 L
455.618 269.14 L
456.116 269.746 L
456.615 270.376 L
457.113 270.959 L
457.611 271.565 L
458.11 272.171 L
458.608 272.754 L
459.107 273.36 L
459.605 273.99 L
460.103 274.619 L
460.602 275.249 L
461.1 275.901 L
461.599 276.554 L
462.097 277.16 L
462.596 277.79 L
463.094 278.396 L
463.592 279.049 L
464.091 279.678 L
464.589 280.308 L
465.088 280.937 L
465.586 281.52 L
466.084 282.126 L
466.583 282.756 L
467.081 283.385 L
467.58 283.968 L
468.078 284.574 L
468.577 285.204 L
469.075 285.833 L
469.573 286.463 L
470.072 287.092 L
470.57 287.722 L
471.069 288.328 L
471.567 288.981 L
472.065 289.61 L
472.564 290.263 L
473.062 290.846 L
473.561 291.499 L
474.059 292.152 L
474.558 292.758 L
475.056 293.411 L
475.554 293.97 L
476.053 294.53 L
476.551 295.159 L
477.05 295.835 L
477.548 296.465 L
478.046 297.071 L
478.545 297.7 L
479.043 298.33 L
479.542 298.983 L
480.04 299.589 L
480.539 300.195 L
481.037 300.825 L
481.535 301.431 L
482.034 302.037 L
482.532 302.643 L
483.031 303.273 L
483.529 303.879 L
484.027 304.508 L
484.526 305.138 L
485.024 305.767 L
485.523 306.373 L
486.021 306.98 L
486.52 307.679 L
487.018 308.332 L
487.516 308.938 L
488.015 309.544 L
488.513 310.127 L
489.012 310.733 L
489.51 311.339 L
490.008 311.992 L
490.507 312.645 L
491.005 313.251 L
491.504 313.857 L
492.002 314.51 L
492.501 315.139 L
492.999 315.745 L
493.497 316.375 L
493.996 316.958 L
494.494 317.564 L
494.993 318.194 L
495.491 318.846 L
495.989 319.452 L
496.488 320.059 L
496.986 320.711 L
497.485 321.318 L
497.983 321.924 L
498.482 322.553 L
498.98 323.183 L
499.478 323.812 L
499.977 324.395 L
500.475 325.001 L
500.974 325.607 L
501.472 326.214 L
501.97 326.82 L
502.469 327.403 L
502.967 328.009 L
503.466 328.638 L
503.964 329.244 L
504.463 329.874 L
504.961 330.48 L
505.459 331.11 L
505.958 331.739 L
506.456 332.345 L
506.955 332.952 L
507.453 333.558 L
507.951 334.187 L
508.45 334.793 L
508.948 335.469 L
509.447 336.099 L
509.945 336.728 L
510.443 337.335 L
510.942 337.941 L
511.44 338.57 L
511.939 339.223 L
512.437 339.829 L
512.936 340.436 L
513.434 341.042 L
513.932 341.695 L
514.431 342.301 L
514.929 342.907 L
515.428 343.513 L
515.926 344.143 L
516.424 344.726 L
516.923 345.332 L
517.421 345.984 L
517.92 346.637 L
518.418 347.267 L
518.917 347.896 L
519.415 348.502 L
519.913 349.109 L
520.412 349.715 L
520.91 350.344 L
521.409 350.951 L
521.907 351.557 L
522.405 352.186 L
522.904 352.793 L
523.402 353.422 L
523.901 353.982 L
524.399 354.564 L
524.898 355.194 L
525.396 355.8 L
525.894 356.476 L
526.393 357.106 L
526.891 357.712 L
527.39 358.342 L
527.888 358.971 L
528.386 359.577 L
528.885 360.183 L
529.383 360.789 L
529.882 361.419 L
530.38 362.072 L
530.879 362.655 L
531.377 363.284 L
531.875 363.913 L
532.374 364.519 L
532.872 365.126 L
533.371 365.755 L
533.869 366.338 L
534.367 366.967 L
534.866 367.597 L
535.364 368.226 L
535.863 368.809 L
536.361 369.392 L
536.86 369.975 L
537.358 370.628 L
537.856 371.234 L
538.355 371.84 L
538.853 372.47 L
539.352 373.076 L
539.85 373.682 L
540.348 374.312 L
540.847 374.918 L
541.345 375.5 L
541.844 376.13 L
542.342 376.759 L
542.841 377.389 L
543.339 378.018 L
543.837 378.648 L
544.336 379.277 L
544.834 379.884 L
545.333 380.49 L
545.831 381.119 L
546.329 381.702 L
546.828 382.331 L
547.326 382.984 L
547.825 383.614 L
548.323 384.173 L
548.822 384.663 L
549.32 385.176 L
549.818 385.666 L
550.317 386.155 L
550.815 386.645 L
551.314 387.111 L
551.812 387.554 L
552.31 387.927 L
552.809 388.254 L
553.307 388.534 L
553.806 388.79 L
554.304 389.023 L
554.803 389.21 L
555.301 389.419 L
555.799 389.582 L
556.298 389.746 L
556.796 389.862 L
557.295 389.979 L
557.793 390.095 L
558.291 390.165 L
558.79 390.235 L
559.288 390.259 L
559.787 390.305 L
560.285 390.282 L
560.784 390.282 L
561.282 390.235 L
561.78 390.259 L
562.279 390.282 L
562.777 390.236 L
563.276 390.236 L
563.774 390.212 L
564.272 390.236 L
564.771 390.212 L
565.269 390.212 L
565.768 390.189 L
566.266 390.235 L
566.765 390.259 L
567.263 390.235 L
567.761 390.235 L
568.26 390.259 L
568.758 390.305 L
569.257 390.329 L
569.755 390.329 L
570.253 390.305 L
570.752 390.305 L
571.25 390.282 L
571.749 390.259 L
572.247 390.282 L
572.745 390.259 L
573.244 390.282 L
573.742 390.282 L
574.241 390.305 L
574.739 390.305 L
575.238 390.305 L
575.736 390.375 L
576.234 390.352 L
576.733 390.375 L
577.231 390.375 L
577.73 390.352 L
578.228 390.352 L
578.727 390.399 L
579.225 390.375 L
579.723 390.376 L
580.222 390.399 L
580.72 390.376 L
581.219 390.376 L
581.717 390.352 L
582.215 390.376 L
582.714 390.399 L
583.212 390.399 L
583.711 390.399 L
584.209 390.422 L
584.708 390.445 L
585.206 390.422 L
585.704 390.422 L
586.203 390.446 L
586.701 390.446 L
587.2 390.446 L
587.698 390.469 L
588.196 390.492 L
588.695 390.469 L
589.193 390.469 L
589.692 390.516 L
590.19 390.562 L
590.688 390.585 L
591.187 390.562 L
591.685 390.586 L
592.184 390.586 L
592.682 390.562 L
593.181 390.586 L
593.679 390.562 L
594.177 390.562 L
594.676 390.586 L
595.174 390.539 L
595.673 390.562 L
596.171 390.539 L
596.669 390.539 L
597.168 390.516 L
597.666 390.493 L
598.165 390.493 L
598.663 390.469 L
599.162 390.469 L
599.66 390.469 L
600.158 390.493 L
600.657 390.493 L
601.155 390.493 L
601.654 390.516 L
602.152 390.493 L
602.65 390.493 L
603.149 390.493 L
603.647 390.493 L
604.146 390.493 L
604.644 390.47 L
605.143 390.446 L
605.641 390.446 L
606.139 390.47 L
606.638 390.47 L
607.136 390.469 L
607.635 390.493 L
608.133 390.516 L
608.631 390.516 L
609.13 390.493 L
609.628 390.516 L
610.127 390.539 L
610.625 390.563 L
611.124 390.586 L
611.622 390.586 L
612.12 390.609 L
612.619 390.609 L
613.117 390.633 L
613.616 390.609 L
614.114 390.656 L
614.612 390.702 L
615.111 390.726 L
615.609 390.726 L
616.108 390.702 L
616.606 390.749 L
617.105 390.796 L
617.603 390.819 L
618.101 390.819 L
618.6 390.796 L
619.098 390.772 L
619.597 390.749 L
620.095 390.795 L
620.593 390.819 L
621.092 390.819 L
621.59 390.842 L
622.089 390.866 L
622.587 390.865 L
623.086 390.865 L
623.584 390.842 L
624.082 390.842 L
624.581 390.819 L
625.079 390.796 L
625.578 390.796 L
626.076 390.819 L
626.574 390.866 L
627.073 390.866 L
627.571 390.866 L
628.07 390.866 L
628.568 390.842 L
629.067 390.866 L
629.565 390.889 L
630.063 390.866 L
630.562 390.889 L
631.06 390.889 L
631.559 390.889 L
632.057 390.889 L
632.555 390.866 L
633.054 390.866 L
633.552 390.842 L
634.051 390.819 L
634.549 390.842 L
635.047 390.866 L
635.546 390.866 L
636.044 390.866 L
636.543 390.842 L
637.041 390.842 L
637.54 390.796 L
638.038 390.796 L
638.536 390.819 L
639.035 390.819 L
639.533 390.842 L
640.032 390.842 L
640.53 390.865 L
641.029 390.865 L
641.527 390.889 L
642.025 390.889 L
642.524 390.889 L
643.022 390.912 L
643.521 390.912 L
644.019 390.935 L
644.517 390.935 L
645.016 390.959 L
645.514 390.982 L
646.013 390.959 L
646.511 390.982 L
647.01 390.959 L
647.508 390.982 L
648.006 390.982 L
648.505 390.959 L
649.003 390.982 L
649.502 390.982 L
650 390.982 L
650.056 390.982 L
S
GR
GS
[0.75 0 0 0.75 0 0] CT
0.929 0.694 0.125 RC
1 LJ
2 LW
N
177.944 337.921 M
178 337.915 L
178.498 337.889 L
178.997 337.889 L
179.495 337.915 L
179.994 337.837 L
180.492 337.837 L
180.99 337.811 L
181.489 337.837 L
181.987 337.811 L
182.486 337.837 L
182.984 337.811 L
183.483 337.889 L
183.981 337.837 L
184.479 337.863 L
184.978 337.837 L
185.476 337.941 L
185.975 337.942 L
186.473 337.889 L
186.971 337.915 L
187.47 337.863 L
187.968 337.889 L
188.467 337.811 L
188.965 337.837 L
189.464 337.968 L
189.962 337.916 L
190.46 337.942 L
190.959 337.968 L
191.457 337.968 L
191.956 338.02 L
192.454 338.072 L
192.952 338.046 L
193.451 338.072 L
193.949 338.098 L
194.448 338.125 L
194.946 338.177 L
195.445 338.177 L
195.943 338.151 L
196.441 338.151 L
196.94 338.229 L
197.438 338.203 L
197.937 338.307 L
198.435 338.307 L
198.933 338.334 L
199.432 338.412 L
199.93 338.386 L
200.429 338.386 L
200.927 338.386 L
201.426 338.386 L
201.924 338.464 L
202.422 338.464 L
202.921 338.438 L
203.419 338.49 L
203.918 338.516 L
204.416 338.595 L
204.914 338.595 L
205.413 338.568 L
205.911 338.621 L
206.41 338.621 L
206.908 338.647 L
207.407 338.699 L
207.905 338.621 L
208.403 338.595 L
208.902 338.594 L
209.4 338.699 L
209.899 338.673 L
210.397 338.647 L
210.895 338.673 L
211.394 338.699 L
211.892 338.672 L
212.391 338.62 L
212.889 338.699 L
213.388 338.672 L
213.886 338.62 L
214.384 338.698 L
214.883 338.698 L
215.381 338.646 L
215.88 338.751 L
216.378 338.725 L
216.876 338.699 L
217.375 338.725 L
217.873 338.672 L
218.372 338.62 L
218.87 338.62 L
219.369 338.594 L
219.867 338.62 L
220.365 338.594 L
220.864 338.725 L
221.362 338.672 L
221.861 338.62 L
222.359 338.646 L
222.857 338.673 L
223.356 338.62 L
223.854 338.698 L
224.353 338.699 L
224.851 338.672 L
225.35 338.673 L
225.848 338.646 L
226.346 338.646 L
226.845 338.672 L
227.343 338.698 L
227.842 338.698 L
228.34 338.672 L
228.838 338.62 L
229.337 338.699 L
229.835 338.62 L
230.334 338.672 L
230.832 338.568 L
231.331 338.568 L
231.829 338.594 L
232.327 338.646 L
232.826 338.62 L
233.324 338.594 L
233.823 338.594 L
234.321 338.594 L
234.819 338.516 L
235.318 338.516 L
235.816 338.463 L
236.315 338.411 L
236.813 338.385 L
237.312 338.411 L
237.81 338.463 L
238.308 338.516 L
238.807 338.542 L
239.305 338.516 L
239.804 338.463 L
240.302 338.437 L
240.8 338.437 L
241.299 338.464 L
241.797 338.411 L
242.296 338.49 L
242.794 338.463 L
243.293 338.463 L
243.791 338.411 L
244.289 338.49 L
244.788 338.463 L
245.286 338.489 L
245.785 338.49 L
246.283 338.463 L
246.781 338.464 L
247.28 338.516 L
247.778 338.49 L
248.277 338.464 L
248.775 338.333 L
249.273 338.385 L
249.772 338.307 L
250.27 338.281 L
250.769 338.359 L
251.267 338.333 L
251.766 338.281 L
252.264 338.229 L
252.762 338.281 L
253.261 338.176 L
253.759 338.229 L
254.258 338.307 L
254.756 338.333 L
255.254 338.333 L
255.753 338.333 L
256.251 338.255 L
256.75 338.307 L
257.248 338.281 L
257.747 338.229 L
258.245 338.203 L
258.743 338.255 L
259.242 338.229 L
259.74 338.15 L
260.239 338.15 L
260.737 338.124 L
261.235 338.098 L
261.734 338.046 L
262.232 338.02 L
262.731 338.02 L
263.229 338.046 L
263.728 338.046 L
264.226 338.124 L
264.724 338.098 L
265.223 338.176 L
265.721 338.203 L
266.22 338.203 L
266.718 338.255 L
267.216 338.281 L
267.715 338.229 L
268.213 338.203 L
268.712 338.255 L
269.21 338.255 L
269.709 338.203 L
270.207 338.229 L
270.705 338.229 L
271.204 338.229 L
271.702 338.203 L
272.201 338.281 L
272.699 338.255 L
273.197 338.281 L
273.696 338.281 L
274.194 338.255 L
274.693 338.255 L
275.191 338.255 L
275.69 338.255 L
276.188 338.307 L
276.686 338.359 L
277.185 338.385 L
277.683 338.333 L
278.182 338.333 L
278.68 338.412 L
279.178 338.438 L
279.677 338.464 L
280.175 338.438 L
280.674 338.438 L
281.172 338.464 L
281.671 338.464 L
282.169 338.412 L
282.667 338.516 L
283.166 338.595 L
283.664 338.568 L
284.163 338.595 L
284.661 338.542 L
285.159 338.595 L
285.658 338.569 L
286.156 338.542 L
286.655 338.621 L
287.153 338.621 L
287.652 338.673 L
288.15 338.699 L
288.648 338.699 L
289.147 338.725 L
289.645 338.647 L
290.144 338.725 L
290.642 338.699 L
291.14 338.777 L
291.639 338.83 L
292.137 338.856 L
292.636 338.882 L
293.134 338.855 L
293.633 338.855 L
294.131 338.777 L
294.629 338.829 L
295.128 338.777 L
295.626 338.855 L
296.125 338.882 L
296.623 338.908 L
297.121 338.882 L
297.62 338.751 L
298.118 338.699 L
298.617 338.569 L
299.115 338.36 L
299.614 337.994 L
300.112 337.446 L
300.61 336.584 L
301.109 335.54 L
301.607 334.312 L
302.106 333.085 L
302.604 331.675 L
303.102 330.448 L
303.601 329.403 L
304.099 328.515 L
304.598 327.81 L
305.096 327.027 L
305.595 326.165 L
306.093 325.304 L
306.591 324.364 L
307.09 323.345 L
307.588 322.353 L
308.087 321.439 L
308.585 320.603 L
309.083 319.977 L
309.582 319.193 L
310.08 318.619 L
310.579 317.966 L
311.077 317.391 L
311.576 316.895 L
312.074 316.504 L
312.572 316.243 L
313.071 316.112 L
313.569 315.981 L
314.068 316.034 L
314.566 316.216 L
315.064 316.477 L
315.563 316.765 L
316.061 317.026 L
316.56 317.261 L
317.058 317.522 L
317.556 317.653 L
318.055 317.835 L
318.553 318.018 L
319.052 318.253 L
319.55 318.384 L
320.049 318.41 L
320.547 318.462 L
321.045 318.384 L
321.544 318.201 L
322.042 317.94 L
322.541 317.652 L
323.039 317.339 L
323.537 316.921 L
324.036 316.556 L
324.534 316.06 L
325.033 315.511 L
325.531 314.884 L
326.03 314.258 L
326.528 313.474 L
327.026 312.691 L
327.525 312.012 L
328.023 311.281 L
328.522 310.602 L
329.02 309.975 L
329.518 309.296 L
330.017 308.722 L
330.515 308.147 L
331.014 307.599 L
331.512 307.076 L
332.011 306.58 L
332.509 306.058 L
333.007 305.588 L
333.506 305.092 L
334.004 304.7 L
334.503 304.334 L
335.001 303.969 L
335.499 303.656 L
335.998 303.264 L
336.496 302.977 L
336.995 302.507 L
337.493 302.167 L
337.992 301.906 L
338.49 301.541 L
338.988 301.175 L
339.487 300.862 L
339.985 300.444 L
340.484 300.078 L
340.982 299.504 L
341.48 298.929 L
341.979 298.355 L
342.477 297.571 L
342.976 296.971 L
343.474 296.214 L
343.973 295.535 L
344.471 294.699 L
344.969 293.837 L
345.468 293.106 L
345.966 292.349 L
346.465 291.54 L
346.963 290.756 L
347.461 289.999 L
347.96 289.242 L
348.458 288.511 L
348.957 287.858 L
349.455 287.231 L
349.954 286.63 L
350.452 286.004 L
350.95 285.403 L
351.449 284.985 L
351.947 284.541 L
352.446 284.097 L
352.944 283.784 L
353.442 283.445 L
353.941 283.131 L
354.439 282.844 L
354.938 282.53 L
355.436 282.322 L
355.935 282.034 L
356.433 281.643 L
356.931 281.199 L
357.43 280.755 L
357.928 280.311 L
358.427 279.789 L
358.925 279.319 L
359.423 278.796 L
359.922 278.118 L
360.42 277.517 L
360.919 276.969 L
361.417 276.264 L
361.916 275.532 L
362.414 274.932 L
362.912 274.175 L
363.411 273.574 L
363.909 273.078 L
364.408 272.582 L
364.906 272.033 L
365.404 271.511 L
365.903 271.041 L
366.401 270.597 L
366.9 270.232 L
367.398 269.918 L
367.897 269.631 L
368.395 269.344 L
368.893 269.083 L
369.392 268.822 L
369.89 268.587 L
370.389 268.326 L
370.887 268.195 L
371.385 267.986 L
371.884 267.725 L
372.382 267.49 L
372.881 267.281 L
373.379 266.994 L
373.878 266.655 L
374.376 266.394 L
374.874 266.028 L
375.373 265.663 L
375.871 265.193 L
376.37 264.775 L
376.868 264.409 L
377.366 263.965 L
377.865 263.547 L
378.363 263.182 L
378.862 262.764 L
379.36 262.346 L
379.858 261.902 L
380.357 261.484 L
380.855 261.093 L
381.354 260.649 L
381.852 260.231 L
382.351 259.787 L
382.849 259.422 L
383.347 259.03 L
383.846 258.612 L
384.344 258.195 L
384.843 257.699 L
385.341 257.203 L
385.84 256.732 L
386.338 256.236 L
386.836 255.792 L
387.335 255.27 L
387.833 254.748 L
388.332 254.121 L
388.83 253.599 L
389.328 252.894 L
389.827 252.267 L
390.325 251.64 L
390.824 251.092 L
391.322 250.57 L
391.82 249.995 L
392.319 249.552 L
392.817 248.951 L
393.316 248.429 L
393.814 247.88 L
394.313 247.436 L
394.811 247.019 L
395.309 246.705 L
395.808 246.314 L
396.306 245.948 L
396.805 245.556 L
397.303 245.165 L
397.801 244.825 L
398.3 244.46 L
398.798 244.042 L
399.297 243.703 L
399.795 243.285 L
400.294 242.919 L
400.792 242.423 L
401.29 241.979 L
401.789 241.405 L
402.287 240.883 L
402.786 240.334 L
403.284 239.838 L
403.782 239.316 L
404.281 238.663 L
404.779 238.245 L
405.278 237.619 L
405.776 237.123 L
406.275 236.548 L
406.773 235.948 L
407.271 235.504 L
407.77 235.034 L
408.268 234.537 L
408.767 234.067 L
409.265 233.597 L
409.763 233.18 L
410.262 232.684 L
410.76 232.318 L
411.259 231.953 L
411.757 231.561 L
412.256 231.221 L
412.754 230.96 L
413.252 230.673 L
413.751 230.307 L
414.249 229.994 L
414.748 229.681 L
415.246 229.367 L
415.744 229.08 L
416.243 228.662 L
416.741 228.375 L
417.24 228.036 L
417.738 227.67 L
418.237 227.278 L
418.735 226.913 L
419.233 226.521 L
419.732 226.103 L
420.23 225.659 L
420.729 225.242 L
421.227 224.772 L
421.725 224.38 L
422.224 223.988 L
422.722 223.544 L
423.221 223.1 L
423.719 222.709 L
424.218 222.317 L
424.716 221.977 L
425.214 221.586 L
425.713 221.246 L
426.211 220.854 L
426.71 220.515 L
427.208 220.28 L
427.706 219.94 L
428.205 219.627 L
428.703 219.209 L
429.202 218.948 L
429.7 218.609 L
430.199 218.243 L
430.697 217.878 L
431.195 217.434 L
431.694 217.094 L
432.192 216.755 L
432.691 216.259 L
433.189 215.867 L
433.687 215.371 L
434.186 214.875 L
434.684 214.3 L
435.183 213.752 L
435.681 213.23 L
436.18 212.603 L
436.678 212.081 L
437.176 211.48 L
437.675 210.906 L
438.173 210.201 L
438.672 209.548 L
439.17 208.947 L
439.668 208.294 L
440.167 207.694 L
440.665 207.067 L
441.164 206.441 L
441.662 205.762 L
442.16 205.213 L
442.659 204.586 L
443.157 203.986 L
443.656 203.438 L
444.154 202.837 L
444.653 202.393 L
445.151 201.897 L
445.649 201.427 L
446.148 200.879 L
446.646 200.539 L
447.145 200.043 L
447.643 199.677 L
448.142 199.338 L
448.64 198.946 L
449.138 198.607 L
449.637 198.215 L
450.135 197.797 L
450.634 197.484 L
451.132 197.04 L
451.63 196.674 L
452.129 196.335 L
452.627 195.891 L
453.126 195.578 L
453.624 195.108 L
454.122 194.795 L
454.621 194.377 L
455.119 193.907 L
455.618 193.515 L
456.116 193.097 L
456.615 192.679 L
457.113 192.34 L
457.611 191.922 L
458.11 191.452 L
458.608 190.982 L
459.107 190.539 L
459.605 190.121 L
460.103 189.729 L
460.602 189.181 L
461.1 188.815 L
461.599 188.45 L
462.097 187.954 L
462.596 187.588 L
463.094 187.275 L
463.592 186.831 L
464.091 186.465 L
464.589 186.1 L
465.088 185.656 L
465.586 185.342 L
466.084 185.029 L
466.583 184.716 L
467.081 184.454 L
467.58 184.141 L
468.078 183.88 L
468.577 183.593 L
469.075 183.279 L
469.573 182.966 L
470.072 182.601 L
470.57 182.366 L
471.069 182 L
471.567 181.634 L
472.065 181.243 L
472.564 180.929 L
473.062 180.486 L
473.561 180.094 L
474.059 179.624 L
474.558 179.232 L
475.056 178.814 L
475.554 178.371 L
476.053 177.927 L
476.551 177.457 L
477.05 176.961 L
477.548 176.491 L
478.046 175.968 L
478.545 175.446 L
479.043 175.054 L
479.542 174.48 L
480.04 174.167 L
480.539 173.749 L
481.037 173.305 L
481.535 172.809 L
482.034 172.339 L
482.532 171.921 L
483.031 171.477 L
483.529 171.007 L
484.027 170.589 L
484.526 170.145 L
485.024 169.623 L
485.523 169.205 L
486.021 168.814 L
486.52 168.265 L
487.018 167.743 L
487.516 167.221 L
488.015 166.803 L
488.513 166.254 L
489.012 165.81 L
489.51 165.34 L
490.008 164.792 L
490.507 164.244 L
491.005 163.826 L
491.504 163.199 L
492.002 162.599 L
492.501 162.129 L
492.999 161.58 L
493.497 161.032 L
493.996 160.484 L
494.494 159.935 L
494.993 159.387 L
495.491 158.891 L
495.989 158.369 L
496.488 157.82 L
496.986 157.35 L
497.485 156.984 L
497.983 156.619 L
498.482 156.123 L
498.98 155.783 L
499.478 155.314 L
499.977 154.948 L
500.475 154.608 L
500.974 154.321 L
501.472 154.034 L
501.97 153.668 L
502.469 153.485 L
502.967 153.068 L
503.466 152.754 L
503.964 152.363 L
504.463 152.076 L
504.961 151.71 L
505.459 151.449 L
505.958 151.031 L
506.456 150.639 L
506.955 150.248 L
507.453 149.882 L
507.951 149.386 L
508.45 149.02 L
508.948 148.577 L
509.447 148.133 L
509.945 147.663 L
510.443 147.114 L
510.942 146.644 L
511.44 146.148 L
511.939 145.626 L
512.437 145.156 L
512.936 144.634 L
513.434 144.164 L
513.932 143.668 L
514.431 143.146 L
514.929 142.676 L
515.428 142.179 L
515.926 141.84 L
516.424 141.422 L
516.923 141.057 L
517.421 140.691 L
517.92 140.325 L
518.418 139.934 L
518.917 139.568 L
519.415 139.15 L
519.913 138.785 L
520.412 138.315 L
520.91 137.976 L
521.409 137.48 L
521.907 137.036 L
522.405 136.566 L
522.904 136.096 L
523.402 135.626 L
523.901 135.182 L
524.399 134.764 L
524.898 134.346 L
525.396 133.824 L
525.894 133.276 L
526.393 132.78 L
526.891 132.31 L
527.39 131.84 L
527.888 131.396 L
528.386 130.926 L
528.885 130.377 L
529.383 129.959 L
529.882 129.411 L
530.38 128.967 L
530.879 128.445 L
531.377 128.053 L
531.875 127.583 L
532.374 127.139 L
532.872 126.747 L
533.371 126.251 L
533.869 125.938 L
534.367 125.416 L
534.866 124.998 L
535.364 124.58 L
535.863 124.032 L
536.361 123.614 L
536.86 123.144 L
537.358 122.674 L
537.856 122.178 L
538.355 121.786 L
538.853 121.395 L
539.352 120.872 L
539.85 120.455 L
540.348 119.906 L
540.847 119.41 L
541.345 118.966 L
541.844 118.522 L
542.342 118.052 L
542.841 117.608 L
543.339 117.164 L
543.837 116.616 L
544.336 116.198 L
544.834 115.728 L
545.333 115.206 L
545.831 114.684 L
546.329 114.214 L
546.828 113.822 L
547.326 113.482 L
547.825 113.169 L
548.323 112.934 L
548.822 112.908 L
549.32 113.091 L
549.818 113.43 L
550.317 114.109 L
550.815 114.867 L
551.314 115.676 L
551.812 116.642 L
552.31 117.504 L
552.809 118.053 L
553.307 118.496 L
553.806 118.836 L
554.304 119.201 L
554.803 119.697 L
555.301 120.115 L
555.799 120.69 L
556.298 121.316 L
556.796 121.943 L
557.295 122.439 L
557.793 122.857 L
558.291 123.118 L
558.79 123.405 L
559.288 123.588 L
559.787 123.771 L
560.285 123.876 L
560.784 123.876 L
561.282 123.771 L
561.78 123.562 L
562.279 123.249 L
562.777 122.857 L
563.276 122.335 L
563.774 121.656 L
564.272 120.873 L
564.771 120.141 L
565.269 119.358 L
565.768 118.653 L
566.266 117.922 L
566.765 117.269 L
567.263 116.642 L
567.761 115.937 L
568.26 115.206 L
568.758 114.658 L
569.257 114.109 L
569.755 113.666 L
570.253 113.352 L
570.752 113.065 L
571.25 112.804 L
571.749 112.673 L
572.247 112.569 L
572.745 112.543 L
573.244 112.49 L
573.742 112.543 L
574.241 112.647 L
574.739 112.856 L
575.238 113.039 L
575.736 113.326 L
576.234 113.587 L
576.733 113.875 L
577.231 114.162 L
577.73 114.345 L
578.228 114.527 L
578.727 114.71 L
579.225 114.841 L
579.723 114.971 L
580.222 115.05 L
580.72 115.102 L
581.219 115.154 L
581.717 115.233 L
582.215 115.181 L
582.714 115.155 L
583.212 115.155 L
583.711 115.05 L
584.209 114.919 L
584.708 114.736 L
585.206 114.58 L
585.704 114.423 L
586.203 114.293 L
586.701 114.214 L
587.2 114.11 L
587.698 114.032 L
588.196 114.058 L
588.695 113.875 L
589.193 113.901 L
589.692 113.875 L
590.19 114.005 L
590.688 114.162 L
591.187 114.319 L
591.685 114.684 L
592.184 114.815 L
592.682 115.102 L
593.181 115.416 L
593.679 115.755 L
594.177 116.199 L
594.676 116.434 L
595.174 116.8 L
595.673 117.165 L
596.171 117.583 L
596.669 117.87 L
597.168 118.158 L
597.666 118.471 L
598.165 118.706 L
598.663 118.863 L
599.162 118.941 L
599.66 119.098 L
600.158 119.228 L
600.657 119.228 L
601.155 119.228 L
601.654 119.281 L
602.152 119.229 L
602.65 119.15 L
603.149 119.098 L
603.647 119.046 L
604.146 118.837 L
604.644 118.759 L
605.143 118.654 L
605.641 118.706 L
606.139 118.68 L
606.638 118.654 L
607.136 118.628 L
607.635 118.68 L
608.133 118.732 L
608.631 118.784 L
609.13 118.993 L
609.628 119.176 L
610.127 119.307 L
610.625 119.516 L
611.124 119.724 L
611.622 119.907 L
612.12 120.168 L
612.619 120.325 L
613.117 120.351 L
613.616 120.403 L
614.114 120.482 L
614.612 120.508 L
615.111 120.508 L
615.609 120.482 L
616.108 120.429 L
616.606 120.273 L
617.105 120.012 L
617.603 119.907 L
618.101 119.75 L
618.6 119.515 L
619.098 119.28 L
619.597 119.124 L
620.095 118.836 L
620.593 118.601 L
621.092 118.497 L
621.59 118.393 L
622.089 118.21 L
622.587 118.131 L
623.086 117.975 L
623.584 117.818 L
624.082 117.792 L
624.581 117.766 L
625.079 117.74 L
625.578 117.714 L
626.076 117.714 L
626.574 117.714 L
627.073 117.662 L
627.571 117.583 L
628.07 117.557 L
628.568 117.505 L
629.067 117.453 L
629.565 117.401 L
630.063 117.322 L
630.562 117.27 L
631.06 117.192 L
631.559 117.113 L
632.057 117.061 L
632.555 116.93 L
633.054 116.852 L
633.552 116.8 L
634.051 116.878 L
634.549 116.93 L
635.047 116.93 L
635.546 116.93 L
636.044 116.93 L
636.543 116.956 L
637.041 117.061 L
637.54 117.113 L
638.038 117.139 L
638.536 117.322 L
639.035 117.557 L
639.533 117.714 L
640.032 117.792 L
640.53 117.896 L
641.029 118.079 L
641.527 118.105 L
642.025 118.21 L
642.524 118.314 L
643.022 118.393 L
643.521 118.366 L
644.019 118.288 L
644.517 118.21 L
645.016 118.027 L
645.514 118.001 L
646.013 117.922 L
646.511 117.87 L
647.01 117.844 L
647.508 117.792 L
648.006 117.792 L
648.505 117.714 L
649.003 117.739 L
649.502 117.635 L
650 117.661 L
650.056 117.664 L
S
GR
GS
[0.75 0 0 0.75 0 0] CT
0.494 0.184 0.557 RC
1 LJ
2 LW
N
177.944 290.784 M
178 290.762 L
178.498 290.656 L
178.997 290.656 L
179.495 290.761 L
179.994 290.466 L
180.492 290.459 L
180.99 290.346 L
181.489 290.436 L
181.987 290.353 L
182.486 290.458 L
182.984 290.367 L
183.483 290.662 L
183.981 290.48 L
184.479 290.593 L
184.978 290.488 L
185.476 290.874 L
185.975 290.889 L
186.473 290.7 L
186.971 290.805 L
187.47 290.609 L
187.968 290.708 L
188.467 290.405 L
188.965 290.504 L
189.464 290.995 L
189.962 290.799 L
190.46 290.904 L
190.959 291.003 L
191.457 290.996 L
191.956 291.199 L
192.454 291.396 L
192.952 291.298 L
193.451 291.396 L
193.949 291.501 L
194.448 291.6 L
194.946 291.811 L
195.445 291.818 L
195.943 291.734 L
196.441 291.742 L
196.94 292.036 L
197.438 291.938 L
197.937 292.324 L
198.435 292.331 L
198.933 292.429 L
199.432 292.724 L
199.93 292.633 L
200.429 292.633 L
200.927 292.633 L
201.426 292.633 L
201.924 292.92 L
202.422 292.92 L
202.921 292.814 L
203.419 293.018 L
203.918 293.123 L
204.416 293.425 L
204.914 293.425 L
205.413 293.341 L
205.911 293.537 L
206.41 293.544 L
206.908 293.635 L
207.407 293.832 L
207.905 293.551 L
208.403 293.453 L
208.902 293.453 L
209.4 293.852 L
209.899 293.761 L
210.397 293.67 L
210.895 293.775 L
211.394 293.866 L
211.892 293.767 L
212.391 293.571 L
212.889 293.872 L
213.388 293.774 L
213.886 293.585 L
214.384 293.872 L
214.883 293.872 L
215.381 293.683 L
215.88 294.076 L
216.378 293.977 L
216.876 293.872 L
217.375 293.977 L
217.873 293.795 L
218.372 293.613 L
218.87 293.62 L
219.369 293.515 L
219.867 293.606 L
220.365 293.515 L
220.864 293.999 L
221.362 293.802 L
221.861 293.606 L
222.359 293.691 L
222.857 293.789 L
223.356 293.592 L
223.854 293.886 L
224.353 293.879 L
224.851 293.774 L
225.35 293.782 L
225.848 293.69 L
226.346 293.69 L
226.845 293.802 L
227.343 293.9 L
227.842 293.886 L
228.34 293.781 L
228.838 293.585 L
229.337 293.887 L
229.835 293.599 L
230.334 293.802 L
230.832 293.41 L
231.331 293.417 L
231.829 293.515 L
232.327 293.711 L
232.826 293.606 L
233.324 293.508 L
233.823 293.522 L
234.321 293.529 L
234.819 293.228 L
235.318 293.235 L
235.816 293.038 L
236.315 292.849 L
236.813 292.744 L
237.312 292.828 L
237.81 293.024 L
238.308 293.22 L
238.807 293.333 L
239.305 293.249 L
239.804 293.053 L
240.302 292.962 L
240.8 292.962 L
241.299 293.053 L
241.797 292.857 L
242.296 293.151 L
242.794 293.046 L
243.293 293.038 L
243.791 292.849 L
244.289 293.144 L
244.788 293.052 L
245.286 293.157 L
245.785 293.165 L
246.283 293.053 L
246.781 293.046 L
247.28 293.25 L
247.778 293.151 L
248.277 293.06 L
248.775 292.57 L
249.273 292.766 L
249.772 292.464 L
250.27 292.366 L
250.769 292.668 L
251.267 292.577 L
251.766 292.374 L
252.264 292.185 L
252.762 292.382 L
253.261 291.996 L
253.759 292.2 L
254.258 292.5 L
254.756 292.606 L
255.254 292.612 L
255.753 292.62 L
256.251 292.326 L
256.75 292.522 L
257.248 292.425 L
257.747 292.229 L
258.245 292.145 L
258.743 292.348 L
259.242 292.25 L
259.74 291.941 L
260.239 291.941 L
260.737 291.844 L
261.235 291.753 L
261.734 291.557 L
262.232 291.466 L
262.731 291.451 L
263.229 291.557 L
263.728 291.564 L
264.226 291.858 L
264.724 291.76 L
265.223 292.054 L
265.721 292.159 L
266.22 292.166 L
266.718 292.355 L
267.216 292.468 L
267.715 292.28 L
268.213 292.182 L
268.712 292.385 L
269.21 292.385 L
269.709 292.196 L
270.207 292.301 L
270.705 292.301 L
271.204 292.308 L
271.702 292.21 L
272.201 292.504 L
272.699 292.399 L
273.197 292.489 L
273.696 292.489 L
274.194 292.391 L
274.693 292.406 L
275.191 292.413 L
275.69 292.413 L
276.188 292.609 L
276.686 292.79 L
277.185 292.895 L
277.683 292.706 L
278.182 292.699 L
278.68 292.986 L
279.178 293.098 L
279.677 293.211 L
280.175 293.113 L
280.674 293.12 L
281.172 293.211 L
281.671 293.225 L
282.169 293.044 L
282.667 293.435 L
283.166 293.736 L
283.664 293.639 L
284.163 293.729 L
284.661 293.541 L
285.159 293.744 L
285.658 293.66 L
286.156 293.555 L
286.655 293.849 L
287.153 293.856 L
287.652 294.059 L
288.15 294.142 L
288.648 294.142 L
289.147 294.232 L
289.645 293.939 L
290.144 294.232 L
290.642 294.135 L
291.14 294.436 L
291.639 294.645 L
292.137 294.75 L
292.636 294.848 L
293.134 294.756 L
293.633 294.756 L
294.131 294.463 L
294.629 294.659 L
295.128 294.463 L
295.626 294.749 L
296.125 294.855 L
296.623 294.953 L
297.121 294.862 L
297.62 294.366 L
298.118 294.171 L
298.617 293.689 L
299.115 292.928 L
299.614 291.58 L
300.112 289.564 L
300.61 286.377 L
301.109 282.509 L
301.607 277.96 L
302.106 273.432 L
302.604 268.226 L
303.102 263.746 L
303.601 259.964 L
304.099 256.814 L
304.598 254.342 L
305.096 251.594 L
305.595 248.585 L
306.093 245.584 L
306.591 242.325 L
307.09 238.787 L
307.588 235.368 L
308.087 232.25 L
308.585 229.444 L
309.083 227.438 L
309.582 224.867 L
310.08 223.096 L
310.579 221.036 L
311.077 219.283 L
311.576 217.836 L
312.074 216.776 L
312.572 216.18 L
313.071 216.059 L
313.569 215.967 L
314.068 216.547 L
314.566 217.554 L
315.064 218.839 L
315.563 220.24 L
316.061 221.53 L
316.56 222.723 L
317.058 223.992 L
317.556 224.795 L
318.055 225.807 L
318.553 226.802 L
319.052 227.991 L
319.55 228.797 L
320.049 229.223 L
320.547 229.753 L
321.045 229.813 L
321.544 229.512 L
322.042 228.967 L
322.541 228.31 L
323.039 227.554 L
323.537 226.482 L
324.036 225.57 L
324.534 224.229 L
325.033 222.702 L
325.531 220.93 L
326.03 219.167 L
326.528 216.853 L
327.026 214.579 L
327.525 212.656 L
328.023 210.581 L
328.522 208.694 L
329.02 206.978 L
329.518 205.111 L
330.017 203.635 L
330.515 202.154 L
331.014 200.752 L
331.512 199.43 L
332.011 198.219 L
332.509 196.912 L
333.007 195.785 L
333.506 194.563 L
334.004 193.725 L
334.503 192.979 L
335.001 192.222 L
335.499 191.641 L
335.998 190.825 L
336.496 190.373 L
336.995 189.298 L
337.493 188.652 L
337.992 188.3 L
338.49 187.562 L
338.988 186.848 L
339.487 186.341 L
339.985 185.47 L
340.484 184.736 L
340.982 183.36 L
341.48 182.047 L
341.979 180.725 L
342.477 178.733 L
342.976 177.348 L
343.474 175.499 L
343.973 173.869 L
344.471 171.798 L
344.969 169.639 L
345.468 167.88 L
345.966 166.071 L
346.465 164.091 L
346.963 162.224 L
347.461 160.429 L
347.96 158.688 L
348.458 157.039 L
348.957 155.62 L
349.455 154.312 L
349.954 153.071 L
350.452 151.739 L
350.95 150.495 L
351.449 149.857 L
351.947 149.102 L
352.446 148.353 L
352.944 148.048 L
353.442 147.624 L
353.941 147.329 L
354.439 147.094 L
354.938 146.785 L
355.436 146.745 L
355.935 146.545 L
356.433 146.043 L
356.931 145.371 L
357.43 144.705 L
357.928 144.046 L
358.427 143.142 L
358.925 142.398 L
359.423 141.508 L
359.922 140.199 L
360.42 139.1 L
360.919 138.186 L
361.417 136.831 L
361.916 135.387 L
362.414 134.326 L
362.912 132.829 L
363.411 131.813 L
363.909 131.102 L
364.408 130.451 L
364.906 129.582 L
365.404 128.795 L
365.903 128.135 L
366.401 127.581 L
366.9 127.28 L
367.398 127.101 L
367.897 127.027 L
368.395 126.93 L
368.893 126.937 L
369.392 126.947 L
369.89 127.033 L
370.389 127.052 L
370.887 127.43 L
371.385 127.597 L
371.884 127.599 L
372.382 127.675 L
372.881 127.825 L
373.379 127.768 L
373.878 127.575 L
374.376 127.652 L
374.874 127.399 L
375.373 127.179 L
375.871 126.745 L
376.37 126.428 L
376.868 126.198 L
377.366 125.74 L
377.865 125.414 L
378.363 125.259 L
378.862 124.917 L
379.36 124.638 L
379.858 124.211 L
380.357 123.888 L
380.855 123.638 L
381.354 123.231 L
381.852 122.926 L
382.351 122.591 L
382.849 122.431 L
383.347 122.301 L
383.846 122.051 L
384.344 121.807 L
384.843 121.373 L
385.341 120.917 L
385.84 120.563 L
386.338 120.152 L
386.836 119.908 L
387.335 119.448 L
387.833 118.964 L
388.332 118.231 L
388.83 117.764 L
389.328 116.889 L
389.827 116.153 L
390.325 115.489 L
390.824 115.024 L
391.322 114.632 L
391.82 114.122 L
392.319 113.901 L
392.817 113.312 L
393.316 112.951 L
393.814 112.503 L
394.313 112.311 L
394.811 112.187 L
395.309 112.381 L
395.808 112.297 L
396.306 112.279 L
396.805 112.307 L
397.303 112.239 L
397.801 112.298 L
398.3 112.336 L
398.798 112.259 L
399.297 112.368 L
399.795 112.268 L
400.294 112.328 L
400.792 112.098 L
401.29 112.061 L
401.789 111.668 L
402.287 111.365 L
402.786 111.047 L
403.284 110.889 L
403.782 110.68 L
404.281 110.191 L
404.779 110.194 L
405.278 109.78 L
405.776 109.662 L
406.275 109.38 L
406.773 109.05 L
407.271 109.07 L
407.77 108.966 L
408.268 108.776 L
408.767 108.723 L
409.265 108.677 L
409.763 108.787 L
410.262 108.774 L
410.76 109.046 L
411.259 109.248 L
411.757 109.438 L
412.256 109.706 L
412.754 110.181 L
413.252 110.605 L
413.751 110.795 L
414.249 111.174 L
414.748 111.482 L
415.246 111.833 L
415.744 112.241 L
416.243 112.504 L
416.741 112.923 L
417.24 113.317 L
417.738 113.626 L
418.237 113.81 L
418.735 114.013 L
419.233 114.247 L
419.732 114.436 L
420.23 114.579 L
420.729 114.779 L
421.227 114.924 L
421.725 115.228 L
422.224 115.538 L
422.722 115.714 L
423.221 115.856 L
423.719 116.185 L
424.218 116.439 L
424.716 116.88 L
425.214 117.186 L
425.713 117.637 L
426.211 117.995 L
426.71 118.416 L
427.208 119.038 L
427.706 119.51 L
428.205 120.036 L
428.703 120.332 L
429.202 121.005 L
429.7 121.498 L
430.199 121.948 L
430.697 122.404 L
431.195 122.723 L
431.694 123.196 L
432.192 123.674 L
432.691 123.919 L
433.189 124.273 L
433.687 124.448 L
434.186 124.715 L
434.684 124.895 L
435.183 125.001 L
435.681 125.16 L
436.18 125.189 L
436.678 125.494 L
437.176 125.672 L
437.675 125.862 L
438.173 125.838 L
438.672 125.825 L
439.17 125.953 L
439.668 126.048 L
440.167 126.151 L
440.665 126.263 L
441.164 126.34 L
441.662 126.385 L
442.16 126.7 L
442.659 126.849 L
443.157 127.097 L
443.656 127.483 L
444.154 127.656 L
444.653 128.09 L
445.151 128.493 L
445.649 128.898 L
446.148 129.28 L
446.646 129.998 L
447.145 130.383 L
447.643 131.072 L
448.142 131.808 L
448.64 132.515 L
449.138 133.214 L
449.637 133.839 L
450.135 134.429 L
450.634 135.232 L
451.132 135.795 L
451.63 136.482 L
452.129 137.262 L
452.627 137.843 L
453.126 138.624 L
453.624 139.18 L
454.122 140.02 L
454.621 140.664 L
455.119 141.239 L
455.618 141.933 L
456.116 142.597 L
456.615 143.315 L
457.113 144.053 L
457.611 144.734 L
458.11 145.348 L
458.608 145.92 L
459.107 146.585 L
459.605 147.341 L
460.103 148.14 L
460.602 148.73 L
461.1 149.628 L
461.599 150.531 L
462.097 151.165 L
462.596 152.03 L
463.094 152.92 L
463.592 153.744 L
464.091 154.627 L
464.589 155.514 L
465.088 156.307 L
465.586 157.172 L
466.084 158.093 L
466.583 159.07 L
467.081 160.118 L
467.58 161.002 L
468.078 162.007 L
468.577 163.034 L
469.075 164.033 L
469.573 165.038 L
470.072 165.984 L
470.57 167.094 L
471.069 167.998 L
471.567 169.011 L
472.065 169.947 L
472.564 171.034 L
473.062 171.816 L
473.561 172.822 L
474.059 173.744 L
474.558 174.658 L
475.056 175.654 L
475.554 176.415 L
476.053 177.183 L
476.551 178.086 L
477.05 179.074 L
477.548 179.993 L
478.046 180.808 L
478.545 181.683 L
479.043 182.709 L
479.542 183.599 L
480.04 184.667 L
480.539 185.63 L
481.037 186.626 L
481.535 187.52 L
482.034 188.448 L
482.532 189.437 L
483.031 190.459 L
483.529 191.408 L
484.027 192.471 L
484.526 193.515 L
485.024 194.488 L
485.523 195.516 L
486.021 196.576 L
486.52 197.712 L
487.018 198.772 L
487.516 199.728 L
488.015 200.789 L
488.513 201.679 L
489.012 202.73 L
489.51 203.764 L
490.008 204.846 L
490.507 205.937 L
491.005 207.04 L
491.504 207.963 L
492.002 209.033 L
492.501 210.17 L
492.999 211.188 L
493.497 212.272 L
493.996 213.249 L
494.494 214.292 L
494.993 215.401 L
495.491 216.621 L
495.989 217.71 L
496.488 218.785 L
496.986 220.049 L
497.485 221.286 L
497.983 222.53 L
498.482 223.735 L
498.98 225.07 L
499.478 226.309 L
499.977 227.516 L
500.475 228.808 L
500.974 230.144 L
501.472 231.484 L
501.97 232.77 L
502.469 234.136 L
502.967 235.395 L
503.466 236.795 L
503.964 238.083 L
504.463 239.512 L
504.961 240.829 L
505.459 242.284 L
505.958 243.638 L
506.456 244.955 L
506.955 246.277 L
507.453 247.623 L
507.951 248.95 L
508.45 250.307 L
508.948 251.805 L
509.447 253.187 L
509.945 254.56 L
510.443 255.831 L
510.942 257.156 L
511.44 258.536 L
511.939 259.97 L
512.437 261.318 L
512.936 262.643 L
513.434 264.005 L
513.932 265.486 L
514.431 266.834 L
514.929 268.218 L
515.428 269.595 L
515.926 271.124 L
516.424 272.492 L
516.923 273.955 L
517.421 275.551 L
517.92 277.153 L
518.418 278.685 L
518.917 280.235 L
519.415 281.702 L
519.913 283.2 L
520.412 284.655 L
520.91 286.241 L
521.409 287.698 L
521.907 289.185 L
522.405 290.732 L
522.904 292.222 L
523.402 293.784 L
523.901 295.168 L
524.399 296.633 L
524.898 298.236 L
525.396 299.74 L
525.894 301.439 L
526.393 303.034 L
526.891 304.581 L
527.39 306.2 L
527.888 307.835 L
528.386 309.402 L
528.885 310.95 L
529.383 312.549 L
529.882 314.179 L
530.38 315.917 L
530.879 317.438 L
531.377 319.138 L
531.875 320.822 L
532.374 322.452 L
532.872 324.104 L
533.371 325.802 L
533.869 327.418 L
534.367 329.123 L
534.866 330.861 L
535.364 332.605 L
535.863 334.191 L
536.361 335.812 L
536.86 337.428 L
537.358 339.258 L
537.856 340.952 L
538.355 342.673 L
538.853 344.468 L
539.352 346.179 L
539.85 347.914 L
540.348 349.705 L
540.847 351.441 L
541.345 353.123 L
541.844 354.951 L
542.342 356.783 L
542.841 358.624 L
543.339 360.473 L
543.837 362.319 L
544.336 364.185 L
544.834 365.982 L
545.333 367.782 L
545.831 369.661 L
546.329 371.408 L
546.828 373.309 L
547.326 375.29 L
547.825 377.207 L
548.323 378.915 L
548.822 380.418 L
549.32 381.996 L
549.818 383.502 L
550.317 385.007 L
550.815 386.503 L
551.314 387.92 L
551.812 389.255 L
552.31 390.37 L
552.809 391.343 L
553.307 392.174 L
553.806 392.935 L
554.304 393.624 L
554.803 394.167 L
555.301 394.779 L
555.799 395.245 L
556.298 395.708 L
556.796 396.03 L
557.295 396.354 L
557.793 396.681 L
558.291 396.876 L
558.79 397.07 L
559.288 397.131 L
559.787 397.26 L
560.285 397.187 L
560.784 397.187 L
561.282 397.055 L
561.78 397.133 L
562.279 397.214 L
562.777 397.094 L
563.276 397.117 L
563.774 397.077 L
564.272 397.18 L
564.771 397.142 L
565.269 397.175 L
565.768 397.136 L
566.266 397.307 L
566.765 397.405 L
567.263 397.362 L
567.761 397.392 L
568.26 397.495 L
568.758 397.661 L
569.257 397.756 L
569.755 397.776 L
570.253 397.718 L
570.752 397.731 L
571.25 397.671 L
571.749 397.605 L
572.247 397.681 L
572.745 397.611 L
573.244 397.684 L
573.742 397.682 L
574.241 397.749 L
574.739 397.74 L
575.238 397.732 L
575.736 397.934 L
576.234 397.851 L
576.733 397.91 L
577.231 397.897 L
577.73 397.818 L
578.228 397.809 L
578.727 397.943 L
579.225 397.866 L
579.723 397.861 L
580.222 397.929 L
580.72 397.855 L
581.219 397.853 L
581.717 397.779 L
582.215 397.852 L
582.714 397.924 L
583.212 397.924 L
583.711 397.929 L
584.209 398.005 L
584.708 398.085 L
585.206 398.021 L
585.704 398.028 L
586.203 398.105 L
586.701 398.109 L
587.2 398.114 L
587.698 398.189 L
588.196 398.258 L
588.695 398.196 L
589.193 398.195 L
589.692 398.338 L
590.19 398.475 L
590.688 398.538 L
591.187 398.46 L
591.685 398.514 L
592.184 398.508 L
592.682 398.423 L
593.181 398.479 L
593.679 398.393 L
594.177 398.372 L
594.676 398.431 L
595.174 398.273 L
595.673 398.326 L
596.171 398.237 L
596.669 398.223 L
597.168 398.139 L
597.666 398.055 L
598.165 398.044 L
598.663 397.967 L
599.162 397.963 L
599.66 397.957 L
600.158 398.021 L
600.657 398.021 L
601.155 398.021 L
601.654 398.088 L
602.152 398.021 L
602.65 398.025 L
603.149 398.027 L
603.647 398.03 L
604.146 398.04 L
604.644 397.973 L
605.143 397.908 L
605.641 397.905 L
606.139 397.976 L
606.638 397.978 L
607.136 397.978 L
607.635 398.046 L
608.133 398.113 L
608.631 398.111 L
609.13 398.031 L
609.628 398.093 L
610.127 398.156 L
610.625 398.216 L
611.124 398.276 L
611.622 398.267 L
612.12 398.324 L
612.619 398.317 L
613.117 398.385 L
613.616 398.313 L
614.114 398.448 L
614.612 398.585 L
615.111 398.655 L
615.609 398.656 L
616.108 398.589 L
616.606 398.736 L
617.105 398.888 L
617.603 398.963 L
618.101 398.97 L
618.6 398.912 L
619.098 398.854 L
619.597 398.792 L
620.095 398.946 L
620.593 399.028 L
621.092 399.033 L
621.59 399.108 L
622.089 399.188 L
622.587 399.191 L
623.086 399.199 L
623.584 399.138 L
624.082 399.139 L
624.581 399.07 L
625.079 399.001 L
625.578 399.003 L
626.076 399.073 L
626.574 399.213 L
627.073 399.216 L
627.571 399.22 L
628.07 399.222 L
628.568 399.154 L
629.067 399.227 L
629.565 399.3 L
630.063 399.234 L
630.562 399.307 L
631.06 399.31 L
631.559 399.314 L
632.057 399.317 L
632.555 399.253 L
633.054 399.257 L
633.552 399.189 L
634.051 399.115 L
634.549 399.183 L
635.047 399.253 L
635.546 399.253 L
636.044 399.253 L
636.543 399.181 L
637.041 399.176 L
637.54 399.032 L
638.038 399.031 L
638.536 399.093 L
639.035 399.081 L
639.533 399.143 L
640.032 399.139 L
640.53 399.203 L
641.029 399.194 L
641.527 399.263 L
642.025 399.258 L
642.524 399.253 L
643.022 399.318 L
643.521 399.32 L
644.019 399.394 L
644.517 399.398 L
645.016 399.477 L
645.514 399.549 L
646.013 399.483 L
646.511 399.556 L
647.01 399.486 L
647.508 399.56 L
648.006 399.56 L
648.505 399.494 L
649.003 399.562 L
649.502 399.568 L
650 399.566 L
650.056 399.566 L
S
GR
GS
[0.75 0 0 0.75 0 0] CT
0.467 0.675 0.188 RC
[8 8] 0 setdash
2 LJ
2 LW
N
302.604 445 M
303.102 444.517 L
303.601 444.018 L
304.099 443.504 L
304.598 442.98 L
305.096 442.445 L
305.595 441.898 L
306.093 441.34 L
306.591 440.769 L
307.09 440.184 L
307.588 439.586 L
308.087 438.974 L
308.585 438.35 L
309.083 437.717 L
309.582 437.075 L
310.08 436.424 L
310.579 435.766 L
311.077 435.099 L
311.576 434.427 L
312.074 433.749 L
312.572 433.068 L
313.071 432.386 L
313.569 431.703 L
314.068 431.021 L
314.566 430.343 L
315.064 429.668 L
315.563 429 L
316.061 428.336 L
316.56 427.678 L
317.058 427.025 L
317.556 426.375 L
318.055 425.73 L
318.553 425.088 L
319.052 424.451 L
319.55 423.818 L
320.049 423.187 L
320.547 422.558 L
321.045 421.93 L
321.544 421.302 L
322.042 420.672 L
322.541 420.04 L
323.039 419.405 L
323.537 418.766 L
324.036 418.123 L
324.534 417.476 L
325.033 416.823 L
325.531 416.163 L
326.03 415.497 L
326.528 414.822 L
327.026 414.138 L
327.525 413.445 L
328.023 412.745 L
328.522 412.037 L
329.02 411.321 L
329.518 410.598 L
330.017 409.869 L
330.515 409.134 L
331.014 408.393 L
331.512 407.646 L
332.011 406.895 L
332.509 406.138 L
333.007 405.377 L
333.506 404.61 L
334.004 403.84 L
334.503 403.067 L
335.001 402.29 L
335.499 401.511 L
335.998 400.729 L
336.496 399.945 L
336.995 399.157 L
337.493 398.366 L
337.992 397.573 L
338.49 396.778 L
338.988 395.98 L
339.487 395.18 L
339.985 394.376 L
340.484 393.57 L
340.982 392.759 L
341.48 391.943 L
341.979 391.122 L
342.477 390.294 L
342.976 389.459 L
343.474 388.618 L
343.973 387.77 L
344.471 386.915 L
344.969 386.051 L
345.468 385.179 L
345.966 384.3 L
346.465 383.413 L
346.963 382.519 L
347.461 381.617 L
347.96 380.709 L
348.458 379.793 L
348.957 378.872 L
349.455 377.945 L
349.954 377.013 L
350.452 376.076 L
350.95 375.133 L
351.449 374.187 L
351.947 373.238 L
352.446 372.286 L
352.944 371.332 L
353.442 370.377 L
353.941 369.42 L
354.439 368.462 L
354.938 367.503 L
355.436 366.543 L
355.935 365.582 L
356.433 364.621 L
356.931 363.657 L
357.43 362.69 L
357.928 361.721 L
358.427 360.748 L
358.925 359.772 L
359.423 358.793 L
359.922 357.81 L
360.42 356.822 L
360.919 355.829 L
361.417 354.833 L
361.916 353.83 L
362.414 352.823 L
362.912 351.81 L
363.411 350.793 L
363.909 349.772 L
364.408 348.748 L
364.906 347.721 L
365.404 346.691 L
365.903 345.658 L
366.401 344.622 L
366.9 343.585 L
367.398 342.547 L
367.897 341.509 L
368.395 340.47 L
368.893 339.431 L
369.392 338.392 L
369.89 337.353 L
370.389 336.314 L
370.887 335.276 L
371.385 334.239 L
371.884 333.203 L
372.382 332.166 L
372.881 331.131 L
373.379 330.095 L
373.878 329.059 L
374.376 328.022 L
374.874 326.986 L
375.373 325.948 L
375.871 324.909 L
376.37 323.868 L
376.868 322.827 L
377.366 321.784 L
377.865 320.739 L
378.363 319.694 L
378.862 318.647 L
379.36 317.599 L
379.858 316.55 L
380.357 315.5 L
380.855 314.448 L
381.354 313.395 L
381.852 312.34 L
382.351 311.284 L
382.849 310.228 L
383.347 309.17 L
383.846 308.112 L
384.344 307.053 L
384.843 305.992 L
385.341 304.93 L
385.84 303.866 L
386.338 302.801 L
386.836 301.734 L
387.335 300.666 L
387.833 299.596 L
388.332 298.523 L
388.83 297.449 L
389.328 296.371 L
389.827 295.29 L
390.325 294.207 L
390.824 293.121 L
391.322 292.033 L
391.82 290.944 L
392.319 289.853 L
392.817 288.761 L
393.316 287.666 L
393.814 286.57 L
394.313 285.473 L
394.811 284.375 L
395.309 283.278 L
395.808 282.18 L
396.306 281.082 L
396.805 279.985 L
397.303 278.887 L
397.801 277.789 L
398.3 276.692 L
398.798 275.594 L
399.297 274.496 L
399.795 273.399 L
400.294 272.301 L
400.792 271.203 L
401.29 270.104 L
401.789 269.005 L
402.287 267.904 L
402.786 266.802 L
403.284 265.699 L
403.782 264.596 L
404.281 263.49 L
404.779 262.384 L
405.278 261.277 L
405.776 260.169 L
406.275 259.061 L
406.773 257.951 L
407.271 256.84 L
407.77 255.729 L
408.268 254.618 L
408.767 253.506 L
409.265 252.394 L
409.763 251.282 L
410.262 250.17 L
410.76 249.059 L
411.259 247.949 L
411.757 246.839 L
412.256 245.731 L
412.754 244.624 L
413.252 243.518 L
413.751 242.414 L
414.249 241.311 L
414.748 240.21 L
415.246 239.11 L
415.744 238.011 L
416.243 236.914 L
416.741 235.818 L
417.24 234.723 L
417.738 233.63 L
418.237 232.538 L
418.735 231.447 L
419.233 230.357 L
419.732 229.267 L
420.23 228.178 L
420.729 227.09 L
421.227 226.003 L
421.725 224.916 L
422.224 223.831 L
422.722 222.747 L
423.221 221.663 L
423.719 220.58 L
424.218 219.498 L
424.716 218.418 L
425.214 217.34 L
425.713 216.262 L
426.211 215.187 L
426.71 214.113 L
427.208 213.041 L
427.706 211.971 L
428.205 210.903 L
428.703 209.837 L
429.202 208.773 L
429.7 207.711 L
430.199 206.651 L
430.697 205.593 L
431.195 204.536 L
431.694 203.481 L
432.192 202.428 L
432.691 201.377 L
433.189 200.326 L
433.687 199.277 L
434.186 198.228 L
434.684 197.18 L
435.183 196.133 L
435.681 195.087 L
436.18 194.041 L
436.678 192.995 L
437.176 191.951 L
437.675 190.907 L
438.173 189.863 L
438.672 188.82 L
439.17 187.777 L
439.668 186.734 L
440.167 185.691 L
440.665 184.649 L
441.164 183.608 L
441.662 182.566 L
442.16 181.526 L
442.659 180.486 L
443.157 179.447 L
443.656 178.409 L
444.154 177.373 L
444.653 176.337 L
445.151 175.303 L
445.649 174.271 L
446.148 173.241 L
446.646 172.213 L
447.145 171.186 L
447.643 170.163 L
448.142 169.141 L
448.64 168.123 L
449.138 167.108 L
449.637 166.095 L
450.135 165.085 L
450.634 164.077 L
451.132 163.072 L
451.63 162.07 L
452.129 161.071 L
452.627 160.074 L
453.126 159.08 L
453.624 158.089 L
454.122 157.1 L
454.621 156.115 L
455.119 155.132 L
455.618 154.151 L
456.116 153.174 L
456.615 152.199 L
457.113 151.226 L
457.611 150.257 L
458.11 149.29 L
458.608 148.326 L
459.107 147.364 L
459.605 146.405 L
460.103 145.449 L
460.602 144.496 L
461.1 143.546 L
461.599 142.6 L
462.097 141.656 L
462.596 140.716 L
463.094 139.779 L
463.592 138.845 L
464.091 137.915 L
464.589 136.989 L
465.088 136.065 L
465.586 135.145 L
466.084 134.229 L
466.583 133.317 L
467.081 132.408 L
467.58 131.503 L
468.078 130.603 L
468.577 129.706 L
469.075 128.813 L
469.573 127.924 L
470.072 127.04 L
470.57 126.159 L
471.069 125.282 L
471.567 124.409 L
472.065 123.54 L
472.564 122.676 L
473.062 121.814 L
473.561 120.957 L
474.059 120.103 L
474.558 119.253 L
475.056 118.407 L
475.554 117.564 L
476.053 116.724 L
476.551 115.888 L
477.05 115.056 L
477.548 114.227 L
478.046 113.402 L
478.545 112.58 L
479.043 111.762 L
479.542 110.947 L
480.04 110.137 L
480.539 109.331 L
481.037 108.528 L
481.535 107.73 L
482.034 106.935 L
482.532 106.144 L
483.031 105.357 L
483.529 104.574 L
484.027 103.795 L
484.526 103.02 L
485.024 102.249 L
485.523 101.482 L
486.021 100.719 L
486.52 99.961 L
487.018 99.207 L
487.516 98.457 L
488.015 97.711 L
488.513 96.97 L
489.012 96.232 L
489.51 95.498 L
490.008 94.768 L
490.507 94.043 L
491.005 93.322 L
491.504 92.605 L
492.002 91.892 L
492.501 91.184 L
492.999 90.479 L
493.497 89.78 L
493.996 89.084 L
494.494 88.392 L
494.993 87.705 L
495.491 87.022 L
495.989 86.344 L
496.488 85.67 L
496.986 85 L
497.485 84.336 L
497.983 83.677 L
498.482 83.023 L
498.98 82.373 L
499.478 81.729 L
499.977 81.09 L
500.475 80.456 L
500.974 79.827 L
501.472 79.203 L
501.97 78.585 L
502.469 77.972 L
502.967 77.364 L
503.466 76.762 L
503.964 76.165 L
504.463 75.573 L
504.961 74.987 L
505.459 74.406 L
505.958 73.831 L
506.456 73.261 L
506.955 72.697 L
507.453 72.138 L
507.951 71.584 L
508.45 71.036 L
508.948 70.493 L
509.447 69.956 L
509.945 69.425 L
510.443 68.899 L
510.942 68.378 L
511.44 67.863 L
511.939 67.353 L
512.437 66.849 L
512.936 66.35 L
513.434 65.856 L
513.932 65.368 L
514.431 64.886 L
514.929 64.409 L
515.428 63.938 L
515.926 63.473 L
516.424 63.013 L
516.923 62.559 L
517.421 62.111 L
517.92 61.67 L
518.418 61.234 L
518.917 60.805 L
519.415 60.382 L
519.913 59.965 L
520.412 59.554 L
520.91 59.149 L
521.409 58.75 L
521.907 58.357 L
522.405 57.97 L
522.904 57.589 L
523.402 57.214 L
523.901 56.845 L
524.399 56.482 L
524.898 56.125 L
525.396 55.774 L
S
GR
GS
[0.75 0 0 0.75 0 0] CT
1 GC
N
637 265 M
637 148 L
555 148 L
555 265 L
cp
f
GR
GS
[0.75 0 0 0.75 451.5 125.25] CT
/Helvetica 16.8 F
GS
[1 0 0 1 0 0] CT
0 0 moveto 
1 -1 scale
(V) t 
GR
GR
GS
[0.75 0 0 0.75 460.5 131.25] CT
/Helvetica 13.44 F
GS
[1 0 0 1 0 0] CT
0 0 moveto 
1 -1 scale
(D) t 
GR
GR
GS
[0.75 0 0 0.75 468 131.25] CT
/Helvetica 13.44 F
GS
[1 0 0 1 0 0] CT
0 0 moveto 
1 -1 scale
(S) t 
GR
GR
GS
[0.75 0 0 0.75 0 0] CT
0.851 0.325 0.098 RC
1 LJ
2 LW
N
559 163.932 M
599 163.932 L
S
GR
GS
[0.75 0 0 0.75 451.5 146.25] CT
/Helvetica 16.8 F
GS
[1 0 0 1 0 0] CT
0 0 moveto 
1 -1 scale
(I) t 
GR
GR
GS
[0.75 0 0 0.75 455.25 152.25] CT
/Helvetica 13.44 F
GS
[1 0 0 1 0 0] CT
0 0 moveto 
1 -1 scale
(D) t 
GR
GR
GS
[0.75 0 0 0.75 0 0] CT
0.929 0.694 0.125 RC
1 LJ
2 LW
N
559 192.311 M
599 192.311 L
S
GR
GS
[0.75 0 0 0.75 451.5 168] CT
/Helvetica 16.8 F
GS
[1 0 0 1 0 0] CT
0 0 moveto 
1 -1 scale
(P) t 
GR
GR
GS
[0.75 0 0 0.75 460.5 174] CT
/Helvetica 13.44 F
GS
[1 0 0 1 0 0] CT
0 0 moveto 
1 -1 scale
(s) t 
GR
GR
GS
[0.75 0 0 0.75 465.75 174] CT
/Helvetica 13.44 F
GS
[1 0 0 1 0 0] CT
0 0 moveto 
1 -1 scale
(w) t 
GR
GR
GS
[0.75 0 0 0.75 0 0] CT
0.494 0.184 0.557 RC
1 LJ
2 LW
N
559 220.689 M
599 220.689 L
S
GR
GS
[0.75 0 0 0.75 451.5 189] CT
/Helvetica 16.8 F
GS
[1 0 0 1 0 0] CT
0 0 moveto 
1 -1 scale
(E) t 
GR
GR
GS
[0.75 0 0 0.75 460.5 195] CT
/Helvetica 13.44 F
GS
[1 0 0 1 0 0] CT
0 0 moveto 
1 -1 scale
(s) t 
GR
GR
GS
[0.75 0 0 0.75 465.75 195] CT
/Helvetica 13.44 F
GS
[1 0 0 1 0 0] CT
0 0 moveto 
1 -1 scale
(w) t 
GR
GR
GS
[0.75 0 0 0.75 0 0] CT
0.467 0.675 0.188 RC
[8 8] 0 setdash
2 LJ
2 LW
N
559 249.068 M
599 249.068 L
S
GR
GS
[0.75 0 0 0.75 0 0] CT
0.149 GC
10.0 ML
0.667 LW
N
555 265 M
555 148 L
637 148 L
637 265 L
cp
S
GR
%%Trailer
%%Pages: 1
%%EOF
