%!PS-Adobe-3.0 EPSF-3.0
%%Creator: (MATLAB, The Mathworks, Inc. Version 24.1.0.2603908 \(R2024a\) Update 3. Operating System: Windows 10)
%%Title: (C:/Users/lorde/Documents/MATLAB/Master Lab Course/Exercise 3/E3_Rg10_Eon2.eps)
%%CreationDate: 2024-06-30T10:05:38
%%Pages: (atend)
%%BoundingBox:     0     0   600   375
%%LanguageLevel: 3
%%EndComments
%%BeginProlog
%%BeginResource: procset (Apache XML Graphics Std ProcSet) 1.2 0
%%Version: 1.2 0
%%Copyright: (Copyright 2001-2003,2010 The Apache Software Foundation. License terms: http://www.apache.org/licenses/LICENSE-2.0)
/bd{bind def}bind def
/ld{load def}bd
/GR/grestore ld
/GS/gsave ld
/RM/rmoveto ld
/C/curveto ld
/t/show ld
/L/lineto ld
/ML/setmiterlimit ld
/CT/concat ld
/f/fill ld
/N/newpath ld
/S/stroke ld
/CC/setcmykcolor ld
/A/ashow ld
/cp/closepath ld
/RC/setrgbcolor ld
/LJ/setlinejoin ld
/GC/setgray ld
/LW/setlinewidth ld
/M/moveto ld
/re {4 2 roll M
1 index 0 rlineto
0 exch rlineto
neg 0 rlineto
cp } bd
/_ctm matrix def
/_tm matrix def
/BT { _ctm currentmatrix pop matrix _tm copy pop 0 0 moveto } bd
/ET { _ctm setmatrix } bd
/iTm { _ctm setmatrix _tm concat } bd
/Tm { _tm astore pop iTm 0 0 moveto } bd
/ux 0.0 def
/uy 0.0 def
/F {
  /Tp exch def
  /Tf exch def
  Tf findfont Tp scalefont setfont
  /cf Tf def  /cs Tp def
} bd
/ULS {currentpoint /uy exch def /ux exch def} bd
/ULE {
  /Tcx currentpoint pop def
  gsave
  newpath
  cf findfont cs scalefont dup
  /FontMatrix get 0 get /Ts exch def /FontInfo get dup
  /UnderlinePosition get Ts mul /To exch def
  /UnderlineThickness get Ts mul /Tt exch def
  ux uy To add moveto  Tcx uy To add lineto
  Tt setlinewidth stroke
  grestore
} bd
/OLE {
  /Tcx currentpoint pop def
  gsave
  newpath
  cf findfont cs scalefont dup
  /FontMatrix get 0 get /Ts exch def /FontInfo get dup
  /UnderlinePosition get Ts mul /To exch def
  /UnderlineThickness get Ts mul /Tt exch def
  ux uy To add cs add moveto Tcx uy To add cs add lineto
  Tt setlinewidth stroke
  grestore
} bd
/SOE {
  /Tcx currentpoint pop def
  gsave
  newpath
  cf findfont cs scalefont dup
  /FontMatrix get 0 get /Ts exch def /FontInfo get dup
  /UnderlinePosition get Ts mul /To exch def
  /UnderlineThickness get Ts mul /Tt exch def
  ux uy To add cs 10 mul 26 idiv add moveto Tcx uy To add cs 10 mul 26 idiv add lineto
  Tt setlinewidth stroke
  grestore
} bd
/QT {
/Y22 exch store
/X22 exch store
/Y21 exch store
/X21 exch store
currentpoint
/Y21 load 2 mul add 3 div exch
/X21 load 2 mul add 3 div exch
/X21 load 2 mul /X22 load add 3 div
/Y21 load 2 mul /Y22 load add 3 div
/X22 load /Y22 load curveto
} bd
/SSPD {
dup length /d exch dict def
{
/v exch def
/k exch def
currentpagedevice k known {
/cpdv currentpagedevice k get def
v cpdv ne {
/upd false def
/nullv v type /nulltype eq def
/nullcpdv cpdv type /nulltype eq def
nullv nullcpdv or
{
/upd true def
} {
/sametype v type cpdv type eq def
sametype {
v type /arraytype eq {
/vlen v length def
/cpdvlen cpdv length def
vlen cpdvlen eq {
0 1 vlen 1 sub {
/i exch def
/obj v i get def
/cpdobj cpdv i get def
obj cpdobj ne {
/upd true def
exit
} if
} for
} {
/upd true def
} ifelse
} {
v type /dicttype eq {
v {
/dv exch def
/dk exch def
/cpddv cpdv dk get def
dv cpddv ne {
/upd true def
exit
} if
} forall
} {
/upd true def
} ifelse
} ifelse
} if
} ifelse
upd true eq {
d k v put
} if
} if
} if
} forall
d length 0 gt {
d setpagedevice
} if
} bd
/RE { % /NewFontName [NewEncodingArray] /FontName RE -
  findfont dup length dict begin
  {
    1 index /FID ne
    {def} {pop pop} ifelse
  } forall
  /Encoding exch def
  /FontName 1 index def
  currentdict definefont pop
  end
} bind def
%%EndResource
%%BeginResource: procset (Apache XML Graphics EPS ProcSet) 1.0 0
%%Version: 1.0 0
%%Copyright: (Copyright 2002-2003 The Apache Software Foundation. License terms: http://www.apache.org/licenses/LICENSE-2.0)
/BeginEPSF { %def
/b4_Inc_state save def         % Save state for cleanup
/dict_count countdictstack def % Count objects on dict stack
/op_count count 1 sub def      % Count objects on operand stack
userdict begin                 % Push userdict on dict stack
/showpage { } def              % Redefine showpage, { } = null proc
0 setgray 0 setlinecap         % Prepare graphics state
1 setlinewidth 0 setlinejoin
10 setmiterlimit [ ] 0 setdash newpath
/languagelevel where           % If level not equal to 1 then
{pop languagelevel             % set strokeadjust and
1 ne                           % overprint to their defaults.
{false setstrokeadjust false setoverprint
} if
} if
} bd
/EndEPSF { %def
count op_count sub {pop} repeat            % Clean up stacks
countdictstack dict_count sub {end} repeat
b4_Inc_state restore
} bd
%%EndResource
%FOPBeginFontDict
%%IncludeResource: font Courier-Oblique
%%IncludeResource: font Courier-BoldOblique
%%IncludeResource: font Courier-Bold
%%IncludeResource: font ZapfDingbats
%%IncludeResource: font Symbol
%%IncludeResource: font Helvetica
%%IncludeResource: font Helvetica-Oblique
%%IncludeResource: font Helvetica-Bold
%%IncludeResource: font Helvetica-BoldOblique
%%IncludeResource: font Times-Roman
%%IncludeResource: font Times-Italic
%%IncludeResource: font Times-Bold
%%IncludeResource: font Times-BoldItalic
%%IncludeResource: font Courier
%FOPEndFontDict
%%BeginResource: encoding WinAnsiEncoding
/WinAnsiEncoding [
/.notdef /.notdef /.notdef /.notdef /.notdef
/.notdef /.notdef /.notdef /.notdef /.notdef
/.notdef /.notdef /.notdef /.notdef /.notdef
/.notdef /.notdef /.notdef /.notdef /.notdef
/.notdef /.notdef /.notdef /.notdef /.notdef
/.notdef /.notdef /.notdef /.notdef /.notdef
/.notdef /.notdef /space /exclam /quotedbl
/numbersign /dollar /percent /ampersand /quotesingle
/parenleft /parenright /asterisk /plus /comma
/hyphen /period /slash /zero /one
/two /three /four /five /six
/seven /eight /nine /colon /semicolon
/less /equal /greater /question /at
/A /B /C /D /E
/F /G /H /I /J
/K /L /M /N /O
/P /Q /R /S /T
/U /V /W /X /Y
/Z /bracketleft /backslash /bracketright /asciicircum
/underscore /quoteleft /a /b /c
/d /e /f /g /h
/i /j /k /l /m
/n /o /p /q /r
/s /t /u /v /w
/x /y /z /braceleft /bar
/braceright /asciitilde /bullet /Euro /bullet
/quotesinglbase /florin /quotedblbase /ellipsis /dagger
/daggerdbl /circumflex /perthousand /Scaron /guilsinglleft
/OE /bullet /Zcaron /bullet /bullet
/quoteleft /quoteright /quotedblleft /quotedblright /bullet
/endash /emdash /asciitilde /trademark /scaron
/guilsinglright /oe /bullet /zcaron /Ydieresis
/space /exclamdown /cent /sterling /currency
/yen /brokenbar /section /dieresis /copyright
/ordfeminine /guillemotleft /logicalnot /sfthyphen /registered
/macron /degree /plusminus /twosuperior /threesuperior
/acute /mu /paragraph /middot /cedilla
/onesuperior /ordmasculine /guillemotright /onequarter /onehalf
/threequarters /questiondown /Agrave /Aacute /Acircumflex
/Atilde /Adieresis /Aring /AE /Ccedilla
/Egrave /Eacute /Ecircumflex /Edieresis /Igrave
/Iacute /Icircumflex /Idieresis /Eth /Ntilde
/Ograve /Oacute /Ocircumflex /Otilde /Odieresis
/multiply /Oslash /Ugrave /Uacute /Ucircumflex
/Udieresis /Yacute /Thorn /germandbls /agrave
/aacute /acircumflex /atilde /adieresis /aring
/ae /ccedilla /egrave /eacute /ecircumflex
/edieresis /igrave /iacute /icircumflex /idieresis
/eth /ntilde /ograve /oacute /ocircumflex
/otilde /odieresis /divide /oslash /ugrave
/uacute /ucircumflex /udieresis /yacute /thorn
/ydieresis
] def
%%EndResource
%FOPBeginFontReencode
/Courier-Oblique findfont
dup length dict begin
  {1 index /FID ne {def} {pop pop} ifelse} forall
  /Encoding WinAnsiEncoding def
  currentdict
end
/Courier-Oblique exch definefont pop
/Courier-BoldOblique findfont
dup length dict begin
  {1 index /FID ne {def} {pop pop} ifelse} forall
  /Encoding WinAnsiEncoding def
  currentdict
end
/Courier-BoldOblique exch definefont pop
/Courier-Bold findfont
dup length dict begin
  {1 index /FID ne {def} {pop pop} ifelse} forall
  /Encoding WinAnsiEncoding def
  currentdict
end
/Courier-Bold exch definefont pop
/Helvetica findfont
dup length dict begin
  {1 index /FID ne {def} {pop pop} ifelse} forall
  /Encoding WinAnsiEncoding def
  currentdict
end
/Helvetica exch definefont pop
/Helvetica-Oblique findfont
dup length dict begin
  {1 index /FID ne {def} {pop pop} ifelse} forall
  /Encoding WinAnsiEncoding def
  currentdict
end
/Helvetica-Oblique exch definefont pop
/Helvetica-Bold findfont
dup length dict begin
  {1 index /FID ne {def} {pop pop} ifelse} forall
  /Encoding WinAnsiEncoding def
  currentdict
end
/Helvetica-Bold exch definefont pop
/Helvetica-BoldOblique findfont
dup length dict begin
  {1 index /FID ne {def} {pop pop} ifelse} forall
  /Encoding WinAnsiEncoding def
  currentdict
end
/Helvetica-BoldOblique exch definefont pop
/Times-Roman findfont
dup length dict begin
  {1 index /FID ne {def} {pop pop} ifelse} forall
  /Encoding WinAnsiEncoding def
  currentdict
end
/Times-Roman exch definefont pop
/Times-Italic findfont
dup length dict begin
  {1 index /FID ne {def} {pop pop} ifelse} forall
  /Encoding WinAnsiEncoding def
  currentdict
end
/Times-Italic exch definefont pop
/Times-Bold findfont
dup length dict begin
  {1 index /FID ne {def} {pop pop} ifelse} forall
  /Encoding WinAnsiEncoding def
  currentdict
end
/Times-Bold exch definefont pop
/Times-BoldItalic findfont
dup length dict begin
  {1 index /FID ne {def} {pop pop} ifelse} forall
  /Encoding WinAnsiEncoding def
  currentdict
end
/Times-BoldItalic exch definefont pop
/Courier findfont
dup length dict begin
  {1 index /FID ne {def} {pop pop} ifelse} forall
  /Encoding WinAnsiEncoding def
  currentdict
end
/Courier exch definefont pop
%FOPEndFontReencode
%%EndProlog
%%Page: 1 1
%%PageBoundingBox: 0 0 600 375
%%BeginPageSetup
[1 0 0 -1 0 375] CT
%%EndPageSetup
GS
[0.75 0 0 0.75 0 0] CT
1 GC
N
0 0 800 500 re
f
GR
GS
[0.75 0 0 0.75 0 0] CT
1 GC
N
0 0 800 500 re
f
GR
GS
[0.75 0 0 0.75 0 0] CT
0.941 GC
N
650 445 M
659 445 L
659 37 L
650 37 L
cp
f
GR
GS
[0.75 0 0 0.75 0 0] CT
0.149 GC
2 setlinecap
1 LJ
0.667 LW
N
650 445 M
659 445 L
S
GR
GS
[0.75 0 0 0.75 0 0] CT
0.929 0.694 0.125 RC
2 setlinecap
1 LJ
0.667 LW
N
659 445 M
659 37 L
S
GR
GS
[0.75 0 0 0.75 0 0] CT
0.929 0.694 0.125 RC
2 setlinecap
1 LJ
0.667 LW
N
659 445 M
654.92 445 L
S
GR
GS
[0.75 0 0 0.75 0 0] CT
0.929 0.694 0.125 RC
2 setlinecap
1 LJ
0.667 LW
N
659 363.4 M
654.92 363.4 L
S
GR
GS
[0.75 0 0 0.75 0 0] CT
0.929 0.694 0.125 RC
2 setlinecap
1 LJ
0.667 LW
N
659 281.8 M
654.92 281.8 L
S
GR
GS
[0.75 0 0 0.75 0 0] CT
0.929 0.694 0.125 RC
2 setlinecap
1 LJ
0.667 LW
N
659 200.2 M
654.92 200.2 L
S
GR
GS
[0.75 0 0 0.75 0 0] CT
0.929 0.694 0.125 RC
2 setlinecap
1 LJ
0.667 LW
N
659 118.6 M
654.92 118.6 L
S
GR
GS
[0.75 0 0 0.75 0 0] CT
0.929 0.694 0.125 RC
2 setlinecap
1 LJ
0.667 LW
N
659 37 M
654.92 37 L
S
GR
GS
[0.75 0 0 0.75 499.05002 333.75] CT
0.929 0.694 0.125 RC
/Helvetica 18.667 F
GS
[1 0 0 1 0 0] CT
0 7 moveto 
1 -1 scale
(-5) t 
GR
GR
GS
[0.75 0 0 0.75 499.05002 272.55] CT
0.929 0.694 0.125 RC
/Helvetica 18.667 F
GS
[1 0 0 1 0 0] CT
0 7 moveto 
1 -1 scale
(0) t 
GR
GR
GS
[0.75 0 0 0.75 499.05002 211.34999] CT
0.929 0.694 0.125 RC
/Helvetica 18.667 F
GS
[1 0 0 1 0 0] CT
0 7 moveto 
1 -1 scale
(5) t 
GR
GR
GS
[0.75 0 0 0.75 499.05002 150.15] CT
0.929 0.694 0.125 RC
/Helvetica 18.667 F
GS
[1 0 0 1 0 0] CT
0 7 moveto 
1 -1 scale
(10) t 
GR
GR
GS
[0.75 0 0 0.75 499.05002 88.95] CT
0.929 0.694 0.125 RC
/Helvetica 18.667 F
GS
[1 0 0 1 0 0] CT
0 7 moveto 
1 -1 scale
(15) t 
GR
GR
GS
[0.75 0 0 0.75 499.05002 27.75] CT
0.929 0.694 0.125 RC
/Helvetica 18.667 F
GS
[1 0 0 1 0 0] CT
0 7 moveto 
1 -1 scale
(20) t 
GR
GR
GS
[0 -0.75 0.75 0 533.25 199.5] CT
0.929 0.694 0.125 RC
/Helvetica 20.533 F
GS
[1 0 0 1 0 0] CT
0 0 moveto 
1 -1 scale
(I) t 
GR
GR
GS
[0 -0.75 0.75 0 540.75 195] CT
0.929 0.694 0.125 RC
/Helvetica 16.427 F
GS
[1 0 0 1 0 0] CT
0 0 moveto 
1 -1 scale
(D) t 
GR
GR
GS
[0 -0.75 0.75 0 533.25 186] CT
0.929 0.694 0.125 RC
/Helvetica 20.533 F
GS
[1 0 0 1 0 0] CT
0 0 moveto 
1 -1 scale
( / A) t 
GR
GR
GS
[0.75 0 0 0.75 0 0] CT
0.941 GC
N
104 445 M
113 445 L
113 37 L
104 37 L
cp
f
GR
GS
[0.75 0 0 0.75 0 0] CT
0.149 GC
2 setlinecap
1 LJ
0.667 LW
N
104 445 M
113 445 L
S
GR
GS
[0.75 0 0 0.75 0 0] CT
0.494 0.184 0.557 RC
2 setlinecap
1 LJ
0.667 LW
N
104 445 M
104 37 L
S
GR
GS
[0.75 0 0 0.75 0 0] CT
0.494 0.184 0.557 RC
2 setlinecap
1 LJ
0.667 LW
N
104 445 M
108.08 445 L
S
GR
GS
[0.75 0 0 0.75 0 0] CT
0.494 0.184 0.557 RC
2 setlinecap
1 LJ
0.667 LW
N
104 386.714 M
108.08 386.714 L
S
GR
GS
[0.75 0 0 0.75 0 0] CT
0.494 0.184 0.557 RC
2 setlinecap
1 LJ
0.667 LW
N
104 328.429 M
108.08 328.429 L
S
GR
GS
[0.75 0 0 0.75 0 0] CT
0.494 0.184 0.557 RC
2 setlinecap
1 LJ
0.667 LW
N
104 270.143 M
108.08 270.143 L
S
GR
GS
[0.75 0 0 0.75 0 0] CT
0.494 0.184 0.557 RC
2 setlinecap
1 LJ
0.667 LW
N
104 211.857 M
108.08 211.857 L
S
GR
GS
[0.75 0 0 0.75 0 0] CT
0.494 0.184 0.557 RC
2 setlinecap
1 LJ
0.667 LW
N
104 153.571 M
108.08 153.571 L
S
GR
GS
[0.75 0 0 0.75 0 0] CT
0.494 0.184 0.557 RC
2 setlinecap
1 LJ
0.667 LW
N
104 95.286 M
108.08 95.286 L
S
GR
GS
[0.75 0 0 0.75 0 0] CT
0.494 0.184 0.557 RC
2 setlinecap
1 LJ
0.667 LW
N
104 37 M
108.08 37 L
S
GR
GS
[0.75 0 0 0.75 73.2 333.75] CT
0.494 0.184 0.557 RC
/Helvetica 18.667 F
GS
[1 0 0 1 0 0] CT
-27 7 moveto 
1 -1 scale
(-50) t 
GR
GR
GS
[0.75 0 0 0.75 73.2 290.03572] CT
0.494 0.184 0.557 RC
/Helvetica 18.667 F
GS
[1 0 0 1 0 0] CT
-11 7 moveto 
1 -1 scale
(0) t 
GR
GR
GS
[0.75 0 0 0.75 73.2 246.32142] CT
0.494 0.184 0.557 RC
/Helvetica 18.667 F
GS
[1 0 0 1 0 0] CT
-21 7 moveto 
1 -1 scale
(50) t 
GR
GR
GS
[0.75 0 0 0.75 73.2 202.60714] CT
0.494 0.184 0.557 RC
/Helvetica 18.667 F
GS
[1 0 0 1 0 0] CT
-32 7 moveto 
1 -1 scale
(100) t 
GR
GR
GS
[0.75 0 0 0.75 73.2 158.89286] CT
0.494 0.184 0.557 RC
/Helvetica 18.667 F
GS
[1 0 0 1 0 0] CT
-32 7 moveto 
1 -1 scale
(150) t 
GR
GR
GS
[0.75 0 0 0.75 73.2 115.17857] CT
0.494 0.184 0.557 RC
/Helvetica 18.667 F
GS
[1 0 0 1 0 0] CT
-32 7 moveto 
1 -1 scale
(200) t 
GR
GR
GS
[0.75 0 0 0.75 73.2 71.46428] CT
0.494 0.184 0.557 RC
/Helvetica 18.667 F
GS
[1 0 0 1 0 0] CT
-32 7 moveto 
1 -1 scale
(250) t 
GR
GR
GS
[0.75 0 0 0.75 73.2 27.75] CT
0.494 0.184 0.557 RC
/Helvetica 18.667 F
GS
[1 0 0 1 0 0] CT
-32 7 moveto 
1 -1 scale
(300) t 
GR
GR
GS
[0 -0.75 0.75 0 36 207.75] CT
0.494 0.184 0.557 RC
/Helvetica 20.533 F
GS
[1 0 0 1 0 0] CT
0 0 moveto 
1 -1 scale
(P) t 
GR
GR
GS
[0 -0.75 0.75 0 43.5 197.25] CT
0.494 0.184 0.557 RC
/Helvetica 16.427 F
GS
[1 0 0 1 0 0] CT
0 0 moveto 
1 -1 scale
(s) t 
GR
GR
GS
[0 -0.75 0.75 0 43.5 190.5] CT
0.494 0.184 0.557 RC
/Helvetica 16.427 F
GS
[1 0 0 1 0 0] CT
0 0 moveto 
1 -1 scale
(w) t 
GR
GR
GS
[0 -0.75 0.75 0 36 181.5] CT
0.494 0.184 0.557 RC
/Helvetica 20.533 F
GS
[1 0 0 1 0 0] CT
0 0 moveto 
1 -1 scale
( / W) t 
GR
GR
GS
[0.75 0 0 0.75 0 0] CT
0.941 GC
N
724 445 M
732 445 L
732 37 L
724 37 L
cp
f
GR
GS
[0.75 0 0 0.75 0 0] CT
0.149 GC
2 setlinecap
1 LJ
0.667 LW
N
724 445 M
732 445 L
S
GR
GS
[0.75 0 0 0.75 0 0] CT
0.467 0.675 0.188 RC
2 setlinecap
1 LJ
0.667 LW
N
732 445 M
732 37 L
S
GR
GS
[0.75 0 0 0.75 0 0] CT
0.467 0.675 0.188 RC
2 setlinecap
1 LJ
0.667 LW
N
732 445 M
727.92 445 L
S
GR
GS
[0.75 0 0 0.75 0 0] CT
0.467 0.675 0.188 RC
2 setlinecap
1 LJ
0.667 LW
N
732 363.4 M
727.92 363.4 L
S
GR
GS
[0.75 0 0 0.75 0 0] CT
0.467 0.675 0.188 RC
2 setlinecap
1 LJ
0.667 LW
N
732 281.8 M
727.92 281.8 L
S
GR
GS
[0.75 0 0 0.75 0 0] CT
0.467 0.675 0.188 RC
2 setlinecap
1 LJ
0.667 LW
N
732 200.2 M
727.92 200.2 L
S
GR
GS
[0.75 0 0 0.75 0 0] CT
0.467 0.675 0.188 RC
2 setlinecap
1 LJ
0.667 LW
N
732 118.6 M
727.92 118.6 L
S
GR
GS
[0.75 0 0 0.75 0 0] CT
0.467 0.675 0.188 RC
2 setlinecap
1 LJ
0.667 LW
N
732 37 M
727.92 37 L
S
GR
GS
[0.75 0 0 0.75 553.80002 333.75] CT
0.467 0.675 0.188 RC
/Helvetica 18.667 F
GS
[1 0 0 1 0 0] CT
0 7 moveto 
1 -1 scale
(0) t 
GR
GR
GS
[0.75 0 0 0.75 553.80002 272.55] CT
0.467 0.675 0.188 RC
/Helvetica 18.667 F
GS
[1 0 0 1 0 0] CT
0 7 moveto 
1 -1 scale
(5) t 
GR
GR
GS
[0.75 0 0 0.75 553.80002 211.34999] CT
0.467 0.675 0.188 RC
/Helvetica 18.667 F
GS
[1 0 0 1 0 0] CT
0 7 moveto 
1 -1 scale
(10) t 
GR
GR
GS
[0.75 0 0 0.75 553.80002 150.15] CT
0.467 0.675 0.188 RC
/Helvetica 18.667 F
GS
[1 0 0 1 0 0] CT
0 7 moveto 
1 -1 scale
(15) t 
GR
GR
GS
[0.75 0 0 0.75 553.80002 88.95] CT
0.467 0.675 0.188 RC
/Helvetica 18.667 F
GS
[1 0 0 1 0 0] CT
0 7 moveto 
1 -1 scale
(20) t 
GR
GR
GS
[0.75 0 0 0.75 553.80002 27.75] CT
0.467 0.675 0.188 RC
/Helvetica 18.667 F
GS
[1 0 0 1 0 0] CT
0 7 moveto 
1 -1 scale
(25) t 
GR
GR
GS
[0 -0.75 0.75 0 588 210] CT
0.467 0.675 0.188 RC
/Helvetica 20.533 F
GS
[1 0 0 1 0 0] CT
0 0 moveto 
1 -1 scale
(E) t 
GR
GR
GS
[0 -0.75 0.75 0 595.5 199.5] CT
0.467 0.675 0.188 RC
/Helvetica 16.427 F
GS
[1 0 0 1 0 0] CT
0 0 moveto 
1 -1 scale
(s) t 
GR
GR
GS
[0 -0.75 0.75 0 595.5 192.75] CT
0.467 0.675 0.188 RC
/Helvetica 16.427 F
GS
[1 0 0 1 0 0] CT
0 0 moveto 
1 -1 scale
(w) t 
GR
GR
GS
[0 -0.75 0.75 0 588 183.75] CT
0.467 0.675 0.188 RC
/Helvetica 20.533 F
GS
[1 0 0 1 0 0] CT
0 0 moveto 
1 -1 scale
( / ) t 
GR
GR
GS
[0 -0.75 0.75 0 588 170.25] CT
0.467 0.675 0.188 RC
N
0.578 3.953 M
0.578 3.828 0.609 3.781 QT
3.688 -8.609 L
3.781 -8.906 4.023 -9.094 QT
4.266 -9.281 4.578 -9.281 QT
4.844 -9.281 5.023 -9.125 QT
5.203 -8.969 5.203 -8.703 QT
5.203 -8.641 5.203 -8.602 QT
5.203 -8.563 5.188 -8.516 QT
3.953 -3.609 L
3.75 -2.734 3.75 -2.109 QT
3.75 -1.328 4.117 -0.82 QT
4.484 -0.313 5.234 -0.313 QT
6.75 -0.313 7.922 -2.219 QT
7.922 -2.25 7.93 -2.258 QT
7.938 -2.266 7.938 -2.281 QT
9.453 -8.375 L
9.531 -8.656 9.781 -8.852 QT
10.031 -9.047 10.344 -9.047 QT
10.578 -9.047 10.773 -8.883 QT
10.969 -8.719 10.969 -8.453 QT
10.969 -8.344 10.938 -8.297 QT
9.438 -2.25 L
9.281 -1.656 9.281 -1.219 QT
9.281 -0.313 9.891 -0.313 QT
10.547 -0.313 10.883 -1.125 QT
11.219 -1.938 11.469 -3.094 QT
11.5 -3.203 11.641 -3.203 QT
11.891 -3.203 L
11.969 -3.203 12.023 -3.141 QT
12.078 -3.078 12.078 -3 QT
11.703 -1.531 11.273 -0.648 QT
10.844 0.234 9.859 0.234 QT
9.156 0.234 8.617 -0.164 QT
8.078 -0.563 7.922 -1.234 QT
7.391 -0.578 6.688 -0.172 QT
5.984 0.234 5.203 0.234 QT
3.891 0.234 3.141 -0.375 QT
2.078 3.859 L
2.016 4.156 1.773 4.344 QT
1.531 4.531 1.219 4.531 QT
0.969 4.531 0.773 4.375 QT
0.578 4.219 0.578 3.953 QT
cp
f
GR
GS
[0 -0.75 0.75 0 588 160.5] CT
0.467 0.675 0.188 RC
/Helvetica 20.533 F
GS
[1 0 0 1 0 0] CT
0 0 moveto 
1 -1 scale
(J) t 
GR
GR
GS
[0.75 0 0 0.75 0 0] CT
1 GC
N
178 445 M
650 445 L
650 37 L
178 37 L
cp
f
GR
GS
[0.75 0 0 0.75 0 0] CT
0.873 GC
1 LJ
0.667 LW
N
178 445 M
178 37 L
S
GR
GS
[0.75 0 0 0.75 0 0] CT
0.873 GC
1 LJ
0.667 LW
N
241.784 445 M
241.784 37 L
S
GR
GS
[0.75 0 0 0.75 0 0] CT
0.873 GC
1 LJ
0.667 LW
N
305.568 445 M
305.568 37 L
S
GR
GS
[0.75 0 0 0.75 0 0] CT
0.873 GC
1 LJ
0.667 LW
N
369.351 445 M
369.351 37 L
S
GR
GS
[0.75 0 0 0.75 0 0] CT
0.873 GC
1 LJ
0.667 LW
N
433.135 445 M
433.135 37 L
S
GR
GS
[0.75 0 0 0.75 0 0] CT
0.873 GC
1 LJ
0.667 LW
N
496.919 445 M
496.919 37 L
S
GR
GS
[0.75 0 0 0.75 0 0] CT
0.873 GC
1 LJ
0.667 LW
N
560.703 445 M
560.703 37 L
S
GR
GS
[0.75 0 0 0.75 0 0] CT
0.873 GC
1 LJ
0.667 LW
N
624.487 445 M
624.487 37 L
S
GR
GS
[0.75 0 0 0.75 0 0] CT
0.873 GC
1 LJ
0.667 LW
N
650 445 M
178 445 L
S
GR
GS
[0.75 0 0 0.75 0 0] CT
0.873 GC
1 LJ
0.667 LW
N
650 386.714 M
178 386.714 L
S
GR
GS
[0.75 0 0 0.75 0 0] CT
0.873 GC
1 LJ
0.667 LW
N
650 328.429 M
178 328.429 L
S
GR
GS
[0.75 0 0 0.75 0 0] CT
0.873 GC
1 LJ
0.667 LW
N
650 270.143 M
178 270.143 L
S
GR
GS
[0.75 0 0 0.75 0 0] CT
0.873 GC
1 LJ
0.667 LW
N
650 211.857 M
178 211.857 L
S
GR
GS
[0.75 0 0 0.75 0 0] CT
0.873 GC
1 LJ
0.667 LW
N
650 153.571 M
178 153.571 L
S
GR
GS
[0.75 0 0 0.75 0 0] CT
0.873 GC
1 LJ
0.667 LW
N
650 95.286 M
178 95.286 L
S
GR
GS
[0.75 0 0 0.75 0 0] CT
0.873 GC
1 LJ
0.667 LW
N
650 37 M
178 37 L
S
GR
GS
[0.75 0 0 0.75 0 0] CT
0.149 GC
2 setlinecap
1 LJ
0.667 LW
N
178 445 M
650 445 L
S
GR
GS
[0.75 0 0 0.75 0 0] CT
0.149 GC
2 setlinecap
1 LJ
0.667 LW
N
178 445 M
178 440.28 L
S
GR
GS
[0.75 0 0 0.75 0 0] CT
0.149 GC
2 setlinecap
1 LJ
0.667 LW
N
241.784 445 M
241.784 440.28 L
S
GR
GS
[0.75 0 0 0.75 0 0] CT
0.149 GC
2 setlinecap
1 LJ
0.667 LW
N
305.568 445 M
305.568 440.28 L
S
GR
GS
[0.75 0 0 0.75 0 0] CT
0.149 GC
2 setlinecap
1 LJ
0.667 LW
N
369.351 445 M
369.351 440.28 L
S
GR
GS
[0.75 0 0 0.75 0 0] CT
0.149 GC
2 setlinecap
1 LJ
0.667 LW
N
433.135 445 M
433.135 440.28 L
S
GR
GS
[0.75 0 0 0.75 0 0] CT
0.149 GC
2 setlinecap
1 LJ
0.667 LW
N
496.919 445 M
496.919 440.28 L
S
GR
GS
[0.75 0 0 0.75 0 0] CT
0.149 GC
2 setlinecap
1 LJ
0.667 LW
N
560.703 445 M
560.703 440.28 L
S
GR
GS
[0.75 0 0 0.75 0 0] CT
0.149 GC
2 setlinecap
1 LJ
0.667 LW
N
624.487 445 M
624.487 440.28 L
S
GR
GS
[0.75 0 0 0.75 133.5 338.55] CT
0.149 GC
/Helvetica 18.667 F
GS
[1 0 0 1 0 0] CT
-5.5 19 moveto 
1 -1 scale
(0) t 
GR
GR
GS
[0.75 0 0 0.75 181.33784 338.55] CT
0.149 GC
/Helvetica 18.667 F
GS
[1 0 0 1 0 0] CT
-10.5 19 moveto 
1 -1 scale
(50) t 
GR
GR
GS
[0.75 0 0 0.75 229.17567 338.55] CT
0.149 GC
/Helvetica 18.667 F
GS
[1 0 0 1 0 0] CT
-16 19 moveto 
1 -1 scale
(100) t 
GR
GR
GS
[0.75 0 0 0.75 277.01351 338.55] CT
0.149 GC
/Helvetica 18.667 F
GS
[1 0 0 1 0 0] CT
-16 19 moveto 
1 -1 scale
(150) t 
GR
GR
GS
[0.75 0 0 0.75 324.85135 338.55] CT
0.149 GC
/Helvetica 18.667 F
GS
[1 0 0 1 0 0] CT
-16 19 moveto 
1 -1 scale
(200) t 
GR
GR
GS
[0.75 0 0 0.75 372.68919 338.55] CT
0.149 GC
/Helvetica 18.667 F
GS
[1 0 0 1 0 0] CT
-16 19 moveto 
1 -1 scale
(250) t 
GR
GR
GS
[0.75 0 0 0.75 420.52702 338.55] CT
0.149 GC
/Helvetica 18.667 F
GS
[1 0 0 1 0 0] CT
-16 19 moveto 
1 -1 scale
(300) t 
GR
GR
GS
[0.75 0 0 0.75 468.36488 338.55] CT
0.149 GC
/Helvetica 18.667 F
GS
[1 0 0 1 0 0] CT
-16 19 moveto 
1 -1 scale
(350) t 
GR
GR
GS
[0.75 0 0 0.75 310.50018 357.55] CT
0.149 GC
/Helvetica 20.533 F
GS
[1 0 0 1 0 0] CT
-42.5 21 moveto 
1 -1 scale
(Time / ns) t 
GR
GR
GS
[0.75 0 0 0.75 0 0] CT
0.149 GC
2 setlinecap
1 LJ
0.667 LW
N
178 445 M
178 37 L
S
GR
GS
[0.75 0 0 0.75 0 0] CT
0.149 GC
2 setlinecap
1 LJ
0.667 LW
N
178 445 M
182.72 445 L
S
GR
GS
[0.75 0 0 0.75 0 0] CT
0.149 GC
2 setlinecap
1 LJ
0.667 LW
N
178 386.714 M
182.72 386.714 L
S
GR
GS
[0.75 0 0 0.75 0 0] CT
0.149 GC
2 setlinecap
1 LJ
0.667 LW
N
178 328.429 M
182.72 328.429 L
S
GR
GS
[0.75 0 0 0.75 0 0] CT
0.149 GC
2 setlinecap
1 LJ
0.667 LW
N
178 270.143 M
182.72 270.143 L
S
GR
GS
[0.75 0 0 0.75 0 0] CT
0.149 GC
2 setlinecap
1 LJ
0.667 LW
N
178 211.857 M
182.72 211.857 L
S
GR
GS
[0.75 0 0 0.75 0 0] CT
0.149 GC
2 setlinecap
1 LJ
0.667 LW
N
178 153.571 M
182.72 153.571 L
S
GR
GS
[0.75 0 0 0.75 0 0] CT
0.149 GC
2 setlinecap
1 LJ
0.667 LW
N
178 95.286 M
182.72 95.286 L
S
GR
GS
[0.75 0 0 0.75 0 0] CT
0.149 GC
2 setlinecap
1 LJ
0.667 LW
N
178 37 M
182.72 37 L
S
GR
GS
[0.75 0 0 0.75 128.7 333.75] CT
0.149 GC
/Helvetica 18.667 F
GS
[1 0 0 1 0 0] CT
-27 7 moveto 
1 -1 scale
(-10) t 
GR
GR
GS
[0.75 0 0 0.75 128.7 290.03572] CT
0.149 GC
/Helvetica 18.667 F
GS
[1 0 0 1 0 0] CT
-11 7 moveto 
1 -1 scale
(0) t 
GR
GR
GS
[0.75 0 0 0.75 128.7 246.32142] CT
0.149 GC
/Helvetica 18.667 F
GS
[1 0 0 1 0 0] CT
-21 7 moveto 
1 -1 scale
(10) t 
GR
GR
GS
[0.75 0 0 0.75 128.7 202.60714] CT
0.149 GC
/Helvetica 18.667 F
GS
[1 0 0 1 0 0] CT
-21 7 moveto 
1 -1 scale
(20) t 
GR
GR
GS
[0.75 0 0 0.75 128.7 158.89286] CT
0.149 GC
/Helvetica 18.667 F
GS
[1 0 0 1 0 0] CT
-21 7 moveto 
1 -1 scale
(30) t 
GR
GR
GS
[0.75 0 0 0.75 128.7 115.17857] CT
0.149 GC
/Helvetica 18.667 F
GS
[1 0 0 1 0 0] CT
-21 7 moveto 
1 -1 scale
(40) t 
GR
GR
GS
[0.75 0 0 0.75 128.7 71.46428] CT
0.149 GC
/Helvetica 18.667 F
GS
[1 0 0 1 0 0] CT
-21 7 moveto 
1 -1 scale
(50) t 
GR
GR
GS
[0.75 0 0 0.75 128.7 27.75] CT
0.149 GC
/Helvetica 18.667 F
GS
[1 0 0 1 0 0] CT
-21 7 moveto 
1 -1 scale
(60) t 
GR
GR
GS
[0 -0.75 0.75 0 95.25 206.25] CT
0.149 GC
/Helvetica 20.533 F
GS
[1 0 0 1 0 0] CT
0 0 moveto 
1 -1 scale
(V) t 
GR
GR
GS
[0 -0.75 0.75 0 102.75 195.75] CT
0.149 GC
/Helvetica 16.427 F
GS
[1 0 0 1 0 0] CT
0 0 moveto 
1 -1 scale
(D) t 
GR
GR
GS
[0 -0.75 0.75 0 102.75 186.75] CT
0.149 GC
/Helvetica 16.427 F
GS
[1 0 0 1 0 0] CT
0 0 moveto 
1 -1 scale
(S) t 
GR
GR
GS
[0 -0.75 0.75 0 95.25 178.5] CT
0.149 GC
/Helvetica 20.533 F
GS
[1 0 0 1 0 0] CT
0 0 moveto 
1 -1 scale
( / V) t 
GR
GR
GS
[0.75 0 0 0.75 0 0] CT
0.851 0.325 0.098 RC
1 LJ
2 LW
N
177.944 80.831 M
178 80.831 L
178.51 80.854 L
179.021 80.901 L
179.531 80.924 L
180.041 80.924 L
180.551 80.948 L
181.062 80.994 L
181.572 80.994 L
182.082 81.018 L
182.592 81.041 L
183.103 81.041 L
183.613 81.064 L
184.123 81.064 L
184.634 81.041 L
185.144 81.064 L
185.654 81.041 L
186.164 81.041 L
186.675 81.018 L
187.185 81.018 L
187.695 81.041 L
188.205 81.088 L
188.716 81.088 L
189.226 81.064 L
189.736 81.041 L
190.246 81.018 L
190.757 81.041 L
191.267 81.064 L
191.777 81.064 L
192.288 81.088 L
192.798 81.111 L
193.308 81.134 L
193.818 81.065 L
194.329 81.065 L
194.839 81.088 L
195.349 81.065 L
195.859 81.088 L
196.37 81.111 L
196.88 81.135 L
197.39 81.088 L
197.901 81.111 L
198.411 81.111 L
198.921 81.111 L
199.431 81.158 L
199.942 81.134 L
200.452 81.134 L
200.962 81.158 L
201.472 81.134 L
201.983 81.088 L
202.493 81.064 L
203.003 81.041 L
203.514 81.064 L
204.024 81.041 L
204.534 81.041 L
205.044 80.994 L
205.555 81.018 L
206.065 81.018 L
206.575 81.041 L
207.085 81.111 L
207.596 81.087 L
208.106 81.087 L
208.616 81.087 L
209.126 81.087 L
209.637 81.11 L
210.147 81.11 L
210.657 81.111 L
211.168 81.134 L
211.678 81.157 L
212.188 81.157 L
212.698 81.134 L
213.209 81.134 L
213.719 81.11 L
214.229 81.134 L
214.739 81.134 L
215.25 81.11 L
215.76 81.087 L
216.27 81.11 L
216.781 81.134 L
217.291 81.157 L
217.801 81.18 L
218.311 81.204 L
218.822 81.227 L
219.332 81.227 L
219.842 81.227 L
220.352 81.274 L
220.863 81.274 L
221.373 81.274 L
221.883 81.297 L
222.394 81.297 L
222.904 81.297 L
223.414 81.343 L
223.924 81.32 L
224.435 81.367 L
224.945 81.344 L
225.455 81.367 L
225.965 81.343 L
226.476 81.343 L
226.986 81.32 L
227.496 81.343 L
228.006 81.343 L
228.517 81.39 L
229.027 81.413 L
229.537 81.436 L
230.048 81.46 L
230.558 81.46 L
231.068 81.46 L
231.578 81.483 L
232.089 81.507 L
232.599 81.507 L
233.109 81.53 L
233.619 81.577 L
234.13 81.6 L
234.64 81.6 L
235.15 81.6 L
235.661 81.6 L
236.171 81.646 L
236.681 81.646 L
237.191 81.646 L
237.702 81.623 L
238.212 81.576 L
238.722 81.576 L
239.232 81.53 L
239.743 81.53 L
240.253 81.553 L
240.763 81.553 L
241.274 81.576 L
241.784 81.6 L
242.294 81.576 L
242.804 81.576 L
243.315 81.6 L
243.825 81.623 L
244.335 81.623 L
244.845 81.6 L
245.356 81.6 L
245.866 81.6 L
246.376 81.6 L
246.886 81.53 L
247.397 81.53 L
247.907 81.53 L
248.417 81.53 L
248.928 81.553 L
249.438 81.553 L
249.948 81.576 L
250.458 81.6 L
250.969 81.623 L
251.479 81.623 L
251.989 81.647 L
252.499 81.67 L
253.01 81.693 L
253.52 81.647 L
254.03 81.623 L
254.541 81.6 L
255.051 81.623 L
255.561 81.67 L
256.071 81.647 L
256.582 81.647 L
257.092 81.67 L
257.602 81.693 L
258.112 81.693 L
258.623 81.693 L
259.133 81.67 L
259.643 81.67 L
260.154 81.693 L
260.664 81.693 L
261.174 81.717 L
261.684 81.716 L
262.195 81.693 L
262.705 81.716 L
263.215 81.74 L
263.725 81.74 L
264.236 81.786 L
264.746 81.81 L
265.256 81.81 L
265.766 81.786 L
266.277 81.786 L
266.787 81.786 L
267.297 81.763 L
267.808 81.763 L
268.318 81.74 L
268.828 81.763 L
269.338 81.74 L
269.849 81.74 L
270.359 81.74 L
270.869 81.763 L
271.379 81.763 L
271.89 81.786 L
272.4 81.81 L
272.91 81.833 L
273.421 81.833 L
273.931 81.833 L
274.441 81.833 L
274.951 81.833 L
275.462 81.833 L
275.972 81.833 L
276.482 81.833 L
276.992 81.786 L
277.503 81.763 L
278.013 81.786 L
278.523 81.833 L
279.034 81.833 L
279.544 81.833 L
280.054 81.856 L
280.564 81.879 L
281.075 81.926 L
281.585 81.949 L
282.095 81.926 L
282.605 81.926 L
283.116 81.902 L
283.626 81.856 L
284.136 81.856 L
284.646 81.856 L
285.157 81.856 L
285.667 81.856 L
286.177 81.856 L
286.688 81.832 L
287.198 81.879 L
287.708 81.879 L
288.218 81.879 L
288.729 81.879 L
289.239 81.902 L
289.749 81.926 L
290.259 81.926 L
290.77 81.996 L
291.28 82.019 L
291.79 82.019 L
292.301 82.019 L
292.811 82.042 L
293.321 82.089 L
293.831 82.089 L
294.342 82.089 L
294.852 82.089 L
295.362 82.112 L
295.872 82.089 L
296.383 82.066 L
296.893 82.066 L
297.403 82.066 L
297.914 82.066 L
298.424 82.066 L
298.934 82.089 L
299.444 82.159 L
299.955 82.229 L
300.465 82.345 L
300.975 82.415 L
301.485 82.532 L
301.996 82.695 L
302.506 82.928 L
303.016 83.185 L
303.526 83.488 L
304.037 83.814 L
304.547 84.211 L
305.057 84.607 L
305.568 85.05 L
306.078 85.47 L
306.588 85.913 L
307.098 86.426 L
307.609 86.892 L
308.119 87.381 L
308.629 87.941 L
309.139 88.501 L
309.65 89.083 L
310.16 89.69 L
310.67 90.296 L
311.181 90.878 L
311.691 91.508 L
312.201 92.161 L
312.711 92.79 L
313.222 93.42 L
313.732 94.026 L
314.242 94.655 L
314.752 95.285 L
315.263 95.891 L
315.773 96.497 L
316.283 97.127 L
316.794 97.779 L
317.304 98.362 L
317.814 98.945 L
318.324 99.551 L
318.835 100.204 L
319.345 100.834 L
319.855 101.463 L
320.365 102.023 L
320.876 102.652 L
321.386 103.258 L
321.896 103.888 L
322.406 104.448 L
322.917 105.054 L
323.427 105.66 L
323.937 106.289 L
324.448 106.896 L
324.958 107.502 L
325.468 108.061 L
325.978 108.691 L
326.489 109.32 L
326.999 109.973 L
327.509 110.603 L
328.019 111.209 L
328.53 111.838 L
329.04 112.421 L
329.55 113.074 L
330.061 113.657 L
330.571 114.263 L
331.081 114.869 L
331.591 115.452 L
332.102 116.081 L
332.612 116.734 L
333.122 117.34 L
333.632 117.993 L
334.143 118.599 L
334.653 119.205 L
335.163 119.788 L
335.674 120.418 L
336.184 121.024 L
336.694 121.63 L
337.204 122.259 L
337.715 122.866 L
338.225 123.472 L
338.735 124.055 L
339.245 124.661 L
339.756 125.244 L
340.266 125.873 L
340.776 126.456 L
341.286 127.086 L
341.797 127.739 L
342.307 128.391 L
342.817 128.998 L
343.328 129.65 L
343.838 130.303 L
344.348 130.909 L
344.858 131.492 L
345.369 132.122 L
345.879 132.751 L
346.389 133.381 L
346.899 133.987 L
347.41 134.593 L
347.92 135.223 L
348.43 135.852 L
348.941 136.435 L
349.451 137.065 L
349.961 137.694 L
350.471 138.277 L
350.982 138.86 L
351.492 139.466 L
352.002 140.049 L
352.512 140.632 L
353.023 141.238 L
353.533 141.867 L
354.043 142.496 L
354.553 143.103 L
355.064 143.755 L
355.574 144.408 L
356.084 145.014 L
356.595 145.644 L
357.105 146.25 L
357.615 146.879 L
358.125 147.509 L
358.636 148.115 L
359.146 148.768 L
359.656 149.42 L
360.167 150.05 L
360.677 150.703 L
361.187 151.332 L
361.697 151.962 L
362.208 152.568 L
362.718 153.174 L
363.228 153.78 L
363.738 154.433 L
364.249 155.086 L
364.759 155.692 L
365.269 156.275 L
365.779 156.904 L
366.29 157.557 L
366.8 158.187 L
367.31 158.793 L
367.821 159.445 L
368.331 160.098 L
368.841 160.658 L
369.351 161.287 L
369.862 161.893 L
370.372 162.523 L
370.882 163.105 L
371.392 163.712 L
371.903 164.341 L
372.413 164.971 L
372.923 165.577 L
373.434 166.183 L
373.944 166.813 L
374.454 167.465 L
374.964 168.095 L
375.475 168.724 L
375.985 169.307 L
376.495 169.937 L
377.005 170.566 L
377.516 171.196 L
378.026 171.778 L
378.536 172.385 L
379.047 173.014 L
379.557 173.644 L
380.067 174.25 L
380.577 174.903 L
381.088 175.555 L
381.598 176.162 L
382.108 176.791 L
382.618 177.421 L
383.129 178.05 L
383.639 178.726 L
384.149 179.379 L
384.659 180.009 L
385.17 180.662 L
385.68 181.291 L
386.19 181.921 L
386.701 182.55 L
387.211 183.18 L
387.721 183.762 L
388.231 184.415 L
388.742 185.021 L
389.252 185.674 L
389.762 186.327 L
390.272 186.956 L
390.783 187.563 L
391.293 188.169 L
391.803 188.775 L
392.314 189.381 L
392.824 189.964 L
393.334 190.593 L
393.844 191.176 L
394.355 191.806 L
394.865 192.436 L
395.375 193.042 L
395.885 193.648 L
396.396 194.277 L
396.906 194.907 L
397.416 195.513 L
397.926 196.119 L
398.437 196.725 L
398.947 197.308 L
399.457 197.914 L
399.968 198.521 L
400.478 199.15 L
400.988 199.78 L
401.498 200.386 L
402.009 200.992 L
402.519 201.622 L
403.029 202.181 L
403.539 202.811 L
404.05 203.463 L
404.56 204.07 L
405.07 204.676 L
405.581 205.305 L
406.091 205.935 L
406.601 206.564 L
407.111 207.17 L
407.622 207.777 L
408.132 208.429 L
408.642 209.059 L
409.152 209.688 L
409.663 210.341 L
410.173 210.971 L
410.683 211.6 L
411.194 212.207 L
411.704 212.836 L
412.214 213.419 L
412.724 214.048 L
413.235 214.678 L
413.745 215.307 L
414.255 215.914 L
414.765 216.52 L
415.276 217.173 L
415.786 217.825 L
416.296 218.455 L
416.806 219.108 L
417.317 219.737 L
417.827 220.343 L
418.337 220.95 L
418.848 221.579 L
419.358 222.185 L
419.868 222.815 L
420.378 223.444 L
420.889 224.073 L
421.399 224.68 L
421.909 225.309 L
422.419 225.915 L
422.93 226.545 L
423.44 227.174 L
423.95 227.757 L
424.461 228.34 L
424.971 228.993 L
425.481 229.622 L
425.991 230.252 L
426.502 230.858 L
427.012 231.464 L
427.522 232.117 L
428.032 232.769 L
428.543 233.399 L
429.053 233.982 L
429.563 234.635 L
430.074 235.264 L
430.584 235.87 L
431.094 236.476 L
431.604 237.106 L
432.115 237.712 L
432.625 238.318 L
433.135 238.925 L
433.645 239.577 L
434.156 240.184 L
434.666 240.79 L
435.176 241.419 L
435.686 242.025 L
436.197 242.632 L
436.707 243.261 L
437.217 243.89 L
437.728 244.497 L
438.238 245.126 L
438.748 245.779 L
439.258 246.362 L
439.769 246.968 L
440.279 247.597 L
440.789 248.273 L
441.299 248.88 L
441.81 249.532 L
442.32 250.162 L
442.83 250.745 L
443.341 251.327 L
443.851 251.957 L
444.361 252.61 L
444.871 253.239 L
445.382 253.869 L
445.892 254.475 L
446.402 255.104 L
446.912 255.734 L
447.423 256.363 L
447.933 256.97 L
448.443 257.576 L
448.953 258.252 L
449.464 258.881 L
449.974 259.534 L
450.484 260.187 L
450.995 260.793 L
451.505 261.399 L
452.015 262.029 L
452.525 262.658 L
453.036 263.288 L
453.546 263.917 L
454.056 264.547 L
454.566 265.153 L
455.077 265.782 L
455.587 266.389 L
456.097 266.995 L
456.608 267.624 L
457.118 268.254 L
457.628 268.883 L
458.138 269.466 L
458.649 270.095 L
459.159 270.748 L
459.669 271.355 L
460.179 272.007 L
460.69 272.59 L
461.2 273.196 L
461.71 273.803 L
462.221 274.409 L
462.731 275.015 L
463.241 275.644 L
463.751 276.297 L
464.262 276.904 L
464.772 277.51 L
465.282 278.139 L
465.792 278.745 L
466.303 279.375 L
466.813 279.981 L
467.323 280.541 L
467.833 281.147 L
468.344 281.8 L
468.854 282.453 L
469.364 283.059 L
469.875 283.665 L
470.385 284.318 L
470.895 284.947 L
471.405 285.577 L
471.916 286.183 L
472.426 286.766 L
472.936 287.348 L
473.447 287.978 L
473.957 288.584 L
474.467 289.19 L
474.977 289.796 L
475.488 290.403 L
475.998 291.009 L
476.508 291.638 L
477.018 292.244 L
477.529 292.874 L
478.039 293.48 L
478.549 294.086 L
479.059 294.716 L
479.57 295.275 L
480.08 295.905 L
480.59 296.488 L
481.101 297.094 L
481.611 297.723 L
482.121 298.306 L
482.631 298.936 L
483.142 299.542 L
483.652 300.125 L
484.162 300.754 L
484.672 301.384 L
485.183 302.013 L
485.693 302.642 L
486.203 303.272 L
486.714 303.878 L
487.224 304.437 L
487.734 305.067 L
488.244 305.673 L
488.755 306.256 L
489.265 306.886 L
489.775 307.492 L
490.285 308.098 L
490.796 308.727 L
491.306 309.334 L
491.816 309.917 L
492.326 310.546 L
492.837 311.176 L
493.347 311.829 L
493.857 312.481 L
494.368 313.134 L
494.878 313.764 L
495.388 314.393 L
495.898 315.023 L
496.409 315.652 L
496.919 316.305 L
497.429 316.958 L
497.939 317.587 L
498.45 318.217 L
498.96 318.823 L
499.47 319.452 L
499.981 320.059 L
500.491 320.711 L
501.001 321.341 L
501.511 321.97 L
502.022 322.623 L
502.532 323.23 L
503.042 323.859 L
503.552 324.489 L
504.063 325.095 L
504.573 325.701 L
505.083 326.307 L
505.594 326.89 L
506.104 327.496 L
506.614 328.126 L
507.124 328.732 L
507.635 329.361 L
508.145 329.967 L
508.655 330.62 L
509.165 331.273 L
509.676 331.926 L
510.186 332.555 L
510.696 333.184 L
511.207 333.814 L
511.717 334.443 L
512.227 335.073 L
512.737 335.702 L
513.248 336.332 L
513.758 336.938 L
514.268 337.567 L
514.778 338.174 L
515.289 338.78 L
515.799 339.386 L
516.309 339.992 L
516.819 340.598 L
517.33 341.251 L
517.84 341.904 L
518.35 342.533 L
518.861 343.139 L
519.371 343.722 L
519.881 344.305 L
520.391 344.935 L
520.902 345.541 L
521.412 346.147 L
521.922 346.776 L
522.432 347.429 L
522.943 348.035 L
523.453 348.688 L
523.963 349.294 L
524.474 349.947 L
524.984 350.553 L
525.494 351.159 L
526.004 351.719 L
526.515 352.348 L
527.025 352.954 L
527.535 353.537 L
528.045 354.143 L
528.556 354.726 L
529.066 355.356 L
529.576 355.939 L
530.086 356.568 L
530.597 357.174 L
531.107 357.78 L
531.617 358.433 L
532.128 359.063 L
532.638 359.692 L
533.148 360.275 L
533.658 360.881 L
534.169 361.511 L
534.679 362.117 L
535.189 362.723 L
535.699 363.329 L
536.21 363.912 L
536.72 364.495 L
537.23 365.148 L
537.741 365.754 L
538.251 366.36 L
538.761 367.013 L
539.271 367.643 L
539.782 368.249 L
540.292 368.878 L
540.802 369.555 L
541.312 370.184 L
541.823 370.837 L
542.333 371.443 L
542.843 372.049 L
543.354 372.702 L
543.864 373.332 L
544.374 373.938 L
544.884 374.567 L
545.395 375.173 L
545.905 375.779 L
546.415 376.385 L
546.925 377.015 L
547.436 377.645 L
547.946 378.251 L
548.456 378.857 L
548.966 379.486 L
549.477 380.116 L
549.987 380.699 L
550.497 381.328 L
551.008 381.981 L
551.518 382.634 L
552.028 383.24 L
552.538 383.823 L
553.049 384.429 L
553.559 385.035 L
554.069 385.618 L
554.579 386.178 L
555.09 386.714 L
555.6 387.25 L
556.11 387.763 L
556.621 388.253 L
557.131 388.742 L
557.641 389.092 L
558.151 389.488 L
558.662 389.815 L
559.172 390.118 L
559.682 390.351 L
560.192 390.561 L
560.703 390.724 L
561.213 390.911 L
561.723 391.05 L
562.234 391.167 L
562.744 391.33 L
563.254 391.447 L
563.764 391.54 L
564.275 391.633 L
564.785 391.703 L
565.295 391.727 L
565.805 391.75 L
566.316 391.727 L
566.826 391.727 L
567.336 391.68 L
567.846 391.68 L
568.357 391.657 L
568.867 391.657 L
569.377 391.657 L
569.888 391.657 L
570.398 391.68 L
570.908 391.68 L
571.418 391.634 L
571.929 391.61 L
572.439 391.634 L
572.949 391.657 L
573.459 391.68 L
573.97 391.704 L
574.48 391.727 L
574.99 391.75 L
575.501 391.797 L
576.011 391.797 L
576.521 391.82 L
577.031 391.82 L
577.542 391.867 L
578.052 391.867 L
578.562 391.89 L
579.072 391.913 L
579.583 391.89 L
580.093 391.913 L
580.603 391.96 L
581.114 391.937 L
581.624 391.913 L
582.134 391.89 L
582.644 391.89 L
583.155 391.867 L
583.665 391.843 L
584.175 391.82 L
584.685 391.797 L
585.196 391.844 L
585.706 391.867 L
586.216 391.89 L
586.727 391.867 L
587.237 391.844 L
587.747 391.82 L
588.257 391.82 L
588.768 391.797 L
589.278 391.82 L
589.788 391.844 L
590.298 391.913 L
590.809 391.89 L
591.319 391.89 L
591.829 391.89 L
592.339 391.89 L
592.85 391.914 L
593.36 391.914 L
593.87 391.937 L
594.381 391.96 L
594.891 391.984 L
595.401 391.983 L
595.911 392.007 L
596.422 392.007 L
596.932 391.983 L
597.442 391.96 L
597.952 391.96 L
598.463 391.937 L
598.973 391.937 L
599.483 391.937 L
599.993 391.96 L
600.504 391.96 L
601.014 391.983 L
601.524 391.936 L
602.035 391.96 L
602.545 391.96 L
603.055 391.983 L
603.565 391.983 L
604.076 391.983 L
604.586 391.983 L
605.096 391.983 L
605.607 392.03 L
606.117 392.03 L
606.627 392.053 L
607.137 392.053 L
607.648 392.077 L
608.158 392.053 L
608.668 392.053 L
609.178 392.077 L
609.689 392.054 L
610.199 392.007 L
610.709 392.007 L
611.219 392.03 L
611.73 392.054 L
612.24 392.077 L
612.75 392.03 L
613.261 392.007 L
613.771 392.03 L
614.281 392.03 L
614.791 392.053 L
615.302 392.03 L
615.812 392.03 L
616.322 392.053 L
616.832 392.1 L
617.343 392.1 L
617.853 392.146 L
618.363 392.17 L
618.874 392.169 L
619.384 392.169 L
619.894 392.169 L
620.404 392.169 L
620.915 392.146 L
621.425 392.146 L
621.935 392.193 L
622.445 392.216 L
622.956 392.216 L
623.466 392.17 L
623.976 392.216 L
624.487 392.216 L
624.997 392.286 L
625.507 392.286 L
626.017 392.263 L
626.528 392.286 L
627.038 392.286 L
627.548 392.309 L
628.058 392.333 L
628.569 392.333 L
629.079 392.333 L
629.589 392.333 L
630.099 392.333 L
630.61 392.356 L
631.12 392.379 L
631.63 392.356 L
632.141 392.356 L
632.651 392.356 L
633.161 392.379 L
633.671 392.403 L
634.182 392.403 L
634.692 392.403 L
635.202 392.426 L
635.712 392.356 L
636.223 392.356 L
636.733 392.356 L
637.243 392.356 L
637.753 392.356 L
638.264 392.379 L
638.774 392.356 L
639.284 392.356 L
639.795 392.356 L
640.305 392.333 L
640.815 392.333 L
641.325 392.286 L
641.836 392.263 L
642.346 392.286 L
642.856 392.309 L
643.366 392.31 L
643.877 392.31 L
644.387 392.31 L
644.897 392.286 L
645.408 392.263 L
645.918 392.263 L
646.428 392.286 L
646.938 392.286 L
647.449 392.309 L
647.959 392.309 L
648.469 392.333 L
648.979 392.309 L
649.49 392.333 L
650 392.309 L
650.056 392.309 L
S
GR
GS
[0.75 0 0 0.75 0 0] CT
0.929 0.694 0.125 RC
1 LJ
2 LW
N
177.944 345.014 M
178 345.017 L
178.51 344.965 L
179.021 345.017 L
179.531 344.991 L
180.041 344.991 L
180.551 345.017 L
181.062 344.991 L
181.572 345.044 L
182.082 345.044 L
182.592 345.044 L
183.103 345.044 L
183.613 344.965 L
184.123 345.018 L
184.634 345.044 L
185.144 345.018 L
185.654 345.018 L
186.164 345.07 L
186.675 345.044 L
187.185 344.992 L
187.695 344.992 L
188.205 345.018 L
188.716 345.096 L
189.226 345.096 L
189.736 345.122 L
190.246 345.096 L
190.757 345.096 L
191.267 345.148 L
191.777 345.148 L
192.288 345.07 L
192.798 345.044 L
193.308 345.044 L
193.818 344.992 L
194.329 345.096 L
194.839 345.123 L
195.349 345.175 L
195.859 345.201 L
196.37 345.201 L
196.88 345.227 L
197.39 345.253 L
197.901 345.253 L
198.411 345.305 L
198.921 345.331 L
199.431 345.488 L
199.942 345.462 L
200.452 345.435 L
200.962 345.435 L
201.472 345.409 L
201.983 345.331 L
202.493 345.305 L
203.003 345.305 L
203.514 345.252 L
204.024 345.148 L
204.534 345.2 L
205.044 345.2 L
205.555 345.2 L
206.065 345.174 L
206.575 345.148 L
207.085 345.2 L
207.596 345.2 L
208.106 345.148 L
208.616 345.174 L
209.126 345.2 L
209.637 345.2 L
210.147 345.174 L
210.657 345.174 L
211.168 345.174 L
211.678 345.252 L
212.188 345.278 L
212.698 345.252 L
213.209 345.278 L
213.719 345.278 L
214.229 345.304 L
214.739 345.278 L
215.25 345.278 L
215.76 345.278 L
216.27 345.304 L
216.781 345.304 L
217.291 345.304 L
217.801 345.33 L
218.311 345.356 L
218.822 345.33 L
219.332 345.304 L
219.842 345.304 L
220.352 345.357 L
220.863 345.304 L
221.373 345.304 L
221.883 345.383 L
222.394 345.382 L
222.904 345.33 L
223.414 345.356 L
223.924 345.33 L
224.435 345.461 L
224.945 345.409 L
225.455 345.435 L
225.965 345.435 L
226.476 345.408 L
226.986 345.382 L
227.496 345.382 L
228.006 345.434 L
228.517 345.46 L
229.027 345.486 L
229.537 345.434 L
230.048 345.382 L
230.558 345.382 L
231.068 345.356 L
231.578 345.33 L
232.089 345.409 L
232.599 345.408 L
233.109 345.434 L
233.619 345.33 L
234.13 345.304 L
234.64 345.304 L
235.15 345.304 L
235.661 345.252 L
236.171 345.252 L
236.681 345.226 L
237.191 345.2 L
237.702 345.121 L
238.212 345.173 L
238.722 345.069 L
239.232 345.069 L
239.743 345.043 L
240.253 344.99 L
240.763 344.99 L
241.274 344.938 L
241.784 344.964 L
242.294 344.912 L
242.804 344.99 L
243.315 344.938 L
243.825 344.99 L
244.335 344.964 L
244.845 344.964 L
245.356 344.964 L
245.866 344.938 L
246.376 344.86 L
246.886 344.912 L
247.397 344.912 L
247.907 344.886 L
248.417 344.86 L
248.928 344.86 L
249.438 344.756 L
249.948 344.782 L
250.458 344.651 L
250.969 344.703 L
251.479 344.651 L
251.989 344.599 L
252.499 344.573 L
253.01 344.521 L
253.52 344.547 L
254.03 344.495 L
254.541 344.547 L
255.051 344.521 L
255.561 344.442 L
256.071 344.442 L
256.582 344.442 L
257.092 344.39 L
257.602 344.416 L
258.112 344.495 L
258.623 344.547 L
259.133 344.468 L
259.643 344.442 L
260.154 344.39 L
260.664 344.338 L
261.174 344.26 L
261.684 344.207 L
262.195 344.129 L
262.705 344.155 L
263.215 344.129 L
263.725 344.129 L
264.236 344.181 L
264.746 344.077 L
265.256 344.129 L
265.766 344.103 L
266.277 344.207 L
266.787 344.155 L
267.297 344.155 L
267.808 344.129 L
268.318 344.155 L
268.828 344.051 L
269.338 343.998 L
269.849 343.972 L
270.359 343.999 L
270.869 344.025 L
271.379 344.025 L
271.89 343.998 L
272.4 344.051 L
272.91 344.025 L
273.421 344.025 L
273.931 343.999 L
274.441 343.998 L
274.951 344.025 L
275.462 344.025 L
275.972 344.077 L
276.482 344.077 L
276.992 344.051 L
277.503 344.051 L
278.013 344.129 L
278.523 344.129 L
279.034 344.233 L
279.544 344.103 L
280.054 344.024 L
280.564 344.05 L
281.075 344.024 L
281.585 344.024 L
282.095 343.998 L
282.605 343.998 L
283.116 344.05 L
283.626 343.998 L
284.136 343.972 L
284.646 344.05 L
285.157 343.998 L
285.667 344.024 L
286.177 343.998 L
286.688 343.946 L
287.198 343.972 L
287.708 343.893 L
288.218 343.867 L
288.729 343.815 L
289.239 343.867 L
289.749 343.867 L
290.259 343.867 L
290.77 343.867 L
291.28 343.893 L
291.79 343.972 L
292.301 343.919 L
292.811 343.893 L
293.321 343.919 L
293.831 343.893 L
294.342 343.893 L
294.852 343.841 L
295.362 343.763 L
295.872 343.737 L
296.383 343.711 L
296.893 343.737 L
297.403 343.737 L
297.914 343.685 L
298.424 343.632 L
298.934 343.528 L
299.444 343.267 L
299.955 342.823 L
300.465 342.222 L
300.975 341.517 L
301.485 340.525 L
301.996 339.35 L
302.506 338.149 L
303.016 337.026 L
303.526 336.138 L
304.037 335.459 L
304.547 334.859 L
305.057 334.128 L
305.568 333.344 L
306.078 332.561 L
306.588 331.621 L
307.098 330.681 L
307.609 329.793 L
308.119 329.062 L
308.629 328.279 L
309.139 327.652 L
309.65 327.051 L
310.16 326.529 L
310.67 325.955 L
311.181 325.537 L
311.691 325.25 L
312.201 325.067 L
312.711 325.014 L
313.222 325.171 L
313.732 325.406 L
314.242 325.693 L
314.752 326.085 L
315.263 326.477 L
315.773 326.947 L
316.283 327.391 L
316.794 327.756 L
317.304 328.07 L
317.814 328.435 L
318.324 328.801 L
318.835 329.192 L
319.345 329.558 L
319.855 329.819 L
320.365 330.106 L
320.876 330.211 L
321.386 330.211 L
321.896 330.185 L
322.406 330.133 L
322.917 330.054 L
323.427 329.924 L
323.937 329.689 L
324.448 329.454 L
324.958 329.036 L
325.468 328.618 L
325.978 328.122 L
326.489 327.574 L
326.999 327.078 L
327.509 326.477 L
328.019 325.903 L
328.53 325.276 L
329.04 324.754 L
329.55 324.127 L
330.061 323.657 L
330.571 323.187 L
331.081 322.717 L
331.591 322.273 L
332.102 321.777 L
332.612 321.463 L
333.122 321.019 L
333.632 320.68 L
334.143 320.419 L
334.653 320.21 L
335.163 319.923 L
335.674 319.74 L
336.184 319.688 L
336.694 319.479 L
337.204 319.348 L
337.715 319.087 L
338.225 318.93 L
338.735 318.722 L
339.245 318.591 L
339.756 318.382 L
340.266 318.199 L
340.776 317.886 L
341.286 317.573 L
341.797 317.129 L
342.307 316.737 L
342.817 316.293 L
343.328 315.667 L
343.838 315.197 L
344.348 314.596 L
344.858 313.995 L
345.369 313.343 L
345.879 312.664 L
346.389 311.933 L
346.899 311.28 L
347.41 310.575 L
347.92 309.792 L
348.43 309.243 L
348.941 308.591 L
349.451 307.964 L
349.961 307.337 L
350.471 306.867 L
350.982 306.449 L
351.492 306.11 L
352.002 305.77 L
352.512 305.509 L
353.023 305.222 L
353.533 305.013 L
354.043 304.778 L
354.553 304.673 L
355.064 304.517 L
355.574 304.386 L
356.084 304.36 L
356.595 304.308 L
357.105 304.125 L
357.615 303.916 L
358.125 303.707 L
358.636 303.446 L
359.146 303.132 L
359.656 302.845 L
360.167 302.558 L
360.677 302.166 L
361.187 301.801 L
361.697 301.279 L
362.208 300.887 L
362.718 300.365 L
363.228 299.842 L
363.738 299.424 L
364.249 298.902 L
364.759 298.458 L
365.269 297.988 L
365.779 297.597 L
366.29 297.231 L
366.8 296.918 L
367.31 296.552 L
367.821 296.343 L
368.331 296.212 L
368.841 296.108 L
369.351 295.977 L
369.862 295.847 L
370.372 295.795 L
370.882 295.69 L
371.392 295.612 L
371.903 295.586 L
372.413 295.507 L
372.923 295.429 L
373.434 295.377 L
373.944 295.194 L
374.454 295.116 L
374.964 294.907 L
375.475 294.75 L
375.985 294.593 L
376.495 294.437 L
377.005 294.202 L
377.516 293.914 L
378.026 293.653 L
378.536 293.392 L
379.047 293.157 L
379.557 292.896 L
380.067 292.661 L
380.577 292.322 L
381.088 292.034 L
381.598 291.799 L
382.108 291.591 L
382.618 291.382 L
383.129 291.173 L
383.639 290.938 L
384.149 290.781 L
384.659 290.546 L
385.17 290.259 L
385.68 289.972 L
386.19 289.659 L
386.701 289.371 L
387.211 289.058 L
387.721 288.745 L
388.231 288.431 L
388.742 288.04 L
389.252 287.674 L
389.762 287.282 L
390.272 286.943 L
390.783 286.525 L
391.293 286.081 L
391.803 285.663 L
392.314 285.219 L
392.824 284.776 L
393.334 284.384 L
393.844 283.94 L
394.355 283.601 L
394.865 283.209 L
395.375 282.844 L
395.885 282.452 L
396.396 282.191 L
396.906 281.877 L
397.416 281.643 L
397.926 281.408 L
398.437 281.12 L
398.947 280.911 L
399.457 280.676 L
399.968 280.389 L
400.478 280.18 L
400.988 279.971 L
401.498 279.684 L
402.009 279.423 L
402.519 279.084 L
403.029 278.796 L
403.539 278.483 L
404.05 278.144 L
404.56 277.778 L
405.07 277.439 L
405.581 277.073 L
406.091 276.681 L
406.601 276.159 L
407.111 275.689 L
407.622 275.167 L
408.132 274.671 L
408.642 274.305 L
409.152 273.861 L
409.663 273.522 L
410.173 273.157 L
410.683 272.791 L
411.194 272.426 L
411.704 272.138 L
412.214 271.929 L
412.724 271.668 L
413.235 271.433 L
413.745 271.277 L
414.255 271.12 L
414.765 271.016 L
415.276 270.754 L
415.786 270.572 L
416.296 270.389 L
416.806 270.206 L
417.317 270.128 L
417.827 269.971 L
418.337 269.788 L
418.848 269.632 L
419.358 269.423 L
419.868 269.188 L
420.378 268.926 L
420.889 268.665 L
421.399 268.43 L
421.909 268.143 L
422.419 267.908 L
422.93 267.568 L
423.44 267.229 L
423.95 266.968 L
424.461 266.655 L
424.971 266.315 L
425.481 266.106 L
425.991 265.793 L
426.502 265.453 L
427.012 265.166 L
427.522 264.905 L
428.032 264.565 L
428.543 264.33 L
429.053 264.122 L
429.563 263.86 L
430.074 263.704 L
430.584 263.469 L
431.094 263.234 L
431.604 263.051 L
432.115 262.816 L
432.625 262.607 L
433.135 262.398 L
433.645 262.111 L
434.156 261.902 L
434.666 261.641 L
435.176 261.354 L
435.686 260.962 L
436.197 260.701 L
436.707 260.335 L
437.217 259.97 L
437.728 259.578 L
438.238 259.134 L
438.748 258.795 L
439.258 258.299 L
439.769 257.776 L
440.279 257.28 L
440.789 256.836 L
441.299 256.314 L
441.81 255.818 L
442.32 255.296 L
442.83 254.773 L
443.341 254.199 L
443.851 253.729 L
444.361 253.259 L
444.871 252.789 L
445.382 252.371 L
445.892 251.927 L
446.402 251.509 L
446.912 251.039 L
447.423 250.778 L
447.933 250.413 L
448.443 250.073 L
448.953 249.76 L
449.464 249.42 L
449.974 249.107 L
450.484 248.819 L
450.995 248.585 L
451.505 248.35 L
452.015 248.167 L
452.525 247.958 L
453.036 247.801 L
453.546 247.514 L
454.056 247.279 L
454.566 247.018 L
455.077 246.757 L
455.587 246.626 L
456.097 246.391 L
456.608 246.156 L
457.118 245.947 L
457.628 245.765 L
458.138 245.504 L
458.649 245.216 L
459.159 244.955 L
459.669 244.72 L
460.179 244.407 L
460.69 244.093 L
461.2 243.78 L
461.71 243.467 L
462.221 243.075 L
462.731 242.71 L
463.241 242.396 L
463.751 242.135 L
464.262 241.77 L
464.772 241.43 L
465.282 241.195 L
465.792 240.934 L
466.303 240.673 L
466.813 240.386 L
467.323 240.125 L
467.833 239.916 L
468.344 239.707 L
468.854 239.524 L
469.364 239.211 L
469.875 239.107 L
470.385 238.819 L
470.895 238.637 L
471.405 238.558 L
471.916 238.375 L
472.426 238.219 L
472.936 237.984 L
473.447 237.801 L
473.957 237.566 L
474.467 237.383 L
474.977 237.226 L
475.488 237.018 L
475.998 236.809 L
476.508 236.521 L
477.018 236.208 L
477.529 235.921 L
478.039 235.634 L
478.549 235.268 L
479.059 234.955 L
479.57 234.589 L
480.08 234.276 L
480.59 233.936 L
481.101 233.492 L
481.611 233.179 L
482.121 232.813 L
482.631 232.422 L
483.142 232.03 L
483.652 231.717 L
484.162 231.43 L
484.672 231.116 L
485.183 230.777 L
485.693 230.385 L
486.203 230.071 L
486.714 229.732 L
487.224 229.392 L
487.734 229.105 L
488.244 228.766 L
488.755 228.505 L
489.265 228.296 L
489.775 227.93 L
490.285 227.669 L
490.796 227.356 L
491.306 227.069 L
491.816 226.703 L
492.326 226.416 L
492.837 226.024 L
493.347 225.659 L
493.857 225.346 L
494.368 224.98 L
494.878 224.562 L
495.388 224.144 L
495.898 223.805 L
496.409 223.413 L
496.919 222.943 L
497.429 222.552 L
497.939 222.055 L
498.45 221.664 L
498.96 221.22 L
499.47 220.802 L
499.981 220.411 L
500.491 219.993 L
501.001 219.679 L
501.511 219.392 L
502.022 219.027 L
502.532 218.74 L
503.042 218.531 L
503.552 218.243 L
504.063 218.061 L
504.573 217.93 L
505.083 217.774 L
505.594 217.643 L
506.104 217.434 L
506.614 217.356 L
507.124 217.173 L
507.635 217.068 L
508.145 216.912 L
508.655 216.677 L
509.165 216.494 L
509.676 216.259 L
510.186 215.998 L
510.696 215.815 L
511.207 215.58 L
511.717 215.345 L
512.227 215.084 L
512.737 214.848 L
513.248 214.483 L
513.758 214.143 L
514.268 213.83 L
514.778 213.543 L
515.289 213.23 L
515.799 212.838 L
516.309 212.55 L
516.819 212.211 L
517.33 211.898 L
517.84 211.532 L
518.35 211.192 L
518.861 210.931 L
519.371 210.644 L
519.881 210.461 L
520.391 210.096 L
520.902 209.782 L
521.412 209.521 L
521.922 209.234 L
522.432 208.973 L
522.943 208.686 L
523.453 208.372 L
523.963 208.137 L
524.474 207.876 L
524.984 207.641 L
525.494 207.38 L
526.004 207.171 L
526.515 206.91 L
527.025 206.597 L
527.535 206.309 L
528.045 206.048 L
528.556 205.813 L
529.066 205.5 L
529.576 205.16 L
530.086 204.821 L
530.597 204.534 L
531.107 204.142 L
531.617 203.829 L
532.128 203.515 L
532.638 203.124 L
533.148 202.758 L
533.658 202.367 L
534.169 201.975 L
534.679 201.635 L
535.189 201.348 L
535.699 201.009 L
536.21 200.669 L
536.72 200.356 L
537.23 200.043 L
537.741 199.703 L
538.251 199.39 L
538.761 199.129 L
539.271 198.816 L
539.782 198.502 L
540.292 198.241 L
540.802 197.902 L
541.312 197.615 L
541.823 197.327 L
542.333 197.092 L
542.843 196.909 L
543.354 196.57 L
543.864 196.257 L
544.374 195.917 L
544.884 195.63 L
545.395 195.317 L
545.905 194.977 L
546.415 194.664 L
546.925 194.298 L
547.436 193.933 L
547.946 193.697 L
548.456 193.332 L
548.966 192.992 L
549.477 192.601 L
549.987 192.34 L
550.497 192.026 L
551.008 191.687 L
551.518 191.426 L
552.028 191.087 L
552.538 190.721 L
553.049 190.564 L
553.559 190.329 L
554.069 190.147 L
554.579 190.094 L
555.09 190.251 L
555.6 190.616 L
556.11 191.087 L
556.621 191.713 L
557.131 192.705 L
557.641 193.645 L
558.151 194.533 L
558.662 195.212 L
559.172 195.656 L
559.682 195.996 L
560.192 196.44 L
560.703 196.936 L
561.213 197.484 L
561.723 198.085 L
562.234 198.711 L
562.744 199.286 L
563.254 199.756 L
563.764 200.226 L
564.275 200.487 L
564.785 200.748 L
565.295 200.931 L
565.805 201.114 L
566.316 201.192 L
566.826 201.166 L
567.336 201.088 L
567.846 200.748 L
568.357 200.331 L
568.867 199.782 L
569.377 199.234 L
569.888 198.529 L
570.398 197.771 L
570.908 196.962 L
571.418 196.231 L
571.929 195.526 L
572.439 194.821 L
572.949 194.142 L
573.459 193.437 L
573.97 192.758 L
574.48 192.131 L
574.99 191.531 L
575.501 190.904 L
576.011 190.46 L
576.521 190.095 L
577.031 189.834 L
577.542 189.651 L
578.052 189.468 L
578.562 189.285 L
579.072 189.259 L
579.583 189.207 L
580.093 189.337 L
580.603 189.546 L
581.114 189.703 L
581.624 189.886 L
582.134 190.094 L
582.644 190.382 L
583.155 190.591 L
583.665 190.93 L
584.175 191.191 L
584.685 191.426 L
585.196 191.661 L
585.706 191.792 L
586.216 191.949 L
586.727 192.079 L
587.237 192.184 L
587.747 192.158 L
588.257 192.288 L
588.768 192.262 L
589.278 192.184 L
589.788 192.105 L
590.298 192.001 L
590.809 191.87 L
591.319 191.688 L
591.829 191.636 L
592.339 191.479 L
592.85 191.348 L
593.36 191.192 L
593.87 191.087 L
594.381 190.878 L
594.891 190.8 L
595.401 190.8 L
595.911 190.774 L
596.422 190.8 L
596.932 190.904 L
597.442 190.956 L
597.952 191.165 L
598.463 191.348 L
598.973 191.635 L
599.483 191.975 L
599.993 192.183 L
600.504 192.523 L
601.014 192.862 L
601.524 193.306 L
602.035 193.646 L
602.545 194.063 L
603.055 194.455 L
603.565 194.794 L
604.076 195.082 L
604.586 195.395 L
605.096 195.656 L
605.607 195.865 L
606.117 196.022 L
606.627 196.022 L
607.137 196.074 L
607.648 195.996 L
608.158 195.97 L
608.668 195.865 L
609.178 195.761 L
609.689 195.605 L
610.199 195.474 L
610.709 195.343 L
611.219 195.187 L
611.73 194.952 L
612.24 194.821 L
612.75 194.769 L
613.261 194.69 L
613.771 194.69 L
614.281 194.743 L
614.791 194.664 L
615.302 194.742 L
615.812 194.821 L
616.322 194.977 L
616.832 195.108 L
617.343 195.264 L
617.853 195.499 L
618.363 195.708 L
618.874 195.839 L
619.384 196.048 L
619.894 196.23 L
620.404 196.335 L
620.915 196.466 L
621.425 196.518 L
621.935 196.492 L
622.445 196.518 L
622.956 196.466 L
623.466 196.309 L
623.976 196.152 L
624.487 195.944 L
624.997 195.787 L
625.507 195.5 L
626.017 195.317 L
626.528 195.003 L
627.038 194.821 L
627.548 194.559 L
628.058 194.324 L
628.569 194.142 L
629.079 193.959 L
629.589 193.75 L
630.099 193.672 L
630.61 193.541 L
631.12 193.411 L
631.63 193.228 L
632.141 193.228 L
632.651 193.176 L
633.161 193.202 L
633.671 193.176 L
634.182 193.176 L
634.692 193.097 L
635.202 193.045 L
635.712 193.045 L
636.223 192.967 L
636.733 192.914 L
637.243 192.836 L
637.753 192.705 L
638.264 192.627 L
638.774 192.497 L
639.284 192.418 L
639.795 192.314 L
640.305 192.288 L
640.815 192.235 L
641.325 192.209 L
641.836 192.236 L
642.346 192.183 L
642.856 192.209 L
643.366 192.183 L
643.877 192.262 L
644.387 192.262 L
644.897 192.34 L
645.408 192.34 L
645.918 192.497 L
646.428 192.627 L
646.938 192.758 L
647.449 192.836 L
647.959 192.993 L
648.469 193.071 L
648.979 193.149 L
649.49 193.176 L
650 193.228 L
650.056 193.231 L
S
GR
GS
[0.75 0 0 0.75 0 0] CT
0.494 0.184 0.557 RC
1 LJ
2 LW
N
177.944 317.795 M
178 317.806 L
178.51 317.615 L
179.021 317.821 L
179.531 317.729 L
180.041 317.729 L
180.551 317.832 L
181.062 317.745 L
181.572 317.941 L
182.082 317.946 L
182.592 317.952 L
183.103 317.951 L
183.613 317.663 L
184.123 317.859 L
184.634 317.952 L
185.144 317.859 L
185.654 317.854 L
186.164 318.049 L
186.675 317.946 L
187.185 317.751 L
187.695 317.756 L
188.205 317.865 L
188.716 318.158 L
189.226 318.153 L
189.736 318.245 L
190.246 318.142 L
190.757 318.147 L
191.267 318.348 L
191.777 318.348 L
192.288 318.06 L
192.798 317.968 L
193.308 317.973 L
193.818 317.762 L
194.329 318.154 L
194.839 318.257 L
195.349 318.448 L
195.859 318.551 L
196.37 318.556 L
196.88 318.659 L
197.39 318.746 L
197.901 318.751 L
198.411 318.946 L
198.921 319.043 L
199.431 319.641 L
199.942 319.538 L
200.452 319.44 L
200.962 319.445 L
201.472 319.342 L
201.983 319.038 L
202.493 318.935 L
203.003 318.929 L
203.514 318.739 L
204.024 318.342 L
204.534 318.538 L
205.044 318.527 L
205.555 318.532 L
206.065 318.435 L
206.575 318.342 L
207.085 318.553 L
207.596 318.548 L
208.106 318.352 L
208.616 318.449 L
209.126 318.547 L
209.637 318.552 L
210.147 318.454 L
210.657 318.455 L
211.168 318.459 L
211.678 318.758 L
212.188 318.855 L
212.698 318.753 L
213.209 318.851 L
213.719 318.845 L
214.229 318.948 L
214.739 318.849 L
215.25 318.844 L
215.76 318.839 L
216.27 318.942 L
216.781 318.948 L
217.291 318.954 L
217.801 319.056 L
218.311 319.159 L
218.822 319.067 L
219.332 318.969 L
219.842 318.969 L
220.352 319.175 L
220.863 318.979 L
221.373 318.979 L
221.883 319.277 L
222.394 319.277 L
222.904 319.082 L
223.414 319.19 L
223.924 319.087 L
224.435 319.586 L
224.945 319.385 L
225.455 319.488 L
225.965 319.482 L
226.476 319.385 L
226.986 319.281 L
227.496 319.286 L
228.006 319.482 L
228.517 319.589 L
229.027 319.692 L
229.537 319.502 L
230.048 319.312 L
230.558 319.312 L
231.068 319.215 L
231.578 319.122 L
232.089 319.421 L
232.599 319.421 L
233.109 319.523 L
233.619 319.143 L
234.13 319.051 L
234.64 319.05 L
235.15 319.051 L
235.661 318.855 L
236.171 318.866 L
236.681 318.768 L
237.191 318.67 L
237.702 318.372 L
238.212 318.556 L
238.722 318.165 L
239.232 318.155 L
239.743 318.057 L
240.253 317.867 L
240.763 317.867 L
241.274 317.678 L
241.784 317.781 L
242.294 317.58 L
242.804 317.872 L
243.315 317.683 L
243.825 317.883 L
244.335 317.786 L
244.845 317.78 L
245.356 317.781 L
245.866 317.683 L
246.376 317.391 L
246.886 317.57 L
247.397 317.57 L
247.907 317.472 L
248.417 317.374 L
248.928 317.38 L
249.438 316.989 L
249.948 317.092 L
250.458 316.609 L
250.969 316.81 L
251.479 316.615 L
251.989 316.426 L
252.499 316.333 L
253.01 316.143 L
253.52 316.23 L
254.03 316.03 L
254.541 316.219 L
255.051 316.127 L
255.561 315.845 L
256.071 315.84 L
256.582 315.84 L
257.092 315.65 L
257.602 315.753 L
258.112 316.046 L
258.623 316.241 L
259.133 315.942 L
259.643 315.845 L
260.154 315.655 L
260.664 315.46 L
261.174 315.173 L
261.684 314.978 L
262.195 314.679 L
262.705 314.782 L
263.215 314.69 L
263.725 314.69 L
264.236 314.897 L
264.746 314.511 L
265.256 314.706 L
265.766 314.603 L
266.277 314.994 L
266.787 314.799 L
267.297 314.793 L
267.808 314.696 L
268.318 314.788 L
268.828 314.403 L
269.338 314.202 L
269.849 314.105 L
270.359 314.203 L
270.869 314.306 L
271.379 314.306 L
271.89 314.214 L
272.4 314.415 L
272.91 314.323 L
273.421 314.323 L
273.931 314.225 L
274.441 314.225 L
274.951 314.323 L
275.462 314.323 L
275.972 314.518 L
276.482 314.517 L
276.992 314.408 L
277.503 314.403 L
278.013 314.701 L
278.523 314.711 L
279.034 315.101 L
279.544 314.614 L
280.054 314.326 L
280.564 314.429 L
281.075 314.343 L
281.585 314.348 L
282.095 314.245 L
282.605 314.245 L
283.116 314.434 L
283.626 314.228 L
284.136 314.131 L
284.646 314.423 L
285.157 314.228 L
285.667 314.325 L
286.177 314.227 L
286.688 314.027 L
287.198 314.135 L
287.708 313.842 L
288.218 313.745 L
288.729 313.549 L
289.239 313.75 L
289.749 313.756 L
290.259 313.756 L
290.77 313.773 L
291.28 313.876 L
291.79 314.168 L
292.301 313.973 L
292.811 313.882 L
293.321 313.99 L
293.831 313.893 L
294.342 313.893 L
294.852 313.698 L
295.362 313.411 L
295.872 313.309 L
296.383 313.205 L
296.893 313.303 L
297.403 313.303 L
297.914 313.108 L
298.424 312.913 L
298.934 312.529 L
299.444 311.571 L
299.955 309.932 L
300.465 307.721 L
300.975 305.11 L
301.485 301.443 L
301.996 297.111 L
302.506 292.708 L
303.016 288.611 L
303.526 285.41 L
304.037 282.998 L
304.547 280.908 L
305.057 278.339 L
305.568 275.602 L
306.078 272.865 L
306.588 269.567 L
307.098 266.308 L
307.609 263.233 L
308.119 260.752 L
308.629 258.12 L
309.139 256.07 L
309.65 254.135 L
310.16 252.504 L
310.67 250.691 L
311.181 249.443 L
311.691 248.697 L
312.201 248.342 L
312.711 248.449 L
313.222 249.308 L
313.732 250.435 L
314.242 251.755 L
314.752 253.445 L
315.263 255.119 L
315.773 257.065 L
316.283 258.922 L
316.794 260.504 L
317.304 261.866 L
317.814 263.408 L
318.324 264.954 L
318.835 266.606 L
319.345 268.151 L
319.855 269.325 L
320.365 270.557 L
320.876 271.178 L
321.386 271.424 L
321.896 271.59 L
322.406 271.637 L
322.917 271.614 L
323.427 271.412 L
323.937 270.863 L
324.448 270.307 L
324.958 269.13 L
325.468 267.939 L
325.978 266.517 L
326.489 264.926 L
326.999 263.53 L
327.509 261.778 L
328.019 260.112 L
328.53 258.29 L
329.04 256.807 L
329.55 255.014 L
330.061 253.722 L
330.571 252.447 L
331.081 251.18 L
331.591 249.996 L
332.102 248.667 L
332.612 247.963 L
333.122 246.809 L
333.632 246.03 L
334.143 245.489 L
334.653 245.124 L
335.163 244.493 L
335.674 244.232 L
336.184 244.386 L
336.694 244.032 L
337.204 243.948 L
337.715 243.431 L
338.225 243.255 L
338.735 242.9 L
339.245 242.813 L
339.756 242.464 L
340.266 242.227 L
340.776 241.55 L
341.286 240.904 L
341.797 239.862 L
342.307 238.993 L
342.817 237.937 L
343.328 236.34 L
343.838 235.245 L
344.348 233.721 L
344.858 232.191 L
345.369 230.535 L
345.879 228.808 L
346.389 226.93 L
346.899 225.29 L
347.41 223.5 L
347.92 221.493 L
348.43 220.221 L
348.941 218.606 L
349.451 217.111 L
349.961 215.626 L
350.471 214.595 L
350.982 213.73 L
351.492 213.124 L
352.002 212.508 L
352.512 212.132 L
353.023 211.698 L
353.533 211.519 L
354.043 211.266 L
354.553 211.389 L
355.064 211.393 L
355.574 211.476 L
356.084 211.837 L
356.595 212.138 L
357.105 212.038 L
357.615 211.881 L
358.125 211.728 L
358.636 211.407 L
359.146 210.973 L
359.656 210.62 L
360.167 210.254 L
360.677 209.608 L
361.187 209.026 L
361.697 207.999 L
362.208 207.337 L
362.718 206.306 L
363.228 205.283 L
363.738 204.603 L
364.249 203.632 L
364.759 202.855 L
365.269 201.991 L
365.779 201.392 L
366.29 200.892 L
366.8 200.525 L
367.31 199.997 L
367.821 199.95 L
368.331 200.123 L
368.841 200.295 L
369.351 200.453 L
369.862 200.594 L
370.372 200.972 L
370.882 201.168 L
371.392 201.457 L
371.903 201.909 L
372.413 202.219 L
372.923 202.511 L
373.434 202.875 L
373.944 202.908 L
374.454 203.243 L
374.964 203.21 L
375.475 203.32 L
375.985 203.392 L
376.495 203.507 L
377.005 203.417 L
377.516 203.191 L
378.026 203 L
378.536 202.833 L
379.047 202.758 L
379.557 202.617 L
380.067 202.529 L
380.577 202.214 L
381.088 202.039 L
381.598 201.963 L
382.108 201.978 L
382.618 201.996 L
383.129 202.018 L
383.639 202.018 L
384.149 202.2 L
384.659 202.164 L
385.17 202.022 L
385.68 201.864 L
386.19 201.644 L
386.701 201.494 L
387.211 201.283 L
387.721 201.035 L
388.231 200.855 L
388.742 200.444 L
389.252 200.146 L
389.762 199.79 L
390.272 199.546 L
390.783 199.094 L
391.293 198.585 L
391.803 198.146 L
392.314 197.65 L
392.824 197.138 L
393.334 196.804 L
393.844 196.305 L
394.355 196.107 L
394.865 195.79 L
395.375 195.519 L
395.885 195.19 L
396.396 195.199 L
396.906 195.089 L
397.416 195.144 L
397.926 195.203 L
398.437 195.143 L
398.947 195.246 L
399.457 195.315 L
399.968 195.266 L
400.478 195.427 L
400.988 195.59 L
401.498 195.555 L
402.009 195.583 L
402.519 195.46 L
403.029 195.389 L
403.539 195.335 L
404.05 195.252 L
404.56 195.067 L
405.07 194.946 L
405.581 194.797 L
406.091 194.595 L
406.601 194.111 L
407.111 193.725 L
407.622 193.231 L
408.132 192.853 L
408.642 192.742 L
409.152 192.466 L
409.663 192.449 L
410.173 192.355 L
410.683 192.267 L
411.194 192.159 L
411.704 192.249 L
412.214 192.456 L
412.724 192.61 L
413.235 192.822 L
413.745 193.202 L
414.255 193.559 L
414.765 194.026 L
415.276 194.223 L
415.786 194.586 L
416.296 194.925 L
416.806 195.294 L
417.317 195.852 L
417.827 196.226 L
418.337 196.549 L
418.848 196.954 L
419.358 197.229 L
419.868 197.482 L
420.378 197.686 L
420.889 197.894 L
421.399 198.131 L
421.909 198.295 L
422.419 198.54 L
422.93 198.61 L
423.44 198.686 L
423.95 198.864 L
424.461 198.945 L
424.971 199.062 L
425.481 199.409 L
425.991 199.559 L
426.502 199.635 L
427.012 199.816 L
427.522 200.107 L
428.032 200.255 L
428.543 200.576 L
429.053 200.893 L
429.563 201.2 L
430.074 201.677 L
430.584 201.984 L
431.094 202.293 L
431.604 202.731 L
432.115 203.047 L
432.625 203.415 L
433.135 203.785 L
433.645 204.076 L
434.156 204.453 L
434.666 204.74 L
435.176 205.013 L
435.686 205.077 L
436.197 205.377 L
436.707 205.526 L
437.217 205.681 L
437.728 205.767 L
438.238 205.798 L
438.748 206.045 L
439.258 205.939 L
439.769 205.826 L
440.279 205.794 L
440.789 205.92 L
441.299 205.83 L
441.81 205.852 L
442.32 205.808 L
442.83 205.71 L
443.341 205.533 L
443.851 205.599 L
444.361 205.704 L
444.871 205.785 L
445.382 205.958 L
445.892 206.063 L
446.402 206.249 L
446.912 206.358 L
447.423 206.808 L
447.933 207.064 L
448.443 207.365 L
448.953 207.811 L
449.464 208.155 L
449.974 208.579 L
450.484 209.047 L
450.995 209.536 L
451.505 210.028 L
452.015 210.637 L
452.525 211.208 L
453.036 211.862 L
453.546 212.321 L
454.056 212.863 L
454.566 213.337 L
455.077 213.848 L
455.587 214.522 L
456.097 215.044 L
456.608 215.604 L
457.118 216.206 L
457.628 216.848 L
458.138 217.313 L
458.649 217.812 L
459.159 218.386 L
459.669 218.934 L
460.179 219.443 L
460.69 219.854 L
461.2 220.305 L
461.71 220.76 L
462.221 221.112 L
462.731 221.505 L
463.241 222.01 L
463.751 222.625 L
464.262 223.034 L
464.772 223.483 L
465.282 224.111 L
465.792 224.673 L
466.303 225.275 L
466.813 225.811 L
467.323 226.315 L
467.833 226.96 L
468.344 227.68 L
468.854 228.436 L
469.364 228.959 L
469.875 229.749 L
470.385 230.383 L
470.895 231.116 L
471.405 231.981 L
471.916 232.683 L
472.426 233.384 L
472.936 233.992 L
473.447 234.739 L
473.957 235.389 L
474.467 236.105 L
474.977 236.856 L
475.488 237.546 L
475.998 238.24 L
476.508 238.882 L
477.018 239.462 L
477.529 240.113 L
478.039 240.731 L
478.549 241.266 L
479.059 241.901 L
479.57 242.372 L
480.08 243.017 L
480.59 243.564 L
481.101 244.038 L
481.611 244.698 L
482.121 245.233 L
482.631 245.818 L
483.142 246.373 L
483.652 246.979 L
484.162 247.692 L
484.672 248.382 L
485.183 249.05 L
485.693 249.67 L
486.203 250.375 L
486.714 251.021 L
487.224 251.595 L
487.734 252.341 L
488.244 253.002 L
488.755 253.706 L
489.265 254.543 L
489.775 255.191 L
490.285 255.946 L
490.796 256.694 L
491.306 257.432 L
491.816 258.062 L
492.326 258.849 L
492.837 259.543 L
493.347 260.307 L
493.857 261.124 L
494.368 261.899 L
494.878 262.593 L
495.388 263.294 L
495.898 264.07 L
496.409 264.805 L
496.919 265.519 L
497.429 266.309 L
497.939 266.975 L
498.45 267.736 L
498.96 268.42 L
499.47 269.173 L
499.981 269.912 L
500.491 270.718 L
501.001 271.573 L
501.511 272.454 L
502.022 273.319 L
502.532 274.169 L
503.042 275.124 L
503.552 276.022 L
504.063 276.962 L
504.573 277.945 L
505.083 278.909 L
505.594 279.854 L
506.104 280.785 L
506.614 281.855 L
507.124 282.81 L
507.635 283.864 L
508.145 284.842 L
508.655 285.852 L
509.165 286.902 L
509.676 287.919 L
510.186 288.881 L
510.696 289.898 L
511.207 290.884 L
511.717 291.874 L
512.227 292.851 L
512.737 293.848 L
513.248 294.768 L
513.758 295.667 L
514.268 296.63 L
514.778 297.57 L
515.289 298.499 L
515.799 299.388 L
516.309 300.341 L
516.819 301.27 L
517.33 302.305 L
517.84 303.316 L
518.35 304.304 L
518.861 305.295 L
519.371 306.233 L
519.881 307.229 L
520.391 308.221 L
520.902 309.202 L
521.412 310.213 L
521.922 311.26 L
522.432 312.367 L
522.943 313.378 L
523.453 314.47 L
523.963 315.514 L
524.474 316.638 L
524.984 317.689 L
525.494 318.733 L
526.004 319.713 L
526.515 320.808 L
527.025 321.841 L
527.535 322.844 L
528.045 323.907 L
528.556 324.939 L
529.066 326.034 L
529.576 327.034 L
530.086 328.129 L
530.597 329.203 L
531.107 330.244 L
531.617 331.41 L
532.128 332.535 L
532.638 333.638 L
533.148 334.665 L
533.658 335.734 L
534.169 336.856 L
534.679 337.952 L
535.189 339.07 L
535.699 340.177 L
536.21 341.242 L
536.72 342.319 L
537.23 343.54 L
537.741 344.667 L
538.251 345.805 L
538.761 347.054 L
539.271 348.248 L
539.782 349.399 L
540.292 350.615 L
540.802 351.912 L
541.312 353.13 L
541.823 354.401 L
542.333 355.59 L
542.843 356.793 L
543.354 358.067 L
543.864 359.302 L
544.374 360.491 L
544.884 361.74 L
545.395 362.942 L
545.905 364.145 L
546.415 365.356 L
546.925 366.614 L
547.436 367.878 L
547.946 369.113 L
548.456 370.338 L
548.966 371.62 L
549.477 372.903 L
549.987 374.104 L
550.497 375.403 L
551.008 376.754 L
551.518 378.115 L
552.028 379.378 L
552.538 380.596 L
553.049 381.874 L
553.559 383.153 L
554.069 384.387 L
554.579 385.575 L
555.09 386.714 L
555.6 387.849 L
556.11 388.929 L
556.621 389.951 L
557.131 390.956 L
557.641 391.661 L
558.151 392.455 L
558.662 393.105 L
559.172 393.711 L
559.682 394.175 L
560.192 394.585 L
560.703 394.894 L
561.213 395.247 L
561.723 395.499 L
562.234 395.701 L
562.744 395.998 L
563.254 396.205 L
563.764 396.364 L
564.275 396.535 L
564.785 396.659 L
565.295 396.694 L
565.805 396.729 L
566.316 396.678 L
566.826 396.68 L
567.336 396.592 L
567.846 396.613 L
568.357 396.592 L
568.867 396.625 L
569.377 396.658 L
569.888 396.701 L
570.398 396.794 L
570.908 396.843 L
571.418 396.792 L
571.929 396.787 L
572.439 396.877 L
572.949 396.966 L
573.459 397.058 L
573.97 397.148 L
574.48 397.235 L
574.99 397.321 L
575.501 397.458 L
576.011 397.486 L
576.521 397.558 L
577.031 397.575 L
577.542 397.685 L
578.052 397.697 L
578.562 397.758 L
579.072 397.81 L
579.583 397.763 L
580.093 397.805 L
580.603 397.89 L
581.114 397.831 L
581.624 397.769 L
582.134 397.706 L
582.644 397.688 L
583.155 397.626 L
583.665 397.555 L
584.175 397.49 L
584.685 397.426 L
585.196 397.509 L
585.706 397.55 L
586.216 397.589 L
586.727 397.532 L
587.237 397.477 L
587.747 397.43 L
588.257 397.421 L
588.768 397.374 L
589.278 397.428 L
589.788 397.482 L
590.298 397.635 L
590.809 397.595 L
591.319 397.606 L
591.829 397.61 L
592.339 397.62 L
592.85 397.677 L
593.36 397.687 L
593.87 397.743 L
594.381 397.806 L
594.891 397.86 L
595.401 397.86 L
595.911 397.911 L
596.422 397.909 L
596.932 397.853 L
597.442 397.8 L
597.952 397.787 L
598.463 397.726 L
598.973 397.707 L
599.483 397.685 L
599.993 397.721 L
600.504 397.699 L
601.014 397.726 L
601.524 397.6 L
602.035 397.627 L
602.545 397.6 L
603.055 397.623 L
603.565 397.601 L
604.076 397.582 L
604.586 397.562 L
605.096 397.545 L
605.607 397.628 L
606.117 397.618 L
606.627 397.666 L
607.137 397.662 L
607.648 397.715 L
608.158 397.669 L
608.668 397.676 L
609.178 397.731 L
609.689 397.693 L
610.199 397.606 L
610.709 397.614 L
611.219 397.673 L
611.73 397.736 L
612.24 397.793 L
612.75 397.7 L
613.261 397.656 L
613.771 397.704 L
614.281 397.701 L
614.791 397.754 L
615.302 397.701 L
615.812 397.696 L
616.322 397.734 L
616.832 397.821 L
617.343 397.81 L
617.853 397.891 L
618.363 397.925 L
618.874 397.916 L
619.384 397.902 L
619.894 397.89 L
620.404 397.883 L
620.915 397.827 L
621.425 397.823 L
621.935 397.92 L
622.445 397.967 L
622.956 397.97 L
623.466 397.885 L
623.976 397.991 L
624.487 398.005 L
624.997 398.16 L
625.507 398.179 L
626.017 398.144 L
626.528 398.213 L
627.038 398.225 L
627.548 398.291 L
628.058 398.356 L
628.569 398.369 L
629.079 398.381 L
629.589 398.395 L
630.099 398.401 L
630.61 398.458 L
631.12 398.516 L
631.63 398.48 L
632.141 398.48 L
632.651 398.484 L
633.161 398.53 L
633.671 398.581 L
634.182 398.581 L
634.692 398.586 L
635.202 398.639 L
635.712 398.493 L
636.223 398.498 L
636.733 398.502 L
637.243 398.507 L
637.753 398.516 L
638.264 398.57 L
638.774 398.53 L
639.284 398.536 L
639.795 398.543 L
640.305 398.496 L
640.815 398.499 L
641.325 398.404 L
641.836 398.353 L
642.346 398.405 L
642.856 398.452 L
643.366 398.454 L
643.877 398.449 L
644.387 398.449 L
644.897 398.395 L
645.408 398.346 L
645.918 398.336 L
646.428 398.375 L
646.938 398.366 L
647.449 398.41 L
647.959 398.399 L
648.469 398.442 L
648.979 398.388 L
649.49 398.435 L
650 398.383 L
650.056 398.382 L
S
GR
GS
[0.75 0 0 0.75 0 0] CT
0.467 0.675 0.188 RC
[8 8] 0 setdash
2 LJ
2 LW
N
305.568 445 M
306.078 444.37 L
306.588 443.723 L
307.098 443.058 L
307.609 442.375 L
308.119 441.677 L
308.629 440.964 L
309.139 440.238 L
309.65 439.501 L
310.16 438.754 L
310.67 437.998 L
311.181 437.232 L
311.691 436.461 L
312.201 435.688 L
312.711 434.913 L
313.222 434.141 L
313.732 433.375 L
314.242 432.615 L
314.752 431.864 L
315.263 431.123 L
315.773 430.391 L
316.283 429.67 L
316.794 428.959 L
317.304 428.256 L
317.814 427.561 L
318.324 426.875 L
318.835 426.198 L
319.345 425.53 L
319.855 424.869 L
320.365 424.215 L
320.876 423.566 L
321.386 422.92 L
321.896 422.275 L
322.406 421.63 L
322.917 420.986 L
323.427 420.341 L
323.937 419.693 L
324.448 419.043 L
324.958 418.388 L
325.468 417.726 L
325.978 417.057 L
326.489 416.379 L
326.999 415.694 L
327.509 414.999 L
328.019 414.294 L
328.53 413.58 L
329.04 412.857 L
329.55 412.125 L
330.061 411.383 L
330.571 410.635 L
331.081 409.88 L
331.591 409.117 L
332.102 408.348 L
332.612 407.573 L
333.122 406.793 L
333.632 406.007 L
334.143 405.218 L
334.653 404.426 L
335.163 403.631 L
335.674 402.834 L
336.184 402.037 L
336.694 401.238 L
337.204 400.439 L
337.715 399.638 L
338.225 398.835 L
338.735 398.031 L
339.245 397.225 L
339.756 396.419 L
340.266 395.61 L
340.776 394.799 L
341.286 393.984 L
341.797 393.165 L
342.307 392.34 L
342.817 391.51 L
343.328 390.672 L
343.838 389.827 L
344.348 388.975 L
344.858 388.114 L
345.369 387.244 L
345.879 386.364 L
346.389 385.475 L
346.899 384.575 L
347.41 383.666 L
347.92 382.747 L
348.43 381.818 L
348.941 380.881 L
349.451 379.935 L
349.961 378.981 L
350.471 378.021 L
350.982 377.054 L
351.492 376.084 L
352.002 375.11 L
352.512 374.133 L
353.023 373.154 L
353.533 372.174 L
354.043 371.192 L
354.553 370.21 L
355.064 369.228 L
355.574 368.247 L
356.084 367.266 L
356.595 366.288 L
357.105 365.31 L
357.615 364.331 L
358.125 363.352 L
358.636 362.371 L
359.146 361.388 L
359.656 360.403 L
360.167 359.416 L
360.677 358.426 L
361.187 357.432 L
361.697 356.434 L
362.208 355.432 L
362.718 354.424 L
363.228 353.411 L
363.738 352.393 L
364.249 351.371 L
364.759 350.343 L
365.269 349.311 L
365.779 348.275 L
366.29 347.236 L
366.8 346.194 L
367.31 345.15 L
367.821 344.104 L
368.331 343.059 L
368.841 342.015 L
369.351 340.971 L
369.862 339.928 L
370.372 338.887 L
370.882 337.848 L
371.392 336.809 L
371.903 335.773 L
372.413 334.739 L
372.923 333.707 L
373.434 332.676 L
373.944 331.647 L
374.454 330.618 L
374.964 329.591 L
375.475 328.564 L
375.985 327.537 L
376.495 326.51 L
377.005 325.484 L
377.516 324.457 L
378.026 323.429 L
378.536 322.4 L
379.047 321.37 L
379.557 320.339 L
380.067 319.308 L
380.577 318.276 L
381.088 317.242 L
381.598 316.208 L
382.108 315.173 L
382.618 314.138 L
383.129 313.104 L
383.639 312.07 L
384.149 311.036 L
384.659 310.003 L
385.17 308.969 L
385.68 307.934 L
386.19 306.898 L
386.701 305.861 L
387.211 304.824 L
387.721 303.785 L
388.231 302.744 L
388.742 301.702 L
389.252 300.658 L
389.762 299.613 L
390.272 298.565 L
390.783 297.516 L
391.293 296.464 L
391.803 295.409 L
392.314 294.351 L
392.824 293.291 L
393.334 292.229 L
393.844 291.164 L
394.355 290.097 L
394.865 289.029 L
395.375 287.959 L
395.885 286.887 L
396.396 285.815 L
396.906 284.742 L
397.416 283.669 L
397.926 282.596 L
398.437 281.524 L
398.947 280.451 L
399.457 279.379 L
399.968 278.307 L
400.478 277.235 L
400.988 276.165 L
401.498 275.094 L
402.009 274.024 L
402.519 272.953 L
403.029 271.882 L
403.539 270.81 L
404.05 269.738 L
404.56 268.666 L
405.07 267.592 L
405.581 266.518 L
406.091 265.443 L
406.601 264.365 L
407.111 263.286 L
407.622 262.204 L
408.132 261.119 L
408.642 260.033 L
409.152 258.946 L
409.663 257.858 L
410.173 256.77 L
410.683 255.681 L
411.194 254.592 L
411.704 253.503 L
412.214 252.414 L
412.724 251.327 L
413.235 250.241 L
413.745 249.156 L
414.255 248.073 L
414.765 246.993 L
415.276 245.914 L
415.786 244.837 L
416.296 243.763 L
416.806 242.69 L
417.317 241.619 L
417.827 240.551 L
418.337 239.486 L
418.848 238.422 L
419.358 237.36 L
419.868 236.299 L
420.378 235.24 L
420.889 234.182 L
421.399 233.126 L
421.909 232.07 L
422.419 231.016 L
422.93 229.962 L
423.44 228.909 L
423.95 227.856 L
424.461 226.805 L
424.971 225.753 L
425.481 224.704 L
425.991 223.655 L
426.502 222.607 L
427.012 221.56 L
427.522 220.514 L
428.032 219.47 L
428.543 218.426 L
429.053 217.385 L
429.563 216.345 L
430.074 215.308 L
430.584 214.272 L
431.094 213.239 L
431.604 212.207 L
432.115 211.178 L
432.625 210.15 L
433.135 209.125 L
433.645 208.101 L
434.156 207.079 L
434.666 206.06 L
435.176 205.041 L
435.686 204.024 L
436.197 203.008 L
436.707 201.993 L
437.217 200.978 L
437.728 199.965 L
438.238 198.952 L
438.748 197.939 L
439.258 196.927 L
439.769 195.914 L
440.279 194.901 L
440.789 193.889 L
441.299 192.876 L
441.81 191.863 L
442.32 190.85 L
442.83 189.837 L
443.341 188.822 L
443.851 187.808 L
444.361 186.794 L
444.871 185.781 L
445.382 184.768 L
445.892 183.756 L
446.402 182.745 L
446.912 181.735 L
447.423 180.726 L
447.933 179.719 L
448.443 178.714 L
448.953 177.711 L
449.464 176.71 L
449.974 175.711 L
450.484 174.715 L
450.995 173.721 L
451.505 172.731 L
452.015 171.743 L
452.525 170.758 L
453.036 169.777 L
453.546 168.799 L
454.056 167.824 L
454.566 166.852 L
455.077 165.883 L
455.587 164.916 L
456.097 163.954 L
456.608 162.994 L
457.118 162.037 L
457.628 161.084 L
458.138 160.134 L
458.649 159.187 L
459.159 158.243 L
459.669 157.302 L
460.179 156.364 L
460.69 155.428 L
461.2 154.495 L
461.71 153.564 L
462.221 152.636 L
462.731 151.71 L
463.241 150.786 L
463.751 149.865 L
464.262 148.948 L
464.772 148.032 L
465.282 147.12 L
465.792 146.211 L
466.303 145.305 L
466.813 144.403 L
467.323 143.503 L
467.833 142.606 L
468.344 141.714 L
468.854 140.825 L
469.364 139.94 L
469.875 139.059 L
470.385 138.182 L
470.895 137.309 L
471.405 136.44 L
471.916 135.575 L
472.426 134.715 L
472.936 133.858 L
473.447 133.004 L
473.957 132.155 L
474.467 131.31 L
474.977 130.468 L
475.488 129.631 L
475.998 128.798 L
476.508 127.968 L
477.018 127.142 L
477.529 126.319 L
478.039 125.5 L
478.549 124.684 L
479.059 123.871 L
479.57 123.062 L
480.08 122.255 L
480.59 121.452 L
481.101 120.652 L
481.611 119.854 L
482.121 119.061 L
482.631 118.27 L
483.142 117.482 L
483.652 116.698 L
484.162 115.918 L
484.672 115.141 L
485.183 114.368 L
485.693 113.599 L
486.203 112.834 L
486.714 112.072 L
487.224 111.314 L
487.734 110.559 L
488.244 109.808 L
488.755 109.062 L
489.265 108.319 L
489.775 107.581 L
490.285 106.846 L
490.796 106.116 L
491.306 105.39 L
491.816 104.668 L
492.326 103.95 L
492.837 103.236 L
493.347 102.526 L
493.857 101.82 L
494.368 101.119 L
494.878 100.422 L
495.388 99.729 L
495.898 99.04 L
496.409 98.355 L
496.919 97.674 L
497.429 96.998 L
497.939 96.325 L
498.45 95.657 L
498.96 94.993 L
499.47 94.332 L
499.981 93.676 L
500.491 93.024 L
501.001 92.377 L
501.511 91.735 L
502.022 91.097 L
502.532 90.465 L
503.042 89.837 L
503.552 89.215 L
504.063 88.598 L
504.573 87.986 L
505.083 87.379 L
505.594 86.778 L
506.104 86.182 L
506.614 85.592 L
507.124 85.008 L
507.635 84.429 L
508.145 83.855 L
508.655 83.288 L
509.165 82.726 L
509.676 82.17 L
510.186 81.619 L
510.696 81.074 L
511.207 80.535 L
511.717 80.001 L
512.227 79.473 L
512.737 78.95 L
513.248 78.432 L
513.758 77.92 L
514.268 77.413 L
514.778 76.911 L
515.289 76.414 L
515.799 75.923 L
516.309 75.436 L
516.819 74.955 L
517.33 74.48 L
517.84 74.01 L
518.35 73.546 L
518.861 73.087 L
519.371 72.634 L
519.881 72.186 L
520.391 71.743 L
520.902 71.306 L
521.412 70.875 L
521.922 70.45 L
522.432 70.03 L
S
GR
GS
[0.75 0 0 0.75 0 0] CT
1 GC
N
639 165 M
639 48 L
557 48 L
557 165 L
cp
f
GR
GS
[0.75 0 0 0.75 453 50.25] CT
/Helvetica 16.8 F
GS
[1 0 0 1 0 0] CT
0 0 moveto 
1 -1 scale
(V) t 
GR
GR
GS
[0.75 0 0 0.75 462 56.25] CT
/Helvetica 13.44 F
GS
[1 0 0 1 0 0] CT
0 0 moveto 
1 -1 scale
(D) t 
GR
GR
GS
[0.75 0 0 0.75 469.5 56.25] CT
/Helvetica 13.44 F
GS
[1 0 0 1 0 0] CT
0 0 moveto 
1 -1 scale
(S) t 
GR
GR
GS
[0.75 0 0 0.75 0 0] CT
0.851 0.325 0.098 RC
1 LJ
2 LW
N
561 63.932 M
601 63.932 L
S
GR
GS
[0.75 0 0 0.75 453 71.25] CT
/Helvetica 16.8 F
GS
[1 0 0 1 0 0] CT
0 0 moveto 
1 -1 scale
(I) t 
GR
GR
GS
[0.75 0 0 0.75 456.75 77.25] CT
/Helvetica 13.44 F
GS
[1 0 0 1 0 0] CT
0 0 moveto 
1 -1 scale
(D) t 
GR
GR
GS
[0.75 0 0 0.75 0 0] CT
0.929 0.694 0.125 RC
1 LJ
2 LW
N
561 92.311 M
601 92.311 L
S
GR
GS
[0.75 0 0 0.75 453 93] CT
/Helvetica 16.8 F
GS
[1 0 0 1 0 0] CT
0 0 moveto 
1 -1 scale
(P) t 
GR
GR
GS
[0.75 0 0 0.75 462 99] CT
/Helvetica 13.44 F
GS
[1 0 0 1 0 0] CT
0 0 moveto 
1 -1 scale
(s) t 
GR
GR
GS
[0.75 0 0 0.75 467.25 99] CT
/Helvetica 13.44 F
GS
[1 0 0 1 0 0] CT
0 0 moveto 
1 -1 scale
(w) t 
GR
GR
GS
[0.75 0 0 0.75 0 0] CT
0.494 0.184 0.557 RC
1 LJ
2 LW
N
561 120.689 M
601 120.689 L
S
GR
GS
[0.75 0 0 0.75 453 114] CT
/Helvetica 16.8 F
GS
[1 0 0 1 0 0] CT
0 0 moveto 
1 -1 scale
(E) t 
GR
GR
GS
[0.75 0 0 0.75 462 120] CT
/Helvetica 13.44 F
GS
[1 0 0 1 0 0] CT
0 0 moveto 
1 -1 scale
(s) t 
GR
GR
GS
[0.75 0 0 0.75 467.25 120] CT
/Helvetica 13.44 F
GS
[1 0 0 1 0 0] CT
0 0 moveto 
1 -1 scale
(w) t 
GR
GR
GS
[0.75 0 0 0.75 0 0] CT
0.467 0.675 0.188 RC
[8 8] 0 setdash
2 LJ
2 LW
N
561 149.068 M
601 149.068 L
S
GR
GS
[0.75 0 0 0.75 0 0] CT
0.149 GC
10.0 ML
0.667 LW
N
557 165 M
557 48 L
639 48 L
639 165 L
cp
S
GR
%%Trailer
%%Pages: 1
%%EOF
