%!PS-Adobe-3.0 EPSF-3.0
%%Creator: (MATLAB, The Mathworks, Inc. Version 24.1.0.2603908 \(R2024a\) Update 3. Operating System: Windows 10)
%%Title: (C:/Users/lorde/Documents/MATLAB/Master Lab Course/Exercise 3/E3_Rg30_Eoff2.eps)
%%CreationDate: 2024-06-30T10:10:14
%%Pages: (atend)
%%BoundingBox:     0     0   600   375
%%LanguageLevel: 3
%%EndComments
%%BeginProlog
%%BeginResource: procset (Apache XML Graphics Std ProcSet) 1.2 0
%%Version: 1.2 0
%%Copyright: (Copyright 2001-2003,2010 The Apache Software Foundation. License terms: http://www.apache.org/licenses/LICENSE-2.0)
/bd{bind def}bind def
/ld{load def}bd
/GR/grestore ld
/GS/gsave ld
/RM/rmoveto ld
/C/curveto ld
/t/show ld
/L/lineto ld
/ML/setmiterlimit ld
/CT/concat ld
/f/fill ld
/N/newpath ld
/S/stroke ld
/CC/setcmykcolor ld
/A/ashow ld
/cp/closepath ld
/RC/setrgbcolor ld
/LJ/setlinejoin ld
/GC/setgray ld
/LW/setlinewidth ld
/M/moveto ld
/re {4 2 roll M
1 index 0 rlineto
0 exch rlineto
neg 0 rlineto
cp } bd
/_ctm matrix def
/_tm matrix def
/BT { _ctm currentmatrix pop matrix _tm copy pop 0 0 moveto } bd
/ET { _ctm setmatrix } bd
/iTm { _ctm setmatrix _tm concat } bd
/Tm { _tm astore pop iTm 0 0 moveto } bd
/ux 0.0 def
/uy 0.0 def
/F {
  /Tp exch def
  /Tf exch def
  Tf findfont Tp scalefont setfont
  /cf Tf def  /cs Tp def
} bd
/ULS {currentpoint /uy exch def /ux exch def} bd
/ULE {
  /Tcx currentpoint pop def
  gsave
  newpath
  cf findfont cs scalefont dup
  /FontMatrix get 0 get /Ts exch def /FontInfo get dup
  /UnderlinePosition get Ts mul /To exch def
  /UnderlineThickness get Ts mul /Tt exch def
  ux uy To add moveto  Tcx uy To add lineto
  Tt setlinewidth stroke
  grestore
} bd
/OLE {
  /Tcx currentpoint pop def
  gsave
  newpath
  cf findfont cs scalefont dup
  /FontMatrix get 0 get /Ts exch def /FontInfo get dup
  /UnderlinePosition get Ts mul /To exch def
  /UnderlineThickness get Ts mul /Tt exch def
  ux uy To add cs add moveto Tcx uy To add cs add lineto
  Tt setlinewidth stroke
  grestore
} bd
/SOE {
  /Tcx currentpoint pop def
  gsave
  newpath
  cf findfont cs scalefont dup
  /FontMatrix get 0 get /Ts exch def /FontInfo get dup
  /UnderlinePosition get Ts mul /To exch def
  /UnderlineThickness get Ts mul /Tt exch def
  ux uy To add cs 10 mul 26 idiv add moveto Tcx uy To add cs 10 mul 26 idiv add lineto
  Tt setlinewidth stroke
  grestore
} bd
/QT {
/Y22 exch store
/X22 exch store
/Y21 exch store
/X21 exch store
currentpoint
/Y21 load 2 mul add 3 div exch
/X21 load 2 mul add 3 div exch
/X21 load 2 mul /X22 load add 3 div
/Y21 load 2 mul /Y22 load add 3 div
/X22 load /Y22 load curveto
} bd
/SSPD {
dup length /d exch dict def
{
/v exch def
/k exch def
currentpagedevice k known {
/cpdv currentpagedevice k get def
v cpdv ne {
/upd false def
/nullv v type /nulltype eq def
/nullcpdv cpdv type /nulltype eq def
nullv nullcpdv or
{
/upd true def
} {
/sametype v type cpdv type eq def
sametype {
v type /arraytype eq {
/vlen v length def
/cpdvlen cpdv length def
vlen cpdvlen eq {
0 1 vlen 1 sub {
/i exch def
/obj v i get def
/cpdobj cpdv i get def
obj cpdobj ne {
/upd true def
exit
} if
} for
} {
/upd true def
} ifelse
} {
v type /dicttype eq {
v {
/dv exch def
/dk exch def
/cpddv cpdv dk get def
dv cpddv ne {
/upd true def
exit
} if
} forall
} {
/upd true def
} ifelse
} ifelse
} if
} ifelse
upd true eq {
d k v put
} if
} if
} if
} forall
d length 0 gt {
d setpagedevice
} if
} bd
/RE { % /NewFontName [NewEncodingArray] /FontName RE -
  findfont dup length dict begin
  {
    1 index /FID ne
    {def} {pop pop} ifelse
  } forall
  /Encoding exch def
  /FontName 1 index def
  currentdict definefont pop
  end
} bind def
%%EndResource
%%BeginResource: procset (Apache XML Graphics EPS ProcSet) 1.0 0
%%Version: 1.0 0
%%Copyright: (Copyright 2002-2003 The Apache Software Foundation. License terms: http://www.apache.org/licenses/LICENSE-2.0)
/BeginEPSF { %def
/b4_Inc_state save def         % Save state for cleanup
/dict_count countdictstack def % Count objects on dict stack
/op_count count 1 sub def      % Count objects on operand stack
userdict begin                 % Push userdict on dict stack
/showpage { } def              % Redefine showpage, { } = null proc
0 setgray 0 setlinecap         % Prepare graphics state
1 setlinewidth 0 setlinejoin
10 setmiterlimit [ ] 0 setdash newpath
/languagelevel where           % If level not equal to 1 then
{pop languagelevel             % set strokeadjust and
1 ne                           % overprint to their defaults.
{false setstrokeadjust false setoverprint
} if
} if
} bd
/EndEPSF { %def
count op_count sub {pop} repeat            % Clean up stacks
countdictstack dict_count sub {end} repeat
b4_Inc_state restore
} bd
%%EndResource
%FOPBeginFontDict
%%IncludeResource: font Courier-Oblique
%%IncludeResource: font Courier-BoldOblique
%%IncludeResource: font Courier-Bold
%%IncludeResource: font ZapfDingbats
%%IncludeResource: font Symbol
%%IncludeResource: font Helvetica
%%IncludeResource: font Helvetica-Oblique
%%IncludeResource: font Helvetica-Bold
%%IncludeResource: font Helvetica-BoldOblique
%%IncludeResource: font Times-Roman
%%IncludeResource: font Times-Italic
%%IncludeResource: font Times-Bold
%%IncludeResource: font Times-BoldItalic
%%IncludeResource: font Courier
%FOPEndFontDict
%%BeginResource: encoding WinAnsiEncoding
/WinAnsiEncoding [
/.notdef /.notdef /.notdef /.notdef /.notdef
/.notdef /.notdef /.notdef /.notdef /.notdef
/.notdef /.notdef /.notdef /.notdef /.notdef
/.notdef /.notdef /.notdef /.notdef /.notdef
/.notdef /.notdef /.notdef /.notdef /.notdef
/.notdef /.notdef /.notdef /.notdef /.notdef
/.notdef /.notdef /space /exclam /quotedbl
/numbersign /dollar /percent /ampersand /quotesingle
/parenleft /parenright /asterisk /plus /comma
/hyphen /period /slash /zero /one
/two /three /four /five /six
/seven /eight /nine /colon /semicolon
/less /equal /greater /question /at
/A /B /C /D /E
/F /G /H /I /J
/K /L /M /N /O
/P /Q /R /S /T
/U /V /W /X /Y
/Z /bracketleft /backslash /bracketright /asciicircum
/underscore /quoteleft /a /b /c
/d /e /f /g /h
/i /j /k /l /m
/n /o /p /q /r
/s /t /u /v /w
/x /y /z /braceleft /bar
/braceright /asciitilde /bullet /Euro /bullet
/quotesinglbase /florin /quotedblbase /ellipsis /dagger
/daggerdbl /circumflex /perthousand /Scaron /guilsinglleft
/OE /bullet /Zcaron /bullet /bullet
/quoteleft /quoteright /quotedblleft /quotedblright /bullet
/endash /emdash /asciitilde /trademark /scaron
/guilsinglright /oe /bullet /zcaron /Ydieresis
/space /exclamdown /cent /sterling /currency
/yen /brokenbar /section /dieresis /copyright
/ordfeminine /guillemotleft /logicalnot /sfthyphen /registered
/macron /degree /plusminus /twosuperior /threesuperior
/acute /mu /paragraph /middot /cedilla
/onesuperior /ordmasculine /guillemotright /onequarter /onehalf
/threequarters /questiondown /Agrave /Aacute /Acircumflex
/Atilde /Adieresis /Aring /AE /Ccedilla
/Egrave /Eacute /Ecircumflex /Edieresis /Igrave
/Iacute /Icircumflex /Idieresis /Eth /Ntilde
/Ograve /Oacute /Ocircumflex /Otilde /Odieresis
/multiply /Oslash /Ugrave /Uacute /Ucircumflex
/Udieresis /Yacute /Thorn /germandbls /agrave
/aacute /acircumflex /atilde /adieresis /aring
/ae /ccedilla /egrave /eacute /ecircumflex
/edieresis /igrave /iacute /icircumflex /idieresis
/eth /ntilde /ograve /oacute /ocircumflex
/otilde /odieresis /divide /oslash /ugrave
/uacute /ucircumflex /udieresis /yacute /thorn
/ydieresis
] def
%%EndResource
%FOPBeginFontReencode
/Courier-Oblique findfont
dup length dict begin
  {1 index /FID ne {def} {pop pop} ifelse} forall
  /Encoding WinAnsiEncoding def
  currentdict
end
/Courier-Oblique exch definefont pop
/Courier-BoldOblique findfont
dup length dict begin
  {1 index /FID ne {def} {pop pop} ifelse} forall
  /Encoding WinAnsiEncoding def
  currentdict
end
/Courier-BoldOblique exch definefont pop
/Courier-Bold findfont
dup length dict begin
  {1 index /FID ne {def} {pop pop} ifelse} forall
  /Encoding WinAnsiEncoding def
  currentdict
end
/Courier-Bold exch definefont pop
/Helvetica findfont
dup length dict begin
  {1 index /FID ne {def} {pop pop} ifelse} forall
  /Encoding WinAnsiEncoding def
  currentdict
end
/Helvetica exch definefont pop
/Helvetica-Oblique findfont
dup length dict begin
  {1 index /FID ne {def} {pop pop} ifelse} forall
  /Encoding WinAnsiEncoding def
  currentdict
end
/Helvetica-Oblique exch definefont pop
/Helvetica-Bold findfont
dup length dict begin
  {1 index /FID ne {def} {pop pop} ifelse} forall
  /Encoding WinAnsiEncoding def
  currentdict
end
/Helvetica-Bold exch definefont pop
/Helvetica-BoldOblique findfont
dup length dict begin
  {1 index /FID ne {def} {pop pop} ifelse} forall
  /Encoding WinAnsiEncoding def
  currentdict
end
/Helvetica-BoldOblique exch definefont pop
/Times-Roman findfont
dup length dict begin
  {1 index /FID ne {def} {pop pop} ifelse} forall
  /Encoding WinAnsiEncoding def
  currentdict
end
/Times-Roman exch definefont pop
/Times-Italic findfont
dup length dict begin
  {1 index /FID ne {def} {pop pop} ifelse} forall
  /Encoding WinAnsiEncoding def
  currentdict
end
/Times-Italic exch definefont pop
/Times-Bold findfont
dup length dict begin
  {1 index /FID ne {def} {pop pop} ifelse} forall
  /Encoding WinAnsiEncoding def
  currentdict
end
/Times-Bold exch definefont pop
/Times-BoldItalic findfont
dup length dict begin
  {1 index /FID ne {def} {pop pop} ifelse} forall
  /Encoding WinAnsiEncoding def
  currentdict
end
/Times-BoldItalic exch definefont pop
/Courier findfont
dup length dict begin
  {1 index /FID ne {def} {pop pop} ifelse} forall
  /Encoding WinAnsiEncoding def
  currentdict
end
/Courier exch definefont pop
%FOPEndFontReencode
%%EndProlog
%%Page: 1 1
%%PageBoundingBox: 0 0 600 375
%%BeginPageSetup
[1 0 0 -1 0 375] CT
%%EndPageSetup
GS
[0.75 0 0 0.75 0 0] CT
1 GC
N
0 0 800 500 re
f
GR
GS
[0.75 0 0 0.75 0 0] CT
1 GC
N
0 0 800 500 re
f
GR
GS
[0.75 0 0 0.75 0 0] CT
0.941 GC
N
650 445 M
659 445 L
659 37 L
650 37 L
cp
f
GR
GS
[0.75 0 0 0.75 0 0] CT
0.149 GC
2 setlinecap
1 LJ
0.667 LW
N
650 445 M
659 445 L
S
GR
GS
[0.75 0 0 0.75 0 0] CT
0.929 0.694 0.125 RC
2 setlinecap
1 LJ
0.667 LW
N
659 445 M
659 37 L
S
GR
GS
[0.75 0 0 0.75 0 0] CT
0.929 0.694 0.125 RC
2 setlinecap
1 LJ
0.667 LW
N
659 445 M
654.92 445 L
S
GR
GS
[0.75 0 0 0.75 0 0] CT
0.929 0.694 0.125 RC
2 setlinecap
1 LJ
0.667 LW
N
659 377 M
654.92 377 L
S
GR
GS
[0.75 0 0 0.75 0 0] CT
0.929 0.694 0.125 RC
2 setlinecap
1 LJ
0.667 LW
N
659 309 M
654.92 309 L
S
GR
GS
[0.75 0 0 0.75 0 0] CT
0.929 0.694 0.125 RC
2 setlinecap
1 LJ
0.667 LW
N
659 241 M
654.92 241 L
S
GR
GS
[0.75 0 0 0.75 0 0] CT
0.929 0.694 0.125 RC
2 setlinecap
1 LJ
0.667 LW
N
659 173 M
654.92 173 L
S
GR
GS
[0.75 0 0 0.75 0 0] CT
0.929 0.694 0.125 RC
2 setlinecap
1 LJ
0.667 LW
N
659 105 M
654.92 105 L
S
GR
GS
[0.75 0 0 0.75 0 0] CT
0.929 0.694 0.125 RC
2 setlinecap
1 LJ
0.667 LW
N
659 37 M
654.92 37 L
S
GR
GS
[0.75 0 0 0.75 499.05002 333.75] CT
0.929 0.694 0.125 RC
/Helvetica 18.667 F
GS
[1 0 0 1 0 0] CT
0 7 moveto 
1 -1 scale
(-5) t 
GR
GR
GS
[0.75 0 0 0.75 499.05002 282.75] CT
0.929 0.694 0.125 RC
/Helvetica 18.667 F
GS
[1 0 0 1 0 0] CT
0 7 moveto 
1 -1 scale
(0) t 
GR
GR
GS
[0.75 0 0 0.75 499.05002 231.75] CT
0.929 0.694 0.125 RC
/Helvetica 18.667 F
GS
[1 0 0 1 0 0] CT
0 7 moveto 
1 -1 scale
(5) t 
GR
GR
GS
[0.75 0 0 0.75 499.05002 180.75] CT
0.929 0.694 0.125 RC
/Helvetica 18.667 F
GS
[1 0 0 1 0 0] CT
0 7 moveto 
1 -1 scale
(10) t 
GR
GR
GS
[0.75 0 0 0.75 499.05002 129.75] CT
0.929 0.694 0.125 RC
/Helvetica 18.667 F
GS
[1 0 0 1 0 0] CT
0 7 moveto 
1 -1 scale
(15) t 
GR
GR
GS
[0.75 0 0 0.75 499.05002 78.75] CT
0.929 0.694 0.125 RC
/Helvetica 18.667 F
GS
[1 0 0 1 0 0] CT
0 7 moveto 
1 -1 scale
(20) t 
GR
GR
GS
[0.75 0 0 0.75 499.05002 27.75] CT
0.929 0.694 0.125 RC
/Helvetica 18.667 F
GS
[1 0 0 1 0 0] CT
0 7 moveto 
1 -1 scale
(25) t 
GR
GR
GS
[0 -0.75 0.75 0 533.25 199.5] CT
0.929 0.694 0.125 RC
/Helvetica 20.533 F
GS
[1 0 0 1 0 0] CT
0 0 moveto 
1 -1 scale
(I) t 
GR
GR
GS
[0 -0.75 0.75 0 540.75 195] CT
0.929 0.694 0.125 RC
/Helvetica 16.427 F
GS
[1 0 0 1 0 0] CT
0 0 moveto 
1 -1 scale
(D) t 
GR
GR
GS
[0 -0.75 0.75 0 533.25 186] CT
0.929 0.694 0.125 RC
/Helvetica 20.533 F
GS
[1 0 0 1 0 0] CT
0 0 moveto 
1 -1 scale
( / A) t 
GR
GR
GS
[0.75 0 0 0.75 0 0] CT
0.941 GC
N
104 445 M
113 445 L
113 37 L
104 37 L
cp
f
GR
GS
[0.75 0 0 0.75 0 0] CT
0.149 GC
2 setlinecap
1 LJ
0.667 LW
N
104 445 M
113 445 L
S
GR
GS
[0.75 0 0 0.75 0 0] CT
0.494 0.184 0.557 RC
2 setlinecap
1 LJ
0.667 LW
N
104 445 M
104 37 L
S
GR
GS
[0.75 0 0 0.75 0 0] CT
0.494 0.184 0.557 RC
2 setlinecap
1 LJ
0.667 LW
N
104 445 M
108.08 445 L
S
GR
GS
[0.75 0 0 0.75 0 0] CT
0.494 0.184 0.557 RC
2 setlinecap
1 LJ
0.667 LW
N
104 386.714 M
108.08 386.714 L
S
GR
GS
[0.75 0 0 0.75 0 0] CT
0.494 0.184 0.557 RC
2 setlinecap
1 LJ
0.667 LW
N
104 328.429 M
108.08 328.429 L
S
GR
GS
[0.75 0 0 0.75 0 0] CT
0.494 0.184 0.557 RC
2 setlinecap
1 LJ
0.667 LW
N
104 270.143 M
108.08 270.143 L
S
GR
GS
[0.75 0 0 0.75 0 0] CT
0.494 0.184 0.557 RC
2 setlinecap
1 LJ
0.667 LW
N
104 211.857 M
108.08 211.857 L
S
GR
GS
[0.75 0 0 0.75 0 0] CT
0.494 0.184 0.557 RC
2 setlinecap
1 LJ
0.667 LW
N
104 153.571 M
108.08 153.571 L
S
GR
GS
[0.75 0 0 0.75 0 0] CT
0.494 0.184 0.557 RC
2 setlinecap
1 LJ
0.667 LW
N
104 95.286 M
108.08 95.286 L
S
GR
GS
[0.75 0 0 0.75 0 0] CT
0.494 0.184 0.557 RC
2 setlinecap
1 LJ
0.667 LW
N
104 37 M
108.08 37 L
S
GR
GS
[0.75 0 0 0.75 73.2 333.75] CT
0.494 0.184 0.557 RC
/Helvetica 18.667 F
GS
[1 0 0 1 0 0] CT
-38 7 moveto 
1 -1 scale
(-200) t 
GR
GR
GS
[0.75 0 0 0.75 73.2 290.03572] CT
0.494 0.184 0.557 RC
/Helvetica 18.667 F
GS
[1 0 0 1 0 0] CT
-11 7 moveto 
1 -1 scale
(0) t 
GR
GR
GS
[0.75 0 0 0.75 73.2 246.32142] CT
0.494 0.184 0.557 RC
/Helvetica 18.667 F
GS
[1 0 0 1 0 0] CT
-32 7 moveto 
1 -1 scale
(200) t 
GR
GR
GS
[0.75 0 0 0.75 73.2 202.60714] CT
0.494 0.184 0.557 RC
/Helvetica 18.667 F
GS
[1 0 0 1 0 0] CT
-32 7 moveto 
1 -1 scale
(400) t 
GR
GR
GS
[0.75 0 0 0.75 73.2 158.89286] CT
0.494 0.184 0.557 RC
/Helvetica 18.667 F
GS
[1 0 0 1 0 0] CT
-32 7 moveto 
1 -1 scale
(600) t 
GR
GR
GS
[0.75 0 0 0.75 73.2 115.17857] CT
0.494 0.184 0.557 RC
/Helvetica 18.667 F
GS
[1 0 0 1 0 0] CT
-32 7 moveto 
1 -1 scale
(800) t 
GR
GR
GS
[0.75 0 0 0.75 73.2 71.46428] CT
0.494 0.184 0.557 RC
/Helvetica 18.667 F
GS
[1 0 0 1 0 0] CT
-42 7 moveto 
1 -1 scale
(1000) t 
GR
GR
GS
[0.75 0 0 0.75 73.2 27.75] CT
0.494 0.184 0.557 RC
/Helvetica 18.667 F
GS
[1 0 0 1 0 0] CT
-42 7 moveto 
1 -1 scale
(1200) t 
GR
GR
GS
[0 -0.75 0.75 0 28.5 207.75] CT
0.494 0.184 0.557 RC
/Helvetica 20.533 F
GS
[1 0 0 1 0 0] CT
0 0 moveto 
1 -1 scale
(P) t 
GR
GR
GS
[0 -0.75 0.75 0 36 197.25] CT
0.494 0.184 0.557 RC
/Helvetica 16.427 F
GS
[1 0 0 1 0 0] CT
0 0 moveto 
1 -1 scale
(s) t 
GR
GR
GS
[0 -0.75 0.75 0 36 190.5] CT
0.494 0.184 0.557 RC
/Helvetica 16.427 F
GS
[1 0 0 1 0 0] CT
0 0 moveto 
1 -1 scale
(w) t 
GR
GR
GS
[0 -0.75 0.75 0 28.5 181.5] CT
0.494 0.184 0.557 RC
/Helvetica 20.533 F
GS
[1 0 0 1 0 0] CT
0 0 moveto 
1 -1 scale
( / W) t 
GR
GR
GS
[0.75 0 0 0.75 0 0] CT
0.941 GC
N
724 445 M
732 445 L
732 37 L
724 37 L
cp
f
GR
GS
[0.75 0 0 0.75 0 0] CT
0.149 GC
2 setlinecap
1 LJ
0.667 LW
N
724 445 M
732 445 L
S
GR
GS
[0.75 0 0 0.75 0 0] CT
0.467 0.675 0.188 RC
2 setlinecap
1 LJ
0.667 LW
N
732 445 M
732 37 L
S
GR
GS
[0.75 0 0 0.75 0 0] CT
0.467 0.675 0.188 RC
2 setlinecap
1 LJ
0.667 LW
N
732 445 M
727.92 445 L
S
GR
GS
[0.75 0 0 0.75 0 0] CT
0.467 0.675 0.188 RC
2 setlinecap
1 LJ
0.667 LW
N
732 386.714 M
727.92 386.714 L
S
GR
GS
[0.75 0 0 0.75 0 0] CT
0.467 0.675 0.188 RC
2 setlinecap
1 LJ
0.667 LW
N
732 328.429 M
727.92 328.429 L
S
GR
GS
[0.75 0 0 0.75 0 0] CT
0.467 0.675 0.188 RC
2 setlinecap
1 LJ
0.667 LW
N
732 270.143 M
727.92 270.143 L
S
GR
GS
[0.75 0 0 0.75 0 0] CT
0.467 0.675 0.188 RC
2 setlinecap
1 LJ
0.667 LW
N
732 211.857 M
727.92 211.857 L
S
GR
GS
[0.75 0 0 0.75 0 0] CT
0.467 0.675 0.188 RC
2 setlinecap
1 LJ
0.667 LW
N
732 153.571 M
727.92 153.571 L
S
GR
GS
[0.75 0 0 0.75 0 0] CT
0.467 0.675 0.188 RC
2 setlinecap
1 LJ
0.667 LW
N
732 95.286 M
727.92 95.286 L
S
GR
GS
[0.75 0 0 0.75 0 0] CT
0.467 0.675 0.188 RC
2 setlinecap
1 LJ
0.667 LW
N
732 37 M
727.92 37 L
S
GR
GS
[0.75 0 0 0.75 553.80002 333.75] CT
0.467 0.675 0.188 RC
/Helvetica 18.667 F
GS
[1 0 0 1 0 0] CT
0 7 moveto 
1 -1 scale
(0) t 
GR
GR
GS
[0.75 0 0 0.75 553.80002 290.03572] CT
0.467 0.675 0.188 RC
/Helvetica 18.667 F
GS
[1 0 0 1 0 0] CT
0 7 moveto 
1 -1 scale
(5) t 
GR
GR
GS
[0.75 0 0 0.75 553.80002 246.32142] CT
0.467 0.675 0.188 RC
/Helvetica 18.667 F
GS
[1 0 0 1 0 0] CT
0 7 moveto 
1 -1 scale
(10) t 
GR
GR
GS
[0.75 0 0 0.75 553.80002 202.60714] CT
0.467 0.675 0.188 RC
/Helvetica 18.667 F
GS
[1 0 0 1 0 0] CT
0 7 moveto 
1 -1 scale
(15) t 
GR
GR
GS
[0.75 0 0 0.75 553.80002 158.89286] CT
0.467 0.675 0.188 RC
/Helvetica 18.667 F
GS
[1 0 0 1 0 0] CT
0 7 moveto 
1 -1 scale
(20) t 
GR
GR
GS
[0.75 0 0 0.75 553.80002 115.17857] CT
0.467 0.675 0.188 RC
/Helvetica 18.667 F
GS
[1 0 0 1 0 0] CT
0 7 moveto 
1 -1 scale
(25) t 
GR
GR
GS
[0.75 0 0 0.75 553.80002 71.46428] CT
0.467 0.675 0.188 RC
/Helvetica 18.667 F
GS
[1 0 0 1 0 0] CT
0 7 moveto 
1 -1 scale
(30) t 
GR
GR
GS
[0.75 0 0 0.75 553.80002 27.75] CT
0.467 0.675 0.188 RC
/Helvetica 18.667 F
GS
[1 0 0 1 0 0] CT
0 7 moveto 
1 -1 scale
(35) t 
GR
GR
GS
[0 -0.75 0.75 0 588 210] CT
0.467 0.675 0.188 RC
/Helvetica 20.533 F
GS
[1 0 0 1 0 0] CT
0 0 moveto 
1 -1 scale
(E) t 
GR
GR
GS
[0 -0.75 0.75 0 595.5 199.5] CT
0.467 0.675 0.188 RC
/Helvetica 16.427 F
GS
[1 0 0 1 0 0] CT
0 0 moveto 
1 -1 scale
(s) t 
GR
GR
GS
[0 -0.75 0.75 0 595.5 192.75] CT
0.467 0.675 0.188 RC
/Helvetica 16.427 F
GS
[1 0 0 1 0 0] CT
0 0 moveto 
1 -1 scale
(w) t 
GR
GR
GS
[0 -0.75 0.75 0 588 183.75] CT
0.467 0.675 0.188 RC
/Helvetica 20.533 F
GS
[1 0 0 1 0 0] CT
0 0 moveto 
1 -1 scale
( / ) t 
GR
GR
GS
[0 -0.75 0.75 0 588 170.25] CT
0.467 0.675 0.188 RC
N
0.578 3.953 M
0.578 3.828 0.609 3.781 QT
3.688 -8.609 L
3.781 -8.906 4.023 -9.094 QT
4.266 -9.281 4.578 -9.281 QT
4.844 -9.281 5.023 -9.125 QT
5.203 -8.969 5.203 -8.703 QT
5.203 -8.641 5.203 -8.602 QT
5.203 -8.563 5.188 -8.516 QT
3.953 -3.609 L
3.75 -2.734 3.75 -2.109 QT
3.75 -1.328 4.117 -0.82 QT
4.484 -0.313 5.234 -0.313 QT
6.75 -0.313 7.922 -2.219 QT
7.922 -2.25 7.93 -2.258 QT
7.938 -2.266 7.938 -2.281 QT
9.453 -8.375 L
9.531 -8.656 9.781 -8.852 QT
10.031 -9.047 10.344 -9.047 QT
10.578 -9.047 10.773 -8.883 QT
10.969 -8.719 10.969 -8.453 QT
10.969 -8.344 10.938 -8.297 QT
9.438 -2.25 L
9.281 -1.656 9.281 -1.219 QT
9.281 -0.313 9.891 -0.313 QT
10.547 -0.313 10.883 -1.125 QT
11.219 -1.938 11.469 -3.094 QT
11.5 -3.203 11.641 -3.203 QT
11.891 -3.203 L
11.969 -3.203 12.023 -3.141 QT
12.078 -3.078 12.078 -3 QT
11.703 -1.531 11.273 -0.648 QT
10.844 0.234 9.859 0.234 QT
9.156 0.234 8.617 -0.164 QT
8.078 -0.563 7.922 -1.234 QT
7.391 -0.578 6.688 -0.172 QT
5.984 0.234 5.203 0.234 QT
3.891 0.234 3.141 -0.375 QT
2.078 3.859 L
2.016 4.156 1.773 4.344 QT
1.531 4.531 1.219 4.531 QT
0.969 4.531 0.773 4.375 QT
0.578 4.219 0.578 3.953 QT
cp
f
GR
GS
[0 -0.75 0.75 0 588 160.5] CT
0.467 0.675 0.188 RC
/Helvetica 20.533 F
GS
[1 0 0 1 0 0] CT
0 0 moveto 
1 -1 scale
(J) t 
GR
GR
GS
[0.75 0 0 0.75 0 0] CT
1 GC
N
178 445 M
650 445 L
650 37 L
178 37 L
cp
f
GR
GS
[0.75 0 0 0.75 0 0] CT
0.873 GC
1 LJ
0.667 LW
N
178 445 M
178 37 L
S
GR
GS
[0.75 0 0 0.75 0 0] CT
0.873 GC
1 LJ
0.667 LW
N
310.584 445 M
310.584 37 L
S
GR
GS
[0.75 0 0 0.75 0 0] CT
0.873 GC
1 LJ
0.667 LW
N
443.169 445 M
443.169 37 L
S
GR
GS
[0.75 0 0 0.75 0 0] CT
0.873 GC
1 LJ
0.667 LW
N
575.753 445 M
575.753 37 L
S
GR
GS
[0.75 0 0 0.75 0 0] CT
0.873 GC
1 LJ
0.667 LW
N
650 445 M
178 445 L
S
GR
GS
[0.75 0 0 0.75 0 0] CT
0.873 GC
1 LJ
0.667 LW
N
650 377 M
178 377 L
S
GR
GS
[0.75 0 0 0.75 0 0] CT
0.873 GC
1 LJ
0.667 LW
N
650 309 M
178 309 L
S
GR
GS
[0.75 0 0 0.75 0 0] CT
0.873 GC
1 LJ
0.667 LW
N
650 241 M
178 241 L
S
GR
GS
[0.75 0 0 0.75 0 0] CT
0.873 GC
1 LJ
0.667 LW
N
650 173 M
178 173 L
S
GR
GS
[0.75 0 0 0.75 0 0] CT
0.873 GC
1 LJ
0.667 LW
N
650 105 M
178 105 L
S
GR
GS
[0.75 0 0 0.75 0 0] CT
0.873 GC
1 LJ
0.667 LW
N
650 37 M
178 37 L
S
GR
GS
[0.75 0 0 0.75 0 0] CT
0.149 GC
2 setlinecap
1 LJ
0.667 LW
N
178 445 M
650 445 L
S
GR
GS
[0.75 0 0 0.75 0 0] CT
0.149 GC
2 setlinecap
1 LJ
0.667 LW
N
178 445 M
178 440.28 L
S
GR
GS
[0.75 0 0 0.75 0 0] CT
0.149 GC
2 setlinecap
1 LJ
0.667 LW
N
310.584 445 M
310.584 440.28 L
S
GR
GS
[0.75 0 0 0.75 0 0] CT
0.149 GC
2 setlinecap
1 LJ
0.667 LW
N
443.169 445 M
443.169 440.28 L
S
GR
GS
[0.75 0 0 0.75 0 0] CT
0.149 GC
2 setlinecap
1 LJ
0.667 LW
N
575.753 445 M
575.753 440.28 L
S
GR
GS
[0.75 0 0 0.75 133.5 338.55] CT
0.149 GC
/Helvetica 18.667 F
GS
[1 0 0 1 0 0] CT
-5.5 19 moveto 
1 -1 scale
(0) t 
GR
GR
GS
[0.75 0 0 0.75 232.93819 338.55] CT
0.149 GC
/Helvetica 18.667 F
GS
[1 0 0 1 0 0] CT
-10.5 19 moveto 
1 -1 scale
(50) t 
GR
GR
GS
[0.75 0 0 0.75 332.37641 338.55] CT
0.149 GC
/Helvetica 18.667 F
GS
[1 0 0 1 0 0] CT
-16 19 moveto 
1 -1 scale
(100) t 
GR
GR
GS
[0.75 0 0 0.75 431.81461 338.55] CT
0.149 GC
/Helvetica 18.667 F
GS
[1 0 0 1 0 0] CT
-16 19 moveto 
1 -1 scale
(150) t 
GR
GR
GS
[0.75 0 0 0.75 310.50016 357.55] CT
0.149 GC
/Helvetica 20.533 F
GS
[1 0 0 1 0 0] CT
-42.5 21 moveto 
1 -1 scale
(Time / ns) t 
GR
GR
GS
[0.75 0 0 0.75 0 0] CT
0.149 GC
2 setlinecap
1 LJ
0.667 LW
N
178 445 M
178 37 L
S
GR
GS
[0.75 0 0 0.75 0 0] CT
0.149 GC
2 setlinecap
1 LJ
0.667 LW
N
178 445 M
182.72 445 L
S
GR
GS
[0.75 0 0 0.75 0 0] CT
0.149 GC
2 setlinecap
1 LJ
0.667 LW
N
178 377 M
182.72 377 L
S
GR
GS
[0.75 0 0 0.75 0 0] CT
0.149 GC
2 setlinecap
1 LJ
0.667 LW
N
178 309 M
182.72 309 L
S
GR
GS
[0.75 0 0 0.75 0 0] CT
0.149 GC
2 setlinecap
1 LJ
0.667 LW
N
178 241 M
182.72 241 L
S
GR
GS
[0.75 0 0 0.75 0 0] CT
0.149 GC
2 setlinecap
1 LJ
0.667 LW
N
178 173 M
182.72 173 L
S
GR
GS
[0.75 0 0 0.75 0 0] CT
0.149 GC
2 setlinecap
1 LJ
0.667 LW
N
178 105 M
182.72 105 L
S
GR
GS
[0.75 0 0 0.75 0 0] CT
0.149 GC
2 setlinecap
1 LJ
0.667 LW
N
178 37 M
182.72 37 L
S
GR
GS
[0.75 0 0 0.75 128.7 333.75] CT
0.149 GC
/Helvetica 18.667 F
GS
[1 0 0 1 0 0] CT
-11 7 moveto 
1 -1 scale
(0) t 
GR
GR
GS
[0.75 0 0 0.75 128.7 282.75] CT
0.149 GC
/Helvetica 18.667 F
GS
[1 0 0 1 0 0] CT
-21 7 moveto 
1 -1 scale
(10) t 
GR
GR
GS
[0.75 0 0 0.75 128.7 231.75] CT
0.149 GC
/Helvetica 18.667 F
GS
[1 0 0 1 0 0] CT
-21 7 moveto 
1 -1 scale
(20) t 
GR
GR
GS
[0.75 0 0 0.75 128.7 180.75] CT
0.149 GC
/Helvetica 18.667 F
GS
[1 0 0 1 0 0] CT
-21 7 moveto 
1 -1 scale
(30) t 
GR
GR
GS
[0.75 0 0 0.75 128.7 129.75] CT
0.149 GC
/Helvetica 18.667 F
GS
[1 0 0 1 0 0] CT
-21 7 moveto 
1 -1 scale
(40) t 
GR
GR
GS
[0.75 0 0 0.75 128.7 78.75] CT
0.149 GC
/Helvetica 18.667 F
GS
[1 0 0 1 0 0] CT
-21 7 moveto 
1 -1 scale
(50) t 
GR
GR
GS
[0.75 0 0 0.75 128.7 27.75] CT
0.149 GC
/Helvetica 18.667 F
GS
[1 0 0 1 0 0] CT
-21 7 moveto 
1 -1 scale
(60) t 
GR
GR
GS
[0 -0.75 0.75 0 99.75 206.25] CT
0.149 GC
/Helvetica 20.533 F
GS
[1 0 0 1 0 0] CT
0 0 moveto 
1 -1 scale
(V) t 
GR
GR
GS
[0 -0.75 0.75 0 107.25 195.75] CT
0.149 GC
/Helvetica 16.427 F
GS
[1 0 0 1 0 0] CT
0 0 moveto 
1 -1 scale
(D) t 
GR
GR
GS
[0 -0.75 0.75 0 107.25 186.75] CT
0.149 GC
/Helvetica 16.427 F
GS
[1 0 0 1 0 0] CT
0 0 moveto 
1 -1 scale
(S) t 
GR
GR
GS
[0 -0.75 0.75 0 99.75 178.5] CT
0.149 GC
/Helvetica 20.533 F
GS
[1 0 0 1 0 0] CT
0 0 moveto 
1 -1 scale
( / V) t 
GR
GR
GS
[0.75 0 0 0.75 0 0] CT
0.851 0.325 0.098 RC
1 LJ
2 LW
N
177.944 441.836 M
178 441.831 L
179.061 441.831 L
180.121 441.832 L
181.182 442.013 L
182.243 441.922 L
183.303 442.013 L
184.364 441.922 L
185.425 441.741 L
186.485 441.651 L
187.546 441.651 L
188.607 441.56 L
189.667 441.651 L
190.728 441.56 L
191.789 441.651 L
192.849 441.56 L
193.91 441.469 L
194.971 441.56 L
196.031 441.56 L
197.092 441.741 L
198.153 441.741 L
199.213 441.742 L
200.274 441.833 L
201.335 441.742 L
202.396 441.561 L
203.456 441.742 L
204.517 441.833 L
205.578 441.924 L
206.638 442.015 L
207.699 441.925 L
208.76 441.925 L
209.82 441.925 L
210.881 441.834 L
211.942 441.744 L
213.002 441.562 L
214.063 441.471 L
215.124 441.381 L
216.184 441.472 L
217.245 441.562 L
218.306 441.563 L
219.366 441.562 L
220.427 441.562 L
221.488 441.562 L
222.548 441.562 L
223.609 441.562 L
224.67 441.562 L
225.73 441.471 L
226.791 441.472 L
227.852 441.381 L
228.912 441.199 L
229.973 441.018 L
231.034 441.018 L
232.094 440.836 L
233.155 441.018 L
234.216 441.108 L
235.276 441.199 L
236.337 441.29 L
237.398 441.29 L
238.458 441.017 L
239.519 440.926 L
240.58 440.926 L
241.64 441.016 L
242.701 441.198 L
243.762 441.197 L
244.822 441.288 L
245.883 441.289 L
246.944 441.288 L
248.004 441.289 L
249.065 441.289 L
250.126 441.198 L
251.187 441.289 L
252.247 441.289 L
253.308 441.107 L
254.369 441.198 L
255.429 441.198 L
256.49 441.289 L
257.551 441.379 L
258.611 441.379 L
259.672 441.47 L
260.733 441.742 L
261.793 441.923 L
262.854 441.832 L
263.915 442.014 L
264.975 442.013 L
266.036 441.923 L
267.097 441.741 L
268.157 441.65 L
269.218 441.559 L
270.279 441.741 L
271.339 441.741 L
272.4 441.741 L
273.461 441.651 L
274.521 441.469 L
275.582 441.469 L
276.643 441.378 L
277.703 441.56 L
278.764 441.651 L
279.825 441.379 L
280.885 441.378 L
281.946 441.378 L
283.007 441.378 L
284.067 441.378 L
285.128 441.379 L
286.189 441.469 L
287.249 441.378 L
288.31 441.197 L
289.371 441.016 L
290.431 440.653 L
291.492 440.2 L
292.553 439.474 L
293.613 438.749 L
294.674 438.114 L
295.735 437.117 L
296.796 435.938 L
297.856 434.76 L
298.917 433.4 L
299.978 431.95 L
301.038 430.408 L
302.099 428.686 L
303.16 426.782 L
304.22 424.696 L
305.281 422.429 L
306.342 419.982 L
307.402 417.171 L
308.463 414.269 L
309.524 410.915 L
310.584 407.56 L
311.645 404.387 L
312.706 400.579 L
313.766 396.498 L
314.827 392.147 L
315.888 387.614 L
316.948 382.99 L
318.009 377.822 L
319.07 372.472 L
320.13 367.032 L
321.191 361.139 L
322.252 355.246 L
323.312 349.262 L
324.373 343.187 L
325.434 336.931 L
326.494 330.494 L
327.555 323.875 L
328.616 316.984 L
329.676 310.093 L
330.737 303.021 L
331.798 295.677 L
332.858 288.061 L
333.919 280.263 L
334.98 272.194 L
336.04 263.944 L
337.101 255.33 L
338.162 246.445 L
339.222 237.288 L
340.283 227.949 L
341.344 218.248 L
342.404 207.911 L
343.465 197.485 L
344.526 188.055 L
345.587 179.442 L
346.647 171.463 L
347.708 163.938 L
348.769 156.231 L
349.829 148.615 L
350.89 141.362 L
351.951 134.018 L
353.011 127.218 L
354.072 120.962 L
355.133 114.978 L
356.193 109.357 L
357.254 103.826 L
358.315 98.749 L
359.375 94.034 L
360.436 89.682 L
361.497 85.421 L
362.557 81.794 L
363.618 78.712 L
364.679 75.992 L
365.739 73.816 L
366.8 71.821 L
367.861 70.37 L
368.921 69.283 L
369.982 68.739 L
371.043 68.739 L
372.103 69.192 L
373.164 70.371 L
374.225 72.093 L
375.285 73.906 L
376.346 75.176 L
377.407 75.81 L
378.467 75.991 L
379.528 75.9 L
380.589 76.263 L
381.649 76.807 L
382.71 77.261 L
383.771 78.076 L
384.831 78.711 L
385.892 78.983 L
386.953 79.165 L
388.013 79.346 L
389.074 79.527 L
390.135 79.527 L
391.195 79.617 L
392.256 79.799 L
393.317 80.071 L
394.378 80.071 L
395.438 79.98 L
396.499 80.071 L
397.56 79.799 L
398.62 79.89 L
399.681 79.709 L
400.742 79.708 L
401.802 79.708 L
402.863 79.708 L
403.924 79.708 L
404.984 79.436 L
406.045 79.346 L
407.106 79.528 L
408.166 79.528 L
409.227 79.709 L
410.288 79.8 L
411.348 79.892 L
412.409 79.982 L
413.47 80.163 L
414.53 80.254 L
415.591 80.254 L
416.652 80.436 L
417.712 80.527 L
418.773 80.526 L
419.834 80.345 L
420.894 80.527 L
421.955 80.617 L
423.016 80.617 L
424.076 80.708 L
425.137 80.708 L
426.198 80.617 L
427.258 80.708 L
428.319 80.526 L
429.38 80.526 L
430.44 80.436 L
431.501 80.436 L
432.562 80.436 L
433.622 80.254 L
434.683 80.164 L
435.744 79.982 L
436.805 80.073 L
437.865 79.892 L
438.926 79.71 L
439.987 79.529 L
441.047 79.438 L
442.108 79.438 L
443.169 79.438 L
444.229 79.438 L
445.29 79.257 L
446.351 79.347 L
447.411 79.438 L
448.472 79.347 L
449.533 79.347 L
450.593 79.347 L
451.654 79.439 L
452.715 79.438 L
453.775 79.529 L
454.836 79.529 L
455.897 79.529 L
456.957 79.62 L
458.018 79.801 L
459.079 79.71 L
460.139 79.711 L
461.2 79.711 L
462.261 79.711 L
463.321 79.711 L
464.382 79.711 L
465.443 79.801 L
466.503 79.801 L
467.564 79.892 L
468.625 79.71 L
469.685 79.891 L
470.746 79.891 L
471.807 79.982 L
472.867 79.982 L
473.928 79.891 L
474.989 79.8 L
476.049 79.709 L
477.11 79.8 L
478.171 79.8 L
479.231 79.619 L
480.292 79.709 L
481.353 79.618 L
482.413 79.799 L
483.474 79.89 L
484.535 79.799 L
485.596 79.709 L
486.656 79.708 L
487.717 79.617 L
488.778 79.527 L
489.838 79.436 L
490.899 79.436 L
491.96 79.527 L
493.02 79.527 L
494.081 79.527 L
495.142 79.618 L
496.202 79.527 L
497.263 79.527 L
498.324 79.527 L
499.384 79.436 L
500.445 79.618 L
501.506 79.527 L
502.566 79.437 L
503.627 79.346 L
504.688 79.255 L
505.748 79.346 L
506.809 79.437 L
507.87 79.527 L
508.93 79.437 L
509.991 79.346 L
511.052 79.437 L
512.112 79.437 L
513.173 79.618 L
514.234 79.618 L
515.294 79.618 L
516.355 79.709 L
517.416 79.8 L
518.476 79.8 L
519.537 79.8 L
520.598 79.709 L
521.658 79.619 L
522.719 79.619 L
523.78 79.528 L
524.84 79.528 L
525.901 79.528 L
526.962 79.437 L
528.022 79.528 L
529.083 79.528 L
530.144 79.527 L
531.204 79.527 L
532.265 79.255 L
533.326 79.346 L
534.386 79.437 L
535.447 79.437 L
536.508 79.437 L
537.569 79.255 L
538.629 79.255 L
539.69 79.165 L
540.751 79.256 L
541.811 79.347 L
542.872 79.347 L
543.933 79.256 L
544.993 79.256 L
546.054 79.256 L
547.115 79.165 L
548.175 79.165 L
549.236 79.075 L
550.297 79.165 L
551.357 79.165 L
552.418 79.347 L
553.479 79.437 L
554.539 79.346 L
555.6 79.346 L
556.661 79.346 L
557.721 79.346 L
558.782 79.346 L
559.843 79.346 L
560.903 79.256 L
561.964 79.165 L
563.025 79.166 L
564.085 79.257 L
565.146 79.257 L
566.207 79.256 L
567.267 79.347 L
568.328 79.347 L
569.389 79.437 L
570.449 79.347 L
571.51 79.438 L
572.571 79.347 L
573.631 79.165 L
574.692 79.256 L
575.753 79.257 L
576.813 79.256 L
577.874 79.075 L
578.935 79.166 L
579.996 79.166 L
581.056 79.166 L
582.117 78.984 L
583.178 79.075 L
584.238 78.984 L
585.299 78.894 L
586.36 78.984 L
587.42 78.803 L
588.481 78.803 L
589.542 78.802 L
590.602 78.712 L
591.663 78.711 L
592.724 78.802 L
593.784 78.892 L
594.845 78.711 L
595.906 78.62 L
596.966 78.53 L
598.027 78.439 L
599.088 78.258 L
600.148 78.258 L
601.209 78.258 L
602.27 78.348 L
603.33 78.257 L
604.391 78.258 L
605.452 78.348 L
606.512 78.348 L
607.573 78.348 L
608.634 78.257 L
609.694 78.348 L
610.755 78.347 L
611.816 78.348 L
612.876 78.348 L
613.937 78.348 L
614.998 78.348 L
616.058 78.439 L
617.119 78.439 L
618.18 78.348 L
619.24 78.529 L
620.301 78.53 L
621.362 78.53 L
622.422 78.621 L
623.483 78.531 L
624.544 78.44 L
625.604 78.259 L
626.665 78.441 L
627.726 78.622 L
628.786 78.532 L
629.847 78.532 L
630.908 78.713 L
631.969 78.532 L
633.029 78.531 L
634.09 78.532 L
635.151 78.441 L
636.211 78.531 L
637.272 78.44 L
638.333 78.349 L
639.393 78.349 L
640.454 78.349 L
641.515 78.259 L
642.575 78.168 L
643.636 77.987 L
644.697 77.896 L
645.757 78.077 L
646.818 77.896 L
647.879 77.896 L
648.939 77.987 L
650 78.078 L
650.056 78.078 L
S
GR
GS
[0.75 0 0 0.75 0 0] CT
0.929 0.694 0.125 RC
1 LJ
2 LW
N
177.944 203.329 M
178 203.321 L
179.061 203.321 L
180.121 203.321 L
181.182 203.267 L
182.243 203.212 L
183.303 203.267 L
184.364 203.484 L
185.425 203.376 L
186.485 203.484 L
187.546 203.43 L
188.607 203.267 L
189.667 203.321 L
190.728 203.267 L
191.789 203.267 L
192.849 203.268 L
193.91 203.322 L
194.971 203.213 L
196.031 203.322 L
197.092 203.213 L
198.153 203.322 L
199.213 203.267 L
200.274 203.158 L
201.335 203.104 L
202.396 202.941 L
203.456 203.05 L
204.517 203.05 L
205.578 202.996 L
206.638 203.05 L
207.699 202.996 L
208.76 202.941 L
209.82 202.778 L
210.881 202.833 L
211.942 202.67 L
213.002 202.887 L
214.063 202.67 L
215.124 202.67 L
216.184 202.616 L
217.245 202.561 L
218.306 202.561 L
219.366 202.616 L
220.427 202.616 L
221.488 202.398 L
222.548 202.453 L
223.609 202.452 L
224.67 202.398 L
225.73 202.29 L
226.791 202.29 L
227.852 202.398 L
228.912 202.398 L
229.973 202.398 L
231.034 202.398 L
232.094 202.344 L
233.155 202.453 L
234.216 202.344 L
235.276 202.508 L
236.337 202.344 L
237.398 202.181 L
238.458 202.072 L
239.519 201.909 L
240.58 201.963 L
241.64 201.854 L
242.701 201.908 L
243.762 201.963 L
244.822 202.072 L
245.883 201.963 L
246.944 201.963 L
248.004 201.963 L
249.065 202.072 L
250.126 202.127 L
251.187 202.018 L
252.247 201.909 L
253.308 201.8 L
254.369 201.746 L
255.429 201.8 L
256.49 201.746 L
257.551 201.909 L
258.611 201.8 L
259.672 201.909 L
260.733 202.018 L
261.793 202.072 L
262.854 202.072 L
263.915 202.072 L
264.975 202.127 L
266.036 202.127 L
267.097 202.236 L
268.157 202.29 L
269.218 202.345 L
270.279 202.453 L
271.339 202.29 L
272.4 202.344 L
273.461 202.344 L
274.521 202.398 L
275.582 202.616 L
276.643 202.453 L
277.703 202.562 L
278.764 202.508 L
279.825 202.453 L
280.885 202.453 L
281.946 202.453 L
283.007 202.507 L
284.067 202.507 L
285.128 202.453 L
286.189 202.236 L
287.249 202.344 L
288.31 202.399 L
289.371 202.508 L
290.431 202.508 L
291.492 202.889 L
292.553 203.052 L
293.613 203.052 L
294.674 203.051 L
295.735 203.16 L
296.796 203.324 L
297.856 203.541 L
298.917 203.759 L
299.978 203.977 L
301.038 204.303 L
302.099 204.521 L
303.16 204.847 L
304.22 205.173 L
305.281 205.282 L
306.342 205.554 L
307.402 206.098 L
308.463 206.478 L
309.524 206.805 L
310.584 207.241 L
311.645 207.404 L
312.706 207.73 L
313.766 207.894 L
314.827 208.22 L
315.888 208.547 L
316.948 208.656 L
318.009 208.928 L
319.07 209.145 L
320.13 209.309 L
321.191 209.472 L
322.252 209.743 L
323.312 209.907 L
324.373 209.907 L
325.434 210.124 L
326.494 210.396 L
327.555 210.287 L
328.616 210.287 L
329.676 210.45 L
330.737 210.559 L
331.798 210.722 L
332.858 210.722 L
333.919 210.831 L
334.98 210.885 L
336.04 211.211 L
337.101 211.483 L
338.162 211.864 L
339.222 212.245 L
340.283 212.734 L
341.344 213.224 L
342.404 213.877 L
343.465 214.584 L
344.526 215.019 L
345.587 215.781 L
346.647 216.706 L
347.708 217.141 L
348.769 217.358 L
349.829 217.413 L
350.89 217.358 L
351.951 217.413 L
353.011 217.63 L
354.072 217.957 L
355.133 218.174 L
356.193 218.283 L
357.254 218.392 L
358.315 218.392 L
359.375 218.12 L
360.436 217.957 L
361.497 217.793 L
362.557 217.521 L
363.618 217.195 L
364.679 217.141 L
365.739 217.086 L
366.8 216.978 L
367.861 216.978 L
368.921 217.141 L
369.982 217.413 L
371.043 217.903 L
372.103 218.446 L
373.164 218.99 L
374.225 219.697 L
375.285 220.296 L
376.346 221.166 L
377.407 221.982 L
378.467 222.852 L
379.528 224.049 L
380.589 225.518 L
381.649 226.878 L
382.71 228.455 L
383.771 230.033 L
384.831 231.72 L
385.892 233.025 L
386.953 234.603 L
388.013 236.072 L
389.074 237.486 L
390.135 239.009 L
391.195 240.206 L
392.256 241.239 L
393.317 242.327 L
394.378 243.307 L
395.438 244.123 L
396.499 244.83 L
397.56 245.646 L
398.62 246.353 L
399.681 247.115 L
400.742 247.768 L
401.802 248.203 L
402.863 248.692 L
403.924 248.91 L
404.984 249.236 L
406.045 249.508 L
407.106 250.052 L
408.166 250.487 L
409.227 251.031 L
410.288 251.467 L
411.348 252.119 L
412.409 252.99 L
413.47 253.86 L
414.53 254.73 L
415.591 255.438 L
416.652 256.526 L
417.712 257.614 L
418.773 258.484 L
419.834 259.844 L
420.894 261.04 L
421.955 262.237 L
423.016 263.434 L
424.076 264.685 L
425.137 265.61 L
426.198 266.752 L
427.258 267.84 L
428.319 268.711 L
429.38 269.744 L
430.44 270.451 L
431.501 271.267 L
432.562 271.975 L
433.622 272.628 L
434.683 273.172 L
435.744 273.607 L
436.805 274.096 L
437.865 274.477 L
438.926 274.803 L
439.987 274.804 L
441.047 274.967 L
442.108 275.13 L
443.169 275.239 L
444.229 275.456 L
445.29 275.565 L
446.351 275.782 L
447.411 275.837 L
448.472 276.054 L
449.533 276.435 L
450.593 276.925 L
451.654 277.306 L
452.715 277.85 L
453.775 278.394 L
454.836 279.047 L
455.897 279.591 L
456.957 280.244 L
458.018 281.005 L
459.079 281.712 L
460.139 282.311 L
461.2 282.963 L
462.261 283.671 L
463.321 284.378 L
464.382 285.031 L
465.443 285.684 L
466.503 286.336 L
467.564 286.772 L
468.625 287.316 L
469.685 287.751 L
470.746 288.131 L
471.807 288.349 L
472.867 288.566 L
473.928 288.947 L
474.989 289.111 L
476.049 289.382 L
477.11 289.654 L
478.171 289.818 L
479.231 289.981 L
480.292 290.144 L
481.353 290.471 L
482.413 290.797 L
483.474 291.558 L
484.535 292.157 L
485.596 292.755 L
486.656 293.462 L
487.717 294.006 L
488.778 294.931 L
489.838 295.584 L
490.899 296.508 L
491.96 297.216 L
493.02 298.086 L
494.081 298.902 L
495.142 299.773 L
496.202 300.752 L
497.263 301.622 L
498.324 302.602 L
499.384 303.363 L
500.445 304.234 L
501.506 304.941 L
502.566 305.702 L
503.627 306.301 L
504.688 307.062 L
505.748 307.878 L
506.809 308.586 L
507.87 309.13 L
508.93 309.782 L
509.991 310.272 L
511.052 310.924 L
512.112 311.523 L
513.173 312.067 L
514.234 312.556 L
515.294 313.209 L
516.355 313.753 L
517.416 314.352 L
518.476 315.004 L
519.537 315.113 L
520.598 315.657 L
521.658 315.984 L
522.719 316.31 L
523.78 316.637 L
524.84 317.072 L
525.901 317.453 L
526.962 317.67 L
528.022 317.942 L
529.083 318.268 L
530.144 318.649 L
531.204 318.758 L
532.265 319.084 L
533.326 319.41 L
534.386 319.791 L
535.447 320.172 L
536.508 320.662 L
537.569 321.043 L
538.629 321.315 L
539.69 321.696 L
540.751 322.131 L
541.811 322.403 L
542.872 322.838 L
543.933 323.328 L
544.993 323.817 L
546.054 324.307 L
547.115 324.851 L
548.175 325.395 L
549.236 325.667 L
550.297 325.939 L
551.357 326.048 L
552.418 326.266 L
553.479 326.429 L
554.539 326.32 L
555.6 326.265 L
556.661 326.374 L
557.721 326.103 L
558.782 325.558 L
559.843 325.45 L
560.903 325.667 L
561.964 326.157 L
563.025 326.375 L
564.085 326.647 L
565.146 326.81 L
566.207 326.973 L
567.267 327.136 L
568.328 327.299 L
569.389 327.571 L
570.449 327.952 L
571.51 328.605 L
572.571 329.366 L
573.631 329.911 L
574.692 330.781 L
575.753 331.488 L
576.813 332.195 L
577.874 332.903 L
578.935 333.773 L
579.996 334.317 L
581.056 334.861 L
582.117 335.35 L
583.178 335.677 L
584.238 335.949 L
585.299 336.112 L
586.36 336.221 L
587.42 336.384 L
588.481 336.33 L
589.542 336.493 L
590.602 336.275 L
591.663 336.167 L
592.724 335.514 L
593.784 334.861 L
594.845 334.153 L
595.906 333.392 L
596.966 332.848 L
598.027 332.25 L
599.088 331.434 L
600.148 330.618 L
601.209 329.856 L
602.27 329.04 L
603.33 328.659 L
604.391 328.279 L
605.452 327.735 L
606.512 327.626 L
607.573 327.626 L
608.634 327.517 L
609.694 327.354 L
610.755 327.245 L
611.816 327.299 L
612.876 327.517 L
613.937 327.952 L
614.998 328.224 L
616.058 328.605 L
617.119 329.04 L
618.18 329.529 L
619.24 329.801 L
620.301 330.182 L
621.362 330.509 L
622.422 330.781 L
623.483 330.889 L
624.544 330.726 L
625.604 330.454 L
626.665 330.4 L
627.726 330.182 L
628.786 329.53 L
629.847 329.04 L
630.908 328.496 L
631.969 327.843 L
633.029 326.973 L
634.09 326.374 L
635.151 325.449 L
636.211 324.688 L
637.272 323.926 L
638.333 323.164 L
639.393 322.566 L
640.454 321.968 L
641.515 321.315 L
642.575 320.934 L
643.636 320.444 L
644.697 320.118 L
645.757 320.063 L
646.818 319.846 L
647.879 319.737 L
648.939 319.628 L
650 319.791 L
650.056 319.806 L
S
GR
GS
[0.75 0 0 0.75 0 0] CT
0.494 0.184 0.557 RC
1 LJ
2 LW
N
177.944 384.983 M
178 384.98 L
179.061 384.98 L
180.121 384.98 L
181.182 385.079 L
182.243 385.029 L
183.303 385.079 L
184.364 385.031 L
185.425 384.931 L
186.485 384.883 L
187.546 384.882 L
188.607 384.831 L
189.667 384.881 L
190.728 384.831 L
191.789 384.881 L
192.849 384.831 L
193.91 384.782 L
194.971 384.83 L
196.031 384.832 L
197.092 384.93 L
198.153 384.931 L
199.213 384.93 L
200.274 384.979 L
201.335 384.929 L
202.396 384.828 L
203.456 384.929 L
204.517 384.978 L
205.578 385.028 L
206.638 385.078 L
207.699 385.028 L
208.76 385.028 L
209.82 385.026 L
210.881 384.977 L
211.942 384.925 L
213.002 384.828 L
214.063 384.776 L
215.124 384.726 L
216.184 384.775 L
217.245 384.825 L
218.306 384.825 L
219.366 384.825 L
220.427 384.825 L
221.488 384.823 L
222.548 384.823 L
223.609 384.823 L
224.67 384.823 L
225.73 384.772 L
226.791 384.772 L
227.852 384.723 L
228.912 384.623 L
229.973 384.523 L
231.034 384.523 L
232.094 384.423 L
233.155 384.524 L
234.216 384.572 L
235.276 384.624 L
236.337 384.672 L
237.398 384.67 L
238.458 384.519 L
239.519 384.467 L
240.58 384.467 L
241.64 384.516 L
242.701 384.616 L
243.762 384.617 L
244.822 384.668 L
245.883 384.667 L
246.944 384.667 L
248.004 384.667 L
249.065 384.668 L
250.126 384.619 L
251.187 384.668 L
252.247 384.667 L
253.308 384.565 L
254.369 384.615 L
255.429 384.615 L
256.49 384.665 L
257.551 384.717 L
258.611 384.715 L
259.672 384.767 L
260.733 384.918 L
261.793 385.018 L
262.854 384.968 L
263.915 385.068 L
264.975 385.068 L
266.036 385.018 L
267.097 384.919 L
268.157 384.87 L
269.218 384.821 L
270.279 384.922 L
271.339 384.92 L
272.4 384.921 L
273.461 384.871 L
274.521 384.771 L
275.582 384.774 L
276.643 384.722 L
277.703 384.823 L
278.764 384.873 L
279.825 384.722 L
280.885 384.722 L
281.946 384.722 L
283.007 384.723 L
284.067 384.723 L
285.128 384.722 L
286.189 384.77 L
287.249 384.721 L
288.31 384.622 L
289.371 384.523 L
290.431 384.324 L
291.492 384.08 L
292.553 383.685 L
293.613 383.288 L
294.674 382.94 L
295.735 382.396 L
296.796 381.755 L
297.856 381.117 L
298.917 380.382 L
299.978 379.599 L
301.038 378.773 L
302.099 377.847 L
303.16 376.831 L
304.22 375.72 L
305.281 374.501 L
306.342 373.198 L
307.402 371.727 L
308.463 370.201 L
309.524 368.433 L
310.584 366.686 L
311.645 365.009 L
312.706 363.019 L
313.766 360.868 L
314.827 358.603 L
315.888 356.251 L
316.948 353.818 L
318.009 351.134 L
319.07 348.351 L
320.13 345.513 L
321.191 342.442 L
322.252 339.408 L
323.312 336.303 L
324.373 333.104 L
325.434 329.884 L
326.494 326.597 L
327.555 323.081 L
328.616 319.46 L
329.676 315.909 L
330.737 312.246 L
331.798 308.471 L
332.858 304.481 L
333.919 300.451 L
334.98 296.256 L
336.04 292.123 L
337.101 287.785 L
338.162 283.389 L
339.222 278.873 L
340.283 274.359 L
341.344 269.687 L
342.404 264.84 L
343.465 260.032 L
344.526 255.558 L
345.587 251.799 L
346.647 248.543 L
347.708 245.127 L
348.769 241.443 L
349.829 237.662 L
350.89 233.962 L
351.951 230.321 L
353.011 227.119 L
354.072 224.311 L
355.133 221.537 L
356.193 218.839 L
357.254 216.19 L
358.315 213.652 L
359.375 210.995 L
360.436 208.634 L
361.497 206.313 L
362.557 204.182 L
363.618 202.256 L
364.679 200.824 L
365.739 199.664 L
366.8 198.531 L
367.861 197.799 L
368.921 197.444 L
369.982 197.493 L
371.043 198.073 L
372.103 198.945 L
373.164 200.175 L
374.225 201.864 L
375.285 203.462 L
376.346 205.103 L
377.407 206.364 L
378.467 207.465 L
379.528 208.812 L
380.589 210.694 L
381.649 212.532 L
382.71 214.575 L
383.771 216.781 L
384.831 219.021 L
385.892 220.651 L
386.953 222.553 L
388.013 224.327 L
389.074 226.036 L
390.135 227.79 L
391.195 229.207 L
392.256 230.475 L
393.317 231.843 L
394.378 232.969 L
395.438 233.869 L
396.499 234.721 L
397.56 235.546 L
398.62 236.398 L
399.681 237.2 L
400.742 237.951 L
401.802 238.452 L
402.863 239.015 L
403.924 239.266 L
404.984 239.532 L
406.045 239.809 L
407.106 240.509 L
408.166 241.01 L
409.227 241.709 L
410.288 242.246 L
411.348 243.033 L
412.409 244.07 L
413.47 245.141 L
414.53 246.177 L
415.591 246.989 L
416.652 248.309 L
417.712 249.593 L
418.773 250.592 L
419.834 252.087 L
420.894 253.529 L
421.955 254.936 L
423.016 256.31 L
424.076 257.779 L
425.137 258.84 L
426.198 260.12 L
427.258 261.401 L
428.319 262.338 L
429.38 263.525 L
430.44 264.307 L
431.501 265.245 L
432.562 266.058 L
433.622 266.748 L
434.683 267.343 L
435.744 267.785 L
436.805 268.377 L
437.865 268.757 L
438.926 269.073 L
439.987 269.015 L
441.047 269.174 L
442.108 269.362 L
443.169 269.487 L
444.229 269.738 L
445.29 269.805 L
446.351 270.085 L
447.411 270.176 L
448.472 270.398 L
449.533 270.837 L
450.593 271.401 L
451.654 271.869 L
452.715 272.495 L
453.775 273.15 L
454.836 273.902 L
455.897 274.529 L
456.957 275.308 L
458.018 276.24 L
459.079 277.027 L
460.139 277.715 L
461.2 278.467 L
462.261 279.281 L
463.321 280.095 L
464.382 280.847 L
465.443 281.624 L
466.503 282.375 L
467.564 282.902 L
468.625 283.477 L
469.685 284.028 L
470.746 284.466 L
471.807 284.742 L
472.867 284.992 L
473.928 285.405 L
474.989 285.568 L
476.049 285.855 L
477.11 286.193 L
478.171 286.381 L
479.231 286.519 L
480.292 286.732 L
481.353 287.083 L
482.413 287.508 L
483.474 288.409 L
484.535 289.073 L
485.596 289.738 L
486.656 290.552 L
487.717 291.154 L
488.778 292.195 L
489.838 292.924 L
490.899 293.989 L
491.96 294.826 L
493.02 295.829 L
494.081 296.769 L
495.142 297.794 L
496.202 298.9 L
497.263 299.902 L
498.324 301.03 L
499.384 301.886 L
500.445 302.93 L
501.506 303.724 L
502.566 304.581 L
503.627 305.25 L
504.688 306.107 L
505.748 307.068 L
506.809 307.902 L
507.87 308.548 L
508.93 309.281 L
509.991 309.825 L
511.052 310.596 L
512.112 311.285 L
513.173 311.949 L
514.234 312.513 L
515.294 313.265 L
516.355 313.909 L
517.416 314.616 L
518.476 315.367 L
519.537 315.493 L
520.598 316.101 L
521.658 316.46 L
522.719 316.835 L
523.78 317.194 L
524.84 317.695 L
525.901 318.134 L
526.962 318.368 L
528.022 318.698 L
529.083 319.073 L
530.144 319.511 L
531.204 319.637 L
532.265 319.963 L
533.326 320.355 L
534.386 320.811 L
535.447 321.249 L
536.508 321.813 L
537.569 322.22 L
538.629 322.534 L
539.69 322.957 L
540.751 323.475 L
541.811 323.804 L
542.872 324.305 L
543.933 324.854 L
544.993 325.418 L
546.054 325.983 L
547.115 326.595 L
548.175 327.222 L
549.236 327.521 L
550.297 327.849 L
551.357 327.974 L
552.418 328.255 L
553.479 328.457 L
554.539 328.317 L
555.6 328.254 L
556.661 328.38 L
557.721 328.067 L
558.782 327.44 L
559.843 327.314 L
560.903 327.55 L
561.964 328.1 L
563.025 328.351 L
564.085 328.679 L
565.146 328.867 L
566.207 329.055 L
567.267 329.258 L
568.328 329.446 L
569.389 329.773 L
570.449 330.198 L
571.51 330.964 L
572.571 331.828 L
573.631 332.428 L
574.692 333.445 L
575.753 334.26 L
576.813 335.075 L
577.874 335.865 L
578.935 336.881 L
579.996 337.508 L
581.056 338.135 L
582.117 338.675 L
583.178 339.063 L
584.238 339.365 L
585.299 339.542 L
586.36 339.679 L
587.42 339.844 L
588.481 339.782 L
589.542 339.97 L
590.602 339.707 L
591.663 339.582 L
592.724 338.84 L
593.784 338.098 L
594.845 337.258 L
595.906 336.366 L
596.966 335.726 L
598.027 335.022 L
599.088 334.053 L
600.148 333.11 L
601.209 332.23 L
602.27 331.301 L
603.33 330.847 L
604.391 330.407 L
605.452 329.792 L
606.512 329.667 L
607.573 329.667 L
608.634 329.526 L
609.694 329.352 L
610.755 329.226 L
611.816 329.289 L
612.876 329.541 L
613.937 330.044 L
614.998 330.358 L
616.058 330.811 L
617.119 331.314 L
618.18 331.866 L
619.24 332.207 L
620.301 332.647 L
621.362 333.024 L
622.422 333.351 L
623.483 333.464 L
624.544 333.262 L
625.604 332.922 L
626.665 332.886 L
627.726 332.661 L
628.786 331.894 L
629.847 331.328 L
630.908 330.728 L
631.969 329.946 L
633.029 328.941 L
634.09 328.25 L
635.151 327.167 L
636.211 326.302 L
637.272 325.407 L
638.333 324.512 L
639.393 323.82 L
640.454 323.129 L
641.515 322.359 L
642.575 321.903 L
643.636 321.305 L
644.697 320.911 L
645.757 320.88 L
646.818 320.596 L
647.879 320.47 L
648.939 320.361 L
650 320.566 L
650.056 320.583 L
S
GR
GS
[0.75 0 0 0.75 0 0] CT
0.467 0.675 0.188 RC
[8 8] 0 setdash
2 LJ
2 LW
N
310.584 445 M
311.645 444.666 L
312.706 444.303 L
313.766 443.907 L
314.827 443.475 L
315.888 443.006 L
316.948 442.499 L
318.009 441.952 L
319.07 441.36 L
320.13 440.724 L
321.191 440.04 L
322.252 439.307 L
323.312 438.525 L
324.373 437.693 L
325.434 436.81 L
326.494 435.874 L
327.555 434.884 L
328.616 433.837 L
329.676 432.733 L
330.737 431.57 L
331.798 430.349 L
332.858 429.065 L
333.919 427.717 L
334.98 426.303 L
336.04 424.823 L
337.101 423.275 L
338.162 421.657 L
339.222 419.967 L
340.283 418.206 L
341.344 416.371 L
342.404 414.459 L
343.465 412.471 L
344.526 410.408 L
345.587 408.28 L
346.647 406.095 L
347.708 403.857 L
348.769 401.562 L
349.829 399.207 L
350.89 396.793 L
351.951 394.32 L
353.011 391.792 L
354.072 389.216 L
355.133 386.595 L
356.193 383.931 L
357.254 381.224 L
358.315 378.475 L
359.375 375.685 L
360.436 372.854 L
361.497 369.986 L
362.557 367.083 L
363.618 364.147 L
364.679 361.184 L
365.739 358.201 L
366.8 355.199 L
367.861 352.182 L
368.921 349.157 L
369.982 346.129 L
371.043 343.106 L
372.103 340.095 L
373.164 337.1 L
374.225 334.129 L
375.285 331.184 L
376.346 328.265 L
377.407 325.37 L
378.467 322.493 L
379.528 319.635 L
380.589 316.804 L
381.649 314.003 L
382.71 311.232 L
383.771 308.495 L
384.831 305.794 L
385.892 303.124 L
386.953 300.482 L
388.013 297.87 L
389.074 295.286 L
390.135 292.729 L
391.195 290.197 L
392.256 287.687 L
393.317 285.198 L
394.378 282.729 L
395.438 280.277 L
396.499 277.838 L
397.56 275.413 L
398.62 273.001 L
399.681 270.602 L
400.742 268.216 L
401.802 265.84 L
402.863 263.472 L
403.924 261.111 L
404.984 258.754 L
406.045 256.401 L
407.106 254.056 L
408.166 251.721 L
409.227 249.395 L
410.288 247.08 L
411.348 244.774 L
412.409 242.484 L
413.47 240.21 L
414.53 237.953 L
415.591 235.711 L
416.652 233.486 L
417.712 231.282 L
418.773 229.096 L
419.834 226.93 L
420.894 224.787 L
421.955 222.668 L
423.016 220.57 L
424.076 218.495 L
425.137 216.441 L
426.198 214.405 L
427.258 212.39 L
428.319 210.392 L
429.38 208.412 L
430.44 206.447 L
431.501 204.496 L
432.562 202.559 L
433.622 200.634 L
434.683 198.719 L
435.744 196.813 L
436.805 194.915 L
437.865 193.025 L
438.926 191.14 L
439.987 189.257 L
441.047 187.375 L
442.108 185.496 L
443.169 183.619 L
444.229 181.746 L
445.29 179.875 L
446.351 178.006 L
447.411 176.141 L
448.472 174.278 L
449.533 172.421 L
450.593 170.571 L
451.654 168.73 L
452.715 166.897 L
453.775 165.075 L
454.836 163.264 L
455.897 161.464 L
456.957 159.675 L
458.018 157.9 L
459.079 156.139 L
460.139 154.389 L
461.2 152.651 L
462.261 150.926 L
463.321 149.214 L
464.382 147.514 L
465.443 145.826 L
466.503 144.151 L
467.564 142.485 L
468.625 140.829 L
469.685 139.182 L
470.746 137.542 L
471.807 135.908 L
472.867 134.279 L
473.928 132.655 L
474.989 131.035 L
476.049 129.419 L
477.11 127.808 L
478.171 126.201 L
479.231 124.597 L
480.292 122.995 L
481.353 121.398 L
482.413 119.808 L
483.474 118.228 L
484.535 116.66 L
485.596 115.103 L
486.656 113.558 L
487.717 112.024 L
488.778 110.504 L
489.838 108.997 L
490.899 107.505 L
491.96 106.028 L
493.02 104.566 L
494.081 103.119 L
495.142 101.688 L
496.202 100.274 L
497.263 98.877 L
498.324 97.497 L
499.384 96.133 L
500.445 94.784 L
501.506 93.45 L
502.566 92.129 L
503.627 90.821 L
504.688 89.524 L
505.748 88.242 L
506.809 86.974 L
507.87 85.718 L
508.93 84.474 L
509.991 83.239 L
511.052 82.015 L
512.112 80.803 L
513.173 79.601 L
514.234 78.409 L
515.294 77.228 L
516.355 76.058 L
517.416 74.899 L
S
GR
GS
[0.75 0 0 0.75 0 0] CT
1 GC
N
636 225 M
636 108 L
554 108 L
554 225 L
cp
f
GR
GS
[0.75 0 0 0.75 450.75 95.25] CT
/Helvetica 16.8 F
GS
[1 0 0 1 0 0] CT
0 0 moveto 
1 -1 scale
(V) t 
GR
GR
GS
[0.75 0 0 0.75 459.75 101.25] CT
/Helvetica 13.44 F
GS
[1 0 0 1 0 0] CT
0 0 moveto 
1 -1 scale
(D) t 
GR
GR
GS
[0.75 0 0 0.75 467.25 101.25] CT
/Helvetica 13.44 F
GS
[1 0 0 1 0 0] CT
0 0 moveto 
1 -1 scale
(S) t 
GR
GR
GS
[0.75 0 0 0.75 0 0] CT
0.851 0.325 0.098 RC
1 LJ
2 LW
N
558 123.932 M
598 123.932 L
S
GR
GS
[0.75 0 0 0.75 450.75 116.25] CT
/Helvetica 16.8 F
GS
[1 0 0 1 0 0] CT
0 0 moveto 
1 -1 scale
(I) t 
GR
GR
GS
[0.75 0 0 0.75 454.5 122.25] CT
/Helvetica 13.44 F
GS
[1 0 0 1 0 0] CT
0 0 moveto 
1 -1 scale
(D) t 
GR
GR
GS
[0.75 0 0 0.75 0 0] CT
0.929 0.694 0.125 RC
1 LJ
2 LW
N
558 152.311 M
598 152.311 L
S
GR
GS
[0.75 0 0 0.75 450.75 138] CT
/Helvetica 16.8 F
GS
[1 0 0 1 0 0] CT
0 0 moveto 
1 -1 scale
(P) t 
GR
GR
GS
[0.75 0 0 0.75 459.75 144] CT
/Helvetica 13.44 F
GS
[1 0 0 1 0 0] CT
0 0 moveto 
1 -1 scale
(s) t 
GR
GR
GS
[0.75 0 0 0.75 465 144] CT
/Helvetica 13.44 F
GS
[1 0 0 1 0 0] CT
0 0 moveto 
1 -1 scale
(w) t 
GR
GR
GS
[0.75 0 0 0.75 0 0] CT
0.494 0.184 0.557 RC
1 LJ
2 LW
N
558 180.689 M
598 180.689 L
S
GR
GS
[0.75 0 0 0.75 450.75 159] CT
/Helvetica 16.8 F
GS
[1 0 0 1 0 0] CT
0 0 moveto 
1 -1 scale
(E) t 
GR
GR
GS
[0.75 0 0 0.75 459.75 165] CT
/Helvetica 13.44 F
GS
[1 0 0 1 0 0] CT
0 0 moveto 
1 -1 scale
(s) t 
GR
GR
GS
[0.75 0 0 0.75 465 165] CT
/Helvetica 13.44 F
GS
[1 0 0 1 0 0] CT
0 0 moveto 
1 -1 scale
(w) t 
GR
GR
GS
[0.75 0 0 0.75 0 0] CT
0.467 0.675 0.188 RC
[8 8] 0 setdash
2 LJ
2 LW
N
558 209.068 M
598 209.068 L
S
GR
GS
[0.75 0 0 0.75 0 0] CT
0.149 GC
10.0 ML
0.667 LW
N
554 225 M
554 108 L
636 108 L
636 225 L
cp
S
GR
%%Trailer
%%Pages: 1
%%EOF
