%!PS-Adobe-3.0 EPSF-3.0
%%Creator: (MATLAB, The Mathworks, Inc. Version 24.1.0.2603908 \(R2024a\) Update 3. Operating System: Windows 10)
%%Title: (C:/Users/lorde/Documents/MATLAB/Master Lab Course/Exercise 3/E3_Rg30_Eon2.eps)
%%CreationDate: 2024-06-30T10:11:05
%%Pages: (atend)
%%BoundingBox:     0     0   600   375
%%LanguageLevel: 3
%%EndComments
%%BeginProlog
%%BeginResource: procset (Apache XML Graphics Std ProcSet) 1.2 0
%%Version: 1.2 0
%%Copyright: (Copyright 2001-2003,2010 The Apache Software Foundation. License terms: http://www.apache.org/licenses/LICENSE-2.0)
/bd{bind def}bind def
/ld{load def}bd
/GR/grestore ld
/GS/gsave ld
/RM/rmoveto ld
/C/curveto ld
/t/show ld
/L/lineto ld
/ML/setmiterlimit ld
/CT/concat ld
/f/fill ld
/N/newpath ld
/S/stroke ld
/CC/setcmykcolor ld
/A/ashow ld
/cp/closepath ld
/RC/setrgbcolor ld
/LJ/setlinejoin ld
/GC/setgray ld
/LW/setlinewidth ld
/M/moveto ld
/re {4 2 roll M
1 index 0 rlineto
0 exch rlineto
neg 0 rlineto
cp } bd
/_ctm matrix def
/_tm matrix def
/BT { _ctm currentmatrix pop matrix _tm copy pop 0 0 moveto } bd
/ET { _ctm setmatrix } bd
/iTm { _ctm setmatrix _tm concat } bd
/Tm { _tm astore pop iTm 0 0 moveto } bd
/ux 0.0 def
/uy 0.0 def
/F {
  /Tp exch def
  /Tf exch def
  Tf findfont Tp scalefont setfont
  /cf Tf def  /cs Tp def
} bd
/ULS {currentpoint /uy exch def /ux exch def} bd
/ULE {
  /Tcx currentpoint pop def
  gsave
  newpath
  cf findfont cs scalefont dup
  /FontMatrix get 0 get /Ts exch def /FontInfo get dup
  /UnderlinePosition get Ts mul /To exch def
  /UnderlineThickness get Ts mul /Tt exch def
  ux uy To add moveto  Tcx uy To add lineto
  Tt setlinewidth stroke
  grestore
} bd
/OLE {
  /Tcx currentpoint pop def
  gsave
  newpath
  cf findfont cs scalefont dup
  /FontMatrix get 0 get /Ts exch def /FontInfo get dup
  /UnderlinePosition get Ts mul /To exch def
  /UnderlineThickness get Ts mul /Tt exch def
  ux uy To add cs add moveto Tcx uy To add cs add lineto
  Tt setlinewidth stroke
  grestore
} bd
/SOE {
  /Tcx currentpoint pop def
  gsave
  newpath
  cf findfont cs scalefont dup
  /FontMatrix get 0 get /Ts exch def /FontInfo get dup
  /UnderlinePosition get Ts mul /To exch def
  /UnderlineThickness get Ts mul /Tt exch def
  ux uy To add cs 10 mul 26 idiv add moveto Tcx uy To add cs 10 mul 26 idiv add lineto
  Tt setlinewidth stroke
  grestore
} bd
/QT {
/Y22 exch store
/X22 exch store
/Y21 exch store
/X21 exch store
currentpoint
/Y21 load 2 mul add 3 div exch
/X21 load 2 mul add 3 div exch
/X21 load 2 mul /X22 load add 3 div
/Y21 load 2 mul /Y22 load add 3 div
/X22 load /Y22 load curveto
} bd
/SSPD {
dup length /d exch dict def
{
/v exch def
/k exch def
currentpagedevice k known {
/cpdv currentpagedevice k get def
v cpdv ne {
/upd false def
/nullv v type /nulltype eq def
/nullcpdv cpdv type /nulltype eq def
nullv nullcpdv or
{
/upd true def
} {
/sametype v type cpdv type eq def
sametype {
v type /arraytype eq {
/vlen v length def
/cpdvlen cpdv length def
vlen cpdvlen eq {
0 1 vlen 1 sub {
/i exch def
/obj v i get def
/cpdobj cpdv i get def
obj cpdobj ne {
/upd true def
exit
} if
} for
} {
/upd true def
} ifelse
} {
v type /dicttype eq {
v {
/dv exch def
/dk exch def
/cpddv cpdv dk get def
dv cpddv ne {
/upd true def
exit
} if
} forall
} {
/upd true def
} ifelse
} ifelse
} if
} ifelse
upd true eq {
d k v put
} if
} if
} if
} forall
d length 0 gt {
d setpagedevice
} if
} bd
/RE { % /NewFontName [NewEncodingArray] /FontName RE -
  findfont dup length dict begin
  {
    1 index /FID ne
    {def} {pop pop} ifelse
  } forall
  /Encoding exch def
  /FontName 1 index def
  currentdict definefont pop
  end
} bind def
%%EndResource
%%BeginResource: procset (Apache XML Graphics EPS ProcSet) 1.0 0
%%Version: 1.0 0
%%Copyright: (Copyright 2002-2003 The Apache Software Foundation. License terms: http://www.apache.org/licenses/LICENSE-2.0)
/BeginEPSF { %def
/b4_Inc_state save def         % Save state for cleanup
/dict_count countdictstack def % Count objects on dict stack
/op_count count 1 sub def      % Count objects on operand stack
userdict begin                 % Push userdict on dict stack
/showpage { } def              % Redefine showpage, { } = null proc
0 setgray 0 setlinecap         % Prepare graphics state
1 setlinewidth 0 setlinejoin
10 setmiterlimit [ ] 0 setdash newpath
/languagelevel where           % If level not equal to 1 then
{pop languagelevel             % set strokeadjust and
1 ne                           % overprint to their defaults.
{false setstrokeadjust false setoverprint
} if
} if
} bd
/EndEPSF { %def
count op_count sub {pop} repeat            % Clean up stacks
countdictstack dict_count sub {end} repeat
b4_Inc_state restore
} bd
%%EndResource
%FOPBeginFontDict
%%IncludeResource: font Courier-Oblique
%%IncludeResource: font Courier-BoldOblique
%%IncludeResource: font Courier-Bold
%%IncludeResource: font ZapfDingbats
%%IncludeResource: font Symbol
%%IncludeResource: font Helvetica
%%IncludeResource: font Helvetica-Oblique
%%IncludeResource: font Helvetica-Bold
%%IncludeResource: font Helvetica-BoldOblique
%%IncludeResource: font Times-Roman
%%IncludeResource: font Times-Italic
%%IncludeResource: font Times-Bold
%%IncludeResource: font Times-BoldItalic
%%IncludeResource: font Courier
%FOPEndFontDict
%%BeginResource: encoding WinAnsiEncoding
/WinAnsiEncoding [
/.notdef /.notdef /.notdef /.notdef /.notdef
/.notdef /.notdef /.notdef /.notdef /.notdef
/.notdef /.notdef /.notdef /.notdef /.notdef
/.notdef /.notdef /.notdef /.notdef /.notdef
/.notdef /.notdef /.notdef /.notdef /.notdef
/.notdef /.notdef /.notdef /.notdef /.notdef
/.notdef /.notdef /space /exclam /quotedbl
/numbersign /dollar /percent /ampersand /quotesingle
/parenleft /parenright /asterisk /plus /comma
/hyphen /period /slash /zero /one
/two /three /four /five /six
/seven /eight /nine /colon /semicolon
/less /equal /greater /question /at
/A /B /C /D /E
/F /G /H /I /J
/K /L /M /N /O
/P /Q /R /S /T
/U /V /W /X /Y
/Z /bracketleft /backslash /bracketright /asciicircum
/underscore /quoteleft /a /b /c
/d /e /f /g /h
/i /j /k /l /m
/n /o /p /q /r
/s /t /u /v /w
/x /y /z /braceleft /bar
/braceright /asciitilde /bullet /Euro /bullet
/quotesinglbase /florin /quotedblbase /ellipsis /dagger
/daggerdbl /circumflex /perthousand /Scaron /guilsinglleft
/OE /bullet /Zcaron /bullet /bullet
/quoteleft /quoteright /quotedblleft /quotedblright /bullet
/endash /emdash /asciitilde /trademark /scaron
/guilsinglright /oe /bullet /zcaron /Ydieresis
/space /exclamdown /cent /sterling /currency
/yen /brokenbar /section /dieresis /copyright
/ordfeminine /guillemotleft /logicalnot /sfthyphen /registered
/macron /degree /plusminus /twosuperior /threesuperior
/acute /mu /paragraph /middot /cedilla
/onesuperior /ordmasculine /guillemotright /onequarter /onehalf
/threequarters /questiondown /Agrave /Aacute /Acircumflex
/Atilde /Adieresis /Aring /AE /Ccedilla
/Egrave /Eacute /Ecircumflex /Edieresis /Igrave
/Iacute /Icircumflex /Idieresis /Eth /Ntilde
/Ograve /Oacute /Ocircumflex /Otilde /Odieresis
/multiply /Oslash /Ugrave /Uacute /Ucircumflex
/Udieresis /Yacute /Thorn /germandbls /agrave
/aacute /acircumflex /atilde /adieresis /aring
/ae /ccedilla /egrave /eacute /ecircumflex
/edieresis /igrave /iacute /icircumflex /idieresis
/eth /ntilde /ograve /oacute /ocircumflex
/otilde /odieresis /divide /oslash /ugrave
/uacute /ucircumflex /udieresis /yacute /thorn
/ydieresis
] def
%%EndResource
%FOPBeginFontReencode
/Courier-Oblique findfont
dup length dict begin
  {1 index /FID ne {def} {pop pop} ifelse} forall
  /Encoding WinAnsiEncoding def
  currentdict
end
/Courier-Oblique exch definefont pop
/Courier-BoldOblique findfont
dup length dict begin
  {1 index /FID ne {def} {pop pop} ifelse} forall
  /Encoding WinAnsiEncoding def
  currentdict
end
/Courier-BoldOblique exch definefont pop
/Courier-Bold findfont
dup length dict begin
  {1 index /FID ne {def} {pop pop} ifelse} forall
  /Encoding WinAnsiEncoding def
  currentdict
end
/Courier-Bold exch definefont pop
/Helvetica findfont
dup length dict begin
  {1 index /FID ne {def} {pop pop} ifelse} forall
  /Encoding WinAnsiEncoding def
  currentdict
end
/Helvetica exch definefont pop
/Helvetica-Oblique findfont
dup length dict begin
  {1 index /FID ne {def} {pop pop} ifelse} forall
  /Encoding WinAnsiEncoding def
  currentdict
end
/Helvetica-Oblique exch definefont pop
/Helvetica-Bold findfont
dup length dict begin
  {1 index /FID ne {def} {pop pop} ifelse} forall
  /Encoding WinAnsiEncoding def
  currentdict
end
/Helvetica-Bold exch definefont pop
/Helvetica-BoldOblique findfont
dup length dict begin
  {1 index /FID ne {def} {pop pop} ifelse} forall
  /Encoding WinAnsiEncoding def
  currentdict
end
/Helvetica-BoldOblique exch definefont pop
/Times-Roman findfont
dup length dict begin
  {1 index /FID ne {def} {pop pop} ifelse} forall
  /Encoding WinAnsiEncoding def
  currentdict
end
/Times-Roman exch definefont pop
/Times-Italic findfont
dup length dict begin
  {1 index /FID ne {def} {pop pop} ifelse} forall
  /Encoding WinAnsiEncoding def
  currentdict
end
/Times-Italic exch definefont pop
/Times-Bold findfont
dup length dict begin
  {1 index /FID ne {def} {pop pop} ifelse} forall
  /Encoding WinAnsiEncoding def
  currentdict
end
/Times-Bold exch definefont pop
/Times-BoldItalic findfont
dup length dict begin
  {1 index /FID ne {def} {pop pop} ifelse} forall
  /Encoding WinAnsiEncoding def
  currentdict
end
/Times-BoldItalic exch definefont pop
/Courier findfont
dup length dict begin
  {1 index /FID ne {def} {pop pop} ifelse} forall
  /Encoding WinAnsiEncoding def
  currentdict
end
/Courier exch definefont pop
%FOPEndFontReencode
%%EndProlog
%%Page: 1 1
%%PageBoundingBox: 0 0 600 375
%%BeginPageSetup
[1 0 0 -1 0 375] CT
%%EndPageSetup
GS
[0.75 0 0 0.75 0 0] CT
1 GC
N
0 0 800 500 re
f
GR
GS
[0.75 0 0 0.75 0 0] CT
1 GC
N
0 0 800 500 re
f
GR
GS
[0.75 0 0 0.75 0 0] CT
0.941 GC
N
650 445 M
659 445 L
659 37 L
650 37 L
cp
f
GR
GS
[0.75 0 0 0.75 0 0] CT
0.149 GC
2 setlinecap
1 LJ
0.667 LW
N
650 445 M
659 445 L
S
GR
GS
[0.75 0 0 0.75 0 0] CT
0.929 0.694 0.125 RC
2 setlinecap
1 LJ
0.667 LW
N
659 445 M
659 37 L
S
GR
GS
[0.75 0 0 0.75 0 0] CT
0.929 0.694 0.125 RC
2 setlinecap
1 LJ
0.667 LW
N
659 445 M
654.92 445 L
S
GR
GS
[0.75 0 0 0.75 0 0] CT
0.929 0.694 0.125 RC
2 setlinecap
1 LJ
0.667 LW
N
659 377 M
654.92 377 L
S
GR
GS
[0.75 0 0 0.75 0 0] CT
0.929 0.694 0.125 RC
2 setlinecap
1 LJ
0.667 LW
N
659 309 M
654.92 309 L
S
GR
GS
[0.75 0 0 0.75 0 0] CT
0.929 0.694 0.125 RC
2 setlinecap
1 LJ
0.667 LW
N
659 241 M
654.92 241 L
S
GR
GS
[0.75 0 0 0.75 0 0] CT
0.929 0.694 0.125 RC
2 setlinecap
1 LJ
0.667 LW
N
659 173 M
654.92 173 L
S
GR
GS
[0.75 0 0 0.75 0 0] CT
0.929 0.694 0.125 RC
2 setlinecap
1 LJ
0.667 LW
N
659 105 M
654.92 105 L
S
GR
GS
[0.75 0 0 0.75 0 0] CT
0.929 0.694 0.125 RC
2 setlinecap
1 LJ
0.667 LW
N
659 37 M
654.92 37 L
S
GR
GS
[0.75 0 0 0.75 499.05002 333.75] CT
0.929 0.694 0.125 RC
/Helvetica 18.667 F
GS
[1 0 0 1 0 0] CT
0 7 moveto 
1 -1 scale
(-5) t 
GR
GR
GS
[0.75 0 0 0.75 499.05002 282.75] CT
0.929 0.694 0.125 RC
/Helvetica 18.667 F
GS
[1 0 0 1 0 0] CT
0 7 moveto 
1 -1 scale
(0) t 
GR
GR
GS
[0.75 0 0 0.75 499.05002 231.75] CT
0.929 0.694 0.125 RC
/Helvetica 18.667 F
GS
[1 0 0 1 0 0] CT
0 7 moveto 
1 -1 scale
(5) t 
GR
GR
GS
[0.75 0 0 0.75 499.05002 180.75] CT
0.929 0.694 0.125 RC
/Helvetica 18.667 F
GS
[1 0 0 1 0 0] CT
0 7 moveto 
1 -1 scale
(10) t 
GR
GR
GS
[0.75 0 0 0.75 499.05002 129.75] CT
0.929 0.694 0.125 RC
/Helvetica 18.667 F
GS
[1 0 0 1 0 0] CT
0 7 moveto 
1 -1 scale
(15) t 
GR
GR
GS
[0.75 0 0 0.75 499.05002 78.75] CT
0.929 0.694 0.125 RC
/Helvetica 18.667 F
GS
[1 0 0 1 0 0] CT
0 7 moveto 
1 -1 scale
(20) t 
GR
GR
GS
[0.75 0 0 0.75 499.05002 27.75] CT
0.929 0.694 0.125 RC
/Helvetica 18.667 F
GS
[1 0 0 1 0 0] CT
0 7 moveto 
1 -1 scale
(25) t 
GR
GR
GS
[0 -0.75 0.75 0 533.25 199.5] CT
0.929 0.694 0.125 RC
/Helvetica 20.533 F
GS
[1 0 0 1 0 0] CT
0 0 moveto 
1 -1 scale
(I) t 
GR
GR
GS
[0 -0.75 0.75 0 540.75 195] CT
0.929 0.694 0.125 RC
/Helvetica 16.427 F
GS
[1 0 0 1 0 0] CT
0 0 moveto 
1 -1 scale
(D) t 
GR
GR
GS
[0 -0.75 0.75 0 533.25 186] CT
0.929 0.694 0.125 RC
/Helvetica 20.533 F
GS
[1 0 0 1 0 0] CT
0 0 moveto 
1 -1 scale
( / A) t 
GR
GR
GS
[0.75 0 0 0.75 0 0] CT
0.941 GC
N
104 445 M
113 445 L
113 37 L
104 37 L
cp
f
GR
GS
[0.75 0 0 0.75 0 0] CT
0.149 GC
2 setlinecap
1 LJ
0.667 LW
N
104 445 M
113 445 L
S
GR
GS
[0.75 0 0 0.75 0 0] CT
0.494 0.184 0.557 RC
2 setlinecap
1 LJ
0.667 LW
N
104 445 M
104 37 L
S
GR
GS
[0.75 0 0 0.75 0 0] CT
0.494 0.184 0.557 RC
2 setlinecap
1 LJ
0.667 LW
N
104 445 M
108.08 445 L
S
GR
GS
[0.75 0 0 0.75 0 0] CT
0.494 0.184 0.557 RC
2 setlinecap
1 LJ
0.667 LW
N
104 386.714 M
108.08 386.714 L
S
GR
GS
[0.75 0 0 0.75 0 0] CT
0.494 0.184 0.557 RC
2 setlinecap
1 LJ
0.667 LW
N
104 328.429 M
108.08 328.429 L
S
GR
GS
[0.75 0 0 0.75 0 0] CT
0.494 0.184 0.557 RC
2 setlinecap
1 LJ
0.667 LW
N
104 270.143 M
108.08 270.143 L
S
GR
GS
[0.75 0 0 0.75 0 0] CT
0.494 0.184 0.557 RC
2 setlinecap
1 LJ
0.667 LW
N
104 211.857 M
108.08 211.857 L
S
GR
GS
[0.75 0 0 0.75 0 0] CT
0.494 0.184 0.557 RC
2 setlinecap
1 LJ
0.667 LW
N
104 153.571 M
108.08 153.571 L
S
GR
GS
[0.75 0 0 0.75 0 0] CT
0.494 0.184 0.557 RC
2 setlinecap
1 LJ
0.667 LW
N
104 95.286 M
108.08 95.286 L
S
GR
GS
[0.75 0 0 0.75 0 0] CT
0.494 0.184 0.557 RC
2 setlinecap
1 LJ
0.667 LW
N
104 37 M
108.08 37 L
S
GR
GS
[0.75 0 0 0.75 73.2 333.75] CT
0.494 0.184 0.557 RC
/Helvetica 18.667 F
GS
[1 0 0 1 0 0] CT
-38 7 moveto 
1 -1 scale
(-200) t 
GR
GR
GS
[0.75 0 0 0.75 73.2 290.03572] CT
0.494 0.184 0.557 RC
/Helvetica 18.667 F
GS
[1 0 0 1 0 0] CT
-11 7 moveto 
1 -1 scale
(0) t 
GR
GR
GS
[0.75 0 0 0.75 73.2 246.32142] CT
0.494 0.184 0.557 RC
/Helvetica 18.667 F
GS
[1 0 0 1 0 0] CT
-32 7 moveto 
1 -1 scale
(200) t 
GR
GR
GS
[0.75 0 0 0.75 73.2 202.60714] CT
0.494 0.184 0.557 RC
/Helvetica 18.667 F
GS
[1 0 0 1 0 0] CT
-32 7 moveto 
1 -1 scale
(400) t 
GR
GR
GS
[0.75 0 0 0.75 73.2 158.89286] CT
0.494 0.184 0.557 RC
/Helvetica 18.667 F
GS
[1 0 0 1 0 0] CT
-32 7 moveto 
1 -1 scale
(600) t 
GR
GR
GS
[0.75 0 0 0.75 73.2 115.17857] CT
0.494 0.184 0.557 RC
/Helvetica 18.667 F
GS
[1 0 0 1 0 0] CT
-32 7 moveto 
1 -1 scale
(800) t 
GR
GR
GS
[0.75 0 0 0.75 73.2 71.46428] CT
0.494 0.184 0.557 RC
/Helvetica 18.667 F
GS
[1 0 0 1 0 0] CT
-42 7 moveto 
1 -1 scale
(1000) t 
GR
GR
GS
[0.75 0 0 0.75 73.2 27.75] CT
0.494 0.184 0.557 RC
/Helvetica 18.667 F
GS
[1 0 0 1 0 0] CT
-42 7 moveto 
1 -1 scale
(1200) t 
GR
GR
GS
[0 -0.75 0.75 0 28.5 207.75] CT
0.494 0.184 0.557 RC
/Helvetica 20.533 F
GS
[1 0 0 1 0 0] CT
0 0 moveto 
1 -1 scale
(P) t 
GR
GR
GS
[0 -0.75 0.75 0 36 197.25] CT
0.494 0.184 0.557 RC
/Helvetica 16.427 F
GS
[1 0 0 1 0 0] CT
0 0 moveto 
1 -1 scale
(s) t 
GR
GR
GS
[0 -0.75 0.75 0 36 190.5] CT
0.494 0.184 0.557 RC
/Helvetica 16.427 F
GS
[1 0 0 1 0 0] CT
0 0 moveto 
1 -1 scale
(w) t 
GR
GR
GS
[0 -0.75 0.75 0 28.5 181.5] CT
0.494 0.184 0.557 RC
/Helvetica 20.533 F
GS
[1 0 0 1 0 0] CT
0 0 moveto 
1 -1 scale
( / W) t 
GR
GR
GS
[0.75 0 0 0.75 0 0] CT
0.941 GC
N
724 445 M
732 445 L
732 37 L
724 37 L
cp
f
GR
GS
[0.75 0 0 0.75 0 0] CT
0.149 GC
2 setlinecap
1 LJ
0.667 LW
N
724 445 M
732 445 L
S
GR
GS
[0.75 0 0 0.75 0 0] CT
0.467 0.675 0.188 RC
2 setlinecap
1 LJ
0.667 LW
N
732 445 M
732 37 L
S
GR
GS
[0.75 0 0 0.75 0 0] CT
0.467 0.675 0.188 RC
2 setlinecap
1 LJ
0.667 LW
N
732 445 M
727.92 445 L
S
GR
GS
[0.75 0 0 0.75 0 0] CT
0.467 0.675 0.188 RC
2 setlinecap
1 LJ
0.667 LW
N
732 394 M
727.92 394 L
S
GR
GS
[0.75 0 0 0.75 0 0] CT
0.467 0.675 0.188 RC
2 setlinecap
1 LJ
0.667 LW
N
732 343 M
727.92 343 L
S
GR
GS
[0.75 0 0 0.75 0 0] CT
0.467 0.675 0.188 RC
2 setlinecap
1 LJ
0.667 LW
N
732 292 M
727.92 292 L
S
GR
GS
[0.75 0 0 0.75 0 0] CT
0.467 0.675 0.188 RC
2 setlinecap
1 LJ
0.667 LW
N
732 241 M
727.92 241 L
S
GR
GS
[0.75 0 0 0.75 0 0] CT
0.467 0.675 0.188 RC
2 setlinecap
1 LJ
0.667 LW
N
732 190 M
727.92 190 L
S
GR
GS
[0.75 0 0 0.75 0 0] CT
0.467 0.675 0.188 RC
2 setlinecap
1 LJ
0.667 LW
N
732 139 M
727.92 139 L
S
GR
GS
[0.75 0 0 0.75 0 0] CT
0.467 0.675 0.188 RC
2 setlinecap
1 LJ
0.667 LW
N
732 88 M
727.92 88 L
S
GR
GS
[0.75 0 0 0.75 0 0] CT
0.467 0.675 0.188 RC
2 setlinecap
1 LJ
0.667 LW
N
732 37 M
727.92 37 L
S
GR
GS
[0.75 0 0 0.75 553.80002 333.75] CT
0.467 0.675 0.188 RC
/Helvetica 18.667 F
GS
[1 0 0 1 0 0] CT
0 7 moveto 
1 -1 scale
(0) t 
GR
GR
GS
[0.75 0 0 0.75 553.80002 295.5] CT
0.467 0.675 0.188 RC
/Helvetica 18.667 F
GS
[1 0 0 1 0 0] CT
0 7 moveto 
1 -1 scale
(0.5) t 
GR
GR
GS
[0.75 0 0 0.75 553.80002 257.25] CT
0.467 0.675 0.188 RC
/Helvetica 18.667 F
GS
[1 0 0 1 0 0] CT
0 7 moveto 
1 -1 scale
(1) t 
GR
GR
GS
[0.75 0 0 0.75 553.80002 219] CT
0.467 0.675 0.188 RC
/Helvetica 18.667 F
GS
[1 0 0 1 0 0] CT
0 7 moveto 
1 -1 scale
(1.5) t 
GR
GR
GS
[0.75 0 0 0.75 553.80002 180.75] CT
0.467 0.675 0.188 RC
/Helvetica 18.667 F
GS
[1 0 0 1 0 0] CT
0 7 moveto 
1 -1 scale
(2) t 
GR
GR
GS
[0.75 0 0 0.75 553.80002 142.5] CT
0.467 0.675 0.188 RC
/Helvetica 18.667 F
GS
[1 0 0 1 0 0] CT
0 7 moveto 
1 -1 scale
(2.5) t 
GR
GR
GS
[0.75 0 0 0.75 553.80002 104.25] CT
0.467 0.675 0.188 RC
/Helvetica 18.667 F
GS
[1 0 0 1 0 0] CT
0 7 moveto 
1 -1 scale
(3) t 
GR
GR
GS
[0.75 0 0 0.75 553.80002 66] CT
0.467 0.675 0.188 RC
/Helvetica 18.667 F
GS
[1 0 0 1 0 0] CT
0 7 moveto 
1 -1 scale
(3.5) t 
GR
GR
GS
[0.75 0 0 0.75 553.80002 27.75] CT
0.467 0.675 0.188 RC
/Helvetica 18.667 F
GS
[1 0 0 1 0 0] CT
0 7 moveto 
1 -1 scale
(4) t 
GR
GR
GS
[0 -0.75 0.75 0 591.75 210] CT
0.467 0.675 0.188 RC
/Helvetica 20.533 F
GS
[1 0 0 1 0 0] CT
0 0 moveto 
1 -1 scale
(E) t 
GR
GR
GS
[0 -0.75 0.75 0 599.25 199.5] CT
0.467 0.675 0.188 RC
/Helvetica 16.427 F
GS
[1 0 0 1 0 0] CT
0 0 moveto 
1 -1 scale
(s) t 
GR
GR
GS
[0 -0.75 0.75 0 599.25 192.75] CT
0.467 0.675 0.188 RC
/Helvetica 16.427 F
GS
[1 0 0 1 0 0] CT
0 0 moveto 
1 -1 scale
(w) t 
GR
GR
GS
[0 -0.75 0.75 0 591.75 183.75] CT
0.467 0.675 0.188 RC
/Helvetica 20.533 F
GS
[1 0 0 1 0 0] CT
0 0 moveto 
1 -1 scale
( / ) t 
GR
GR
GS
[0 -0.75 0.75 0 591.75 170.25] CT
0.467 0.675 0.188 RC
N
0.578 3.953 M
0.578 3.828 0.609 3.781 QT
3.688 -8.609 L
3.781 -8.906 4.023 -9.094 QT
4.266 -9.281 4.578 -9.281 QT
4.844 -9.281 5.023 -9.125 QT
5.203 -8.969 5.203 -8.703 QT
5.203 -8.641 5.203 -8.602 QT
5.203 -8.563 5.188 -8.516 QT
3.953 -3.609 L
3.75 -2.734 3.75 -2.109 QT
3.75 -1.328 4.117 -0.82 QT
4.484 -0.313 5.234 -0.313 QT
6.75 -0.313 7.922 -2.219 QT
7.922 -2.25 7.93 -2.258 QT
7.938 -2.266 7.938 -2.281 QT
9.453 -8.375 L
9.531 -8.656 9.781 -8.852 QT
10.031 -9.047 10.344 -9.047 QT
10.578 -9.047 10.773 -8.883 QT
10.969 -8.719 10.969 -8.453 QT
10.969 -8.344 10.938 -8.297 QT
9.438 -2.25 L
9.281 -1.656 9.281 -1.219 QT
9.281 -0.313 9.891 -0.313 QT
10.547 -0.313 10.883 -1.125 QT
11.219 -1.938 11.469 -3.094 QT
11.5 -3.203 11.641 -3.203 QT
11.891 -3.203 L
11.969 -3.203 12.023 -3.141 QT
12.078 -3.078 12.078 -3 QT
11.703 -1.531 11.273 -0.648 QT
10.844 0.234 9.859 0.234 QT
9.156 0.234 8.617 -0.164 QT
8.078 -0.563 7.922 -1.234 QT
7.391 -0.578 6.688 -0.172 QT
5.984 0.234 5.203 0.234 QT
3.891 0.234 3.141 -0.375 QT
2.078 3.859 L
2.016 4.156 1.773 4.344 QT
1.531 4.531 1.219 4.531 QT
0.969 4.531 0.773 4.375 QT
0.578 4.219 0.578 3.953 QT
cp
f
GR
GS
[0 -0.75 0.75 0 591.75 160.5] CT
0.467 0.675 0.188 RC
/Helvetica 20.533 F
GS
[1 0 0 1 0 0] CT
0 0 moveto 
1 -1 scale
(J) t 
GR
GR
GS
[0.75 0 0 0.75 0 0] CT
1 GC
N
178 445 M
650 445 L
650 37 L
178 37 L
cp
f
GR
GS
[0.75 0 0 0.75 0 0] CT
0.873 GC
1 LJ
0.667 LW
N
178 445 M
178 37 L
S
GR
GS
[0.75 0 0 0.75 0 0] CT
0.873 GC
1 LJ
0.667 LW
N
253.399 445 M
253.399 37 L
S
GR
GS
[0.75 0 0 0.75 0 0] CT
0.873 GC
1 LJ
0.667 LW
N
328.799 445 M
328.799 37 L
S
GR
GS
[0.75 0 0 0.75 0 0] CT
0.873 GC
1 LJ
0.667 LW
N
404.198 445 M
404.198 37 L
S
GR
GS
[0.75 0 0 0.75 0 0] CT
0.873 GC
1 LJ
0.667 LW
N
479.597 445 M
479.597 37 L
S
GR
GS
[0.75 0 0 0.75 0 0] CT
0.873 GC
1 LJ
0.667 LW
N
554.997 445 M
554.997 37 L
S
GR
GS
[0.75 0 0 0.75 0 0] CT
0.873 GC
1 LJ
0.667 LW
N
630.396 445 M
630.396 37 L
S
GR
GS
[0.75 0 0 0.75 0 0] CT
0.873 GC
1 LJ
0.667 LW
N
650 445 M
178 445 L
S
GR
GS
[0.75 0 0 0.75 0 0] CT
0.873 GC
1 LJ
0.667 LW
N
650 377 M
178 377 L
S
GR
GS
[0.75 0 0 0.75 0 0] CT
0.873 GC
1 LJ
0.667 LW
N
650 309 M
178 309 L
S
GR
GS
[0.75 0 0 0.75 0 0] CT
0.873 GC
1 LJ
0.667 LW
N
650 241 M
178 241 L
S
GR
GS
[0.75 0 0 0.75 0 0] CT
0.873 GC
1 LJ
0.667 LW
N
650 173 M
178 173 L
S
GR
GS
[0.75 0 0 0.75 0 0] CT
0.873 GC
1 LJ
0.667 LW
N
650 105 M
178 105 L
S
GR
GS
[0.75 0 0 0.75 0 0] CT
0.873 GC
1 LJ
0.667 LW
N
650 37 M
178 37 L
S
GR
GS
[0.75 0 0 0.75 0 0] CT
0.149 GC
2 setlinecap
1 LJ
0.667 LW
N
178 445 M
650 445 L
S
GR
GS
[0.75 0 0 0.75 0 0] CT
0.149 GC
2 setlinecap
1 LJ
0.667 LW
N
178 445 M
178 440.28 L
S
GR
GS
[0.75 0 0 0.75 0 0] CT
0.149 GC
2 setlinecap
1 LJ
0.667 LW
N
253.399 445 M
253.399 440.28 L
S
GR
GS
[0.75 0 0 0.75 0 0] CT
0.149 GC
2 setlinecap
1 LJ
0.667 LW
N
328.799 445 M
328.799 440.28 L
S
GR
GS
[0.75 0 0 0.75 0 0] CT
0.149 GC
2 setlinecap
1 LJ
0.667 LW
N
404.198 445 M
404.198 440.28 L
S
GR
GS
[0.75 0 0 0.75 0 0] CT
0.149 GC
2 setlinecap
1 LJ
0.667 LW
N
479.597 445 M
479.597 440.28 L
S
GR
GS
[0.75 0 0 0.75 0 0] CT
0.149 GC
2 setlinecap
1 LJ
0.667 LW
N
554.997 445 M
554.997 440.28 L
S
GR
GS
[0.75 0 0 0.75 0 0] CT
0.149 GC
2 setlinecap
1 LJ
0.667 LW
N
630.396 445 M
630.396 440.28 L
S
GR
GS
[0.75 0 0 0.75 133.5 338.55] CT
0.149 GC
/Helvetica 18.667 F
GS
[1 0 0 1 0 0] CT
-5.5 19 moveto 
1 -1 scale
(0) t 
GR
GR
GS
[0.75 0 0 0.75 190.04953 338.55] CT
0.149 GC
/Helvetica 18.667 F
GS
[1 0 0 1 0 0] CT
-10.5 19 moveto 
1 -1 scale
(20) t 
GR
GR
GS
[0.75 0 0 0.75 246.59905 338.55] CT
0.149 GC
/Helvetica 18.667 F
GS
[1 0 0 1 0 0] CT
-10.5 19 moveto 
1 -1 scale
(40) t 
GR
GR
GS
[0.75 0 0 0.75 303.14857 338.55] CT
0.149 GC
/Helvetica 18.667 F
GS
[1 0 0 1 0 0] CT
-10.5 19 moveto 
1 -1 scale
(60) t 
GR
GR
GS
[0.75 0 0 0.75 359.69808 338.55] CT
0.149 GC
/Helvetica 18.667 F
GS
[1 0 0 1 0 0] CT
-10.5 19 moveto 
1 -1 scale
(80) t 
GR
GR
GS
[0.75 0 0 0.75 416.24762 338.55] CT
0.149 GC
/Helvetica 18.667 F
GS
[1 0 0 1 0 0] CT
-16 19 moveto 
1 -1 scale
(100) t 
GR
GR
GS
[0.75 0 0 0.75 472.79713 338.55] CT
0.149 GC
/Helvetica 18.667 F
GS
[1 0 0 1 0 0] CT
-16 19 moveto 
1 -1 scale
(120) t 
GR
GR
GS
[0.75 0 0 0.75 310.50016 357.55] CT
0.149 GC
/Helvetica 20.533 F
GS
[1 0 0 1 0 0] CT
-42.5 21 moveto 
1 -1 scale
(Time / ns) t 
GR
GR
GS
[0.75 0 0 0.75 0 0] CT
0.149 GC
2 setlinecap
1 LJ
0.667 LW
N
178 445 M
178 37 L
S
GR
GS
[0.75 0 0 0.75 0 0] CT
0.149 GC
2 setlinecap
1 LJ
0.667 LW
N
178 445 M
182.72 445 L
S
GR
GS
[0.75 0 0 0.75 0 0] CT
0.149 GC
2 setlinecap
1 LJ
0.667 LW
N
178 377 M
182.72 377 L
S
GR
GS
[0.75 0 0 0.75 0 0] CT
0.149 GC
2 setlinecap
1 LJ
0.667 LW
N
178 309 M
182.72 309 L
S
GR
GS
[0.75 0 0 0.75 0 0] CT
0.149 GC
2 setlinecap
1 LJ
0.667 LW
N
178 241 M
182.72 241 L
S
GR
GS
[0.75 0 0 0.75 0 0] CT
0.149 GC
2 setlinecap
1 LJ
0.667 LW
N
178 173 M
182.72 173 L
S
GR
GS
[0.75 0 0 0.75 0 0] CT
0.149 GC
2 setlinecap
1 LJ
0.667 LW
N
178 105 M
182.72 105 L
S
GR
GS
[0.75 0 0 0.75 0 0] CT
0.149 GC
2 setlinecap
1 LJ
0.667 LW
N
178 37 M
182.72 37 L
S
GR
GS
[0.75 0 0 0.75 128.7 333.75] CT
0.149 GC
/Helvetica 18.667 F
GS
[1 0 0 1 0 0] CT
-11 7 moveto 
1 -1 scale
(0) t 
GR
GR
GS
[0.75 0 0 0.75 128.7 282.75] CT
0.149 GC
/Helvetica 18.667 F
GS
[1 0 0 1 0 0] CT
-21 7 moveto 
1 -1 scale
(10) t 
GR
GR
GS
[0.75 0 0 0.75 128.7 231.75] CT
0.149 GC
/Helvetica 18.667 F
GS
[1 0 0 1 0 0] CT
-21 7 moveto 
1 -1 scale
(20) t 
GR
GR
GS
[0.75 0 0 0.75 128.7 180.75] CT
0.149 GC
/Helvetica 18.667 F
GS
[1 0 0 1 0 0] CT
-21 7 moveto 
1 -1 scale
(30) t 
GR
GR
GS
[0.75 0 0 0.75 128.7 129.75] CT
0.149 GC
/Helvetica 18.667 F
GS
[1 0 0 1 0 0] CT
-21 7 moveto 
1 -1 scale
(40) t 
GR
GR
GS
[0.75 0 0 0.75 128.7 78.75] CT
0.149 GC
/Helvetica 18.667 F
GS
[1 0 0 1 0 0] CT
-21 7 moveto 
1 -1 scale
(50) t 
GR
GR
GS
[0.75 0 0 0.75 128.7 27.75] CT
0.149 GC
/Helvetica 18.667 F
GS
[1 0 0 1 0 0] CT
-21 7 moveto 
1 -1 scale
(60) t 
GR
GR
GS
[0 -0.75 0.75 0 99.75 206.25] CT
0.149 GC
/Helvetica 20.533 F
GS
[1 0 0 1 0 0] CT
0 0 moveto 
1 -1 scale
(V) t 
GR
GR
GS
[0 -0.75 0.75 0 107.25 195.75] CT
0.149 GC
/Helvetica 16.427 F
GS
[1 0 0 1 0 0] CT
0 0 moveto 
1 -1 scale
(D) t 
GR
GR
GS
[0 -0.75 0.75 0 107.25 186.75] CT
0.149 GC
/Helvetica 16.427 F
GS
[1 0 0 1 0 0] CT
0 0 moveto 
1 -1 scale
(S) t 
GR
GR
GS
[0 -0.75 0.75 0 99.75 178.5] CT
0.149 GC
/Helvetica 20.533 F
GS
[1 0 0 1 0 0] CT
0 0 moveto 
1 -1 scale
( / V) t 
GR
GR
GS
[0.75 0 0 0.75 0 0] CT
0.851 0.325 0.098 RC
1 LJ
2 LW
N
177.944 81.739 M
178.754 81.886 L
180.262 81.705 L
181.77 81.705 L
183.278 81.796 L
184.786 81.796 L
186.294 81.887 L
187.802 81.887 L
189.31 81.887 L
190.818 81.886 L
192.326 81.796 L
193.834 81.886 L
195.342 81.795 L
196.85 81.795 L
198.358 81.795 L
199.866 81.704 L
201.374 81.795 L
202.882 81.613 L
204.39 81.613 L
205.898 81.613 L
207.406 81.613 L
208.914 81.522 L
210.422 81.34 L
211.93 81.522 L
213.438 81.612 L
214.946 81.613 L
216.454 81.703 L
217.962 81.522 L
219.47 81.521 L
220.978 81.612 L
222.486 81.612 L
223.994 81.431 L
225.502 81.612 L
227.01 81.793 L
228.518 81.702 L
230.026 81.702 L
231.534 81.521 L
233.042 81.612 L
234.55 81.611 L
236.058 81.702 L
237.565 81.793 L
239.073 81.612 L
240.581 81.612 L
242.089 81.612 L
243.597 81.793 L
245.105 81.884 L
246.613 81.884 L
248.121 81.975 L
249.629 82.066 L
251.137 82.066 L
252.645 82.248 L
254.153 82.248 L
255.661 82.338 L
257.169 82.248 L
258.677 82.157 L
260.185 82.248 L
261.693 82.339 L
263.201 82.339 L
264.709 82.339 L
266.217 82.339 L
267.725 82.43 L
269.233 82.43 L
270.741 82.521 L
272.249 82.43 L
273.757 82.43 L
275.265 82.43 L
276.773 82.52 L
278.281 82.43 L
279.789 82.43 L
281.297 82.43 L
282.805 82.43 L
284.313 82.52 L
285.821 82.611 L
287.329 82.793 L
288.837 82.612 L
290.345 82.612 L
291.853 82.612 L
293.361 82.521 L
294.869 82.521 L
296.377 82.521 L
297.885 82.43 L
299.393 82.521 L
300.901 82.43 L
302.409 82.52 L
303.917 82.52 L
305.425 82.611 L
306.933 82.611 L
308.441 82.701 L
309.949 82.701 L
311.457 82.61 L
312.965 82.519 L
314.473 82.61 L
315.981 82.519 L
317.489 82.338 L
318.997 82.338 L
320.505 82.338 L
322.013 82.338 L
323.521 82.338 L
325.029 82.338 L
326.537 82.338 L
328.045 82.338 L
329.553 82.429 L
331.061 82.429 L
332.569 82.247 L
334.077 82.338 L
335.585 82.338 L
337.093 82.247 L
338.601 82.338 L
340.109 82.247 L
341.617 82.337 L
343.125 82.428 L
344.633 82.519 L
346.141 82.972 L
347.649 83.335 L
349.157 83.607 L
350.665 83.97 L
352.173 84.423 L
353.681 84.967 L
355.189 85.602 L
356.697 86.237 L
358.204 87.144 L
359.712 87.87 L
361.22 88.867 L
362.728 89.955 L
364.236 91.225 L
365.744 92.766 L
367.252 94.76 L
368.76 97.027 L
370.268 99.838 L
371.776 102.831 L
373.284 106.275 L
374.792 109.993 L
376.3 113.982 L
377.808 118.335 L
379.316 122.959 L
380.824 127.764 L
382.332 132.841 L
383.84 138.009 L
385.348 143.631 L
386.856 149.252 L
388.364 155.146 L
389.872 161.311 L
391.38 167.385 L
392.888 173.642 L
394.396 180.532 L
395.904 187.332 L
397.412 194.313 L
398.92 201.385 L
400.428 208.729 L
401.936 216.163 L
403.444 223.689 L
404.952 231.396 L
406.46 238.921 L
407.968 246.809 L
409.476 254.516 L
410.984 262.132 L
412.492 269.203 L
414 276.366 L
415.508 282.985 L
417.016 289.694 L
418.524 295.951 L
420.032 302.025 L
421.54 307.828 L
423.048 313.45 L
424.556 318.799 L
426.064 324.057 L
427.572 329.315 L
429.08 334.483 L
430.588 339.288 L
432.096 344.093 L
433.604 348.536 L
435.112 353.07 L
436.62 357.512 L
438.128 361.773 L
439.636 365.491 L
441.144 369.117 L
442.652 372.835 L
444.16 376.37 L
445.668 379.725 L
447.176 382.989 L
448.684 385.89 L
450.192 388.882 L
451.7 391.874 L
453.208 394.412 L
454.716 397.041 L
456.224 399.399 L
457.732 401.847 L
459.24 404.113 L
460.748 406.289 L
462.256 408.193 L
463.764 410.097 L
465.272 411.91 L
466.78 413.814 L
468.288 415.718 L
469.796 417.441 L
471.304 419.164 L
472.811 420.796 L
474.319 422.338 L
475.827 423.88 L
477.335 425.331 L
478.843 426.782 L
480.351 427.869 L
481.859 428.958 L
483.367 430.046 L
484.875 431.043 L
486.383 432.041 L
487.891 432.856 L
489.399 433.582 L
490.907 434.126 L
492.415 434.851 L
493.923 435.486 L
495.431 436.03 L
496.939 436.302 L
498.447 436.937 L
499.955 437.3 L
501.463 437.663 L
502.971 438.116 L
504.479 438.388 L
505.987 438.66 L
507.495 438.751 L
509.003 439.022 L
510.511 439.203 L
512.019 439.475 L
513.527 439.566 L
515.035 439.837 L
516.543 439.928 L
518.051 439.837 L
519.559 440.018 L
521.067 440.109 L
522.575 440.109 L
524.083 440.108 L
525.591 440.199 L
527.099 440.29 L
528.607 440.108 L
530.115 440.29 L
531.623 440.289 L
533.131 440.29 L
534.639 440.289 L
536.147 440.289 L
537.655 440.289 L
539.163 440.561 L
540.671 440.471 L
542.179 440.562 L
543.687 440.562 L
545.195 440.561 L
546.703 440.743 L
548.211 440.743 L
549.719 440.924 L
551.227 441.015 L
552.735 441.287 L
554.243 441.287 L
555.751 441.287 L
557.259 441.378 L
558.767 441.469 L
560.275 441.469 L
561.783 441.469 L
563.291 441.559 L
564.799 441.469 L
566.307 441.378 L
567.815 441.378 L
569.323 441.469 L
570.831 441.47 L
572.339 441.379 L
573.847 441.56 L
575.355 441.379 L
576.863 441.47 L
578.371 441.469 L
579.879 441.651 L
581.387 441.651 L
582.895 441.651 L
584.403 441.379 L
585.911 441.378 L
587.419 441.469 L
588.927 441.288 L
590.435 441.288 L
591.943 441.378 L
593.45 441.287 L
594.958 441.197 L
596.466 441.106 L
597.974 441.106 L
599.482 441.287 L
600.99 441.469 L
602.498 441.378 L
604.006 441.378 L
605.514 441.468 L
607.022 441.468 L
608.53 441.559 L
610.038 441.65 L
611.546 441.831 L
613.054 441.922 L
614.562 441.922 L
616.07 441.921 L
617.578 441.922 L
619.086 442.012 L
620.594 442.103 L
622.102 442.103 L
623.61 442.194 L
625.118 441.923 L
626.626 442.013 L
628.134 442.104 L
629.642 442.104 L
631.15 442.104 L
632.658 442.014 L
634.166 442.195 L
635.674 442.195 L
637.182 442.105 L
638.69 442.105 L
640.198 442.105 L
641.706 442.105 L
643.214 441.924 L
644.722 441.833 L
646.23 441.924 L
647.738 441.924 L
649.246 441.833 L
650.056 441.785 L
S
GR
GS
[0.75 0 0 0.75 0 0] CT
0.929 0.694 0.125 RC
1 LJ
2 LW
N
177.944 332.661 M
178.754 332.632 L
180.262 332.741 L
181.77 332.632 L
183.278 332.687 L
184.786 332.687 L
186.294 332.633 L
187.802 332.796 L
189.31 332.741 L
190.818 332.687 L
192.326 332.523 L
193.834 332.577 L
195.342 332.577 L
196.85 332.523 L
198.358 332.414 L
199.866 332.414 L
201.374 332.468 L
202.882 332.631 L
204.39 332.577 L
205.898 332.522 L
207.406 332.413 L
208.914 332.413 L
210.422 332.304 L
211.93 332.249 L
213.438 332.249 L
214.946 332.14 L
216.454 332.14 L
217.962 332.14 L
219.47 331.977 L
220.978 331.977 L
222.486 331.814 L
223.994 331.977 L
225.502 331.814 L
227.01 331.922 L
228.518 331.759 L
230.026 331.814 L
231.534 331.759 L
233.042 331.813 L
234.55 331.759 L
236.058 331.705 L
237.565 331.759 L
239.073 331.705 L
240.581 331.759 L
242.089 331.704 L
243.597 331.65 L
245.105 331.758 L
246.613 331.759 L
248.121 331.65 L
249.629 331.541 L
251.137 331.432 L
252.645 331.541 L
254.153 331.486 L
255.661 331.323 L
257.169 331.269 L
258.677 331.323 L
260.185 331.269 L
261.693 331.378 L
263.201 331.324 L
264.709 331.324 L
266.217 331.16 L
267.725 331.16 L
269.233 331.215 L
270.741 331.269 L
272.249 331.106 L
273.757 330.997 L
275.265 331.215 L
276.773 331.106 L
278.281 331.16 L
279.789 331.214 L
281.297 331.323 L
282.805 331.541 L
284.313 331.432 L
285.821 331.541 L
287.329 331.487 L
288.837 331.432 L
290.345 331.541 L
291.853 331.596 L
293.361 331.596 L
294.869 331.596 L
296.377 331.596 L
297.885 331.65 L
299.393 331.705 L
300.901 331.596 L
302.409 331.705 L
303.917 331.542 L
305.425 331.487 L
306.933 331.379 L
308.441 331.27 L
309.949 331.215 L
311.457 331.269 L
312.965 331.269 L
314.473 331.378 L
315.981 331.432 L
317.489 331.541 L
318.997 331.541 L
320.505 331.759 L
322.013 331.705 L
323.521 331.705 L
325.029 331.814 L
326.537 331.65 L
328.045 331.651 L
329.553 331.651 L
331.061 331.705 L
332.569 331.759 L
334.077 331.814 L
335.585 331.814 L
337.093 331.868 L
338.601 331.759 L
340.109 331.705 L
341.617 331.868 L
343.125 331.759 L
344.633 331.596 L
346.141 331.269 L
347.649 331.052 L
349.157 330.508 L
350.665 330.182 L
352.173 329.692 L
353.681 329.04 L
355.189 328.441 L
356.697 327.68 L
358.204 327.027 L
359.712 326.157 L
361.22 325.014 L
362.728 323.926 L
364.236 322.729 L
365.744 321.587 L
367.252 320.39 L
368.76 319.194 L
370.268 318.215 L
371.776 317.018 L
373.284 315.985 L
374.792 314.842 L
376.3 313.754 L
377.808 312.666 L
379.316 311.47 L
380.824 310.218 L
382.332 309.185 L
383.84 307.988 L
385.348 306.845 L
386.856 305.431 L
388.364 303.962 L
389.872 302.874 L
391.38 301.84 L
392.888 300.698 L
394.396 299.719 L
395.904 298.849 L
397.412 298.141 L
398.92 297.543 L
400.428 297.162 L
401.936 296.618 L
403.444 296.129 L
404.952 295.639 L
406.46 295.476 L
407.968 295.204 L
409.476 294.878 L
410.984 294.878 L
412.492 294.66 L
414 294.497 L
415.508 294.497 L
417.016 294.388 L
418.524 294.388 L
420.032 294.551 L
421.54 294.66 L
423.048 294.551 L
424.556 294.225 L
426.064 294.007 L
427.572 293.844 L
429.08 293.735 L
430.588 293.191 L
432.096 292.864 L
433.604 292.374 L
435.112 292.103 L
436.62 291.504 L
438.128 291.232 L
439.636 290.634 L
441.144 290.035 L
442.652 289.546 L
444.16 289.002 L
445.668 288.349 L
447.176 287.642 L
448.684 286.989 L
450.192 286.282 L
451.7 285.738 L
453.208 285.085 L
454.716 284.432 L
456.224 283.507 L
457.732 282.909 L
459.24 282.256 L
460.748 281.712 L
462.256 281.059 L
463.764 280.569 L
465.272 280.025 L
466.78 279.481 L
468.288 278.937 L
469.796 278.339 L
471.304 277.741 L
472.811 277.034 L
474.319 276.272 L
475.827 275.782 L
477.335 275.13 L
478.843 274.477 L
480.351 273.878 L
481.859 273.062 L
483.367 272.301 L
484.875 271.593 L
486.383 270.886 L
487.891 270.179 L
489.399 269.472 L
490.907 268.765 L
492.415 267.949 L
493.923 266.97 L
495.431 266.045 L
496.939 265.12 L
498.447 264.25 L
499.955 263.434 L
501.463 262.292 L
502.971 261.367 L
504.479 260.333 L
505.987 259.463 L
507.495 258.429 L
509.003 257.504 L
510.511 256.58 L
512.019 255.763 L
513.527 254.839 L
515.035 253.805 L
516.543 252.989 L
518.051 252.228 L
519.559 251.466 L
521.067 250.705 L
522.575 249.834 L
524.083 249.235 L
525.591 248.365 L
527.099 247.767 L
528.607 247.168 L
530.115 246.461 L
531.623 245.863 L
533.131 245.319 L
534.639 244.557 L
536.147 243.85 L
537.655 243.306 L
539.163 242.544 L
540.671 241.892 L
542.179 241.185 L
543.687 240.478 L
545.195 239.662 L
546.703 238.791 L
548.211 238.193 L
549.719 237.376 L
551.227 236.615 L
552.735 235.962 L
554.243 235.255 L
555.751 234.656 L
557.259 234.221 L
558.767 233.677 L
560.275 233.133 L
561.783 232.589 L
563.291 231.99 L
564.799 231.501 L
566.307 231.011 L
567.815 230.576 L
569.323 230.25 L
570.831 229.815 L
572.339 229.27 L
573.847 228.999 L
575.355 228.618 L
576.863 228.237 L
578.371 227.747 L
579.879 227.258 L
581.387 226.823 L
582.895 226.333 L
584.403 225.571 L
585.911 225.19 L
587.419 224.592 L
588.927 224.211 L
590.435 223.885 L
591.943 223.449 L
593.45 222.96 L
594.958 222.524 L
596.466 222.034 L
597.974 221.545 L
599.482 221.164 L
600.99 220.62 L
602.498 220.076 L
604.006 219.641 L
605.514 219.042 L
607.022 218.553 L
608.53 218.063 L
610.038 217.737 L
611.546 217.193 L
613.054 216.704 L
614.562 216.16 L
616.07 215.561 L
617.578 214.854 L
619.086 214.256 L
620.594 213.549 L
622.102 212.733 L
623.61 212.189 L
625.118 211.373 L
626.626 210.666 L
628.134 209.959 L
629.642 209.197 L
631.15 208.49 L
632.658 207.62 L
634.166 206.749 L
635.674 205.988 L
637.182 205.389 L
638.69 204.519 L
640.198 203.866 L
641.706 203.213 L
643.214 202.343 L
644.722 201.745 L
646.23 201.364 L
647.738 200.983 L
649.246 200.603 L
650.056 200.515 L
S
GR
GS
[0.75 0 0 0.75 0 0] CT
0.494 0.184 0.557 RC
1 LJ
2 LW
N
177.944 335.958 M
178.754 335.945 L
180.262 336.045 L
181.77 335.92 L
183.278 335.995 L
184.786 335.996 L
186.294 335.946 L
187.802 336.133 L
189.31 336.071 L
190.818 336.008 L
192.326 335.808 L
193.834 335.883 L
195.342 335.87 L
196.85 335.808 L
198.358 335.683 L
199.866 335.67 L
201.374 335.745 L
202.882 335.906 L
204.39 335.844 L
205.898 335.781 L
207.406 335.656 L
208.914 335.643 L
210.422 335.493 L
211.93 335.456 L
213.438 335.469 L
214.946 335.344 L
216.454 335.357 L
217.962 335.331 L
219.47 335.144 L
220.978 335.157 L
222.486 334.97 L
223.994 335.131 L
225.502 334.97 L
227.01 335.12 L
228.518 334.92 L
230.026 334.983 L
231.534 334.895 L
233.042 334.97 L
234.55 334.907 L
236.058 334.858 L
237.565 334.933 L
239.073 334.845 L
240.581 334.907 L
242.089 334.845 L
243.597 334.808 L
245.105 334.945 L
246.613 334.946 L
248.121 334.834 L
249.629 334.723 L
251.137 334.598 L
252.645 334.749 L
254.153 334.686 L
255.661 334.513 L
257.169 334.438 L
258.677 334.487 L
260.185 334.438 L
261.693 334.575 L
263.201 334.513 L
264.709 334.513 L
266.217 334.327 L
267.725 334.34 L
269.233 334.402 L
270.741 334.477 L
272.249 334.278 L
273.757 334.153 L
275.265 334.402 L
276.773 334.291 L
278.281 334.34 L
279.789 334.402 L
281.297 334.526 L
282.805 334.775 L
284.313 334.664 L
285.821 334.801 L
287.329 334.765 L
288.837 334.677 L
290.345 334.801 L
291.853 334.864 L
293.361 334.851 L
294.869 334.851 L
296.377 334.851 L
297.885 334.9 L
299.393 334.975 L
300.901 334.838 L
302.409 334.975 L
303.917 334.789 L
305.425 334.739 L
306.933 334.615 L
308.441 334.504 L
309.949 334.442 L
311.457 334.491 L
312.965 334.477 L
314.473 334.614 L
315.981 334.664 L
317.489 334.762 L
318.997 334.762 L
320.505 335.011 L
322.013 334.949 L
323.521 334.949 L
325.029 335.073 L
326.537 334.887 L
328.045 334.887 L
329.553 334.9 L
331.061 334.962 L
332.569 334.998 L
334.077 335.073 L
335.585 335.073 L
337.093 335.123 L
338.601 335.011 L
340.109 334.936 L
341.617 335.135 L
343.125 335.024 L
344.633 334.85 L
346.141 334.543 L
347.649 334.347 L
349.157 333.767 L
350.665 333.449 L
352.173 332.96 L
353.681 332.3 L
355.189 331.719 L
356.697 330.955 L
358.204 330.36 L
359.712 329.495 L
361.22 328.372 L
362.728 327.333 L
364.236 326.211 L
365.744 325.207 L
367.252 324.234 L
368.76 323.327 L
370.268 322.774 L
371.776 322.038 L
373.284 321.586 L
374.792 321.094 L
376.3 320.741 L
377.808 320.489 L
379.316 320.212 L
380.824 319.953 L
382.332 320.005 L
383.84 319.951 L
385.348 320.089 L
386.856 320.014 L
388.364 320.001 L
389.872 320.447 L
391.38 320.962 L
392.888 321.467 L
394.396 322.308 L
395.904 323.257 L
397.412 324.418 L
398.92 325.716 L
400.428 327.271 L
401.936 328.749 L
403.444 330.314 L
404.952 331.948 L
406.46 333.772 L
407.968 335.629 L
409.476 337.419 L
410.984 339.39 L
412.492 341.1 L
414 342.871 L
415.508 344.592 L
417.016 346.283 L
418.524 347.912 L
420.032 349.567 L
421.54 351.122 L
423.048 352.535 L
424.556 353.795 L
426.064 355.084 L
427.572 356.4 L
429.08 357.716 L
430.588 358.795 L
432.096 359.96 L
433.604 360.99 L
435.112 362.12 L
436.62 363.143 L
438.128 364.22 L
439.636 365.075 L
441.144 365.919 L
442.652 366.826 L
444.16 367.683 L
445.668 368.479 L
447.176 369.253 L
448.684 369.948 L
450.192 370.672 L
451.7 371.436 L
453.208 372.062 L
454.716 372.724 L
456.224 373.279 L
457.732 373.919 L
459.24 374.507 L
460.748 375.09 L
462.256 375.586 L
463.764 376.108 L
465.272 376.602 L
466.78 377.131 L
468.288 377.666 L
469.796 378.146 L
471.304 378.633 L
472.811 379.09 L
474.319 379.521 L
475.827 379.978 L
477.335 380.4 L
478.843 380.828 L
480.351 381.147 L
481.859 381.46 L
483.367 381.78 L
484.875 382.078 L
486.383 382.381 L
487.891 382.626 L
489.399 382.845 L
490.907 383.005 L
492.415 383.227 L
493.923 383.415 L
495.431 383.578 L
496.939 383.648 L
498.447 383.849 L
499.955 383.959 L
501.463 384.062 L
502.971 384.206 L
504.479 384.283 L
505.987 384.366 L
507.495 384.379 L
509.003 384.463 L
510.511 384.515 L
512.019 384.603 L
513.527 384.622 L
515.035 384.71 L
516.543 384.732 L
518.051 384.684 L
519.559 384.744 L
521.067 384.768 L
522.575 384.754 L
524.083 384.745 L
525.591 384.768 L
527.099 384.796 L
528.607 384.713 L
530.115 384.777 L
531.623 384.768 L
533.131 384.76 L
534.639 384.748 L
536.147 384.738 L
537.655 384.73 L
539.163 384.834 L
540.671 384.786 L
542.179 384.815 L
543.687 384.805 L
545.195 384.793 L
546.703 384.86 L
548.211 384.852 L
549.719 384.921 L
551.227 384.951 L
552.735 385.064 L
554.243 385.056 L
555.751 385.049 L
557.259 385.085 L
558.767 385.119 L
560.275 385.113 L
561.783 385.107 L
563.291 385.142 L
564.799 385.095 L
566.307 385.048 L
567.815 385.043 L
569.323 385.082 L
570.831 385.077 L
572.339 385.028 L
573.847 385.11 L
575.355 385.021 L
576.863 385.059 L
578.371 385.054 L
579.879 385.134 L
581.387 385.129 L
582.895 385.124 L
584.403 384.986 L
585.911 384.982 L
587.419 385.018 L
588.927 384.927 L
590.435 384.923 L
591.943 384.962 L
593.45 384.912 L
594.958 384.863 L
596.466 384.813 L
597.974 384.807 L
599.482 384.891 L
600.99 384.974 L
602.498 384.923 L
604.006 384.918 L
605.514 384.956 L
607.022 384.951 L
608.53 384.991 L
610.038 385.033 L
611.546 385.118 L
613.054 385.159 L
614.562 385.154 L
616.07 385.148 L
617.578 385.141 L
619.086 385.182 L
620.594 385.222 L
622.102 385.215 L
623.61 385.257 L
625.118 385.108 L
626.626 385.149 L
628.134 385.19 L
629.642 385.183 L
631.15 385.177 L
632.658 385.12 L
634.166 385.209 L
635.674 385.203 L
637.182 385.149 L
638.69 385.141 L
640.198 385.135 L
641.706 385.129 L
643.214 385.021 L
644.722 384.965 L
646.23 385.012 L
647.738 385.008 L
649.246 384.954 L
650.056 384.926 L
S
GR
GS
[0.75 0 0 0.75 0 0] CT
0.467 0.675 0.188 RC
[8 8] 0 setdash
2 LJ
2 LW
N
366.498 445 M
368.006 436.189 L
369.514 427.276 L
371.022 418.273 L
372.53 409.187 L
374.038 400.034 L
375.546 390.823 L
377.054 381.569 L
378.562 372.278 L
380.07 362.95 L
381.578 353.607 L
383.086 344.264 L
384.594 334.926 L
386.102 325.594 L
387.61 316.255 L
389.118 306.946 L
390.626 297.705 L
392.134 288.535 L
393.642 279.459 L
395.15 270.508 L
396.658 261.706 L
398.166 253.075 L
399.674 244.644 L
401.182 236.426 L
402.69 228.42 L
404.198 220.638 L
405.706 213.099 L
407.214 205.817 L
408.722 198.79 L
410.23 192.027 L
411.738 185.521 L
413.246 179.259 L
414.754 173.242 L
416.262 167.463 L
417.77 161.916 L
419.278 156.6 L
420.786 151.508 L
422.294 146.624 L
423.802 141.927 L
425.31 137.409 L
426.818 133.073 L
428.326 128.921 L
429.834 124.937 L
431.342 121.109 L
432.85 117.436 L
434.358 113.914 L
435.866 110.542 L
437.374 107.317 L
438.882 104.228 L
440.39 101.258 L
441.898 98.41 L
443.406 95.686 L
444.914 93.077 L
446.422 90.578 L
447.93 88.182 L
449.438 85.885 L
450.946 83.693 L
452.454 81.598 L
453.962 79.593 L
455.47 77.673 L
456.978 75.837 L
458.486 74.087 L
459.994 72.418 L
461.502 70.826 L
S
GR
GS
[0.75 0 0 0.75 0 0] CT
1 GC
N
639 165 M
639 48 L
557 48 L
557 165 L
cp
f
GR
GS
[0.75 0 0 0.75 453 50.25] CT
/Helvetica 16.8 F
GS
[1 0 0 1 0 0] CT
0 0 moveto 
1 -1 scale
(V) t 
GR
GR
GS
[0.75 0 0 0.75 462 56.25] CT
/Helvetica 13.44 F
GS
[1 0 0 1 0 0] CT
0 0 moveto 
1 -1 scale
(D) t 
GR
GR
GS
[0.75 0 0 0.75 469.5 56.25] CT
/Helvetica 13.44 F
GS
[1 0 0 1 0 0] CT
0 0 moveto 
1 -1 scale
(S) t 
GR
GR
GS
[0.75 0 0 0.75 0 0] CT
0.851 0.325 0.098 RC
1 LJ
2 LW
N
561 63.932 M
601 63.932 L
S
GR
GS
[0.75 0 0 0.75 453 71.25] CT
/Helvetica 16.8 F
GS
[1 0 0 1 0 0] CT
0 0 moveto 
1 -1 scale
(I) t 
GR
GR
GS
[0.75 0 0 0.75 456.75 77.25] CT
/Helvetica 13.44 F
GS
[1 0 0 1 0 0] CT
0 0 moveto 
1 -1 scale
(D) t 
GR
GR
GS
[0.75 0 0 0.75 0 0] CT
0.929 0.694 0.125 RC
1 LJ
2 LW
N
561 92.311 M
601 92.311 L
S
GR
GS
[0.75 0 0 0.75 453 93] CT
/Helvetica 16.8 F
GS
[1 0 0 1 0 0] CT
0 0 moveto 
1 -1 scale
(P) t 
GR
GR
GS
[0.75 0 0 0.75 462 99] CT
/Helvetica 13.44 F
GS
[1 0 0 1 0 0] CT
0 0 moveto 
1 -1 scale
(s) t 
GR
GR
GS
[0.75 0 0 0.75 467.25 99] CT
/Helvetica 13.44 F
GS
[1 0 0 1 0 0] CT
0 0 moveto 
1 -1 scale
(w) t 
GR
GR
GS
[0.75 0 0 0.75 0 0] CT
0.494 0.184 0.557 RC
1 LJ
2 LW
N
561 120.689 M
601 120.689 L
S
GR
GS
[0.75 0 0 0.75 453 114] CT
/Helvetica 16.8 F
GS
[1 0 0 1 0 0] CT
0 0 moveto 
1 -1 scale
(E) t 
GR
GR
GS
[0.75 0 0 0.75 462 120] CT
/Helvetica 13.44 F
GS
[1 0 0 1 0 0] CT
0 0 moveto 
1 -1 scale
(s) t 
GR
GR
GS
[0.75 0 0 0.75 467.25 120] CT
/Helvetica 13.44 F
GS
[1 0 0 1 0 0] CT
0 0 moveto 
1 -1 scale
(w) t 
GR
GR
GS
[0.75 0 0 0.75 0 0] CT
0.467 0.675 0.188 RC
[8 8] 0 setdash
2 LJ
2 LW
N
561 149.068 M
601 149.068 L
S
GR
GS
[0.75 0 0 0.75 0 0] CT
0.149 GC
10.0 ML
0.667 LW
N
557 165 M
557 48 L
639 48 L
639 165 L
cp
S
GR
%%Trailer
%%Pages: 1
%%EOF
