%!PS-Adobe-3.0 EPSF-3.0
%%Creator: (MATLAB, The Mathworks, Inc. Version 24.1.0.2603908 \(R2024a\) Update 3. Operating System: Windows 10)
%%Title: (C:/Users/lorde/Documents/MATLAB/Master Lab Course/Exercise 3/E3_Rg30_Eoff3.eps)
%%CreationDate: 2024-06-30T10:09:58
%%Pages: (atend)
%%BoundingBox:     0     0   600   375
%%LanguageLevel: 3
%%EndComments
%%BeginProlog
%%BeginResource: procset (Apache XML Graphics Std ProcSet) 1.2 0
%%Version: 1.2 0
%%Copyright: (Copyright 2001-2003,2010 The Apache Software Foundation. License terms: http://www.apache.org/licenses/LICENSE-2.0)
/bd{bind def}bind def
/ld{load def}bd
/GR/grestore ld
/GS/gsave ld
/RM/rmoveto ld
/C/curveto ld
/t/show ld
/L/lineto ld
/ML/setmiterlimit ld
/CT/concat ld
/f/fill ld
/N/newpath ld
/S/stroke ld
/CC/setcmykcolor ld
/A/ashow ld
/cp/closepath ld
/RC/setrgbcolor ld
/LJ/setlinejoin ld
/GC/setgray ld
/LW/setlinewidth ld
/M/moveto ld
/re {4 2 roll M
1 index 0 rlineto
0 exch rlineto
neg 0 rlineto
cp } bd
/_ctm matrix def
/_tm matrix def
/BT { _ctm currentmatrix pop matrix _tm copy pop 0 0 moveto } bd
/ET { _ctm setmatrix } bd
/iTm { _ctm setmatrix _tm concat } bd
/Tm { _tm astore pop iTm 0 0 moveto } bd
/ux 0.0 def
/uy 0.0 def
/F {
  /Tp exch def
  /Tf exch def
  Tf findfont Tp scalefont setfont
  /cf Tf def  /cs Tp def
} bd
/ULS {currentpoint /uy exch def /ux exch def} bd
/ULE {
  /Tcx currentpoint pop def
  gsave
  newpath
  cf findfont cs scalefont dup
  /FontMatrix get 0 get /Ts exch def /FontInfo get dup
  /UnderlinePosition get Ts mul /To exch def
  /UnderlineThickness get Ts mul /Tt exch def
  ux uy To add moveto  Tcx uy To add lineto
  Tt setlinewidth stroke
  grestore
} bd
/OLE {
  /Tcx currentpoint pop def
  gsave
  newpath
  cf findfont cs scalefont dup
  /FontMatrix get 0 get /Ts exch def /FontInfo get dup
  /UnderlinePosition get Ts mul /To exch def
  /UnderlineThickness get Ts mul /Tt exch def
  ux uy To add cs add moveto Tcx uy To add cs add lineto
  Tt setlinewidth stroke
  grestore
} bd
/SOE {
  /Tcx currentpoint pop def
  gsave
  newpath
  cf findfont cs scalefont dup
  /FontMatrix get 0 get /Ts exch def /FontInfo get dup
  /UnderlinePosition get Ts mul /To exch def
  /UnderlineThickness get Ts mul /Tt exch def
  ux uy To add cs 10 mul 26 idiv add moveto Tcx uy To add cs 10 mul 26 idiv add lineto
  Tt setlinewidth stroke
  grestore
} bd
/QT {
/Y22 exch store
/X22 exch store
/Y21 exch store
/X21 exch store
currentpoint
/Y21 load 2 mul add 3 div exch
/X21 load 2 mul add 3 div exch
/X21 load 2 mul /X22 load add 3 div
/Y21 load 2 mul /Y22 load add 3 div
/X22 load /Y22 load curveto
} bd
/SSPD {
dup length /d exch dict def
{
/v exch def
/k exch def
currentpagedevice k known {
/cpdv currentpagedevice k get def
v cpdv ne {
/upd false def
/nullv v type /nulltype eq def
/nullcpdv cpdv type /nulltype eq def
nullv nullcpdv or
{
/upd true def
} {
/sametype v type cpdv type eq def
sametype {
v type /arraytype eq {
/vlen v length def
/cpdvlen cpdv length def
vlen cpdvlen eq {
0 1 vlen 1 sub {
/i exch def
/obj v i get def
/cpdobj cpdv i get def
obj cpdobj ne {
/upd true def
exit
} if
} for
} {
/upd true def
} ifelse
} {
v type /dicttype eq {
v {
/dv exch def
/dk exch def
/cpddv cpdv dk get def
dv cpddv ne {
/upd true def
exit
} if
} forall
} {
/upd true def
} ifelse
} ifelse
} if
} ifelse
upd true eq {
d k v put
} if
} if
} if
} forall
d length 0 gt {
d setpagedevice
} if
} bd
/RE { % /NewFontName [NewEncodingArray] /FontName RE -
  findfont dup length dict begin
  {
    1 index /FID ne
    {def} {pop pop} ifelse
  } forall
  /Encoding exch def
  /FontName 1 index def
  currentdict definefont pop
  end
} bind def
%%EndResource
%%BeginResource: procset (Apache XML Graphics EPS ProcSet) 1.0 0
%%Version: 1.0 0
%%Copyright: (Copyright 2002-2003 The Apache Software Foundation. License terms: http://www.apache.org/licenses/LICENSE-2.0)
/BeginEPSF { %def
/b4_Inc_state save def         % Save state for cleanup
/dict_count countdictstack def % Count objects on dict stack
/op_count count 1 sub def      % Count objects on operand stack
userdict begin                 % Push userdict on dict stack
/showpage { } def              % Redefine showpage, { } = null proc
0 setgray 0 setlinecap         % Prepare graphics state
1 setlinewidth 0 setlinejoin
10 setmiterlimit [ ] 0 setdash newpath
/languagelevel where           % If level not equal to 1 then
{pop languagelevel             % set strokeadjust and
1 ne                           % overprint to their defaults.
{false setstrokeadjust false setoverprint
} if
} if
} bd
/EndEPSF { %def
count op_count sub {pop} repeat            % Clean up stacks
countdictstack dict_count sub {end} repeat
b4_Inc_state restore
} bd
%%EndResource
%FOPBeginFontDict
%%IncludeResource: font Courier-Oblique
%%IncludeResource: font Courier-BoldOblique
%%IncludeResource: font Courier-Bold
%%IncludeResource: font ZapfDingbats
%%IncludeResource: font Symbol
%%IncludeResource: font Helvetica
%%IncludeResource: font Helvetica-Oblique
%%IncludeResource: font Helvetica-Bold
%%IncludeResource: font Helvetica-BoldOblique
%%IncludeResource: font Times-Roman
%%IncludeResource: font Times-Italic
%%IncludeResource: font Times-Bold
%%IncludeResource: font Times-BoldItalic
%%IncludeResource: font Courier
%FOPEndFontDict
%%BeginResource: encoding WinAnsiEncoding
/WinAnsiEncoding [
/.notdef /.notdef /.notdef /.notdef /.notdef
/.notdef /.notdef /.notdef /.notdef /.notdef
/.notdef /.notdef /.notdef /.notdef /.notdef
/.notdef /.notdef /.notdef /.notdef /.notdef
/.notdef /.notdef /.notdef /.notdef /.notdef
/.notdef /.notdef /.notdef /.notdef /.notdef
/.notdef /.notdef /space /exclam /quotedbl
/numbersign /dollar /percent /ampersand /quotesingle
/parenleft /parenright /asterisk /plus /comma
/hyphen /period /slash /zero /one
/two /three /four /five /six
/seven /eight /nine /colon /semicolon
/less /equal /greater /question /at
/A /B /C /D /E
/F /G /H /I /J
/K /L /M /N /O
/P /Q /R /S /T
/U /V /W /X /Y
/Z /bracketleft /backslash /bracketright /asciicircum
/underscore /quoteleft /a /b /c
/d /e /f /g /h
/i /j /k /l /m
/n /o /p /q /r
/s /t /u /v /w
/x /y /z /braceleft /bar
/braceright /asciitilde /bullet /Euro /bullet
/quotesinglbase /florin /quotedblbase /ellipsis /dagger
/daggerdbl /circumflex /perthousand /Scaron /guilsinglleft
/OE /bullet /Zcaron /bullet /bullet
/quoteleft /quoteright /quotedblleft /quotedblright /bullet
/endash /emdash /asciitilde /trademark /scaron
/guilsinglright /oe /bullet /zcaron /Ydieresis
/space /exclamdown /cent /sterling /currency
/yen /brokenbar /section /dieresis /copyright
/ordfeminine /guillemotleft /logicalnot /sfthyphen /registered
/macron /degree /plusminus /twosuperior /threesuperior
/acute /mu /paragraph /middot /cedilla
/onesuperior /ordmasculine /guillemotright /onequarter /onehalf
/threequarters /questiondown /Agrave /Aacute /Acircumflex
/Atilde /Adieresis /Aring /AE /Ccedilla
/Egrave /Eacute /Ecircumflex /Edieresis /Igrave
/Iacute /Icircumflex /Idieresis /Eth /Ntilde
/Ograve /Oacute /Ocircumflex /Otilde /Odieresis
/multiply /Oslash /Ugrave /Uacute /Ucircumflex
/Udieresis /Yacute /Thorn /germandbls /agrave
/aacute /acircumflex /atilde /adieresis /aring
/ae /ccedilla /egrave /eacute /ecircumflex
/edieresis /igrave /iacute /icircumflex /idieresis
/eth /ntilde /ograve /oacute /ocircumflex
/otilde /odieresis /divide /oslash /ugrave
/uacute /ucircumflex /udieresis /yacute /thorn
/ydieresis
] def
%%EndResource
%FOPBeginFontReencode
/Courier-Oblique findfont
dup length dict begin
  {1 index /FID ne {def} {pop pop} ifelse} forall
  /Encoding WinAnsiEncoding def
  currentdict
end
/Courier-Oblique exch definefont pop
/Courier-BoldOblique findfont
dup length dict begin
  {1 index /FID ne {def} {pop pop} ifelse} forall
  /Encoding WinAnsiEncoding def
  currentdict
end
/Courier-BoldOblique exch definefont pop
/Courier-Bold findfont
dup length dict begin
  {1 index /FID ne {def} {pop pop} ifelse} forall
  /Encoding WinAnsiEncoding def
  currentdict
end
/Courier-Bold exch definefont pop
/Helvetica findfont
dup length dict begin
  {1 index /FID ne {def} {pop pop} ifelse} forall
  /Encoding WinAnsiEncoding def
  currentdict
end
/Helvetica exch definefont pop
/Helvetica-Oblique findfont
dup length dict begin
  {1 index /FID ne {def} {pop pop} ifelse} forall
  /Encoding WinAnsiEncoding def
  currentdict
end
/Helvetica-Oblique exch definefont pop
/Helvetica-Bold findfont
dup length dict begin
  {1 index /FID ne {def} {pop pop} ifelse} forall
  /Encoding WinAnsiEncoding def
  currentdict
end
/Helvetica-Bold exch definefont pop
/Helvetica-BoldOblique findfont
dup length dict begin
  {1 index /FID ne {def} {pop pop} ifelse} forall
  /Encoding WinAnsiEncoding def
  currentdict
end
/Helvetica-BoldOblique exch definefont pop
/Times-Roman findfont
dup length dict begin
  {1 index /FID ne {def} {pop pop} ifelse} forall
  /Encoding WinAnsiEncoding def
  currentdict
end
/Times-Roman exch definefont pop
/Times-Italic findfont
dup length dict begin
  {1 index /FID ne {def} {pop pop} ifelse} forall
  /Encoding WinAnsiEncoding def
  currentdict
end
/Times-Italic exch definefont pop
/Times-Bold findfont
dup length dict begin
  {1 index /FID ne {def} {pop pop} ifelse} forall
  /Encoding WinAnsiEncoding def
  currentdict
end
/Times-Bold exch definefont pop
/Times-BoldItalic findfont
dup length dict begin
  {1 index /FID ne {def} {pop pop} ifelse} forall
  /Encoding WinAnsiEncoding def
  currentdict
end
/Times-BoldItalic exch definefont pop
/Courier findfont
dup length dict begin
  {1 index /FID ne {def} {pop pop} ifelse} forall
  /Encoding WinAnsiEncoding def
  currentdict
end
/Courier exch definefont pop
%FOPEndFontReencode
%%EndProlog
%%Page: 1 1
%%PageBoundingBox: 0 0 600 375
%%BeginPageSetup
[1 0 0 -1 0 375] CT
%%EndPageSetup
GS
[0.75 0 0 0.75 0 0] CT
1 GC
N
0 0 800 500 re
f
GR
GS
[0.75 0 0 0.75 0 0] CT
1 GC
N
0 0 800 500 re
f
GR
GS
[0.75 0 0 0.75 0 0] CT
0.941 GC
N
650 445 M
659 445 L
659 37 L
650 37 L
cp
f
GR
GS
[0.75 0 0 0.75 0 0] CT
0.149 GC
2 setlinecap
1 LJ
0.667 LW
N
650 445 M
659 445 L
S
GR
GS
[0.75 0 0 0.75 0 0] CT
0.929 0.694 0.125 RC
2 setlinecap
1 LJ
0.667 LW
N
659 445 M
659 37 L
S
GR
GS
[0.75 0 0 0.75 0 0] CT
0.929 0.694 0.125 RC
2 setlinecap
1 LJ
0.667 LW
N
659 445 M
654.92 445 L
S
GR
GS
[0.75 0 0 0.75 0 0] CT
0.929 0.694 0.125 RC
2 setlinecap
1 LJ
0.667 LW
N
659 377 M
654.92 377 L
S
GR
GS
[0.75 0 0 0.75 0 0] CT
0.929 0.694 0.125 RC
2 setlinecap
1 LJ
0.667 LW
N
659 309 M
654.92 309 L
S
GR
GS
[0.75 0 0 0.75 0 0] CT
0.929 0.694 0.125 RC
2 setlinecap
1 LJ
0.667 LW
N
659 241 M
654.92 241 L
S
GR
GS
[0.75 0 0 0.75 0 0] CT
0.929 0.694 0.125 RC
2 setlinecap
1 LJ
0.667 LW
N
659 173 M
654.92 173 L
S
GR
GS
[0.75 0 0 0.75 0 0] CT
0.929 0.694 0.125 RC
2 setlinecap
1 LJ
0.667 LW
N
659 105 M
654.92 105 L
S
GR
GS
[0.75 0 0 0.75 0 0] CT
0.929 0.694 0.125 RC
2 setlinecap
1 LJ
0.667 LW
N
659 37 M
654.92 37 L
S
GR
GS
[0.75 0 0 0.75 499.05002 333.75] CT
0.929 0.694 0.125 RC
/Helvetica 18.667 F
GS
[1 0 0 1 0 0] CT
0 7 moveto 
1 -1 scale
(-5) t 
GR
GR
GS
[0.75 0 0 0.75 499.05002 282.75] CT
0.929 0.694 0.125 RC
/Helvetica 18.667 F
GS
[1 0 0 1 0 0] CT
0 7 moveto 
1 -1 scale
(0) t 
GR
GR
GS
[0.75 0 0 0.75 499.05002 231.75] CT
0.929 0.694 0.125 RC
/Helvetica 18.667 F
GS
[1 0 0 1 0 0] CT
0 7 moveto 
1 -1 scale
(5) t 
GR
GR
GS
[0.75 0 0 0.75 499.05002 180.75] CT
0.929 0.694 0.125 RC
/Helvetica 18.667 F
GS
[1 0 0 1 0 0] CT
0 7 moveto 
1 -1 scale
(10) t 
GR
GR
GS
[0.75 0 0 0.75 499.05002 129.75] CT
0.929 0.694 0.125 RC
/Helvetica 18.667 F
GS
[1 0 0 1 0 0] CT
0 7 moveto 
1 -1 scale
(15) t 
GR
GR
GS
[0.75 0 0 0.75 499.05002 78.75] CT
0.929 0.694 0.125 RC
/Helvetica 18.667 F
GS
[1 0 0 1 0 0] CT
0 7 moveto 
1 -1 scale
(20) t 
GR
GR
GS
[0.75 0 0 0.75 499.05002 27.75] CT
0.929 0.694 0.125 RC
/Helvetica 18.667 F
GS
[1 0 0 1 0 0] CT
0 7 moveto 
1 -1 scale
(25) t 
GR
GR
GS
[0 -0.75 0.75 0 533.25 199.5] CT
0.929 0.694 0.125 RC
/Helvetica 20.533 F
GS
[1 0 0 1 0 0] CT
0 0 moveto 
1 -1 scale
(I) t 
GR
GR
GS
[0 -0.75 0.75 0 540.75 195] CT
0.929 0.694 0.125 RC
/Helvetica 16.427 F
GS
[1 0 0 1 0 0] CT
0 0 moveto 
1 -1 scale
(D) t 
GR
GR
GS
[0 -0.75 0.75 0 533.25 186] CT
0.929 0.694 0.125 RC
/Helvetica 20.533 F
GS
[1 0 0 1 0 0] CT
0 0 moveto 
1 -1 scale
( / A) t 
GR
GR
GS
[0.75 0 0 0.75 0 0] CT
0.941 GC
N
104 445 M
113 445 L
113 37 L
104 37 L
cp
f
GR
GS
[0.75 0 0 0.75 0 0] CT
0.149 GC
2 setlinecap
1 LJ
0.667 LW
N
104 445 M
113 445 L
S
GR
GS
[0.75 0 0 0.75 0 0] CT
0.494 0.184 0.557 RC
2 setlinecap
1 LJ
0.667 LW
N
104 445 M
104 37 L
S
GR
GS
[0.75 0 0 0.75 0 0] CT
0.494 0.184 0.557 RC
2 setlinecap
1 LJ
0.667 LW
N
104 445 M
108.08 445 L
S
GR
GS
[0.75 0 0 0.75 0 0] CT
0.494 0.184 0.557 RC
2 setlinecap
1 LJ
0.667 LW
N
104 386.714 M
108.08 386.714 L
S
GR
GS
[0.75 0 0 0.75 0 0] CT
0.494 0.184 0.557 RC
2 setlinecap
1 LJ
0.667 LW
N
104 328.429 M
108.08 328.429 L
S
GR
GS
[0.75 0 0 0.75 0 0] CT
0.494 0.184 0.557 RC
2 setlinecap
1 LJ
0.667 LW
N
104 270.143 M
108.08 270.143 L
S
GR
GS
[0.75 0 0 0.75 0 0] CT
0.494 0.184 0.557 RC
2 setlinecap
1 LJ
0.667 LW
N
104 211.857 M
108.08 211.857 L
S
GR
GS
[0.75 0 0 0.75 0 0] CT
0.494 0.184 0.557 RC
2 setlinecap
1 LJ
0.667 LW
N
104 153.571 M
108.08 153.571 L
S
GR
GS
[0.75 0 0 0.75 0 0] CT
0.494 0.184 0.557 RC
2 setlinecap
1 LJ
0.667 LW
N
104 95.286 M
108.08 95.286 L
S
GR
GS
[0.75 0 0 0.75 0 0] CT
0.494 0.184 0.557 RC
2 setlinecap
1 LJ
0.667 LW
N
104 37 M
108.08 37 L
S
GR
GS
[0.75 0 0 0.75 73.2 333.75] CT
0.494 0.184 0.557 RC
/Helvetica 18.667 F
GS
[1 0 0 1 0 0] CT
-38 7 moveto 
1 -1 scale
(-200) t 
GR
GR
GS
[0.75 0 0 0.75 73.2 290.03572] CT
0.494 0.184 0.557 RC
/Helvetica 18.667 F
GS
[1 0 0 1 0 0] CT
-11 7 moveto 
1 -1 scale
(0) t 
GR
GR
GS
[0.75 0 0 0.75 73.2 246.32142] CT
0.494 0.184 0.557 RC
/Helvetica 18.667 F
GS
[1 0 0 1 0 0] CT
-32 7 moveto 
1 -1 scale
(200) t 
GR
GR
GS
[0.75 0 0 0.75 73.2 202.60714] CT
0.494 0.184 0.557 RC
/Helvetica 18.667 F
GS
[1 0 0 1 0 0] CT
-32 7 moveto 
1 -1 scale
(400) t 
GR
GR
GS
[0.75 0 0 0.75 73.2 158.89286] CT
0.494 0.184 0.557 RC
/Helvetica 18.667 F
GS
[1 0 0 1 0 0] CT
-32 7 moveto 
1 -1 scale
(600) t 
GR
GR
GS
[0.75 0 0 0.75 73.2 115.17857] CT
0.494 0.184 0.557 RC
/Helvetica 18.667 F
GS
[1 0 0 1 0 0] CT
-32 7 moveto 
1 -1 scale
(800) t 
GR
GR
GS
[0.75 0 0 0.75 73.2 71.46428] CT
0.494 0.184 0.557 RC
/Helvetica 18.667 F
GS
[1 0 0 1 0 0] CT
-42 7 moveto 
1 -1 scale
(1000) t 
GR
GR
GS
[0.75 0 0 0.75 73.2 27.75] CT
0.494 0.184 0.557 RC
/Helvetica 18.667 F
GS
[1 0 0 1 0 0] CT
-42 7 moveto 
1 -1 scale
(1200) t 
GR
GR
GS
[0 -0.75 0.75 0 28.5 207.75] CT
0.494 0.184 0.557 RC
/Helvetica 20.533 F
GS
[1 0 0 1 0 0] CT
0 0 moveto 
1 -1 scale
(P) t 
GR
GR
GS
[0 -0.75 0.75 0 36 197.25] CT
0.494 0.184 0.557 RC
/Helvetica 16.427 F
GS
[1 0 0 1 0 0] CT
0 0 moveto 
1 -1 scale
(s) t 
GR
GR
GS
[0 -0.75 0.75 0 36 190.5] CT
0.494 0.184 0.557 RC
/Helvetica 16.427 F
GS
[1 0 0 1 0 0] CT
0 0 moveto 
1 -1 scale
(w) t 
GR
GR
GS
[0 -0.75 0.75 0 28.5 181.5] CT
0.494 0.184 0.557 RC
/Helvetica 20.533 F
GS
[1 0 0 1 0 0] CT
0 0 moveto 
1 -1 scale
( / W) t 
GR
GR
GS
[0.75 0 0 0.75 0 0] CT
0.941 GC
N
724 445 M
732 445 L
732 37 L
724 37 L
cp
f
GR
GS
[0.75 0 0 0.75 0 0] CT
0.149 GC
2 setlinecap
1 LJ
0.667 LW
N
724 445 M
732 445 L
S
GR
GS
[0.75 0 0 0.75 0 0] CT
0.467 0.675 0.188 RC
2 setlinecap
1 LJ
0.667 LW
N
732 445 M
732 37 L
S
GR
GS
[0.75 0 0 0.75 0 0] CT
0.467 0.675 0.188 RC
2 setlinecap
1 LJ
0.667 LW
N
732 445 M
727.92 445 L
S
GR
GS
[0.75 0 0 0.75 0 0] CT
0.467 0.675 0.188 RC
2 setlinecap
1 LJ
0.667 LW
N
732 399.667 M
727.92 399.667 L
S
GR
GS
[0.75 0 0 0.75 0 0] CT
0.467 0.675 0.188 RC
2 setlinecap
1 LJ
0.667 LW
N
732 354.333 M
727.92 354.333 L
S
GR
GS
[0.75 0 0 0.75 0 0] CT
0.467 0.675 0.188 RC
2 setlinecap
1 LJ
0.667 LW
N
732 309 M
727.92 309 L
S
GR
GS
[0.75 0 0 0.75 0 0] CT
0.467 0.675 0.188 RC
2 setlinecap
1 LJ
0.667 LW
N
732 263.667 M
727.92 263.667 L
S
GR
GS
[0.75 0 0 0.75 0 0] CT
0.467 0.675 0.188 RC
2 setlinecap
1 LJ
0.667 LW
N
732 218.333 M
727.92 218.333 L
S
GR
GS
[0.75 0 0 0.75 0 0] CT
0.467 0.675 0.188 RC
2 setlinecap
1 LJ
0.667 LW
N
732 173 M
727.92 173 L
S
GR
GS
[0.75 0 0 0.75 0 0] CT
0.467 0.675 0.188 RC
2 setlinecap
1 LJ
0.667 LW
N
732 127.667 M
727.92 127.667 L
S
GR
GS
[0.75 0 0 0.75 0 0] CT
0.467 0.675 0.188 RC
2 setlinecap
1 LJ
0.667 LW
N
732 82.333 M
727.92 82.333 L
S
GR
GS
[0.75 0 0 0.75 0 0] CT
0.467 0.675 0.188 RC
2 setlinecap
1 LJ
0.667 LW
N
732 37 M
727.92 37 L
S
GR
GS
[0.75 0 0 0.75 553.80002 333.75] CT
0.467 0.675 0.188 RC
/Helvetica 18.667 F
GS
[1 0 0 1 0 0] CT
0 7 moveto 
1 -1 scale
(0) t 
GR
GR
GS
[0.75 0 0 0.75 553.80002 299.74999] CT
0.467 0.675 0.188 RC
/Helvetica 18.667 F
GS
[1 0 0 1 0 0] CT
0 7 moveto 
1 -1 scale
(5) t 
GR
GR
GS
[0.75 0 0 0.75 553.80002 265.75001] CT
0.467 0.675 0.188 RC
/Helvetica 18.667 F
GS
[1 0 0 1 0 0] CT
0 7 moveto 
1 -1 scale
(10) t 
GR
GR
GS
[0.75 0 0 0.75 553.80002 231.75] CT
0.467 0.675 0.188 RC
/Helvetica 18.667 F
GS
[1 0 0 1 0 0] CT
0 7 moveto 
1 -1 scale
(15) t 
GR
GR
GS
[0.75 0 0 0.75 553.80002 197.74999] CT
0.467 0.675 0.188 RC
/Helvetica 18.667 F
GS
[1 0 0 1 0 0] CT
0 7 moveto 
1 -1 scale
(20) t 
GR
GR
GS
[0.75 0 0 0.75 553.80002 163.75] CT
0.467 0.675 0.188 RC
/Helvetica 18.667 F
GS
[1 0 0 1 0 0] CT
0 7 moveto 
1 -1 scale
(25) t 
GR
GR
GS
[0.75 0 0 0.75 553.80002 129.75] CT
0.467 0.675 0.188 RC
/Helvetica 18.667 F
GS
[1 0 0 1 0 0] CT
0 7 moveto 
1 -1 scale
(30) t 
GR
GR
GS
[0.75 0 0 0.75 553.80002 95.75] CT
0.467 0.675 0.188 RC
/Helvetica 18.667 F
GS
[1 0 0 1 0 0] CT
0 7 moveto 
1 -1 scale
(35) t 
GR
GR
GS
[0.75 0 0 0.75 553.80002 61.75] CT
0.467 0.675 0.188 RC
/Helvetica 18.667 F
GS
[1 0 0 1 0 0] CT
0 7 moveto 
1 -1 scale
(40) t 
GR
GR
GS
[0.75 0 0 0.75 553.80002 27.75] CT
0.467 0.675 0.188 RC
/Helvetica 18.667 F
GS
[1 0 0 1 0 0] CT
0 7 moveto 
1 -1 scale
(45) t 
GR
GR
GS
[0 -0.75 0.75 0 588 210] CT
0.467 0.675 0.188 RC
/Helvetica 20.533 F
GS
[1 0 0 1 0 0] CT
0 0 moveto 
1 -1 scale
(E) t 
GR
GR
GS
[0 -0.75 0.75 0 595.5 199.5] CT
0.467 0.675 0.188 RC
/Helvetica 16.427 F
GS
[1 0 0 1 0 0] CT
0 0 moveto 
1 -1 scale
(s) t 
GR
GR
GS
[0 -0.75 0.75 0 595.5 192.75] CT
0.467 0.675 0.188 RC
/Helvetica 16.427 F
GS
[1 0 0 1 0 0] CT
0 0 moveto 
1 -1 scale
(w) t 
GR
GR
GS
[0 -0.75 0.75 0 588 183.75] CT
0.467 0.675 0.188 RC
/Helvetica 20.533 F
GS
[1 0 0 1 0 0] CT
0 0 moveto 
1 -1 scale
( / ) t 
GR
GR
GS
[0 -0.75 0.75 0 588 170.25] CT
0.467 0.675 0.188 RC
N
0.578 3.953 M
0.578 3.828 0.609 3.781 QT
3.688 -8.609 L
3.781 -8.906 4.023 -9.094 QT
4.266 -9.281 4.578 -9.281 QT
4.844 -9.281 5.023 -9.125 QT
5.203 -8.969 5.203 -8.703 QT
5.203 -8.641 5.203 -8.602 QT
5.203 -8.563 5.188 -8.516 QT
3.953 -3.609 L
3.75 -2.734 3.75 -2.109 QT
3.75 -1.328 4.117 -0.82 QT
4.484 -0.313 5.234 -0.313 QT
6.75 -0.313 7.922 -2.219 QT
7.922 -2.25 7.93 -2.258 QT
7.938 -2.266 7.938 -2.281 QT
9.453 -8.375 L
9.531 -8.656 9.781 -8.852 QT
10.031 -9.047 10.344 -9.047 QT
10.578 -9.047 10.773 -8.883 QT
10.969 -8.719 10.969 -8.453 QT
10.969 -8.344 10.938 -8.297 QT
9.438 -2.25 L
9.281 -1.656 9.281 -1.219 QT
9.281 -0.313 9.891 -0.313 QT
10.547 -0.313 10.883 -1.125 QT
11.219 -1.938 11.469 -3.094 QT
11.5 -3.203 11.641 -3.203 QT
11.891 -3.203 L
11.969 -3.203 12.023 -3.141 QT
12.078 -3.078 12.078 -3 QT
11.703 -1.531 11.273 -0.648 QT
10.844 0.234 9.859 0.234 QT
9.156 0.234 8.617 -0.164 QT
8.078 -0.563 7.922 -1.234 QT
7.391 -0.578 6.688 -0.172 QT
5.984 0.234 5.203 0.234 QT
3.891 0.234 3.141 -0.375 QT
2.078 3.859 L
2.016 4.156 1.773 4.344 QT
1.531 4.531 1.219 4.531 QT
0.969 4.531 0.773 4.375 QT
0.578 4.219 0.578 3.953 QT
cp
f
GR
GS
[0 -0.75 0.75 0 588 160.5] CT
0.467 0.675 0.188 RC
/Helvetica 20.533 F
GS
[1 0 0 1 0 0] CT
0 0 moveto 
1 -1 scale
(J) t 
GR
GR
GS
[0.75 0 0 0.75 0 0] CT
1 GC
N
178 445 M
650 445 L
650 37 L
178 37 L
cp
f
GR
GS
[0.75 0 0 0.75 0 0] CT
0.873 GC
1 LJ
0.667 LW
N
178 445 M
178 37 L
S
GR
GS
[0.75 0 0 0.75 0 0] CT
0.873 GC
1 LJ
0.667 LW
N
312.091 445 M
312.091 37 L
S
GR
GS
[0.75 0 0 0.75 0 0] CT
0.873 GC
1 LJ
0.667 LW
N
446.182 445 M
446.182 37 L
S
GR
GS
[0.75 0 0 0.75 0 0] CT
0.873 GC
1 LJ
0.667 LW
N
580.273 445 M
580.273 37 L
S
GR
GS
[0.75 0 0 0.75 0 0] CT
0.873 GC
1 LJ
0.667 LW
N
650 445 M
178 445 L
S
GR
GS
[0.75 0 0 0.75 0 0] CT
0.873 GC
1 LJ
0.667 LW
N
650 377 M
178 377 L
S
GR
GS
[0.75 0 0 0.75 0 0] CT
0.873 GC
1 LJ
0.667 LW
N
650 309 M
178 309 L
S
GR
GS
[0.75 0 0 0.75 0 0] CT
0.873 GC
1 LJ
0.667 LW
N
650 241 M
178 241 L
S
GR
GS
[0.75 0 0 0.75 0 0] CT
0.873 GC
1 LJ
0.667 LW
N
650 173 M
178 173 L
S
GR
GS
[0.75 0 0 0.75 0 0] CT
0.873 GC
1 LJ
0.667 LW
N
650 105 M
178 105 L
S
GR
GS
[0.75 0 0 0.75 0 0] CT
0.873 GC
1 LJ
0.667 LW
N
650 37 M
178 37 L
S
GR
GS
[0.75 0 0 0.75 0 0] CT
0.149 GC
2 setlinecap
1 LJ
0.667 LW
N
178 445 M
650 445 L
S
GR
GS
[0.75 0 0 0.75 0 0] CT
0.149 GC
2 setlinecap
1 LJ
0.667 LW
N
178 445 M
178 440.28 L
S
GR
GS
[0.75 0 0 0.75 0 0] CT
0.149 GC
2 setlinecap
1 LJ
0.667 LW
N
312.091 445 M
312.091 440.28 L
S
GR
GS
[0.75 0 0 0.75 0 0] CT
0.149 GC
2 setlinecap
1 LJ
0.667 LW
N
446.182 445 M
446.182 440.28 L
S
GR
GS
[0.75 0 0 0.75 0 0] CT
0.149 GC
2 setlinecap
1 LJ
0.667 LW
N
580.273 445 M
580.273 440.28 L
S
GR
GS
[0.75 0 0 0.75 133.5 338.55] CT
0.149 GC
/Helvetica 18.667 F
GS
[1 0 0 1 0 0] CT
-5.5 19 moveto 
1 -1 scale
(0) t 
GR
GR
GS
[0.75 0 0 0.75 234.06818 338.55] CT
0.149 GC
/Helvetica 18.667 F
GS
[1 0 0 1 0 0] CT
-10.5 19 moveto 
1 -1 scale
(50) t 
GR
GR
GS
[0.75 0 0 0.75 334.63637 338.55] CT
0.149 GC
/Helvetica 18.667 F
GS
[1 0 0 1 0 0] CT
-16 19 moveto 
1 -1 scale
(100) t 
GR
GR
GS
[0.75 0 0 0.75 435.20453 338.55] CT
0.149 GC
/Helvetica 18.667 F
GS
[1 0 0 1 0 0] CT
-16 19 moveto 
1 -1 scale
(150) t 
GR
GR
GS
[0.75 0 0 0.75 310.50016 357.55] CT
0.149 GC
/Helvetica 20.533 F
GS
[1 0 0 1 0 0] CT
-42.5 21 moveto 
1 -1 scale
(Time / ns) t 
GR
GR
GS
[0.75 0 0 0.75 0 0] CT
0.149 GC
2 setlinecap
1 LJ
0.667 LW
N
178 445 M
178 37 L
S
GR
GS
[0.75 0 0 0.75 0 0] CT
0.149 GC
2 setlinecap
1 LJ
0.667 LW
N
178 445 M
182.72 445 L
S
GR
GS
[0.75 0 0 0.75 0 0] CT
0.149 GC
2 setlinecap
1 LJ
0.667 LW
N
178 377 M
182.72 377 L
S
GR
GS
[0.75 0 0 0.75 0 0] CT
0.149 GC
2 setlinecap
1 LJ
0.667 LW
N
178 309 M
182.72 309 L
S
GR
GS
[0.75 0 0 0.75 0 0] CT
0.149 GC
2 setlinecap
1 LJ
0.667 LW
N
178 241 M
182.72 241 L
S
GR
GS
[0.75 0 0 0.75 0 0] CT
0.149 GC
2 setlinecap
1 LJ
0.667 LW
N
178 173 M
182.72 173 L
S
GR
GS
[0.75 0 0 0.75 0 0] CT
0.149 GC
2 setlinecap
1 LJ
0.667 LW
N
178 105 M
182.72 105 L
S
GR
GS
[0.75 0 0 0.75 0 0] CT
0.149 GC
2 setlinecap
1 LJ
0.667 LW
N
178 37 M
182.72 37 L
S
GR
GS
[0.75 0 0 0.75 128.7 333.75] CT
0.149 GC
/Helvetica 18.667 F
GS
[1 0 0 1 0 0] CT
-11 7 moveto 
1 -1 scale
(0) t 
GR
GR
GS
[0.75 0 0 0.75 128.7 282.75] CT
0.149 GC
/Helvetica 18.667 F
GS
[1 0 0 1 0 0] CT
-21 7 moveto 
1 -1 scale
(10) t 
GR
GR
GS
[0.75 0 0 0.75 128.7 231.75] CT
0.149 GC
/Helvetica 18.667 F
GS
[1 0 0 1 0 0] CT
-21 7 moveto 
1 -1 scale
(20) t 
GR
GR
GS
[0.75 0 0 0.75 128.7 180.75] CT
0.149 GC
/Helvetica 18.667 F
GS
[1 0 0 1 0 0] CT
-21 7 moveto 
1 -1 scale
(30) t 
GR
GR
GS
[0.75 0 0 0.75 128.7 129.75] CT
0.149 GC
/Helvetica 18.667 F
GS
[1 0 0 1 0 0] CT
-21 7 moveto 
1 -1 scale
(40) t 
GR
GR
GS
[0.75 0 0 0.75 128.7 78.75] CT
0.149 GC
/Helvetica 18.667 F
GS
[1 0 0 1 0 0] CT
-21 7 moveto 
1 -1 scale
(50) t 
GR
GR
GS
[0.75 0 0 0.75 128.7 27.75] CT
0.149 GC
/Helvetica 18.667 F
GS
[1 0 0 1 0 0] CT
-21 7 moveto 
1 -1 scale
(60) t 
GR
GR
GS
[0 -0.75 0.75 0 99.75 206.25] CT
0.149 GC
/Helvetica 20.533 F
GS
[1 0 0 1 0 0] CT
0 0 moveto 
1 -1 scale
(V) t 
GR
GR
GS
[0 -0.75 0.75 0 107.25 195.75] CT
0.149 GC
/Helvetica 16.427 F
GS
[1 0 0 1 0 0] CT
0 0 moveto 
1 -1 scale
(D) t 
GR
GR
GS
[0 -0.75 0.75 0 107.25 186.75] CT
0.149 GC
/Helvetica 16.427 F
GS
[1 0 0 1 0 0] CT
0 0 moveto 
1 -1 scale
(S) t 
GR
GR
GS
[0 -0.75 0.75 0 99.75 178.5] CT
0.149 GC
/Helvetica 20.533 F
GS
[1 0 0 1 0 0] CT
0 0 moveto 
1 -1 scale
( / V) t 
GR
GR
GS
[0.75 0 0 0.75 0 0] CT
0.851 0.325 0.098 RC
1 LJ
2 LW
N
177.944 440.931 M
178 440.927 L
179.073 441.017 L
180.145 440.836 L
181.218 440.745 L
182.291 440.655 L
183.364 440.745 L
184.436 440.926 L
185.509 440.835 L
186.582 440.926 L
187.655 440.835 L
188.727 440.835 L
189.8 441.016 L
190.873 440.835 L
191.945 440.926 L
193.018 440.835 L
194.091 440.835 L
195.164 440.835 L
196.236 440.835 L
197.309 440.744 L
198.382 440.654 L
199.455 440.653 L
200.527 440.563 L
201.6 440.472 L
202.673 440.472 L
203.745 440.381 L
204.818 440.381 L
205.891 440.29 L
206.964 440.199 L
208.036 440.017 L
209.109 439.927 L
210.182 440.018 L
211.255 439.927 L
212.327 440.018 L
213.4 440.108 L
214.473 440.108 L
215.545 440.108 L
216.618 439.927 L
217.691 440.018 L
218.764 440.109 L
219.836 440.199 L
220.909 440.199 L
221.982 440.109 L
223.055 440.2 L
224.127 440.019 L
225.2 440.019 L
226.273 440.11 L
227.345 440.11 L
228.418 439.928 L
229.491 439.929 L
230.564 440.02 L
231.636 440.02 L
232.709 440.02 L
233.782 440.111 L
234.855 440.02 L
235.927 440.111 L
237 439.93 L
238.073 440.021 L
239.145 440.112 L
240.218 440.202 L
241.291 440.202 L
242.364 440.021 L
243.436 440.111 L
244.509 440.111 L
245.582 440.02 L
246.655 439.839 L
247.727 439.748 L
248.8 439.838 L
249.873 439.657 L
250.945 439.657 L
252.018 439.657 L
253.091 439.566 L
254.164 439.747 L
255.236 439.656 L
256.309 439.747 L
257.382 439.747 L
258.455 439.656 L
259.527 439.656 L
260.6 439.657 L
261.673 439.747 L
262.745 439.837 L
263.818 439.746 L
264.891 439.746 L
265.964 439.746 L
267.036 439.655 L
268.109 439.746 L
269.182 439.927 L
270.255 439.836 L
271.327 439.745 L
272.4 439.745 L
273.473 439.836 L
274.545 439.926 L
275.618 439.926 L
276.691 440.017 L
277.764 440.017 L
278.836 440.108 L
279.909 440.199 L
280.982 440.199 L
282.055 440.289 L
283.127 440.108 L
284.2 440.108 L
285.273 440.017 L
286.345 439.655 L
287.418 439.655 L
288.491 439.383 L
289.564 439.11 L
290.636 438.566 L
291.709 437.841 L
292.782 437.297 L
293.855 436.572 L
294.927 435.484 L
296 434.578 L
297.073 433.308 L
298.145 431.857 L
299.218 430.497 L
300.291 428.503 L
301.364 426.508 L
302.436 424.332 L
303.509 421.975 L
304.582 419.164 L
305.655 416.354 L
306.727 413.272 L
307.8 410.008 L
308.873 406.562 L
309.945 402.845 L
311.018 398.856 L
312.091 394.504 L
313.164 389.971 L
314.236 385.165 L
315.309 380.179 L
316.382 375.01 L
317.455 369.661 L
318.527 363.949 L
319.6 357.875 L
320.673 351.709 L
321.745 345.181 L
322.818 338.653 L
323.891 331.853 L
324.964 324.69 L
326.036 317.347 L
327.109 310.003 L
328.182 302.296 L
329.255 294.227 L
330.327 286.067 L
331.4 277.545 L
332.473 268.931 L
333.545 259.775 L
334.618 250.345 L
335.691 240.553 L
336.764 230.218 L
337.836 219.156 L
338.909 208.276 L
339.982 198.303 L
341.055 188.692 L
342.127 179.715 L
343.2 171.465 L
344.273 163.304 L
345.345 155.235 L
346.418 147.348 L
347.491 139.55 L
348.564 131.843 L
349.636 124.771 L
350.709 118.243 L
351.782 112.168 L
352.855 106.366 L
353.927 100.835 L
355 95.577 L
356.073 90.681 L
357.145 86.238 L
358.218 82.339 L
359.291 78.713 L
360.364 75.448 L
361.436 72.819 L
362.509 70.734 L
363.582 69.011 L
364.655 67.56 L
365.727 66.744 L
366.8 66.472 L
367.873 66.925 L
368.945 68.285 L
370.018 70.37 L
371.091 72.456 L
372.164 73.725 L
373.236 74.723 L
374.309 75.448 L
375.382 75.72 L
376.455 76.174 L
377.527 76.627 L
378.6 77.171 L
379.673 77.897 L
380.745 78.804 L
381.818 79.257 L
382.891 79.62 L
383.964 79.801 L
385.036 80.073 L
386.109 80.255 L
387.182 80.526 L
388.255 80.798 L
389.327 81.07 L
390.4 80.979 L
391.473 80.979 L
392.545 80.979 L
393.618 80.979 L
394.691 80.706 L
395.764 80.525 L
396.836 80.525 L
397.909 80.616 L
398.982 80.525 L
400.055 80.434 L
401.127 80.162 L
402.2 80.072 L
403.273 79.89 L
404.345 79.981 L
405.418 79.981 L
406.491 79.98 L
407.564 79.89 L
408.636 79.89 L
409.709 80.071 L
410.782 80.253 L
411.855 80.343 L
412.927 80.253 L
414 80.253 L
415.073 80.162 L
416.145 80.162 L
417.218 79.981 L
418.291 80.162 L
419.364 80.253 L
420.436 80.253 L
421.509 80.162 L
422.582 80.162 L
423.655 80.162 L
424.727 80.162 L
425.8 80.162 L
426.873 80.162 L
427.945 80.071 L
429.018 80.253 L
430.091 80.072 L
431.164 80.072 L
432.236 79.891 L
433.309 79.891 L
434.382 79.71 L
435.455 79.62 L
436.527 79.529 L
437.6 79.439 L
438.673 79.439 L
439.745 79.439 L
440.818 79.439 L
441.891 79.439 L
442.964 79.439 L
444.036 79.438 L
445.109 79.528 L
446.182 79.709 L
447.255 79.891 L
448.327 79.982 L
449.4 80.072 L
450.473 80.072 L
451.545 80.072 L
452.618 80.163 L
453.691 80.254 L
454.764 80.344 L
455.836 80.345 L
456.909 80.526 L
457.982 80.526 L
459.055 80.526 L
460.127 80.616 L
461.2 80.435 L
462.273 80.344 L
463.345 80.344 L
464.418 80.344 L
465.491 80.344 L
466.564 80.253 L
467.636 80.162 L
468.709 80.071 L
469.782 80.162 L
470.855 80.162 L
471.927 80.252 L
473 80.161 L
474.073 80.071 L
475.145 79.98 L
476.218 79.89 L
477.291 79.89 L
478.364 79.89 L
479.436 79.89 L
480.509 79.89 L
481.582 79.981 L
482.655 79.981 L
483.727 79.982 L
484.8 80.072 L
485.873 79.892 L
486.945 79.801 L
488.018 79.801 L
489.091 79.53 L
490.164 79.53 L
491.236 79.53 L
492.309 79.439 L
493.382 79.439 L
494.455 79.53 L
495.527 79.439 L
496.6 79.349 L
497.673 79.258 L
498.745 79.439 L
499.818 79.53 L
500.891 79.44 L
501.964 79.439 L
503.036 79.349 L
504.109 79.349 L
505.182 79.258 L
506.255 79.439 L
507.327 79.439 L
508.4 79.439 L
509.473 79.439 L
510.545 79.439 L
511.618 79.439 L
512.691 79.439 L
513.764 79.348 L
514.836 79.076 L
515.909 79.166 L
516.982 79.166 L
518.055 79.257 L
519.127 79.347 L
520.2 79.347 L
521.273 79.438 L
522.345 79.256 L
523.418 79.256 L
524.491 79.257 L
525.564 79.257 L
526.636 79.166 L
527.709 79.166 L
528.782 79.257 L
529.855 79.347 L
530.927 79.166 L
532 79.257 L
533.073 79.257 L
534.145 79.167 L
535.218 79.166 L
536.291 79.076 L
537.364 79.257 L
538.436 78.985 L
539.509 79.075 L
540.582 79.075 L
541.655 78.984 L
542.727 78.893 L
543.8 78.893 L
544.873 78.893 L
545.945 78.893 L
547.018 79.075 L
548.091 78.894 L
549.164 78.803 L
550.236 78.803 L
551.309 78.713 L
552.382 78.713 L
553.455 78.713 L
554.527 78.712 L
555.6 78.712 L
556.673 78.712 L
557.745 78.622 L
558.818 78.712 L
559.891 78.712 L
560.964 78.712 L
562.036 78.621 L
563.109 78.621 L
564.182 78.531 L
565.255 78.621 L
566.327 78.621 L
567.4 78.53 L
568.473 78.621 L
569.545 78.53 L
570.618 78.53 L
571.691 78.44 L
572.764 78.44 L
573.836 78.441 L
574.909 78.35 L
575.982 78.259 L
577.055 78.168 L
578.127 78.168 L
579.2 78.168 L
580.273 78.168 L
581.345 78.077 L
582.418 78.167 L
583.491 78.167 L
584.564 78.167 L
585.636 78.166 L
586.709 78.438 L
587.782 78.348 L
588.855 78.348 L
589.927 78.438 L
591 78.439 L
592.073 78.439 L
593.145 78.439 L
594.218 78.529 L
595.291 78.529 L
596.364 78.529 L
597.436 78.62 L
598.509 78.529 L
599.582 78.62 L
600.655 78.439 L
601.727 78.53 L
602.8 78.711 L
603.873 78.71 L
604.945 78.71 L
606.018 78.619 L
607.091 78.71 L
608.164 78.62 L
609.236 78.529 L
610.309 78.439 L
611.382 78.439 L
612.455 78.53 L
613.527 78.53 L
614.6 78.44 L
615.673 78.44 L
616.745 78.44 L
617.818 78.349 L
618.891 78.168 L
619.964 78.259 L
621.036 78.258 L
622.109 78.168 L
623.182 77.987 L
624.255 77.896 L
625.327 77.896 L
626.4 77.715 L
627.473 77.624 L
628.545 77.624 L
629.618 77.442 L
630.691 77.442 L
631.764 77.442 L
632.836 77.533 L
633.909 77.442 L
634.982 77.261 L
636.055 77.17 L
637.127 77.08 L
638.2 77.08 L
639.273 76.989 L
640.345 76.988 L
641.418 77.079 L
642.491 77.169 L
643.564 77.169 L
644.636 76.988 L
645.709 76.988 L
646.782 77.079 L
647.855 76.988 L
648.927 76.806 L
650 76.715 L
650.056 76.715 L
S
GR
GS
[0.75 0 0 0.75 0 0] CT
0.929 0.694 0.125 RC
1 LJ
2 LW
N
177.944 145.002 M
178 145.005 L
179.073 145.005 L
180.145 144.842 L
181.218 144.95 L
182.291 144.787 L
183.364 144.896 L
184.436 144.841 L
185.509 144.787 L
186.582 144.842 L
187.655 144.787 L
188.727 144.842 L
189.8 144.842 L
190.873 144.733 L
191.945 144.733 L
193.018 144.678 L
194.091 144.841 L
195.164 144.896 L
196.236 144.787 L
197.309 144.841 L
198.382 144.733 L
199.455 144.896 L
200.527 144.896 L
201.6 145.113 L
202.673 144.95 L
203.745 145.059 L
204.818 145.168 L
205.891 145.113 L
206.964 145.276 L
208.036 145.331 L
209.109 145.331 L
210.182 145.331 L
211.255 145.331 L
212.327 145.385 L
213.4 145.331 L
214.473 145.331 L
215.545 145.44 L
216.618 145.494 L
217.691 145.223 L
218.764 145.277 L
219.836 145.277 L
220.909 145.441 L
221.982 145.332 L
223.055 145.441 L
224.127 145.441 L
225.2 145.386 L
226.273 145.441 L
227.345 145.278 L
228.418 145.495 L
229.491 145.55 L
230.564 145.387 L
231.636 145.55 L
232.709 145.441 L
233.782 145.387 L
234.855 145.441 L
235.927 145.441 L
237 145.278 L
238.073 145.441 L
239.145 145.55 L
240.218 145.604 L
241.291 145.604 L
242.364 145.55 L
243.436 145.495 L
244.509 145.495 L
245.582 145.604 L
246.655 145.495 L
247.727 145.713 L
248.8 145.604 L
249.873 145.767 L
250.945 145.658 L
252.018 145.658 L
253.091 145.713 L
254.164 145.713 L
255.236 145.712 L
256.309 145.604 L
257.382 145.604 L
258.455 145.658 L
259.527 145.658 L
260.6 145.767 L
261.673 145.713 L
262.745 145.604 L
263.818 145.604 L
264.891 145.603 L
265.964 145.604 L
267.036 145.386 L
268.109 145.549 L
269.182 145.277 L
270.255 145.44 L
271.327 145.44 L
272.4 145.44 L
273.473 145.331 L
274.545 145.386 L
275.618 145.549 L
276.691 145.495 L
277.764 145.494 L
278.836 145.44 L
279.909 145.331 L
280.982 145.168 L
282.055 145.005 L
283.127 145.114 L
284.2 145.114 L
285.273 145.06 L
286.345 144.951 L
287.418 145.114 L
288.491 145.277 L
289.564 145.277 L
290.636 145.495 L
291.709 145.549 L
292.782 145.821 L
293.855 146.039 L
294.927 146.256 L
296 146.42 L
297.073 146.637 L
298.145 146.909 L
299.218 147.29 L
300.291 147.562 L
301.364 147.888 L
302.436 148.105 L
303.509 148.432 L
304.582 148.812 L
305.655 149.03 L
306.727 149.465 L
307.8 149.846 L
308.873 150.118 L
309.945 150.445 L
311.018 150.88 L
312.091 151.206 L
313.164 151.641 L
314.236 151.75 L
315.309 152.131 L
316.382 152.348 L
317.455 152.62 L
318.527 152.729 L
319.6 153.001 L
320.673 153.055 L
321.745 153.382 L
322.818 153.545 L
323.891 153.599 L
324.964 153.817 L
326.036 153.817 L
327.109 153.926 L
328.182 154.143 L
329.255 154.252 L
330.327 154.524 L
331.4 154.742 L
332.473 154.96 L
333.545 155.123 L
334.618 155.558 L
335.691 156.157 L
336.764 156.592 L
337.836 157.354 L
338.909 158.279 L
339.982 158.932 L
341.055 160.183 L
342.127 161.597 L
343.2 162.577 L
344.273 163.229 L
345.345 163.937 L
346.418 164.426 L
347.491 164.861 L
348.564 165.242 L
349.636 165.678 L
350.709 166.221 L
351.782 166.656 L
352.855 166.929 L
353.927 167.092 L
355 167.146 L
356.073 167.31 L
357.145 167.092 L
358.218 166.984 L
359.291 167.038 L
360.364 167.092 L
361.436 167.201 L
362.509 167.31 L
363.582 167.582 L
364.655 167.962 L
365.727 168.452 L
366.8 168.887 L
367.873 169.703 L
368.945 170.41 L
370.018 171.226 L
371.091 172.151 L
372.164 173.021 L
373.236 174.109 L
374.309 175.306 L
375.382 176.666 L
376.455 178.189 L
377.527 179.93 L
378.6 181.563 L
379.673 183.249 L
380.745 185.099 L
381.818 187.111 L
382.891 188.907 L
383.964 190.865 L
385.036 192.606 L
386.109 194.347 L
387.182 196.142 L
388.255 197.773 L
389.327 199.242 L
390.4 200.602 L
391.473 201.853 L
392.545 203.104 L
393.618 204.247 L
394.691 205.443 L
395.764 206.423 L
396.836 207.293 L
397.909 208.054 L
398.982 208.925 L
400.055 209.632 L
401.127 210.231 L
402.2 210.883 L
403.273 211.645 L
404.345 212.243 L
405.418 213.005 L
406.491 213.821 L
407.564 214.855 L
408.636 215.562 L
409.709 216.65 L
410.782 217.901 L
411.855 219.37 L
412.927 220.785 L
414 222.145 L
415.073 223.668 L
416.145 225.082 L
417.218 226.714 L
418.291 228.129 L
419.364 229.706 L
420.436 231.284 L
421.509 232.753 L
422.582 234.33 L
423.655 235.745 L
424.727 237.213 L
425.8 238.465 L
426.873 239.716 L
427.945 240.749 L
429.018 241.674 L
430.091 242.599 L
431.164 243.306 L
432.236 244.34 L
433.309 244.938 L
434.382 245.591 L
435.455 246.026 L
436.527 246.625 L
437.6 246.951 L
438.673 247.223 L
439.745 247.604 L
440.818 247.93 L
441.891 248.365 L
442.964 248.637 L
444.036 248.855 L
445.109 249.507 L
446.182 249.997 L
447.255 250.486 L
448.327 251.302 L
449.4 252.118 L
450.473 252.826 L
451.545 253.75 L
452.618 254.729 L
453.691 255.654 L
454.764 256.688 L
455.836 257.721 L
456.909 258.7 L
457.982 259.843 L
459.055 260.768 L
460.127 261.747 L
461.2 262.781 L
462.273 263.433 L
463.345 264.413 L
464.418 265.229 L
465.491 266.099 L
466.564 266.697 L
467.636 267.296 L
468.709 267.785 L
469.782 268.329 L
470.855 269.037 L
471.927 269.635 L
473 270.07 L
474.073 270.505 L
475.145 270.832 L
476.218 271.321 L
477.291 271.974 L
478.364 272.682 L
479.436 273.389 L
480.509 274.259 L
481.582 275.184 L
482.655 276 L
483.727 277.034 L
484.8 278.013 L
485.873 278.938 L
486.945 280.19 L
488.018 281.332 L
489.091 282.475 L
490.164 283.563 L
491.236 284.869 L
492.309 286.065 L
493.382 287.316 L
494.455 288.459 L
495.527 289.71 L
496.6 290.962 L
497.673 292.05 L
498.745 293.192 L
499.818 294.28 L
500.891 295.422 L
501.964 296.293 L
503.036 297.272 L
504.109 298.251 L
505.182 299.067 L
506.255 300.101 L
507.327 300.917 L
508.4 301.733 L
509.473 302.494 L
510.545 303.201 L
511.618 304.181 L
512.691 304.834 L
513.764 305.65 L
514.836 306.303 L
515.909 307.119 L
516.982 308.044 L
518.055 308.642 L
519.127 309.186 L
520.2 309.784 L
521.273 310.328 L
522.345 310.872 L
523.418 311.416 L
524.491 311.96 L
525.564 312.341 L
526.636 312.885 L
527.709 313.157 L
528.782 313.756 L
529.855 314.3 L
530.927 314.898 L
532 315.388 L
533.073 315.986 L
534.145 316.476 L
535.218 317.129 L
536.291 317.51 L
537.364 317.945 L
538.436 318.706 L
539.509 319.359 L
540.582 320.229 L
541.655 320.99 L
542.727 321.697 L
543.8 322.513 L
544.873 323.166 L
545.945 323.928 L
547.018 324.581 L
548.091 325.016 L
549.164 325.505 L
550.236 325.777 L
551.309 326.213 L
552.382 326.376 L
553.455 326.485 L
554.527 326.648 L
555.6 326.321 L
556.673 325.669 L
557.745 325.397 L
558.818 325.56 L
559.891 325.614 L
560.964 325.832 L
562.036 326.104 L
563.109 326.159 L
564.182 326.376 L
565.255 326.54 L
566.327 326.757 L
567.4 327.029 L
568.473 327.464 L
569.545 327.953 L
570.618 328.661 L
571.691 329.477 L
572.764 330.347 L
573.836 331.163 L
574.909 331.816 L
575.982 332.632 L
577.055 333.23 L
578.127 333.937 L
579.2 334.536 L
580.273 335.025 L
581.345 335.514 L
582.418 335.841 L
583.491 336.221 L
584.564 336.494 L
585.636 336.657 L
586.709 336.82 L
587.782 336.928 L
588.855 336.82 L
589.927 336.33 L
591 335.949 L
592.073 335.242 L
593.145 334.589 L
594.218 333.936 L
595.291 333.066 L
596.364 332.196 L
597.436 331.379 L
598.509 330.564 L
599.582 329.639 L
600.655 328.932 L
601.727 328.116 L
602.8 327.572 L
603.873 327.028 L
604.945 326.701 L
606.018 326.592 L
607.091 326.266 L
608.164 326.049 L
609.236 325.885 L
610.309 325.994 L
611.382 326.157 L
612.455 326.538 L
613.527 326.865 L
614.6 327.3 L
615.673 327.79 L
616.745 328.225 L
617.818 328.66 L
618.891 329.204 L
619.964 329.585 L
621.036 329.748 L
622.109 329.802 L
623.182 330.129 L
624.255 329.966 L
625.327 329.53 L
626.4 329.095 L
627.473 328.66 L
628.545 328.061 L
629.618 327.299 L
630.691 326.429 L
631.764 325.559 L
632.836 324.852 L
633.909 324.09 L
634.982 323.22 L
636.055 322.404 L
637.127 321.37 L
638.2 320.609 L
639.273 319.792 L
640.345 319.14 L
641.418 318.432 L
642.491 317.943 L
643.564 317.562 L
644.636 317.181 L
645.709 316.963 L
646.782 316.909 L
647.855 316.908 L
648.927 316.908 L
650 317.126 L
650.056 317.143 L
S
GR
GS
[0.75 0 0 0.75 0 0] CT
0.494 0.184 0.557 RC
1 LJ
2 LW
N
177.944 383.74 M
178 383.736 L
179.073 383.802 L
180.145 383.668 L
181.218 383.603 L
182.291 383.535 L
183.364 383.602 L
184.436 383.734 L
185.509 383.667 L
186.582 383.734 L
187.655 383.667 L
188.727 383.667 L
189.8 383.8 L
190.873 383.666 L
191.945 383.732 L
193.018 383.665 L
194.091 383.667 L
195.164 383.668 L
196.236 383.667 L
197.309 383.601 L
198.382 383.533 L
199.455 383.535 L
200.527 383.469 L
201.6 383.405 L
202.673 383.403 L
203.745 383.338 L
204.818 383.34 L
205.891 383.272 L
206.964 383.208 L
208.036 383.077 L
209.109 383.01 L
210.182 383.077 L
211.255 383.011 L
212.327 383.078 L
213.4 383.143 L
214.473 383.143 L
215.545 383.145 L
216.618 383.014 L
217.691 383.076 L
218.764 383.143 L
219.836 383.209 L
220.909 383.211 L
221.982 383.144 L
223.055 383.212 L
224.127 383.08 L
225.2 383.079 L
226.273 383.146 L
227.345 383.143 L
228.418 383.014 L
229.491 383.015 L
230.564 383.079 L
231.636 383.082 L
232.709 383.08 L
233.782 383.146 L
234.855 383.081 L
235.927 383.147 L
237 383.012 L
238.073 383.081 L
239.145 383.149 L
240.218 383.216 L
241.291 383.216 L
242.364 383.083 L
243.436 383.148 L
244.509 383.148 L
245.582 383.083 L
246.655 382.949 L
247.727 382.886 L
248.8 382.95 L
249.873 382.821 L
250.945 382.819 L
252.018 382.819 L
253.091 382.754 L
254.164 382.886 L
255.236 382.82 L
256.309 382.884 L
257.382 382.884 L
258.455 382.819 L
259.527 382.819 L
260.6 382.821 L
261.673 382.886 L
262.745 382.95 L
263.818 382.883 L
264.891 382.883 L
265.964 382.883 L
267.036 382.813 L
268.109 382.882 L
269.182 383.01 L
270.255 382.946 L
271.327 382.88 L
272.4 382.88 L
273.473 382.944 L
274.545 383.011 L
275.618 383.014 L
276.691 383.079 L
277.764 383.079 L
278.836 383.145 L
279.909 383.209 L
280.982 383.207 L
282.055 383.27 L
283.127 383.139 L
284.2 383.14 L
285.273 383.072 L
286.345 382.805 L
287.418 382.808 L
288.491 382.612 L
289.564 382.413 L
290.636 382.021 L
291.709 381.493 L
292.782 381.103 L
293.855 380.58 L
294.927 379.795 L
296 379.141 L
297.073 378.227 L
298.145 377.185 L
299.218 376.216 L
300.291 374.786 L
301.364 373.363 L
302.436 371.806 L
303.509 370.13 L
304.582 368.136 L
305.655 366.135 L
306.727 363.964 L
307.8 361.666 L
308.873 359.233 L
309.945 356.619 L
311.018 353.833 L
312.091 350.785 L
313.164 347.634 L
314.236 344.242 L
315.309 340.781 L
316.382 337.166 L
317.455 333.444 L
318.527 329.433 L
319.6 325.214 L
320.673 320.878 L
321.745 316.374 L
322.818 311.828 L
323.891 307.06 L
324.964 302.1 L
326.036 296.935 L
327.109 291.816 L
328.182 286.496 L
329.255 280.881 L
330.327 275.29 L
331.4 269.43 L
332.473 263.518 L
333.545 257.206 L
334.618 250.88 L
335.691 244.433 L
336.764 237.535 L
337.836 230.394 L
338.909 223.553 L
339.982 217.187 L
341.055 211.593 L
342.127 206.642 L
343.2 201.885 L
344.273 196.951 L
345.345 192.161 L
346.418 187.324 L
347.491 182.52 L
348.564 177.743 L
349.636 173.464 L
350.709 169.676 L
351.782 166.098 L
352.855 162.542 L
353.927 159.058 L
355 155.64 L
356.073 152.584 L
357.145 149.403 L
358.218 146.7 L
359.291 144.362 L
360.364 142.266 L
361.436 140.654 L
362.509 139.404 L
363.582 138.588 L
364.655 138.083 L
365.727 138.129 L
366.8 138.47 L
367.873 139.739 L
368.945 141.467 L
370.018 143.787 L
371.091 146.225 L
372.164 148.062 L
373.236 149.973 L
374.309 151.831 L
375.382 153.587 L
376.455 155.643 L
377.527 157.948 L
378.6 160.178 L
379.673 162.576 L
380.745 165.264 L
381.818 167.858 L
382.891 170.142 L
383.964 172.503 L
385.036 174.665 L
386.109 176.771 L
387.182 178.989 L
388.255 181.017 L
389.327 182.855 L
390.4 184.363 L
391.473 185.799 L
392.545 187.234 L
393.618 188.545 L
394.691 189.77 L
395.764 190.797 L
396.836 191.796 L
397.909 192.719 L
398.982 193.67 L
400.055 194.435 L
401.127 194.98 L
402.2 195.683 L
403.273 196.464 L
404.345 197.2 L
405.418 198.075 L
406.491 199.014 L
407.564 200.157 L
408.636 200.97 L
409.709 202.314 L
410.782 203.844 L
411.855 205.577 L
412.927 207.158 L
414 208.722 L
415.073 210.429 L
416.145 212.055 L
417.218 213.845 L
418.291 215.557 L
419.364 217.413 L
420.436 219.227 L
421.509 220.874 L
422.582 222.687 L
423.655 224.313 L
424.727 226.002 L
425.8 227.44 L
426.873 228.879 L
427.945 230.028 L
429.018 231.169 L
430.091 232.155 L
431.164 232.969 L
432.236 234.082 L
433.309 234.77 L
434.382 235.447 L
435.455 235.91 L
436.527 236.562 L
437.6 236.901 L
438.673 237.214 L
439.745 237.652 L
440.818 238.028 L
441.891 238.53 L
442.964 238.843 L
444.036 239.094 L
445.109 239.882 L
446.182 240.518 L
447.255 241.154 L
448.327 242.128 L
449.4 243.103 L
450.473 243.916 L
451.545 244.979 L
452.618 246.14 L
453.691 247.238 L
454.764 248.46 L
455.836 249.648 L
456.909 250.841 L
457.982 252.153 L
459.055 253.215 L
460.127 254.373 L
461.2 255.494 L
462.273 256.212 L
463.345 257.337 L
464.418 258.275 L
465.491 259.275 L
466.564 259.931 L
467.636 260.587 L
468.709 261.119 L
469.782 261.776 L
470.855 262.589 L
471.927 263.307 L
473 263.776 L
474.073 264.247 L
475.145 264.592 L
476.218 265.125 L
477.291 265.876 L
478.364 266.69 L
479.436 267.504 L
480.509 268.505 L
481.582 269.599 L
482.655 270.538 L
483.727 271.727 L
484.8 272.882 L
485.873 273.889 L
486.945 275.302 L
488.018 276.617 L
489.091 277.851 L
490.164 279.104 L
491.236 280.607 L
492.309 281.96 L
493.382 283.401 L
494.455 284.742 L
495.527 286.158 L
496.6 287.576 L
497.673 288.805 L
498.745 290.169 L
499.818 291.446 L
500.891 292.739 L
501.964 293.742 L
503.036 294.847 L
504.109 295.975 L
505.182 296.893 L
506.255 298.128 L
507.327 299.068 L
508.4 300.008 L
509.473 300.885 L
510.545 301.7 L
511.618 302.828 L
512.691 303.581 L
513.764 304.5 L
514.836 305.192 L
515.909 306.152 L
516.982 307.219 L
518.055 307.928 L
519.127 308.574 L
520.2 309.264 L
521.273 309.91 L
522.345 310.499 L
523.418 311.126 L
524.491 311.753 L
525.564 312.192 L
526.636 312.8 L
527.709 313.114 L
528.782 313.822 L
529.855 314.467 L
530.927 315.121 L
532 315.703 L
533.073 316.393 L
534.145 316.94 L
535.218 317.692 L
536.291 318.115 L
537.364 318.65 L
538.436 319.478 L
539.509 320.247 L
540.582 321.25 L
541.655 322.112 L
542.727 322.912 L
543.8 323.853 L
544.873 324.606 L
545.945 325.485 L
547.018 326.269 L
548.091 326.74 L
549.164 327.291 L
550.236 327.604 L
551.309 328.092 L
552.382 328.281 L
553.455 328.406 L
554.527 328.594 L
555.6 328.218 L
556.673 327.464 L
557.745 327.136 L
558.818 327.339 L
559.891 327.401 L
560.964 327.652 L
562.036 327.952 L
563.109 328.015 L
564.182 328.252 L
565.255 328.455 L
566.327 328.706 L
567.4 329.006 L
568.473 329.522 L
569.545 330.073 L
570.618 330.89 L
571.691 331.819 L
572.764 332.825 L
573.836 333.767 L
574.909 334.508 L
575.982 335.438 L
577.055 336.117 L
578.127 336.935 L
579.2 337.626 L
580.273 338.192 L
581.345 338.746 L
582.418 339.135 L
583.491 339.575 L
584.564 339.889 L
585.636 340.078 L
586.709 340.301 L
587.782 340.415 L
588.855 340.289 L
589.927 339.735 L
591 339.296 L
592.073 338.479 L
593.145 337.724 L
594.218 336.982 L
595.291 335.977 L
596.364 334.972 L
597.436 334.043 L
598.509 333.087 L
599.582 332.033 L
600.655 331.189 L
601.727 330.26 L
602.8 329.66 L
603.873 329.032 L
604.945 328.656 L
606.018 328.516 L
607.091 328.153 L
608.164 327.888 L
609.236 327.685 L
610.309 327.796 L
611.382 327.985 L
612.455 328.439 L
613.527 328.816 L
614.6 329.305 L
615.673 329.87 L
616.745 330.373 L
617.818 330.862 L
618.891 331.463 L
619.964 331.917 L
621.036 332.105 L
622.109 332.155 L
623.182 332.505 L
624.255 332.303 L
625.327 331.8 L
626.4 331.269 L
627.473 330.751 L
628.545 330.058 L
629.618 329.148 L
630.691 328.139 L
631.764 327.132 L
632.836 326.327 L
633.909 325.43 L
634.982 324.391 L
636.055 323.43 L
637.127 322.216 L
638.2 321.333 L
639.273 320.371 L
640.345 319.614 L
641.418 318.81 L
642.491 318.259 L
643.564 317.817 L
644.636 317.342 L
645.709 317.089 L
646.782 317.043 L
647.855 317.026 L
648.927 316.991 L
650 317.226 L
650.056 317.246 L
S
GR
GS
[0.75 0 0 0.75 0 0] CT
0.467 0.675 0.188 RC
[8 8] 0 setdash
2 LJ
2 LW
N
312.091 445 M
313.164 444.533 L
314.236 444.026 L
315.309 443.476 L
316.382 442.882 L
317.455 442.242 L
318.527 441.554 L
319.6 440.815 L
320.673 440.023 L
321.745 439.175 L
322.818 438.272 L
323.891 437.31 L
324.964 436.288 L
326.036 435.203 L
327.109 434.054 L
328.182 432.84 L
329.255 431.558 L
330.327 430.206 L
331.4 428.783 L
332.473 427.286 L
333.545 425.714 L
334.618 424.063 L
335.691 422.332 L
336.764 420.519 L
337.836 418.618 L
338.909 416.63 L
339.982 414.56 L
341.055 412.416 L
342.127 410.206 L
343.2 407.935 L
344.273 405.604 L
345.345 403.213 L
346.418 400.762 L
347.491 398.251 L
348.564 395.68 L
349.636 393.053 L
350.709 390.375 L
351.782 387.652 L
352.855 384.884 L
353.927 382.073 L
355 379.219 L
356.073 376.324 L
357.145 373.391 L
358.218 370.421 L
359.291 367.419 L
360.364 364.39 L
361.436 361.338 L
362.509 358.268 L
363.582 355.186 L
364.655 352.095 L
365.727 349.001 L
366.8 345.91 L
367.873 342.828 L
368.945 339.765 L
370.018 336.728 L
371.091 333.72 L
372.164 330.739 L
373.236 327.781 L
374.309 324.846 L
375.382 321.934 L
376.455 319.046 L
377.527 316.185 L
378.6 313.352 L
379.673 310.547 L
380.745 307.775 L
381.818 305.035 L
382.891 302.326 L
383.964 299.645 L
385.036 296.993 L
386.109 294.367 L
387.182 291.768 L
388.255 289.196 L
389.327 286.648 L
390.4 284.12 L
391.473 281.611 L
392.545 279.12 L
393.618 276.645 L
394.691 274.187 L
395.764 271.742 L
396.836 269.311 L
397.909 266.891 L
398.982 264.482 L
400.055 262.085 L
401.127 259.695 L
402.2 257.314 L
403.273 254.941 L
404.345 252.578 L
405.418 250.225 L
406.491 247.884 L
407.564 245.555 L
408.636 243.238 L
409.709 240.935 L
410.782 238.65 L
411.855 236.385 L
412.927 234.141 L
414 231.916 L
415.073 229.712 L
416.145 227.528 L
417.218 225.366 L
418.291 223.225 L
419.364 221.107 L
420.436 219.011 L
421.509 216.937 L
422.582 214.884 L
423.655 212.853 L
424.727 210.843 L
425.8 208.852 L
426.873 206.879 L
427.945 204.922 L
429.018 202.979 L
430.091 201.049 L
431.164 199.131 L
432.236 197.225 L
433.309 195.33 L
434.382 193.443 L
435.455 191.563 L
436.527 189.691 L
437.6 187.824 L
438.673 185.962 L
439.745 184.104 L
440.818 182.252 L
441.891 180.404 L
442.964 178.562 L
444.036 176.724 L
445.109 174.891 L
446.182 173.068 L
447.255 171.253 L
448.327 169.447 L
449.4 167.654 L
450.473 165.872 L
451.545 164.102 L
452.618 162.345 L
453.691 160.603 L
454.764 158.874 L
455.836 157.161 L
456.909 155.463 L
457.982 153.78 L
459.055 152.112 L
460.127 150.458 L
461.2 148.818 L
462.273 147.19 L
463.345 145.573 L
464.418 143.969 L
465.491 142.376 L
466.564 140.795 L
467.636 139.221 L
468.709 137.655 L
469.782 136.096 L
470.855 134.546 L
471.927 133.006 L
473 131.473 L
474.073 129.946 L
475.145 128.424 L
476.218 126.908 L
477.291 125.399 L
478.364 123.901 L
479.436 122.412 L
480.509 120.935 L
481.582 119.471 L
482.655 118.019 L
483.727 116.581 L
484.8 115.157 L
485.873 113.747 L
486.945 112.351 L
488.018 110.973 L
489.091 109.611 L
490.164 108.264 L
491.236 106.934 L
492.309 105.622 L
493.382 104.327 L
494.455 103.05 L
495.527 101.79 L
496.6 100.547 L
497.673 99.321 L
498.745 98.111 L
499.818 96.918 L
500.891 95.74 L
501.964 94.577 L
503.036 93.427 L
504.109 92.291 L
505.182 91.167 L
506.255 90.057 L
507.327 88.96 L
508.4 87.876 L
509.473 86.802 L
510.545 85.739 L
511.618 84.688 L
512.691 83.649 L
513.764 82.62 L
514.836 81.601 L
515.909 80.593 L
S
GR
GS
[0.75 0 0 0.75 0 0] CT
1 GC
N
640 220 M
640 103 L
558 103 L
558 220 L
cp
f
GR
GS
[0.75 0 0 0.75 453.75 91.5] CT
/Helvetica 16.8 F
GS
[1 0 0 1 0 0] CT
0 0 moveto 
1 -1 scale
(V) t 
GR
GR
GS
[0.75 0 0 0.75 462.75 97.5] CT
/Helvetica 13.44 F
GS
[1 0 0 1 0 0] CT
0 0 moveto 
1 -1 scale
(D) t 
GR
GR
GS
[0.75 0 0 0.75 470.25 97.5] CT
/Helvetica 13.44 F
GS
[1 0 0 1 0 0] CT
0 0 moveto 
1 -1 scale
(S) t 
GR
GR
GS
[0.75 0 0 0.75 0 0] CT
0.851 0.325 0.098 RC
1 LJ
2 LW
N
562 118.932 M
602 118.932 L
S
GR
GS
[0.75 0 0 0.75 453.75 112.5] CT
/Helvetica 16.8 F
GS
[1 0 0 1 0 0] CT
0 0 moveto 
1 -1 scale
(I) t 
GR
GR
GS
[0.75 0 0 0.75 457.5 118.5] CT
/Helvetica 13.44 F
GS
[1 0 0 1 0 0] CT
0 0 moveto 
1 -1 scale
(D) t 
GR
GR
GS
[0.75 0 0 0.75 0 0] CT
0.929 0.694 0.125 RC
1 LJ
2 LW
N
562 147.311 M
602 147.311 L
S
GR
GS
[0.75 0 0 0.75 453.75 134.25] CT
/Helvetica 16.8 F
GS
[1 0 0 1 0 0] CT
0 0 moveto 
1 -1 scale
(P) t 
GR
GR
GS
[0.75 0 0 0.75 462.75 140.25] CT
/Helvetica 13.44 F
GS
[1 0 0 1 0 0] CT
0 0 moveto 
1 -1 scale
(s) t 
GR
GR
GS
[0.75 0 0 0.75 468 140.25] CT
/Helvetica 13.44 F
GS
[1 0 0 1 0 0] CT
0 0 moveto 
1 -1 scale
(w) t 
GR
GR
GS
[0.75 0 0 0.75 0 0] CT
0.494 0.184 0.557 RC
1 LJ
2 LW
N
562 175.689 M
602 175.689 L
S
GR
GS
[0.75 0 0 0.75 453.75 155.25] CT
/Helvetica 16.8 F
GS
[1 0 0 1 0 0] CT
0 0 moveto 
1 -1 scale
(E) t 
GR
GR
GS
[0.75 0 0 0.75 462.75 161.25] CT
/Helvetica 13.44 F
GS
[1 0 0 1 0 0] CT
0 0 moveto 
1 -1 scale
(s) t 
GR
GR
GS
[0.75 0 0 0.75 468 161.25] CT
/Helvetica 13.44 F
GS
[1 0 0 1 0 0] CT
0 0 moveto 
1 -1 scale
(w) t 
GR
GR
GS
[0.75 0 0 0.75 0 0] CT
0.467 0.675 0.188 RC
[8 8] 0 setdash
2 LJ
2 LW
N
562 204.068 M
602 204.068 L
S
GR
GS
[0.75 0 0 0.75 0 0] CT
0.149 GC
10.0 ML
0.667 LW
N
558 220 M
558 103 L
640 103 L
640 220 L
cp
S
GR
%%Trailer
%%Pages: 1
%%EOF
