%!PS-Adobe-3.0 EPSF-3.0
%%Creator: (MATLAB, The Mathworks, Inc. Version 24.1.0.2603908 \(R2024a\) Update 3. Operating System: Windows 10)
%%Title: (C:/Users/lorde/Documents/MATLAB/Master Lab Course/Exercise 3/E3_Rg10_Eon1.eps)
%%CreationDate: 2024-06-30T10:05:23
%%Pages: (atend)
%%BoundingBox:     0     0   600   375
%%LanguageLevel: 3
%%EndComments
%%BeginProlog
%%BeginResource: procset (Apache XML Graphics Std ProcSet) 1.2 0
%%Version: 1.2 0
%%Copyright: (Copyright 2001-2003,2010 The Apache Software Foundation. License terms: http://www.apache.org/licenses/LICENSE-2.0)
/bd{bind def}bind def
/ld{load def}bd
/GR/grestore ld
/GS/gsave ld
/RM/rmoveto ld
/C/curveto ld
/t/show ld
/L/lineto ld
/ML/setmiterlimit ld
/CT/concat ld
/f/fill ld
/N/newpath ld
/S/stroke ld
/CC/setcmykcolor ld
/A/ashow ld
/cp/closepath ld
/RC/setrgbcolor ld
/LJ/setlinejoin ld
/GC/setgray ld
/LW/setlinewidth ld
/M/moveto ld
/re {4 2 roll M
1 index 0 rlineto
0 exch rlineto
neg 0 rlineto
cp } bd
/_ctm matrix def
/_tm matrix def
/BT { _ctm currentmatrix pop matrix _tm copy pop 0 0 moveto } bd
/ET { _ctm setmatrix } bd
/iTm { _ctm setmatrix _tm concat } bd
/Tm { _tm astore pop iTm 0 0 moveto } bd
/ux 0.0 def
/uy 0.0 def
/F {
  /Tp exch def
  /Tf exch def
  Tf findfont Tp scalefont setfont
  /cf Tf def  /cs Tp def
} bd
/ULS {currentpoint /uy exch def /ux exch def} bd
/ULE {
  /Tcx currentpoint pop def
  gsave
  newpath
  cf findfont cs scalefont dup
  /FontMatrix get 0 get /Ts exch def /FontInfo get dup
  /UnderlinePosition get Ts mul /To exch def
  /UnderlineThickness get Ts mul /Tt exch def
  ux uy To add moveto  Tcx uy To add lineto
  Tt setlinewidth stroke
  grestore
} bd
/OLE {
  /Tcx currentpoint pop def
  gsave
  newpath
  cf findfont cs scalefont dup
  /FontMatrix get 0 get /Ts exch def /FontInfo get dup
  /UnderlinePosition get Ts mul /To exch def
  /UnderlineThickness get Ts mul /Tt exch def
  ux uy To add cs add moveto Tcx uy To add cs add lineto
  Tt setlinewidth stroke
  grestore
} bd
/SOE {
  /Tcx currentpoint pop def
  gsave
  newpath
  cf findfont cs scalefont dup
  /FontMatrix get 0 get /Ts exch def /FontInfo get dup
  /UnderlinePosition get Ts mul /To exch def
  /UnderlineThickness get Ts mul /Tt exch def
  ux uy To add cs 10 mul 26 idiv add moveto Tcx uy To add cs 10 mul 26 idiv add lineto
  Tt setlinewidth stroke
  grestore
} bd
/QT {
/Y22 exch store
/X22 exch store
/Y21 exch store
/X21 exch store
currentpoint
/Y21 load 2 mul add 3 div exch
/X21 load 2 mul add 3 div exch
/X21 load 2 mul /X22 load add 3 div
/Y21 load 2 mul /Y22 load add 3 div
/X22 load /Y22 load curveto
} bd
/SSPD {
dup length /d exch dict def
{
/v exch def
/k exch def
currentpagedevice k known {
/cpdv currentpagedevice k get def
v cpdv ne {
/upd false def
/nullv v type /nulltype eq def
/nullcpdv cpdv type /nulltype eq def
nullv nullcpdv or
{
/upd true def
} {
/sametype v type cpdv type eq def
sametype {
v type /arraytype eq {
/vlen v length def
/cpdvlen cpdv length def
vlen cpdvlen eq {
0 1 vlen 1 sub {
/i exch def
/obj v i get def
/cpdobj cpdv i get def
obj cpdobj ne {
/upd true def
exit
} if
} for
} {
/upd true def
} ifelse
} {
v type /dicttype eq {
v {
/dv exch def
/dk exch def
/cpddv cpdv dk get def
dv cpddv ne {
/upd true def
exit
} if
} forall
} {
/upd true def
} ifelse
} ifelse
} if
} ifelse
upd true eq {
d k v put
} if
} if
} if
} forall
d length 0 gt {
d setpagedevice
} if
} bd
/RE { % /NewFontName [NewEncodingArray] /FontName RE -
  findfont dup length dict begin
  {
    1 index /FID ne
    {def} {pop pop} ifelse
  } forall
  /Encoding exch def
  /FontName 1 index def
  currentdict definefont pop
  end
} bind def
%%EndResource
%%BeginResource: procset (Apache XML Graphics EPS ProcSet) 1.0 0
%%Version: 1.0 0
%%Copyright: (Copyright 2002-2003 The Apache Software Foundation. License terms: http://www.apache.org/licenses/LICENSE-2.0)
/BeginEPSF { %def
/b4_Inc_state save def         % Save state for cleanup
/dict_count countdictstack def % Count objects on dict stack
/op_count count 1 sub def      % Count objects on operand stack
userdict begin                 % Push userdict on dict stack
/showpage { } def              % Redefine showpage, { } = null proc
0 setgray 0 setlinecap         % Prepare graphics state
1 setlinewidth 0 setlinejoin
10 setmiterlimit [ ] 0 setdash newpath
/languagelevel where           % If level not equal to 1 then
{pop languagelevel             % set strokeadjust and
1 ne                           % overprint to their defaults.
{false setstrokeadjust false setoverprint
} if
} if
} bd
/EndEPSF { %def
count op_count sub {pop} repeat            % Clean up stacks
countdictstack dict_count sub {end} repeat
b4_Inc_state restore
} bd
%%EndResource
%FOPBeginFontDict
%%IncludeResource: font Courier-Oblique
%%IncludeResource: font Courier-BoldOblique
%%IncludeResource: font Courier-Bold
%%IncludeResource: font ZapfDingbats
%%IncludeResource: font Symbol
%%IncludeResource: font Helvetica
%%IncludeResource: font Helvetica-Oblique
%%IncludeResource: font Helvetica-Bold
%%IncludeResource: font Helvetica-BoldOblique
%%IncludeResource: font Times-Roman
%%IncludeResource: font Times-Italic
%%IncludeResource: font Times-Bold
%%IncludeResource: font Times-BoldItalic
%%IncludeResource: font Courier
%FOPEndFontDict
%%BeginResource: encoding WinAnsiEncoding
/WinAnsiEncoding [
/.notdef /.notdef /.notdef /.notdef /.notdef
/.notdef /.notdef /.notdef /.notdef /.notdef
/.notdef /.notdef /.notdef /.notdef /.notdef
/.notdef /.notdef /.notdef /.notdef /.notdef
/.notdef /.notdef /.notdef /.notdef /.notdef
/.notdef /.notdef /.notdef /.notdef /.notdef
/.notdef /.notdef /space /exclam /quotedbl
/numbersign /dollar /percent /ampersand /quotesingle
/parenleft /parenright /asterisk /plus /comma
/hyphen /period /slash /zero /one
/two /three /four /five /six
/seven /eight /nine /colon /semicolon
/less /equal /greater /question /at
/A /B /C /D /E
/F /G /H /I /J
/K /L /M /N /O
/P /Q /R /S /T
/U /V /W /X /Y
/Z /bracketleft /backslash /bracketright /asciicircum
/underscore /quoteleft /a /b /c
/d /e /f /g /h
/i /j /k /l /m
/n /o /p /q /r
/s /t /u /v /w
/x /y /z /braceleft /bar
/braceright /asciitilde /bullet /Euro /bullet
/quotesinglbase /florin /quotedblbase /ellipsis /dagger
/daggerdbl /circumflex /perthousand /Scaron /guilsinglleft
/OE /bullet /Zcaron /bullet /bullet
/quoteleft /quoteright /quotedblleft /quotedblright /bullet
/endash /emdash /asciitilde /trademark /scaron
/guilsinglright /oe /bullet /zcaron /Ydieresis
/space /exclamdown /cent /sterling /currency
/yen /brokenbar /section /dieresis /copyright
/ordfeminine /guillemotleft /logicalnot /sfthyphen /registered
/macron /degree /plusminus /twosuperior /threesuperior
/acute /mu /paragraph /middot /cedilla
/onesuperior /ordmasculine /guillemotright /onequarter /onehalf
/threequarters /questiondown /Agrave /Aacute /Acircumflex
/Atilde /Adieresis /Aring /AE /Ccedilla
/Egrave /Eacute /Ecircumflex /Edieresis /Igrave
/Iacute /Icircumflex /Idieresis /Eth /Ntilde
/Ograve /Oacute /Ocircumflex /Otilde /Odieresis
/multiply /Oslash /Ugrave /Uacute /Ucircumflex
/Udieresis /Yacute /Thorn /germandbls /agrave
/aacute /acircumflex /atilde /adieresis /aring
/ae /ccedilla /egrave /eacute /ecircumflex
/edieresis /igrave /iacute /icircumflex /idieresis
/eth /ntilde /ograve /oacute /ocircumflex
/otilde /odieresis /divide /oslash /ugrave
/uacute /ucircumflex /udieresis /yacute /thorn
/ydieresis
] def
%%EndResource
%FOPBeginFontReencode
/Courier-Oblique findfont
dup length dict begin
  {1 index /FID ne {def} {pop pop} ifelse} forall
  /Encoding WinAnsiEncoding def
  currentdict
end
/Courier-Oblique exch definefont pop
/Courier-BoldOblique findfont
dup length dict begin
  {1 index /FID ne {def} {pop pop} ifelse} forall
  /Encoding WinAnsiEncoding def
  currentdict
end
/Courier-BoldOblique exch definefont pop
/Courier-Bold findfont
dup length dict begin
  {1 index /FID ne {def} {pop pop} ifelse} forall
  /Encoding WinAnsiEncoding def
  currentdict
end
/Courier-Bold exch definefont pop
/Helvetica findfont
dup length dict begin
  {1 index /FID ne {def} {pop pop} ifelse} forall
  /Encoding WinAnsiEncoding def
  currentdict
end
/Helvetica exch definefont pop
/Helvetica-Oblique findfont
dup length dict begin
  {1 index /FID ne {def} {pop pop} ifelse} forall
  /Encoding WinAnsiEncoding def
  currentdict
end
/Helvetica-Oblique exch definefont pop
/Helvetica-Bold findfont
dup length dict begin
  {1 index /FID ne {def} {pop pop} ifelse} forall
  /Encoding WinAnsiEncoding def
  currentdict
end
/Helvetica-Bold exch definefont pop
/Helvetica-BoldOblique findfont
dup length dict begin
  {1 index /FID ne {def} {pop pop} ifelse} forall
  /Encoding WinAnsiEncoding def
  currentdict
end
/Helvetica-BoldOblique exch definefont pop
/Times-Roman findfont
dup length dict begin
  {1 index /FID ne {def} {pop pop} ifelse} forall
  /Encoding WinAnsiEncoding def
  currentdict
end
/Times-Roman exch definefont pop
/Times-Italic findfont
dup length dict begin
  {1 index /FID ne {def} {pop pop} ifelse} forall
  /Encoding WinAnsiEncoding def
  currentdict
end
/Times-Italic exch definefont pop
/Times-Bold findfont
dup length dict begin
  {1 index /FID ne {def} {pop pop} ifelse} forall
  /Encoding WinAnsiEncoding def
  currentdict
end
/Times-Bold exch definefont pop
/Times-BoldItalic findfont
dup length dict begin
  {1 index /FID ne {def} {pop pop} ifelse} forall
  /Encoding WinAnsiEncoding def
  currentdict
end
/Times-BoldItalic exch definefont pop
/Courier findfont
dup length dict begin
  {1 index /FID ne {def} {pop pop} ifelse} forall
  /Encoding WinAnsiEncoding def
  currentdict
end
/Courier exch definefont pop
%FOPEndFontReencode
%%EndProlog
%%Page: 1 1
%%PageBoundingBox: 0 0 600 375
%%BeginPageSetup
[1 0 0 -1 0 375] CT
%%EndPageSetup
GS
[0.75 0 0 0.75 0 0] CT
1 GC
N
0 0 800 500 re
f
GR
GS
[0.75 0 0 0.75 0 0] CT
1 GC
N
0 0 800 500 re
f
GR
GS
[0.75 0 0 0.75 0 0] CT
0.941 GC
N
650 445 M
659 445 L
659 37 L
650 37 L
cp
f
GR
GS
[0.75 0 0 0.75 0 0] CT
0.149 GC
2 setlinecap
1 LJ
0.667 LW
N
650 445 M
659 445 L
S
GR
GS
[0.75 0 0 0.75 0 0] CT
0.929 0.694 0.125 RC
2 setlinecap
1 LJ
0.667 LW
N
659 445 M
659 37 L
S
GR
GS
[0.75 0 0 0.75 0 0] CT
0.929 0.694 0.125 RC
2 setlinecap
1 LJ
0.667 LW
N
659 445 M
654.92 445 L
S
GR
GS
[0.75 0 0 0.75 0 0] CT
0.929 0.694 0.125 RC
2 setlinecap
1 LJ
0.667 LW
N
659 363.4 M
654.92 363.4 L
S
GR
GS
[0.75 0 0 0.75 0 0] CT
0.929 0.694 0.125 RC
2 setlinecap
1 LJ
0.667 LW
N
659 281.8 M
654.92 281.8 L
S
GR
GS
[0.75 0 0 0.75 0 0] CT
0.929 0.694 0.125 RC
2 setlinecap
1 LJ
0.667 LW
N
659 200.2 M
654.92 200.2 L
S
GR
GS
[0.75 0 0 0.75 0 0] CT
0.929 0.694 0.125 RC
2 setlinecap
1 LJ
0.667 LW
N
659 118.6 M
654.92 118.6 L
S
GR
GS
[0.75 0 0 0.75 0 0] CT
0.929 0.694 0.125 RC
2 setlinecap
1 LJ
0.667 LW
N
659 37 M
654.92 37 L
S
GR
GS
[0.75 0 0 0.75 499.05002 333.75] CT
0.929 0.694 0.125 RC
/Helvetica 18.667 F
GS
[1 0 0 1 0 0] CT
0 7 moveto 
1 -1 scale
(-5) t 
GR
GR
GS
[0.75 0 0 0.75 499.05002 272.55] CT
0.929 0.694 0.125 RC
/Helvetica 18.667 F
GS
[1 0 0 1 0 0] CT
0 7 moveto 
1 -1 scale
(0) t 
GR
GR
GS
[0.75 0 0 0.75 499.05002 211.34999] CT
0.929 0.694 0.125 RC
/Helvetica 18.667 F
GS
[1 0 0 1 0 0] CT
0 7 moveto 
1 -1 scale
(5) t 
GR
GR
GS
[0.75 0 0 0.75 499.05002 150.15] CT
0.929 0.694 0.125 RC
/Helvetica 18.667 F
GS
[1 0 0 1 0 0] CT
0 7 moveto 
1 -1 scale
(10) t 
GR
GR
GS
[0.75 0 0 0.75 499.05002 88.95] CT
0.929 0.694 0.125 RC
/Helvetica 18.667 F
GS
[1 0 0 1 0 0] CT
0 7 moveto 
1 -1 scale
(15) t 
GR
GR
GS
[0.75 0 0 0.75 499.05002 27.75] CT
0.929 0.694 0.125 RC
/Helvetica 18.667 F
GS
[1 0 0 1 0 0] CT
0 7 moveto 
1 -1 scale
(20) t 
GR
GR
GS
[0 -0.75 0.75 0 533.25 199.5] CT
0.929 0.694 0.125 RC
/Helvetica 20.533 F
GS
[1 0 0 1 0 0] CT
0 0 moveto 
1 -1 scale
(I) t 
GR
GR
GS
[0 -0.75 0.75 0 540.75 195] CT
0.929 0.694 0.125 RC
/Helvetica 16.427 F
GS
[1 0 0 1 0 0] CT
0 0 moveto 
1 -1 scale
(D) t 
GR
GR
GS
[0 -0.75 0.75 0 533.25 186] CT
0.929 0.694 0.125 RC
/Helvetica 20.533 F
GS
[1 0 0 1 0 0] CT
0 0 moveto 
1 -1 scale
( / A) t 
GR
GR
GS
[0.75 0 0 0.75 0 0] CT
0.941 GC
N
104 445 M
113 445 L
113 37 L
104 37 L
cp
f
GR
GS
[0.75 0 0 0.75 0 0] CT
0.149 GC
2 setlinecap
1 LJ
0.667 LW
N
104 445 M
113 445 L
S
GR
GS
[0.75 0 0 0.75 0 0] CT
0.494 0.184 0.557 RC
2 setlinecap
1 LJ
0.667 LW
N
104 445 M
104 37 L
S
GR
GS
[0.75 0 0 0.75 0 0] CT
0.494 0.184 0.557 RC
2 setlinecap
1 LJ
0.667 LW
N
104 445 M
108.08 445 L
S
GR
GS
[0.75 0 0 0.75 0 0] CT
0.494 0.184 0.557 RC
2 setlinecap
1 LJ
0.667 LW
N
104 386.714 M
108.08 386.714 L
S
GR
GS
[0.75 0 0 0.75 0 0] CT
0.494 0.184 0.557 RC
2 setlinecap
1 LJ
0.667 LW
N
104 328.429 M
108.08 328.429 L
S
GR
GS
[0.75 0 0 0.75 0 0] CT
0.494 0.184 0.557 RC
2 setlinecap
1 LJ
0.667 LW
N
104 270.143 M
108.08 270.143 L
S
GR
GS
[0.75 0 0 0.75 0 0] CT
0.494 0.184 0.557 RC
2 setlinecap
1 LJ
0.667 LW
N
104 211.857 M
108.08 211.857 L
S
GR
GS
[0.75 0 0 0.75 0 0] CT
0.494 0.184 0.557 RC
2 setlinecap
1 LJ
0.667 LW
N
104 153.571 M
108.08 153.571 L
S
GR
GS
[0.75 0 0 0.75 0 0] CT
0.494 0.184 0.557 RC
2 setlinecap
1 LJ
0.667 LW
N
104 95.286 M
108.08 95.286 L
S
GR
GS
[0.75 0 0 0.75 0 0] CT
0.494 0.184 0.557 RC
2 setlinecap
1 LJ
0.667 LW
N
104 37 M
108.08 37 L
S
GR
GS
[0.75 0 0 0.75 73.2 333.75] CT
0.494 0.184 0.557 RC
/Helvetica 18.667 F
GS
[1 0 0 1 0 0] CT
-27 7 moveto 
1 -1 scale
(-50) t 
GR
GR
GS
[0.75 0 0 0.75 73.2 290.03572] CT
0.494 0.184 0.557 RC
/Helvetica 18.667 F
GS
[1 0 0 1 0 0] CT
-11 7 moveto 
1 -1 scale
(0) t 
GR
GR
GS
[0.75 0 0 0.75 73.2 246.32142] CT
0.494 0.184 0.557 RC
/Helvetica 18.667 F
GS
[1 0 0 1 0 0] CT
-21 7 moveto 
1 -1 scale
(50) t 
GR
GR
GS
[0.75 0 0 0.75 73.2 202.60714] CT
0.494 0.184 0.557 RC
/Helvetica 18.667 F
GS
[1 0 0 1 0 0] CT
-32 7 moveto 
1 -1 scale
(100) t 
GR
GR
GS
[0.75 0 0 0.75 73.2 158.89286] CT
0.494 0.184 0.557 RC
/Helvetica 18.667 F
GS
[1 0 0 1 0 0] CT
-32 7 moveto 
1 -1 scale
(150) t 
GR
GR
GS
[0.75 0 0 0.75 73.2 115.17857] CT
0.494 0.184 0.557 RC
/Helvetica 18.667 F
GS
[1 0 0 1 0 0] CT
-32 7 moveto 
1 -1 scale
(200) t 
GR
GR
GS
[0.75 0 0 0.75 73.2 71.46428] CT
0.494 0.184 0.557 RC
/Helvetica 18.667 F
GS
[1 0 0 1 0 0] CT
-32 7 moveto 
1 -1 scale
(250) t 
GR
GR
GS
[0.75 0 0 0.75 73.2 27.75] CT
0.494 0.184 0.557 RC
/Helvetica 18.667 F
GS
[1 0 0 1 0 0] CT
-32 7 moveto 
1 -1 scale
(300) t 
GR
GR
GS
[0 -0.75 0.75 0 36 207.75] CT
0.494 0.184 0.557 RC
/Helvetica 20.533 F
GS
[1 0 0 1 0 0] CT
0 0 moveto 
1 -1 scale
(P) t 
GR
GR
GS
[0 -0.75 0.75 0 43.5 197.25] CT
0.494 0.184 0.557 RC
/Helvetica 16.427 F
GS
[1 0 0 1 0 0] CT
0 0 moveto 
1 -1 scale
(s) t 
GR
GR
GS
[0 -0.75 0.75 0 43.5 190.5] CT
0.494 0.184 0.557 RC
/Helvetica 16.427 F
GS
[1 0 0 1 0 0] CT
0 0 moveto 
1 -1 scale
(w) t 
GR
GR
GS
[0 -0.75 0.75 0 36 181.5] CT
0.494 0.184 0.557 RC
/Helvetica 20.533 F
GS
[1 0 0 1 0 0] CT
0 0 moveto 
1 -1 scale
( / W) t 
GR
GR
GS
[0.75 0 0 0.75 0 0] CT
0.941 GC
N
724 445 M
732 445 L
732 37 L
724 37 L
cp
f
GR
GS
[0.75 0 0 0.75 0 0] CT
0.149 GC
2 setlinecap
1 LJ
0.667 LW
N
724 445 M
732 445 L
S
GR
GS
[0.75 0 0 0.75 0 0] CT
0.467 0.675 0.188 RC
2 setlinecap
1 LJ
0.667 LW
N
732 445 M
732 37 L
S
GR
GS
[0.75 0 0 0.75 0 0] CT
0.467 0.675 0.188 RC
2 setlinecap
1 LJ
0.667 LW
N
732 445 M
727.92 445 L
S
GR
GS
[0.75 0 0 0.75 0 0] CT
0.467 0.675 0.188 RC
2 setlinecap
1 LJ
0.667 LW
N
732 386.714 M
727.92 386.714 L
S
GR
GS
[0.75 0 0 0.75 0 0] CT
0.467 0.675 0.188 RC
2 setlinecap
1 LJ
0.667 LW
N
732 328.429 M
727.92 328.429 L
S
GR
GS
[0.75 0 0 0.75 0 0] CT
0.467 0.675 0.188 RC
2 setlinecap
1 LJ
0.667 LW
N
732 270.143 M
727.92 270.143 L
S
GR
GS
[0.75 0 0 0.75 0 0] CT
0.467 0.675 0.188 RC
2 setlinecap
1 LJ
0.667 LW
N
732 211.857 M
727.92 211.857 L
S
GR
GS
[0.75 0 0 0.75 0 0] CT
0.467 0.675 0.188 RC
2 setlinecap
1 LJ
0.667 LW
N
732 153.571 M
727.92 153.571 L
S
GR
GS
[0.75 0 0 0.75 0 0] CT
0.467 0.675 0.188 RC
2 setlinecap
1 LJ
0.667 LW
N
732 95.286 M
727.92 95.286 L
S
GR
GS
[0.75 0 0 0.75 0 0] CT
0.467 0.675 0.188 RC
2 setlinecap
1 LJ
0.667 LW
N
732 37 M
727.92 37 L
S
GR
GS
[0.75 0 0 0.75 553.80002 333.75] CT
0.467 0.675 0.188 RC
/Helvetica 18.667 F
GS
[1 0 0 1 0 0] CT
0 7 moveto 
1 -1 scale
(0) t 
GR
GR
GS
[0.75 0 0 0.75 553.80002 290.03572] CT
0.467 0.675 0.188 RC
/Helvetica 18.667 F
GS
[1 0 0 1 0 0] CT
0 7 moveto 
1 -1 scale
(2) t 
GR
GR
GS
[0.75 0 0 0.75 553.80002 246.32142] CT
0.467 0.675 0.188 RC
/Helvetica 18.667 F
GS
[1 0 0 1 0 0] CT
0 7 moveto 
1 -1 scale
(4) t 
GR
GR
GS
[0.75 0 0 0.75 553.80002 202.60714] CT
0.467 0.675 0.188 RC
/Helvetica 18.667 F
GS
[1 0 0 1 0 0] CT
0 7 moveto 
1 -1 scale
(6) t 
GR
GR
GS
[0.75 0 0 0.75 553.80002 158.89286] CT
0.467 0.675 0.188 RC
/Helvetica 18.667 F
GS
[1 0 0 1 0 0] CT
0 7 moveto 
1 -1 scale
(8) t 
GR
GR
GS
[0.75 0 0 0.75 553.80002 115.17857] CT
0.467 0.675 0.188 RC
/Helvetica 18.667 F
GS
[1 0 0 1 0 0] CT
0 7 moveto 
1 -1 scale
(10) t 
GR
GR
GS
[0.75 0 0 0.75 553.80002 71.46428] CT
0.467 0.675 0.188 RC
/Helvetica 18.667 F
GS
[1 0 0 1 0 0] CT
0 7 moveto 
1 -1 scale
(12) t 
GR
GR
GS
[0.75 0 0 0.75 553.80002 27.75] CT
0.467 0.675 0.188 RC
/Helvetica 18.667 F
GS
[1 0 0 1 0 0] CT
0 7 moveto 
1 -1 scale
(14) t 
GR
GR
GS
[0 -0.75 0.75 0 588 210] CT
0.467 0.675 0.188 RC
/Helvetica 20.533 F
GS
[1 0 0 1 0 0] CT
0 0 moveto 
1 -1 scale
(E) t 
GR
GR
GS
[0 -0.75 0.75 0 595.5 199.5] CT
0.467 0.675 0.188 RC
/Helvetica 16.427 F
GS
[1 0 0 1 0 0] CT
0 0 moveto 
1 -1 scale
(s) t 
GR
GR
GS
[0 -0.75 0.75 0 595.5 192.75] CT
0.467 0.675 0.188 RC
/Helvetica 16.427 F
GS
[1 0 0 1 0 0] CT
0 0 moveto 
1 -1 scale
(w) t 
GR
GR
GS
[0 -0.75 0.75 0 588 183.75] CT
0.467 0.675 0.188 RC
/Helvetica 20.533 F
GS
[1 0 0 1 0 0] CT
0 0 moveto 
1 -1 scale
( / ) t 
GR
GR
GS
[0 -0.75 0.75 0 588 170.25] CT
0.467 0.675 0.188 RC
N
0.578 3.953 M
0.578 3.828 0.609 3.781 QT
3.688 -8.609 L
3.781 -8.906 4.023 -9.094 QT
4.266 -9.281 4.578 -9.281 QT
4.844 -9.281 5.023 -9.125 QT
5.203 -8.969 5.203 -8.703 QT
5.203 -8.641 5.203 -8.602 QT
5.203 -8.563 5.188 -8.516 QT
3.953 -3.609 L
3.75 -2.734 3.75 -2.109 QT
3.75 -1.328 4.117 -0.82 QT
4.484 -0.313 5.234 -0.313 QT
6.75 -0.313 7.922 -2.219 QT
7.922 -2.25 7.93 -2.258 QT
7.938 -2.266 7.938 -2.281 QT
9.453 -8.375 L
9.531 -8.656 9.781 -8.852 QT
10.031 -9.047 10.344 -9.047 QT
10.578 -9.047 10.773 -8.883 QT
10.969 -8.719 10.969 -8.453 QT
10.969 -8.344 10.938 -8.297 QT
9.438 -2.25 L
9.281 -1.656 9.281 -1.219 QT
9.281 -0.313 9.891 -0.313 QT
10.547 -0.313 10.883 -1.125 QT
11.219 -1.938 11.469 -3.094 QT
11.5 -3.203 11.641 -3.203 QT
11.891 -3.203 L
11.969 -3.203 12.023 -3.141 QT
12.078 -3.078 12.078 -3 QT
11.703 -1.531 11.273 -0.648 QT
10.844 0.234 9.859 0.234 QT
9.156 0.234 8.617 -0.164 QT
8.078 -0.563 7.922 -1.234 QT
7.391 -0.578 6.688 -0.172 QT
5.984 0.234 5.203 0.234 QT
3.891 0.234 3.141 -0.375 QT
2.078 3.859 L
2.016 4.156 1.773 4.344 QT
1.531 4.531 1.219 4.531 QT
0.969 4.531 0.773 4.375 QT
0.578 4.219 0.578 3.953 QT
cp
f
GR
GS
[0 -0.75 0.75 0 588 160.5] CT
0.467 0.675 0.188 RC
/Helvetica 20.533 F
GS
[1 0 0 1 0 0] CT
0 0 moveto 
1 -1 scale
(J) t 
GR
GR
GS
[0.75 0 0 0.75 0 0] CT
1 GC
N
178 445 M
650 445 L
650 37 L
178 37 L
cp
f
GR
GS
[0.75 0 0 0.75 0 0] CT
0.873 GC
1 LJ
0.667 LW
N
178 445 M
178 37 L
S
GR
GS
[0.75 0 0 0.75 0 0] CT
0.873 GC
1 LJ
0.667 LW
N
241.441 445 M
241.441 37 L
S
GR
GS
[0.75 0 0 0.75 0 0] CT
0.873 GC
1 LJ
0.667 LW
N
304.882 445 M
304.882 37 L
S
GR
GS
[0.75 0 0 0.75 0 0] CT
0.873 GC
1 LJ
0.667 LW
N
368.323 445 M
368.323 37 L
S
GR
GS
[0.75 0 0 0.75 0 0] CT
0.873 GC
1 LJ
0.667 LW
N
431.763 445 M
431.763 37 L
S
GR
GS
[0.75 0 0 0.75 0 0] CT
0.873 GC
1 LJ
0.667 LW
N
495.204 445 M
495.204 37 L
S
GR
GS
[0.75 0 0 0.75 0 0] CT
0.873 GC
1 LJ
0.667 LW
N
558.645 445 M
558.645 37 L
S
GR
GS
[0.75 0 0 0.75 0 0] CT
0.873 GC
1 LJ
0.667 LW
N
622.086 445 M
622.086 37 L
S
GR
GS
[0.75 0 0 0.75 0 0] CT
0.873 GC
1 LJ
0.667 LW
N
650 445 M
178 445 L
S
GR
GS
[0.75 0 0 0.75 0 0] CT
0.873 GC
1 LJ
0.667 LW
N
650 386.714 M
178 386.714 L
S
GR
GS
[0.75 0 0 0.75 0 0] CT
0.873 GC
1 LJ
0.667 LW
N
650 328.429 M
178 328.429 L
S
GR
GS
[0.75 0 0 0.75 0 0] CT
0.873 GC
1 LJ
0.667 LW
N
650 270.143 M
178 270.143 L
S
GR
GS
[0.75 0 0 0.75 0 0] CT
0.873 GC
1 LJ
0.667 LW
N
650 211.857 M
178 211.857 L
S
GR
GS
[0.75 0 0 0.75 0 0] CT
0.873 GC
1 LJ
0.667 LW
N
650 153.571 M
178 153.571 L
S
GR
GS
[0.75 0 0 0.75 0 0] CT
0.873 GC
1 LJ
0.667 LW
N
650 95.286 M
178 95.286 L
S
GR
GS
[0.75 0 0 0.75 0 0] CT
0.873 GC
1 LJ
0.667 LW
N
650 37 M
178 37 L
S
GR
GS
[0.75 0 0 0.75 0 0] CT
0.149 GC
2 setlinecap
1 LJ
0.667 LW
N
178 445 M
650 445 L
S
GR
GS
[0.75 0 0 0.75 0 0] CT
0.149 GC
2 setlinecap
1 LJ
0.667 LW
N
178 445 M
178 440.28 L
S
GR
GS
[0.75 0 0 0.75 0 0] CT
0.149 GC
2 setlinecap
1 LJ
0.667 LW
N
241.441 445 M
241.441 440.28 L
S
GR
GS
[0.75 0 0 0.75 0 0] CT
0.149 GC
2 setlinecap
1 LJ
0.667 LW
N
304.882 445 M
304.882 440.28 L
S
GR
GS
[0.75 0 0 0.75 0 0] CT
0.149 GC
2 setlinecap
1 LJ
0.667 LW
N
368.323 445 M
368.323 440.28 L
S
GR
GS
[0.75 0 0 0.75 0 0] CT
0.149 GC
2 setlinecap
1 LJ
0.667 LW
N
431.763 445 M
431.763 440.28 L
S
GR
GS
[0.75 0 0 0.75 0 0] CT
0.149 GC
2 setlinecap
1 LJ
0.667 LW
N
495.204 445 M
495.204 440.28 L
S
GR
GS
[0.75 0 0 0.75 0 0] CT
0.149 GC
2 setlinecap
1 LJ
0.667 LW
N
558.645 445 M
558.645 440.28 L
S
GR
GS
[0.75 0 0 0.75 0 0] CT
0.149 GC
2 setlinecap
1 LJ
0.667 LW
N
622.086 445 M
622.086 440.28 L
S
GR
GS
[0.75 0 0 0.75 133.5 338.55] CT
0.149 GC
/Helvetica 18.667 F
GS
[1 0 0 1 0 0] CT
-5.5 19 moveto 
1 -1 scale
(0) t 
GR
GR
GS
[0.75 0 0 0.75 181.08064 338.55] CT
0.149 GC
/Helvetica 18.667 F
GS
[1 0 0 1 0 0] CT
-10.5 19 moveto 
1 -1 scale
(50) t 
GR
GR
GS
[0.75 0 0 0.75 228.66129 338.55] CT
0.149 GC
/Helvetica 18.667 F
GS
[1 0 0 1 0 0] CT
-16 19 moveto 
1 -1 scale
(100) t 
GR
GR
GS
[0.75 0 0 0.75 276.24193 338.55] CT
0.149 GC
/Helvetica 18.667 F
GS
[1 0 0 1 0 0] CT
-16 19 moveto 
1 -1 scale
(150) t 
GR
GR
GS
[0.75 0 0 0.75 323.82257 338.55] CT
0.149 GC
/Helvetica 18.667 F
GS
[1 0 0 1 0 0] CT
-16 19 moveto 
1 -1 scale
(200) t 
GR
GR
GS
[0.75 0 0 0.75 371.40324 338.55] CT
0.149 GC
/Helvetica 18.667 F
GS
[1 0 0 1 0 0] CT
-16 19 moveto 
1 -1 scale
(250) t 
GR
GR
GS
[0.75 0 0 0.75 418.98386 338.55] CT
0.149 GC
/Helvetica 18.667 F
GS
[1 0 0 1 0 0] CT
-16 19 moveto 
1 -1 scale
(300) t 
GR
GR
GS
[0.75 0 0 0.75 466.5645 338.55] CT
0.149 GC
/Helvetica 18.667 F
GS
[1 0 0 1 0 0] CT
-16 19 moveto 
1 -1 scale
(350) t 
GR
GR
GS
[0.75 0 0 0.75 310.50018 357.55] CT
0.149 GC
/Helvetica 20.533 F
GS
[1 0 0 1 0 0] CT
-42.5 21 moveto 
1 -1 scale
(Time / ns) t 
GR
GR
GS
[0.75 0 0 0.75 0 0] CT
0.149 GC
2 setlinecap
1 LJ
0.667 LW
N
178 445 M
178 37 L
S
GR
GS
[0.75 0 0 0.75 0 0] CT
0.149 GC
2 setlinecap
1 LJ
0.667 LW
N
178 445 M
182.72 445 L
S
GR
GS
[0.75 0 0 0.75 0 0] CT
0.149 GC
2 setlinecap
1 LJ
0.667 LW
N
178 386.714 M
182.72 386.714 L
S
GR
GS
[0.75 0 0 0.75 0 0] CT
0.149 GC
2 setlinecap
1 LJ
0.667 LW
N
178 328.429 M
182.72 328.429 L
S
GR
GS
[0.75 0 0 0.75 0 0] CT
0.149 GC
2 setlinecap
1 LJ
0.667 LW
N
178 270.143 M
182.72 270.143 L
S
GR
GS
[0.75 0 0 0.75 0 0] CT
0.149 GC
2 setlinecap
1 LJ
0.667 LW
N
178 211.857 M
182.72 211.857 L
S
GR
GS
[0.75 0 0 0.75 0 0] CT
0.149 GC
2 setlinecap
1 LJ
0.667 LW
N
178 153.571 M
182.72 153.571 L
S
GR
GS
[0.75 0 0 0.75 0 0] CT
0.149 GC
2 setlinecap
1 LJ
0.667 LW
N
178 95.286 M
182.72 95.286 L
S
GR
GS
[0.75 0 0 0.75 0 0] CT
0.149 GC
2 setlinecap
1 LJ
0.667 LW
N
178 37 M
182.72 37 L
S
GR
GS
[0.75 0 0 0.75 128.7 333.75] CT
0.149 GC
/Helvetica 18.667 F
GS
[1 0 0 1 0 0] CT
-27 7 moveto 
1 -1 scale
(-10) t 
GR
GR
GS
[0.75 0 0 0.75 128.7 290.03572] CT
0.149 GC
/Helvetica 18.667 F
GS
[1 0 0 1 0 0] CT
-11 7 moveto 
1 -1 scale
(0) t 
GR
GR
GS
[0.75 0 0 0.75 128.7 246.32142] CT
0.149 GC
/Helvetica 18.667 F
GS
[1 0 0 1 0 0] CT
-21 7 moveto 
1 -1 scale
(10) t 
GR
GR
GS
[0.75 0 0 0.75 128.7 202.60714] CT
0.149 GC
/Helvetica 18.667 F
GS
[1 0 0 1 0 0] CT
-21 7 moveto 
1 -1 scale
(20) t 
GR
GR
GS
[0.75 0 0 0.75 128.7 158.89286] CT
0.149 GC
/Helvetica 18.667 F
GS
[1 0 0 1 0 0] CT
-21 7 moveto 
1 -1 scale
(30) t 
GR
GR
GS
[0.75 0 0 0.75 128.7 115.17857] CT
0.149 GC
/Helvetica 18.667 F
GS
[1 0 0 1 0 0] CT
-21 7 moveto 
1 -1 scale
(40) t 
GR
GR
GS
[0.75 0 0 0.75 128.7 71.46428] CT
0.149 GC
/Helvetica 18.667 F
GS
[1 0 0 1 0 0] CT
-21 7 moveto 
1 -1 scale
(50) t 
GR
GR
GS
[0.75 0 0 0.75 128.7 27.75] CT
0.149 GC
/Helvetica 18.667 F
GS
[1 0 0 1 0 0] CT
-21 7 moveto 
1 -1 scale
(60) t 
GR
GR
GS
[0 -0.75 0.75 0 95.25 206.25] CT
0.149 GC
/Helvetica 20.533 F
GS
[1 0 0 1 0 0] CT
0 0 moveto 
1 -1 scale
(V) t 
GR
GR
GS
[0 -0.75 0.75 0 102.75 195.75] CT
0.149 GC
/Helvetica 16.427 F
GS
[1 0 0 1 0 0] CT
0 0 moveto 
1 -1 scale
(D) t 
GR
GR
GS
[0 -0.75 0.75 0 102.75 186.75] CT
0.149 GC
/Helvetica 16.427 F
GS
[1 0 0 1 0 0] CT
0 0 moveto 
1 -1 scale
(S) t 
GR
GR
GS
[0 -0.75 0.75 0 95.25 178.5] CT
0.149 GC
/Helvetica 20.533 F
GS
[1 0 0 1 0 0] CT
0 0 moveto 
1 -1 scale
( / V) t 
GR
GR
GS
[0.75 0 0 0.75 0 0] CT
0.851 0.325 0.098 RC
1 LJ
2 LW
N
177.944 81.896 M
178 81.901 L
178.508 81.901 L
179.015 81.924 L
179.523 81.971 L
180.03 81.971 L
180.538 81.971 L
181.045 81.971 L
181.553 81.971 L
182.06 81.948 L
182.568 81.924 L
183.075 81.924 L
183.583 81.948 L
184.09 81.971 L
184.598 82.041 L
185.105 82.017 L
185.613 82.017 L
186.12 82.041 L
186.628 82.041 L
187.135 82.064 L
187.643 82.087 L
188.151 82.087 L
188.658 82.064 L
189.166 82.087 L
189.673 82.041 L
190.181 82.041 L
190.688 82.017 L
191.196 82.041 L
191.703 82.064 L
192.211 82.041 L
192.718 82.041 L
193.226 82.017 L
193.733 82.041 L
194.241 82.017 L
194.748 82.017 L
195.256 82.041 L
195.763 82.041 L
196.271 82.041 L
196.778 82.064 L
197.286 82.087 L
197.794 82.087 L
198.301 82.11 L
198.809 82.11 L
199.316 82.064 L
199.824 82.064 L
200.331 82.087 L
200.839 82.087 L
201.346 82.064 L
201.854 82.017 L
202.361 82.041 L
202.869 82.064 L
203.376 82.064 L
203.884 82.087 L
204.391 82.064 L
204.899 82.087 L
205.406 82.134 L
205.914 82.157 L
206.422 82.157 L
206.929 82.157 L
207.437 82.157 L
207.944 82.227 L
208.452 82.25 L
208.959 82.251 L
209.467 82.251 L
209.974 82.251 L
210.482 82.251 L
210.989 82.274 L
211.497 82.274 L
212.004 82.274 L
212.512 82.32 L
213.019 82.297 L
213.527 82.274 L
214.034 82.274 L
214.542 82.25 L
215.049 82.274 L
215.557 82.274 L
216.065 82.321 L
216.572 82.297 L
217.08 82.274 L
217.587 82.251 L
218.095 82.228 L
218.602 82.251 L
219.11 82.227 L
219.617 82.228 L
220.125 82.204 L
220.632 82.228 L
221.14 82.228 L
221.647 82.228 L
222.155 82.228 L
222.662 82.204 L
223.17 82.204 L
223.677 82.204 L
224.185 82.251 L
224.692 82.251 L
225.2 82.227 L
225.708 82.204 L
226.215 82.204 L
226.723 82.204 L
227.23 82.181 L
227.738 82.158 L
228.245 82.158 L
228.753 82.181 L
229.26 82.181 L
229.768 82.181 L
230.275 82.181 L
230.783 82.158 L
231.29 82.158 L
231.798 82.181 L
232.305 82.181 L
232.813 82.181 L
233.32 82.181 L
233.828 82.181 L
234.335 82.205 L
234.843 82.205 L
235.351 82.205 L
235.858 82.228 L
236.366 82.205 L
236.873 82.228 L
237.381 82.228 L
237.888 82.205 L
238.396 82.228 L
238.903 82.251 L
239.411 82.275 L
239.918 82.275 L
240.426 82.275 L
240.933 82.298 L
241.441 82.321 L
241.948 82.345 L
242.456 82.321 L
242.963 82.298 L
243.471 82.321 L
243.979 82.321 L
244.486 82.368 L
244.994 82.368 L
245.501 82.345 L
246.009 82.345 L
246.516 82.345 L
247.024 82.321 L
247.531 82.321 L
248.039 82.298 L
248.546 82.275 L
249.054 82.275 L
249.561 82.274 L
250.069 82.274 L
250.576 82.274 L
251.084 82.298 L
251.591 82.298 L
252.099 82.274 L
252.606 82.274 L
253.114 82.274 L
253.622 82.274 L
254.129 82.274 L
254.637 82.298 L
255.144 82.344 L
255.652 82.321 L
256.159 82.321 L
256.667 82.321 L
257.174 82.321 L
257.682 82.274 L
258.189 82.298 L
258.697 82.298 L
259.204 82.298 L
259.712 82.298 L
260.219 82.251 L
260.727 82.251 L
261.234 82.251 L
261.742 82.274 L
262.249 82.251 L
262.757 82.251 L
263.265 82.251 L
263.772 82.274 L
264.28 82.298 L
264.787 82.298 L
265.295 82.321 L
265.802 82.321 L
266.31 82.344 L
266.817 82.344 L
267.325 82.321 L
267.832 82.321 L
268.34 82.321 L
268.847 82.321 L
269.355 82.274 L
269.862 82.298 L
270.37 82.274 L
270.877 82.274 L
271.385 82.298 L
271.892 82.345 L
272.4 82.345 L
272.908 82.368 L
273.415 82.345 L
273.923 82.368 L
274.43 82.368 L
274.938 82.391 L
275.445 82.368 L
275.953 82.344 L
276.46 82.321 L
276.968 82.321 L
277.475 82.321 L
277.983 82.321 L
278.49 82.368 L
278.998 82.391 L
279.505 82.391 L
280.013 82.368 L
280.52 82.321 L
281.028 82.344 L
281.535 82.391 L
282.043 82.368 L
282.551 82.391 L
283.058 82.368 L
283.566 82.368 L
284.073 82.414 L
284.581 82.414 L
285.088 82.414 L
285.596 82.414 L
286.103 82.414 L
286.611 82.438 L
287.118 82.438 L
287.626 82.461 L
288.133 82.438 L
288.641 82.414 L
289.148 82.414 L
289.656 82.391 L
290.163 82.391 L
290.671 82.391 L
291.178 82.368 L
291.686 82.368 L
292.194 82.345 L
292.701 82.368 L
293.209 82.321 L
293.716 82.345 L
294.224 82.368 L
294.731 82.368 L
295.239 82.368 L
295.746 82.368 L
296.254 82.368 L
296.761 82.368 L
297.269 82.368 L
297.776 82.368 L
298.284 82.344 L
298.791 82.321 L
299.299 82.344 L
299.806 82.367 L
300.314 82.321 L
300.822 82.368 L
301.329 82.437 L
301.837 82.507 L
302.344 82.601 L
302.852 82.764 L
303.359 82.951 L
303.867 83.16 L
304.374 83.417 L
304.882 83.743 L
305.389 84.069 L
305.897 84.466 L
306.404 84.862 L
306.912 85.305 L
307.419 85.795 L
307.927 86.261 L
308.434 86.774 L
308.942 87.263 L
309.449 87.823 L
309.957 88.383 L
310.465 88.966 L
310.972 89.548 L
311.48 90.178 L
311.987 90.784 L
312.495 91.39 L
313.002 92.066 L
313.51 92.696 L
314.017 93.325 L
314.525 93.978 L
315.032 94.584 L
315.54 95.167 L
316.047 95.773 L
316.555 96.403 L
317.062 97.009 L
317.57 97.639 L
318.077 98.291 L
318.585 98.921 L
319.092 99.504 L
319.6 100.157 L
320.108 100.74 L
320.615 101.369 L
321.123 101.952 L
321.63 102.628 L
322.138 103.258 L
322.645 103.841 L
323.153 104.447 L
323.66 105.053 L
324.168 105.682 L
324.675 106.312 L
325.183 106.941 L
325.69 107.571 L
326.198 108.177 L
326.705 108.807 L
327.213 109.413 L
327.72 110.019 L
328.228 110.625 L
328.735 111.231 L
329.243 111.838 L
329.751 112.467 L
330.258 113.097 L
330.766 113.703 L
331.273 114.332 L
331.781 114.962 L
332.288 115.544 L
332.796 116.174 L
333.303 116.803 L
333.811 117.433 L
334.318 118.039 L
334.826 118.622 L
335.333 119.251 L
335.841 119.811 L
336.348 120.464 L
336.856 121.07 L
337.363 121.722 L
337.871 122.329 L
338.379 122.935 L
338.886 123.518 L
339.394 124.147 L
339.901 124.777 L
340.409 125.383 L
340.916 125.966 L
341.424 126.548 L
341.931 127.131 L
342.439 127.738 L
342.946 128.367 L
343.454 128.997 L
343.961 129.626 L
344.469 130.279 L
344.976 130.932 L
345.484 131.584 L
345.991 132.191 L
346.499 132.82 L
347.006 133.45 L
347.514 134.102 L
348.022 134.732 L
348.529 135.385 L
349.037 135.991 L
349.544 136.644 L
350.052 137.25 L
350.559 137.88 L
351.067 138.486 L
351.574 139.069 L
352.082 139.675 L
352.589 140.281 L
353.097 140.934 L
353.604 141.563 L
354.112 142.169 L
354.619 142.776 L
355.127 143.312 L
355.634 143.941 L
356.142 144.547 L
356.649 145.177 L
357.157 145.806 L
357.665 146.436 L
358.172 147.088 L
358.68 147.671 L
359.187 148.301 L
359.695 148.907 L
360.202 149.536 L
360.71 150.142 L
361.217 150.772 L
361.725 151.425 L
362.232 152.031 L
362.74 152.614 L
363.247 153.22 L
363.755 153.826 L
364.262 154.479 L
364.77 155.108 L
365.277 155.714 L
365.785 156.367 L
366.292 156.973 L
366.8 157.58 L
367.308 158.162 L
367.815 158.815 L
368.323 159.421 L
368.83 160.028 L
369.338 160.61 L
369.845 161.217 L
370.353 161.823 L
370.86 162.406 L
371.368 163.058 L
371.875 163.688 L
372.383 164.317 L
372.89 164.923 L
373.398 165.53 L
373.905 166.159 L
374.413 166.789 L
374.92 167.441 L
375.428 168.071 L
375.935 168.677 L
376.443 169.33 L
376.951 169.936 L
377.458 170.566 L
377.966 171.172 L
378.473 171.825 L
378.981 172.454 L
379.488 173.061 L
379.996 173.69 L
380.503 174.296 L
381.011 174.902 L
381.518 175.508 L
382.026 176.115 L
382.533 176.744 L
383.041 177.35 L
383.548 177.956 L
384.056 178.586 L
384.563 179.192 L
385.071 179.798 L
385.578 180.428 L
386.086 181.104 L
386.594 181.734 L
387.101 182.363 L
387.609 182.992 L
388.116 183.599 L
388.624 184.205 L
389.131 184.834 L
389.639 185.464 L
390.146 186.07 L
390.654 186.7 L
391.161 187.329 L
391.669 187.982 L
392.176 188.611 L
392.684 189.241 L
393.191 189.87 L
393.699 190.5 L
394.206 191.106 L
394.714 191.712 L
395.221 192.342 L
395.729 192.948 L
396.237 193.531 L
396.744 194.16 L
397.252 194.79 L
397.759 195.396 L
398.267 196.002 L
398.774 196.608 L
399.282 197.238 L
399.789 197.844 L
400.297 198.45 L
400.804 199.103 L
401.312 199.732 L
401.819 200.338 L
402.327 200.968 L
402.834 201.574 L
403.342 202.18 L
403.849 202.809 L
404.357 203.416 L
404.865 204.045 L
405.372 204.651 L
405.88 205.304 L
406.387 205.934 L
406.895 206.54 L
407.402 207.123 L
407.91 207.729 L
408.417 208.382 L
408.925 208.964 L
409.432 209.57 L
409.94 210.223 L
410.447 210.853 L
410.955 211.436 L
411.462 212.019 L
411.97 212.648 L
412.477 213.278 L
412.985 213.884 L
413.492 214.49 L
414 215.096 L
414.508 215.702 L
415.015 216.332 L
415.523 216.891 L
416.03 217.497 L
416.538 218.127 L
417.045 218.733 L
417.553 219.363 L
418.06 219.992 L
418.568 220.598 L
419.075 221.251 L
419.583 221.811 L
420.09 222.394 L
420.598 223.023 L
421.105 223.606 L
421.613 224.212 L
422.12 224.818 L
422.628 225.401 L
423.135 226.031 L
423.643 226.613 L
424.151 227.243 L
424.658 227.849 L
425.166 228.478 L
425.673 229.108 L
426.181 229.737 L
426.688 230.367 L
427.196 230.95 L
427.703 231.556 L
428.211 232.186 L
428.718 232.838 L
429.226 233.445 L
429.733 234.121 L
430.241 234.75 L
430.748 235.356 L
431.256 235.986 L
431.763 236.592 L
432.271 237.198 L
432.779 237.827 L
433.286 238.41 L
433.794 238.993 L
434.301 239.599 L
434.809 240.229 L
435.316 240.858 L
435.824 241.464 L
436.331 242.094 L
436.839 242.747 L
437.346 243.33 L
437.854 243.936 L
438.361 244.449 L
438.869 245.078 L
439.376 245.708 L
439.884 246.314 L
440.391 246.967 L
440.899 247.573 L
441.406 248.203 L
441.914 248.809 L
442.422 249.438 L
442.929 250.068 L
443.437 250.744 L
443.944 251.35 L
444.452 251.98 L
444.959 252.586 L
445.467 253.192 L
445.974 253.821 L
446.482 254.451 L
446.989 255.104 L
447.497 255.733 L
448.004 256.363 L
448.512 256.969 L
449.019 257.551 L
449.527 258.158 L
450.034 258.764 L
450.542 259.37 L
451.049 259.976 L
451.557 260.582 L
452.065 261.212 L
452.572 261.841 L
453.08 262.471 L
453.587 263.054 L
454.095 263.683 L
454.602 264.289 L
455.11 264.919 L
455.617 265.595 L
456.125 266.201 L
456.632 266.807 L
457.14 267.414 L
457.647 268.02 L
458.155 268.649 L
458.662 269.255 L
459.17 269.862 L
459.677 270.468 L
460.185 271.097 L
460.692 271.75 L
461.2 272.379 L
461.708 272.962 L
462.215 273.592 L
462.723 274.198 L
463.23 274.804 L
463.738 275.457 L
464.245 276.063 L
464.753 276.716 L
465.26 277.345 L
465.768 277.951 L
466.275 278.558 L
466.783 279.234 L
467.29 279.863 L
467.798 280.516 L
468.305 281.122 L
468.813 281.728 L
469.32 282.335 L
469.828 282.941 L
470.335 283.547 L
470.843 284.2 L
471.351 284.852 L
471.858 285.482 L
472.366 286.088 L
472.873 286.694 L
473.381 287.3 L
473.888 287.93 L
474.396 288.536 L
474.903 289.166 L
475.411 289.795 L
475.918 290.425 L
476.426 291.101 L
476.933 291.707 L
477.441 292.313 L
477.948 292.896 L
478.456 293.502 L
478.963 294.085 L
479.471 294.714 L
479.978 295.344 L
480.486 295.95 L
480.994 296.58 L
481.501 297.209 L
482.009 297.815 L
482.516 298.421 L
483.024 299.051 L
483.531 299.68 L
484.039 300.31 L
484.546 300.916 L
485.054 301.522 L
485.561 302.128 L
486.069 302.757 L
486.576 303.364 L
487.084 303.993 L
487.591 304.623 L
488.099 305.229 L
488.606 305.882 L
489.114 306.511 L
489.622 307.117 L
490.129 307.747 L
490.637 308.376 L
491.144 309.006 L
491.652 309.612 L
492.159 310.241 L
492.667 310.871 L
493.174 311.5 L
493.682 312.13 L
494.189 312.783 L
494.697 313.412 L
495.204 314.042 L
495.712 314.648 L
496.219 315.277 L
496.727 315.93 L
497.234 316.56 L
497.742 317.189 L
498.249 317.795 L
498.757 318.425 L
499.265 319.007 L
499.772 319.613 L
500.28 320.243 L
500.787 320.873 L
501.295 321.456 L
501.802 322.108 L
502.31 322.715 L
502.817 323.321 L
503.325 323.927 L
503.832 324.533 L
504.34 325.163 L
504.847 325.792 L
505.355 326.422 L
505.862 327.051 L
506.37 327.681 L
506.877 328.31 L
507.385 328.94 L
507.892 329.569 L
508.4 330.198 L
508.908 330.805 L
509.415 331.481 L
509.923 332.087 L
510.43 332.716 L
510.938 333.346 L
511.445 333.975 L
511.953 334.581 L
512.46 335.211 L
512.968 335.84 L
513.475 336.447 L
513.983 337.099 L
514.49 337.705 L
514.998 338.312 L
515.505 338.895 L
516.013 339.524 L
516.52 340.13 L
517.028 340.736 L
517.535 341.319 L
518.043 341.949 L
518.551 342.601 L
519.058 343.208 L
519.566 343.837 L
520.073 344.443 L
520.581 345.073 L
521.088 345.702 L
521.596 346.308 L
522.103 346.915 L
522.611 347.544 L
523.118 348.197 L
523.626 348.78 L
524.133 349.386 L
524.641 349.992 L
525.148 350.598 L
525.656 351.204 L
526.163 351.81 L
526.671 352.417 L
527.179 353.046 L
527.686 353.676 L
528.194 354.282 L
528.701 354.888 L
529.209 355.517 L
529.716 356.17 L
530.224 356.8 L
530.731 357.429 L
531.239 358.059 L
531.746 358.711 L
532.254 359.294 L
532.761 359.9 L
533.269 360.506 L
533.776 361.136 L
534.284 361.742 L
534.791 362.348 L
535.299 362.931 L
535.806 363.584 L
536.314 364.19 L
536.821 364.796 L
537.329 365.402 L
537.837 366.008 L
538.344 366.615 L
538.852 367.221 L
539.359 367.827 L
539.867 368.457 L
540.374 369.039 L
540.882 369.646 L
541.389 370.252 L
541.897 370.905 L
542.404 371.534 L
542.912 372.14 L
543.419 372.77 L
543.927 373.376 L
544.434 373.982 L
544.942 374.635 L
545.449 375.288 L
545.957 375.917 L
546.465 376.5 L
546.972 377.176 L
547.48 377.782 L
547.987 378.412 L
548.495 379.041 L
549.002 379.671 L
549.51 380.277 L
550.017 380.906 L
550.525 381.583 L
551.032 382.142 L
551.54 382.772 L
552.047 383.424 L
552.555 384.031 L
553.062 384.637 L
553.57 385.243 L
554.077 385.919 L
554.585 386.502 L
555.092 387.085 L
555.6 387.621 L
556.108 388.134 L
556.615 388.6 L
557.123 389.02 L
557.63 389.463 L
558.138 389.813 L
558.645 390.069 L
559.153 390.349 L
559.66 390.582 L
560.168 390.792 L
560.675 391.002 L
561.183 391.165 L
561.69 391.305 L
562.198 391.468 L
562.705 391.585 L
563.213 391.724 L
563.72 391.771 L
564.228 391.818 L
564.735 391.841 L
565.243 391.864 L
565.751 391.864 L
566.258 391.864 L
566.766 391.818 L
567.273 391.818 L
567.781 391.794 L
568.288 391.771 L
568.796 391.818 L
569.303 391.818 L
569.811 391.794 L
570.318 391.771 L
570.826 391.771 L
571.333 391.748 L
571.841 391.748 L
572.348 391.748 L
572.856 391.794 L
573.363 391.794 L
573.871 391.841 L
574.378 391.841 L
574.886 391.887 L
575.394 391.864 L
575.901 391.864 L
576.409 391.887 L
576.916 391.887 L
577.424 391.887 L
577.931 391.887 L
578.439 391.887 L
578.946 391.864 L
579.454 391.841 L
579.961 391.864 L
580.469 391.864 L
580.976 391.841 L
581.484 391.841 L
581.991 391.841 L
582.499 391.864 L
583.006 391.864 L
583.514 391.841 L
584.021 391.864 L
584.529 391.841 L
585.037 391.841 L
585.544 391.818 L
586.052 391.818 L
586.559 391.818 L
587.067 391.771 L
587.574 391.771 L
588.082 391.818 L
588.589 391.841 L
589.097 391.864 L
589.604 391.911 L
590.112 391.888 L
590.619 391.911 L
591.127 391.911 L
591.634 391.911 L
592.142 391.911 L
592.649 391.958 L
593.157 391.958 L
593.665 391.981 L
594.172 392.005 L
594.68 392.005 L
595.187 392.028 L
595.695 392.028 L
596.202 392.051 L
596.71 392.028 L
597.217 392.028 L
597.725 392.005 L
598.232 391.982 L
598.74 391.982 L
599.247 391.982 L
599.755 391.958 L
600.262 391.958 L
600.77 391.958 L
601.277 391.958 L
601.785 391.982 L
602.292 391.982 L
602.8 391.958 L
603.308 391.935 L
603.815 391.958 L
604.323 391.958 L
604.83 391.958 L
605.338 391.958 L
605.845 391.958 L
606.353 391.958 L
606.86 391.958 L
607.368 391.958 L
607.875 391.982 L
608.383 391.982 L
608.89 392.005 L
609.398 391.982 L
609.905 391.982 L
610.413 391.982 L
610.92 391.959 L
611.428 391.959 L
611.935 391.959 L
612.443 391.982 L
612.951 391.982 L
613.458 392.005 L
613.966 392.029 L
614.473 392.029 L
614.981 391.982 L
615.488 391.958 L
615.996 391.912 L
616.503 391.935 L
617.011 391.959 L
617.518 391.959 L
618.026 391.935 L
618.533 391.935 L
619.041 391.935 L
619.548 391.935 L
620.056 392.029 L
620.563 392.029 L
621.071 392.052 L
621.578 392.052 L
622.086 392.075 L
622.594 392.122 L
623.101 392.145 L
623.609 392.169 L
624.116 392.192 L
624.624 392.215 L
625.131 392.215 L
625.639 392.215 L
626.146 392.215 L
626.654 392.262 L
627.161 392.262 L
627.669 392.262 L
628.176 392.238 L
628.684 392.262 L
629.191 392.262 L
629.699 392.285 L
630.206 392.239 L
630.714 392.262 L
631.221 392.238 L
631.729 392.262 L
632.237 392.285 L
632.744 392.262 L
633.252 392.285 L
633.759 392.285 L
634.267 392.308 L
634.774 392.308 L
635.282 392.308 L
635.789 392.332 L
636.297 392.332 L
636.804 392.332 L
637.312 392.355 L
637.819 392.355 L
638.327 392.378 L
638.834 392.378 L
639.342 392.378 L
639.849 392.355 L
640.357 392.355 L
640.865 392.355 L
641.372 392.309 L
641.88 392.285 L
642.387 392.309 L
642.895 392.309 L
643.402 392.309 L
643.91 392.332 L
644.417 392.332 L
644.925 392.332 L
645.432 392.332 L
645.94 392.309 L
646.447 392.308 L
646.955 392.262 L
647.462 392.285 L
647.97 392.308 L
648.477 392.332 L
648.985 392.332 L
649.492 392.332 L
650 392.355 L
650.056 392.355 L
S
GR
GS
[0.75 0 0 0.75 0 0] CT
0.929 0.694 0.125 RC
1 LJ
2 LW
N
177.944 350.603 M
178 350.603 L
178.508 350.577 L
179.015 350.603 L
179.523 350.603 L
180.03 350.576 L
180.538 350.55 L
181.045 350.498 L
181.553 350.55 L
182.06 350.498 L
182.568 350.524 L
183.075 350.576 L
183.583 350.576 L
184.09 350.55 L
184.598 350.55 L
185.105 350.576 L
185.613 350.629 L
186.12 350.602 L
186.628 350.55 L
187.135 350.602 L
187.643 350.55 L
188.151 350.628 L
188.658 350.654 L
189.166 350.654 L
189.673 350.602 L
190.181 350.602 L
190.688 350.524 L
191.196 350.576 L
191.703 350.55 L
192.211 350.498 L
192.718 350.446 L
193.226 350.446 L
193.733 350.446 L
194.241 350.472 L
194.748 350.446 L
195.256 350.446 L
195.763 350.446 L
196.271 350.472 L
196.778 350.524 L
197.286 350.524 L
197.794 350.55 L
198.301 350.498 L
198.809 350.576 L
199.316 350.55 L
199.824 350.55 L
200.331 350.602 L
200.839 350.55 L
201.346 350.628 L
201.854 350.602 L
202.361 350.628 L
202.869 350.68 L
203.376 350.707 L
203.884 350.707 L
204.391 350.681 L
204.899 350.733 L
205.406 350.759 L
205.914 350.785 L
206.422 350.707 L
206.929 350.707 L
207.437 350.681 L
207.944 350.707 L
208.452 350.759 L
208.959 350.655 L
209.467 350.733 L
209.974 350.707 L
210.482 350.655 L
210.989 350.655 L
211.497 350.655 L
212.004 350.707 L
212.512 350.681 L
213.019 350.654 L
213.527 350.628 L
214.034 350.628 L
214.542 350.628 L
215.049 350.602 L
215.557 350.576 L
216.065 350.524 L
216.572 350.498 L
217.08 350.55 L
217.587 350.498 L
218.095 350.446 L
218.602 350.472 L
219.11 350.472 L
219.617 350.446 L
220.125 350.368 L
220.632 350.316 L
221.14 350.342 L
221.647 350.394 L
222.155 350.394 L
222.662 350.394 L
223.17 350.42 L
223.677 350.42 L
224.185 350.394 L
224.692 350.394 L
225.2 350.289 L
225.708 350.263 L
226.215 350.237 L
226.723 350.237 L
227.23 350.211 L
227.738 350.211 L
228.245 350.237 L
228.753 350.237 L
229.26 350.263 L
229.768 350.185 L
230.275 350.185 L
230.783 350.159 L
231.29 350.159 L
231.798 350.263 L
232.305 350.211 L
232.813 350.29 L
233.32 350.29 L
233.828 350.394 L
234.335 350.342 L
234.843 350.368 L
235.351 350.316 L
235.858 350.342 L
236.366 350.394 L
236.873 350.368 L
237.381 350.342 L
237.888 350.316 L
238.396 350.316 L
238.903 350.368 L
239.411 350.395 L
239.918 350.342 L
240.426 350.29 L
240.933 350.29 L
241.441 350.29 L
241.948 350.316 L
242.456 350.342 L
242.963 350.316 L
243.471 350.421 L
243.979 350.447 L
244.486 350.473 L
244.994 350.421 L
245.501 350.395 L
246.009 350.395 L
246.516 350.395 L
247.024 350.394 L
247.531 350.316 L
248.039 350.29 L
248.546 350.29 L
249.054 350.238 L
249.561 350.264 L
250.069 350.211 L
250.576 350.185 L
251.084 350.159 L
251.591 350.185 L
252.099 350.029 L
252.606 349.976 L
253.114 350.029 L
253.622 349.976 L
254.129 349.924 L
254.637 349.898 L
255.144 349.846 L
255.652 349.846 L
256.159 349.819 L
256.667 349.793 L
257.174 349.715 L
257.682 349.741 L
258.189 349.767 L
258.697 349.715 L
259.204 349.767 L
259.712 349.741 L
260.219 349.767 L
260.727 349.741 L
261.234 349.689 L
261.742 349.663 L
262.249 349.715 L
262.757 349.663 L
263.265 349.741 L
263.772 349.715 L
264.28 349.741 L
264.787 349.663 L
265.295 349.637 L
265.802 349.689 L
266.31 349.663 L
266.817 349.689 L
267.325 349.663 L
267.832 349.559 L
268.34 349.637 L
268.847 349.637 L
269.355 349.637 L
269.862 349.663 L
270.37 349.637 L
270.877 349.637 L
271.385 349.637 L
271.892 349.663 L
272.4 349.663 L
272.908 349.663 L
273.415 349.637 L
273.923 349.611 L
274.43 349.611 L
274.938 349.611 L
275.445 349.585 L
275.953 349.637 L
276.46 349.689 L
276.968 349.611 L
277.475 349.611 L
277.983 349.637 L
278.49 349.663 L
278.998 349.611 L
279.505 349.585 L
280.013 349.689 L
280.52 349.611 L
281.028 349.611 L
281.535 349.585 L
282.043 349.637 L
282.551 349.611 L
283.058 349.663 L
283.566 349.637 L
284.073 349.585 L
284.581 349.506 L
285.088 349.506 L
285.596 349.48 L
286.103 349.506 L
286.611 349.402 L
287.118 349.402 L
287.626 349.402 L
288.133 349.454 L
288.641 349.506 L
289.148 349.506 L
289.656 349.611 L
290.163 349.559 L
290.671 349.637 L
291.178 349.663 L
291.686 349.637 L
292.194 349.559 L
292.701 349.533 L
293.209 349.611 L
293.716 349.533 L
294.224 349.559 L
294.731 349.559 L
295.239 349.585 L
295.746 349.506 L
296.254 349.48 L
296.761 349.48 L
297.269 349.35 L
297.776 349.402 L
298.284 349.48 L
298.791 349.506 L
299.299 349.532 L
299.806 349.428 L
300.314 349.349 L
300.822 349.167 L
301.329 349.01 L
301.837 348.54 L
302.344 347.939 L
302.852 347.104 L
303.359 346.112 L
303.867 345.119 L
304.374 344.362 L
304.882 343.735 L
305.389 343.291 L
305.897 342.717 L
306.404 342.221 L
306.912 341.594 L
307.419 340.863 L
307.927 340.08 L
308.434 339.27 L
308.942 338.565 L
309.449 337.834 L
309.957 337.234 L
310.465 336.685 L
310.972 336.215 L
311.48 335.771 L
311.987 335.432 L
312.495 335.249 L
313.002 335.145 L
313.51 335.223 L
314.017 335.432 L
314.525 335.719 L
315.032 336.215 L
315.54 336.633 L
316.047 337.207 L
316.555 337.756 L
317.062 338.278 L
317.57 338.853 L
318.077 339.401 L
318.585 339.923 L
319.092 340.498 L
319.6 340.994 L
320.108 341.673 L
320.615 342.221 L
321.123 342.744 L
321.63 343.005 L
322.138 343.318 L
322.645 343.397 L
323.153 343.449 L
323.66 343.501 L
324.168 343.501 L
324.675 343.449 L
325.183 343.266 L
325.69 343.057 L
326.198 342.77 L
326.705 342.352 L
327.213 341.96 L
327.72 341.569 L
328.228 341.203 L
328.735 340.707 L
329.243 340.211 L
329.751 339.82 L
330.258 339.454 L
330.766 339.088 L
331.273 338.801 L
331.781 338.514 L
332.288 338.096 L
332.796 337.887 L
333.303 337.652 L
333.811 337.469 L
334.318 337.313 L
334.826 337.234 L
335.333 337.13 L
335.841 337.051 L
336.348 336.999 L
336.856 336.895 L
337.363 336.921 L
337.871 336.921 L
338.379 336.973 L
338.886 336.895 L
339.394 336.842 L
339.901 336.816 L
340.409 336.712 L
340.916 336.607 L
341.424 336.503 L
341.931 336.294 L
342.439 336.163 L
342.946 335.902 L
343.454 335.641 L
343.961 335.197 L
344.469 334.832 L
344.976 334.283 L
345.484 333.813 L
345.991 333.37 L
346.499 332.9 L
347.006 332.325 L
347.514 331.698 L
348.022 331.046 L
348.529 330.471 L
349.037 329.949 L
349.544 329.374 L
350.052 328.826 L
350.559 328.382 L
351.067 327.912 L
351.574 327.521 L
352.082 327.207 L
352.589 326.972 L
353.097 326.92 L
353.604 326.737 L
354.112 326.685 L
354.619 326.555 L
355.127 326.581 L
355.634 326.554 L
356.142 326.58 L
356.649 326.711 L
357.157 326.789 L
357.665 326.789 L
358.172 326.789 L
358.68 326.789 L
359.187 326.685 L
359.695 326.528 L
360.202 326.502 L
360.71 326.319 L
361.217 326.136 L
361.725 325.953 L
362.232 325.64 L
362.74 325.248 L
363.247 324.883 L
363.755 324.491 L
364.262 324.047 L
364.77 323.629 L
365.277 323.342 L
365.785 322.924 L
366.292 322.663 L
366.8 322.428 L
367.308 322.193 L
367.815 322.036 L
368.323 322.036 L
368.83 321.906 L
369.338 321.854 L
369.845 321.88 L
370.353 321.906 L
370.86 321.906 L
371.368 321.984 L
371.875 322.115 L
372.383 322.167 L
372.89 322.167 L
373.398 322.324 L
373.905 322.428 L
374.413 322.454 L
374.92 322.585 L
375.428 322.637 L
375.935 322.559 L
376.443 322.402 L
376.951 322.35 L
377.458 322.167 L
377.966 322.063 L
378.473 321.932 L
378.981 321.75 L
379.488 321.515 L
379.996 321.384 L
380.503 321.227 L
381.011 321.071 L
381.518 320.94 L
382.026 320.731 L
382.533 320.574 L
383.041 320.392 L
383.548 320.313 L
384.056 320.183 L
384.563 320.131 L
385.071 320.104 L
385.578 320 L
386.086 319.974 L
386.594 319.817 L
387.101 319.713 L
387.609 319.556 L
388.116 319.374 L
388.624 319.086 L
389.131 318.877 L
389.639 318.59 L
390.146 318.355 L
390.654 318.094 L
391.161 317.755 L
391.669 317.415 L
392.176 317.076 L
392.684 316.658 L
393.191 316.318 L
393.699 316.057 L
394.206 315.77 L
394.714 315.483 L
395.221 315.143 L
395.729 314.934 L
396.237 314.752 L
396.744 314.569 L
397.252 314.517 L
397.759 314.386 L
398.267 314.23 L
398.774 314.151 L
399.282 314.073 L
399.789 314.021 L
400.297 313.89 L
400.804 313.812 L
401.312 313.707 L
401.819 313.681 L
402.327 313.603 L
402.834 313.394 L
403.342 313.289 L
403.849 313.159 L
404.357 312.95 L
404.865 312.741 L
405.372 312.532 L
405.88 312.297 L
406.387 311.957 L
406.895 311.722 L
407.402 311.383 L
407.91 310.991 L
408.417 310.6 L
408.925 310.312 L
409.432 310.025 L
409.94 309.712 L
410.447 309.398 L
410.955 309.111 L
411.462 308.876 L
411.97 308.746 L
412.477 308.485 L
412.985 308.354 L
413.492 308.145 L
414 308.093 L
414.508 307.936 L
415.015 307.858 L
415.523 307.884 L
416.03 307.832 L
416.538 307.753 L
417.045 307.78 L
417.553 307.727 L
418.06 307.78 L
418.568 307.78 L
419.075 307.727 L
419.583 307.623 L
420.09 307.545 L
420.598 307.492 L
421.105 307.466 L
421.613 307.362 L
422.12 307.336 L
422.628 307.231 L
423.135 307.101 L
423.643 306.944 L
424.151 306.813 L
424.658 306.657 L
425.166 306.526 L
425.673 306.343 L
426.181 306.239 L
426.688 306.082 L
427.196 305.978 L
427.703 305.847 L
428.211 305.769 L
428.718 305.717 L
429.226 305.56 L
429.733 305.534 L
430.241 305.43 L
430.748 305.351 L
431.256 305.247 L
431.763 305.142 L
432.271 305.168 L
432.779 305.038 L
433.286 305.038 L
433.794 304.986 L
434.301 304.907 L
434.809 304.829 L
435.316 304.698 L
435.824 304.62 L
436.331 304.516 L
436.839 304.307 L
437.346 304.098 L
437.854 303.967 L
438.361 303.68 L
438.869 303.419 L
439.376 303.053 L
439.884 302.74 L
440.391 302.453 L
440.899 302.087 L
441.406 301.696 L
441.914 301.356 L
442.422 300.938 L
442.929 300.547 L
443.437 300.207 L
443.944 299.842 L
444.452 299.476 L
444.959 299.085 L
445.467 298.745 L
445.974 298.405 L
446.482 298.092 L
446.989 297.857 L
447.497 297.544 L
448.004 297.283 L
448.512 296.995 L
449.019 296.786 L
449.527 296.708 L
450.034 296.578 L
450.542 296.421 L
451.049 296.316 L
451.557 296.16 L
452.065 296.134 L
452.572 296.003 L
453.08 295.951 L
453.587 295.873 L
454.095 295.768 L
454.602 295.716 L
455.11 295.585 L
455.617 295.611 L
456.125 295.402 L
456.632 295.298 L
457.14 295.168 L
457.647 295.011 L
458.155 294.854 L
458.662 294.724 L
459.17 294.645 L
459.677 294.463 L
460.185 294.384 L
460.692 294.201 L
461.2 294.045 L
461.708 293.784 L
462.215 293.601 L
462.723 293.496 L
463.23 293.287 L
463.738 293.131 L
464.245 293 L
464.753 292.817 L
465.26 292.661 L
465.768 292.478 L
466.275 292.321 L
466.783 292.217 L
467.29 292.086 L
467.798 291.956 L
468.305 291.93 L
468.813 291.851 L
469.32 291.825 L
469.828 291.825 L
470.335 291.721 L
470.843 291.747 L
471.351 291.773 L
471.858 291.825 L
472.366 291.773 L
472.873 291.773 L
473.381 291.747 L
473.888 291.721 L
474.396 291.694 L
474.903 291.538 L
475.411 291.486 L
475.918 291.407 L
476.426 291.329 L
476.933 291.198 L
477.441 291.094 L
477.948 291.016 L
478.456 290.885 L
478.963 290.781 L
479.471 290.624 L
479.978 290.415 L
480.486 290.206 L
480.994 290.05 L
481.501 289.867 L
482.009 289.579 L
482.516 289.475 L
483.024 289.24 L
483.531 289.057 L
484.039 288.796 L
484.546 288.561 L
485.054 288.404 L
485.561 288.195 L
486.069 288.091 L
486.576 287.803 L
487.084 287.568 L
487.591 287.412 L
488.099 287.229 L
488.606 286.942 L
489.114 286.837 L
489.622 286.602 L
490.129 286.42 L
490.637 286.158 L
491.144 285.949 L
491.652 285.819 L
492.159 285.506 L
492.667 285.297 L
493.174 285.036 L
493.682 284.775 L
494.189 284.592 L
494.697 284.278 L
495.204 283.991 L
495.712 283.73 L
496.219 283.391 L
496.727 283.129 L
497.234 282.79 L
497.742 282.503 L
498.249 282.189 L
498.757 281.98 L
499.265 281.667 L
499.772 281.354 L
500.28 281.093 L
500.787 280.832 L
501.295 280.727 L
501.802 280.544 L
502.31 280.388 L
502.817 280.362 L
503.325 280.179 L
503.832 280.101 L
504.34 279.97 L
504.847 279.944 L
505.355 279.892 L
505.862 279.97 L
506.37 279.97 L
506.877 279.839 L
507.385 279.813 L
507.892 279.839 L
508.4 279.892 L
508.908 279.787 L
509.415 279.656 L
509.923 279.604 L
510.43 279.474 L
510.938 279.473 L
511.445 279.291 L
511.953 279.186 L
512.46 279.029 L
512.968 278.847 L
513.475 278.638 L
513.983 278.429 L
514.49 278.22 L
514.998 277.959 L
515.505 277.724 L
516.013 277.437 L
516.52 277.254 L
517.028 276.967 L
517.535 276.732 L
518.043 276.497 L
518.551 276.288 L
519.058 276.105 L
519.566 275.949 L
520.073 275.766 L
520.581 275.557 L
521.088 275.478 L
521.596 275.426 L
522.103 275.269 L
522.611 275.269 L
523.118 275.191 L
523.626 275.06 L
524.133 274.956 L
524.641 274.904 L
525.148 274.878 L
525.656 274.799 L
526.163 274.721 L
526.671 274.643 L
527.179 274.434 L
527.686 274.382 L
528.194 274.147 L
528.701 273.911 L
529.209 273.755 L
529.716 273.65 L
530.224 273.389 L
530.731 273.233 L
531.239 273.05 L
531.746 272.893 L
532.254 272.71 L
532.761 272.449 L
533.269 272.266 L
533.776 271.979 L
534.284 271.822 L
534.791 271.588 L
535.299 271.431 L
535.806 271.248 L
536.314 271.117 L
536.821 270.83 L
537.329 270.647 L
537.837 270.49 L
538.344 270.49 L
538.852 270.282 L
539.359 270.125 L
539.867 269.994 L
540.374 269.89 L
540.882 269.707 L
541.389 269.603 L
541.897 269.42 L
542.404 269.211 L
542.912 269.002 L
543.419 268.924 L
543.927 268.689 L
544.434 268.506 L
544.942 268.323 L
545.449 268.062 L
545.957 267.906 L
546.465 267.697 L
546.972 267.462 L
547.48 267.279 L
547.987 267.018 L
548.495 266.783 L
549.002 266.548 L
549.51 266.391 L
550.017 266.234 L
550.525 266.025 L
551.032 265.843 L
551.54 265.66 L
552.047 265.503 L
552.555 265.321 L
553.062 265.216 L
553.57 265.086 L
554.077 265.06 L
554.585 265.06 L
555.092 265.086 L
555.6 265.347 L
556.108 265.921 L
556.615 266.574 L
557.123 267.41 L
557.63 268.324 L
558.138 269.003 L
558.645 269.525 L
559.153 269.89 L
559.66 270.282 L
560.168 270.778 L
560.675 271.248 L
561.183 271.849 L
561.69 272.501 L
562.198 273.18 L
562.705 273.729 L
563.213 274.251 L
563.72 274.669 L
564.228 275.034 L
564.735 275.4 L
565.243 275.635 L
565.751 275.739 L
566.258 275.765 L
566.766 275.635 L
567.273 275.348 L
567.781 274.851 L
568.288 274.381 L
568.796 273.65 L
569.303 272.997 L
569.811 272.266 L
570.318 271.457 L
570.826 270.725 L
571.333 269.968 L
571.841 269.211 L
572.348 268.506 L
572.856 267.775 L
573.363 267.044 L
573.871 266.182 L
574.378 265.425 L
574.886 264.798 L
575.394 264.354 L
575.901 263.936 L
576.409 263.649 L
576.916 263.44 L
577.424 263.205 L
577.931 263.153 L
578.439 263.022 L
578.946 263.048 L
579.454 263.101 L
579.961 263.258 L
580.469 263.519 L
580.976 263.649 L
581.484 263.91 L
581.991 264.093 L
582.499 264.433 L
583.006 264.694 L
583.514 264.929 L
584.021 265.19 L
584.529 265.425 L
585.037 265.556 L
585.544 265.634 L
586.052 265.921 L
586.559 265.947 L
587.067 266.025 L
587.574 266.025 L
588.082 266.026 L
588.589 265.869 L
589.097 265.843 L
589.604 265.712 L
590.112 265.608 L
590.619 265.53 L
591.127 265.347 L
591.634 265.138 L
592.142 264.955 L
592.649 264.903 L
593.157 264.72 L
593.665 264.59 L
594.172 264.59 L
594.68 264.485 L
595.187 264.459 L
595.695 264.486 L
596.202 264.46 L
596.71 264.564 L
597.217 264.642 L
597.725 264.878 L
598.232 265.087 L
598.74 265.426 L
599.247 265.609 L
599.755 265.87 L
600.262 266.183 L
600.77 266.575 L
601.277 266.993 L
601.785 267.41 L
602.292 267.906 L
602.8 268.272 L
603.308 268.611 L
603.815 269.003 L
604.323 269.264 L
604.83 269.551 L
605.338 269.682 L
605.845 269.865 L
606.353 269.891 L
606.86 269.865 L
607.368 269.839 L
607.875 269.76 L
608.383 269.734 L
608.89 269.499 L
609.398 269.369 L
609.905 269.16 L
610.413 268.899 L
610.92 268.69 L
611.428 268.56 L
611.935 268.455 L
612.443 268.325 L
612.951 268.246 L
613.458 268.272 L
613.966 268.22 L
614.473 268.22 L
614.981 268.325 L
615.488 268.403 L
615.996 268.586 L
616.503 268.899 L
617.011 269.082 L
617.518 269.291 L
618.026 269.474 L
618.533 269.787 L
619.041 269.865 L
619.548 270.127 L
620.056 270.205 L
620.563 270.257 L
621.071 270.309 L
621.578 270.361 L
622.086 270.231 L
622.594 270.152 L
623.101 270.022 L
623.609 269.865 L
624.116 269.604 L
624.624 269.5 L
625.131 269.291 L
625.639 268.977 L
626.146 268.742 L
626.654 268.507 L
627.161 268.351 L
627.669 268.142 L
628.176 267.985 L
628.684 267.698 L
629.191 267.541 L
629.699 267.437 L
630.206 267.385 L
630.714 267.228 L
631.221 267.228 L
631.729 267.176 L
632.237 267.123 L
632.744 267.15 L
633.252 267.123 L
633.759 267.019 L
634.267 266.967 L
634.774 266.941 L
635.282 266.967 L
635.789 266.967 L
636.297 266.915 L
636.804 266.889 L
637.312 266.758 L
637.819 266.706 L
638.327 266.523 L
638.834 266.393 L
639.342 266.366 L
639.849 266.21 L
640.357 266.21 L
640.865 266.184 L
641.372 266.236 L
641.88 266.184 L
642.387 266.236 L
642.895 266.262 L
643.402 266.393 L
643.91 266.419 L
644.417 266.523 L
644.925 266.68 L
645.432 266.889 L
645.94 267.045 L
646.447 267.228 L
646.955 267.411 L
647.462 267.541 L
647.97 267.62 L
648.477 267.672 L
648.985 267.802 L
649.492 267.881 L
650 267.933 L
650.056 267.93 L
S
GR
GS
[0.75 0 0 0.75 0 0] CT
0.494 0.184 0.557 RC
1 LJ
2 LW
N
177.944 338.91 M
178 338.91 L
178.508 338.813 L
179.015 338.914 L
179.523 338.921 L
180.03 338.823 L
180.538 338.726 L
181.045 338.531 L
181.553 338.726 L
182.06 338.528 L
182.568 338.621 L
183.075 338.816 L
183.583 338.819 L
184.09 338.726 L
184.598 338.736 L
185.105 338.83 L
185.613 339.025 L
186.12 338.931 L
186.628 338.736 L
187.135 338.934 L
187.643 338.743 L
188.151 339.036 L
188.658 339.129 L
189.166 339.133 L
189.673 338.93 L
190.181 338.93 L
190.688 338.635 L
191.196 338.834 L
191.703 338.74 L
192.211 338.541 L
192.718 338.346 L
193.226 338.342 L
193.733 338.347 L
194.241 338.44 L
194.748 338.342 L
195.256 338.346 L
195.763 338.346 L
196.271 338.443 L
196.778 338.642 L
197.286 338.646 L
197.794 338.743 L
198.301 338.551 L
198.809 338.844 L
199.316 338.739 L
199.824 338.739 L
200.331 338.938 L
200.839 338.743 L
201.346 339.032 L
201.854 338.927 L
202.361 339.028 L
202.869 339.226 L
203.376 339.324 L
203.884 339.327 L
204.391 339.227 L
204.899 339.425 L
205.406 339.53 L
205.914 339.631 L
206.422 339.339 L
206.929 339.339 L
207.437 339.242 L
207.944 339.35 L
208.452 339.548 L
208.959 339.159 L
209.467 339.451 L
209.974 339.354 L
210.482 339.159 L
210.989 339.163 L
211.497 339.163 L
212.004 339.357 L
212.512 339.267 L
213.019 339.166 L
213.527 339.064 L
214.034 339.065 L
214.542 339.061 L
215.049 338.968 L
215.557 338.87 L
216.065 338.683 L
216.572 338.583 L
217.08 338.774 L
217.587 338.576 L
218.095 338.377 L
218.602 338.478 L
219.11 338.474 L
219.617 338.377 L
220.125 338.081 L
220.632 337.89 L
221.14 337.988 L
221.647 338.183 L
222.155 338.183 L
222.662 338.179 L
223.17 338.276 L
223.677 338.276 L
224.185 338.186 L
224.692 338.186 L
225.2 337.792 L
225.708 337.69 L
226.215 337.593 L
226.723 337.594 L
227.23 337.493 L
227.738 337.489 L
228.245 337.586 L
228.753 337.59 L
229.26 337.687 L
229.768 337.395 L
230.275 337.395 L
230.783 337.294 L
231.29 337.294 L
231.798 337.688 L
232.305 337.494 L
232.813 337.786 L
233.32 337.787 L
233.828 338.177 L
234.335 337.986 L
234.843 338.083 L
235.351 337.888 L
235.858 337.99 L
236.366 338.181 L
236.873 338.087 L
237.381 337.99 L
237.888 337.888 L
238.396 337.892 L
238.903 338.091 L
239.411 338.192 L
239.918 337.997 L
240.426 337.803 L
240.933 337.806 L
241.441 337.809 L
241.948 337.91 L
242.456 338.005 L
242.963 337.903 L
243.471 338.297 L
243.979 338.395 L
244.486 338.499 L
244.994 338.305 L
245.501 338.203 L
246.009 338.203 L
246.516 338.203 L
247.024 338.199 L
247.531 337.908 L
248.039 337.806 L
248.546 337.802 L
249.054 337.607 L
249.561 337.704 L
250.069 337.509 L
250.576 337.411 L
251.084 337.318 L
251.591 337.416 L
252.099 336.827 L
252.606 336.632 L
253.114 336.827 L
253.622 336.632 L
254.129 336.436 L
254.637 336.343 L
255.144 336.156 L
255.652 336.152 L
256.159 336.054 L
256.667 335.957 L
257.174 335.665 L
257.682 335.754 L
258.189 335.856 L
258.697 335.661 L
259.204 335.856 L
259.712 335.758 L
260.219 335.848 L
260.727 335.75 L
261.234 335.555 L
261.742 335.462 L
262.249 335.653 L
262.757 335.458 L
263.265 335.751 L
263.772 335.657 L
264.28 335.759 L
264.787 335.467 L
265.295 335.373 L
265.802 335.568 L
266.31 335.475 L
266.817 335.573 L
267.325 335.471 L
267.832 335.081 L
268.34 335.374 L
268.847 335.374 L
269.355 335.366 L
269.862 335.467 L
270.37 335.366 L
270.877 335.366 L
271.385 335.37 L
271.892 335.476 L
272.4 335.476 L
272.908 335.479 L
273.415 335.378 L
273.923 335.284 L
274.43 335.285 L
274.938 335.288 L
275.445 335.187 L
275.953 335.378 L
276.46 335.568 L
276.968 335.276 L
277.475 335.276 L
277.983 335.373 L
278.49 335.479 L
278.998 335.288 L
279.505 335.19 L
280.013 335.576 L
280.52 335.276 L
281.028 335.28 L
281.535 335.19 L
282.043 335.381 L
282.551 335.288 L
283.058 335.479 L
283.566 335.381 L
284.073 335.194 L
284.581 334.902 L
285.088 334.902 L
285.596 334.805 L
286.103 334.903 L
286.611 334.517 L
287.118 334.517 L
287.626 334.521 L
288.133 334.711 L
288.641 334.902 L
289.148 334.902 L
289.656 335.288 L
290.163 335.093 L
290.671 335.386 L
291.178 335.479 L
291.686 335.382 L
292.194 335.086 L
292.701 334.993 L
293.209 335.277 L
293.716 334.989 L
294.224 335.09 L
294.731 335.089 L
295.239 335.186 L
295.746 334.894 L
296.254 334.797 L
296.761 334.797 L
297.269 334.31 L
297.776 334.505 L
298.284 334.793 L
298.791 334.886 L
299.299 334.987 L
299.806 334.601 L
300.314 334.301 L
300.822 333.628 L
301.329 333.055 L
301.837 331.316 L
302.344 329.095 L
302.852 326.014 L
303.359 322.357 L
303.867 318.71 L
304.374 315.953 L
304.882 313.702 L
305.389 312.134 L
305.897 310.104 L
306.404 308.369 L
306.912 306.169 L
307.419 303.604 L
307.927 300.848 L
308.434 298.019 L
308.942 295.577 L
309.449 293.069 L
309.957 291.049 L
310.465 289.236 L
310.972 287.715 L
311.48 286.311 L
311.987 285.285 L
312.495 284.832 L
313.002 284.688 L
313.51 285.188 L
314.017 286.156 L
314.525 287.411 L
315.032 289.392 L
315.54 291.079 L
316.047 293.326 L
316.555 295.479 L
317.062 297.524 L
317.57 299.753 L
318.077 301.887 L
318.585 303.914 L
319.092 306.104 L
319.6 308.03 L
320.108 310.57 L
320.615 312.655 L
321.123 314.629 L
321.63 315.709 L
322.138 316.955 L
322.645 317.371 L
323.153 317.7 L
323.66 318.029 L
324.168 318.182 L
324.675 318.156 L
325.183 317.684 L
325.69 317.124 L
326.198 316.295 L
326.705 315.031 L
327.213 313.856 L
327.72 312.688 L
328.228 311.613 L
328.735 310.103 L
329.243 308.601 L
329.751 307.463 L
330.258 306.419 L
330.766 305.374 L
331.273 304.603 L
331.781 303.836 L
332.288 302.625 L
332.796 302.128 L
333.303 301.547 L
333.811 301.142 L
334.318 300.819 L
334.826 300.748 L
335.333 300.607 L
335.841 300.531 L
336.348 300.571 L
336.856 300.427 L
337.363 300.724 L
337.871 300.921 L
338.379 301.286 L
338.886 301.222 L
339.394 301.259 L
339.901 301.38 L
340.409 301.243 L
340.916 301.1 L
341.424 300.958 L
341.931 300.485 L
342.439 300.272 L
342.946 299.656 L
343.454 299.044 L
343.961 297.859 L
344.469 296.936 L
344.976 295.445 L
345.484 294.209 L
345.991 293.045 L
346.499 291.814 L
347.006 290.266 L
347.514 288.574 L
348.022 286.803 L
348.529 285.292 L
349.037 283.932 L
349.544 282.44 L
350.052 281.017 L
350.559 279.93 L
351.067 278.76 L
351.574 277.825 L
352.082 277.143 L
352.589 276.702 L
353.097 276.836 L
353.604 276.569 L
354.112 276.684 L
354.619 276.567 L
355.127 276.887 L
355.634 277.093 L
356.142 277.444 L
356.649 278.115 L
357.157 278.629 L
357.665 278.911 L
358.172 279.203 L
358.68 279.465 L
359.187 279.442 L
359.695 279.258 L
360.202 279.466 L
360.71 279.21 L
361.217 278.968 L
361.725 278.739 L
362.232 278.116 L
362.74 277.262 L
363.247 276.499 L
363.755 275.667 L
364.262 274.715 L
364.77 273.833 L
365.277 273.315 L
365.785 272.456 L
366.292 272.022 L
366.8 271.665 L
367.308 271.299 L
367.815 271.191 L
368.323 271.498 L
368.83 271.443 L
369.338 271.594 L
369.845 271.975 L
370.353 272.356 L
370.86 272.652 L
371.368 273.199 L
371.875 273.875 L
372.383 274.336 L
372.89 274.642 L
373.398 275.373 L
373.905 275.973 L
374.413 276.359 L
374.92 277.037 L
375.428 277.492 L
375.935 277.585 L
376.443 277.495 L
376.951 277.661 L
377.458 277.494 L
377.966 277.524 L
378.473 277.511 L
378.981 277.351 L
379.488 277.046 L
379.996 277.028 L
380.503 276.932 L
381.011 276.838 L
381.518 276.815 L
382.026 276.591 L
382.533 276.517 L
383.041 276.366 L
383.548 276.485 L
384.056 276.485 L
384.563 276.673 L
385.071 276.928 L
385.578 276.998 L
386.086 277.292 L
386.594 277.234 L
387.101 277.308 L
387.609 277.254 L
388.116 277.125 L
388.624 276.74 L
389.131 276.565 L
389.639 276.2 L
390.146 275.955 L
390.654 275.662 L
391.161 275.182 L
391.669 274.721 L
392.176 274.252 L
392.684 273.598 L
393.191 273.139 L
393.699 272.875 L
394.206 272.538 L
394.714 272.205 L
395.221 271.766 L
395.729 271.628 L
396.237 271.542 L
396.744 271.486 L
397.252 271.74 L
397.759 271.797 L
398.267 271.795 L
398.774 271.978 L
399.282 272.176 L
399.789 272.422 L
400.297 272.487 L
400.804 272.703 L
401.312 272.846 L
401.819 273.155 L
402.327 273.36 L
402.834 273.256 L
403.342 273.391 L
403.849 273.483 L
404.357 273.387 L
404.865 273.309 L
405.372 273.219 L
405.88 273.104 L
406.387 272.746 L
406.895 272.609 L
407.402 272.231 L
407.91 271.758 L
408.417 271.322 L
408.925 271.073 L
409.432 270.844 L
409.94 270.593 L
410.447 270.332 L
410.955 270.101 L
411.462 269.985 L
411.97 270.128 L
412.477 269.994 L
412.985 270.126 L
413.492 270.094 L
414 270.395 L
414.508 270.477 L
415.015 270.741 L
415.523 271.177 L
416.03 271.48 L
416.538 271.747 L
417.045 272.215 L
417.553 272.537 L
418.06 273.073 L
418.568 273.486 L
419.075 273.825 L
419.583 273.996 L
420.09 274.236 L
420.598 274.562 L
421.105 274.91 L
421.613 275.117 L
422.12 275.482 L
422.628 275.676 L
423.135 275.852 L
423.643 275.947 L
424.151 276.127 L
424.658 276.242 L
425.166 276.426 L
425.673 276.512 L
426.181 276.751 L
426.688 276.892 L
427.196 277.102 L
427.703 277.281 L
428.211 277.576 L
428.718 277.939 L
429.226 278.073 L
429.733 278.504 L
430.241 278.756 L
430.748 279.041 L
431.256 279.295 L
431.763 279.535 L
432.271 280.016 L
432.779 280.227 L
433.286 280.644 L
433.794 280.966 L
434.301 281.259 L
434.809 281.57 L
435.316 281.788 L
435.824 282.084 L
436.331 282.353 L
436.839 282.455 L
437.346 282.51 L
437.854 282.723 L
438.361 282.595 L
438.869 282.603 L
439.376 282.434 L
439.884 282.343 L
440.391 282.337 L
440.899 282.166 L
441.406 281.974 L
441.914 281.859 L
442.422 281.635 L
442.929 281.461 L
443.437 281.416 L
443.944 281.279 L
444.452 281.166 L
444.959 280.997 L
445.467 280.919 L
445.974 280.865 L
446.482 280.859 L
446.989 281.002 L
447.497 281.004 L
448.004 281.096 L
448.512 281.13 L
449.019 281.273 L
449.527 281.645 L
450.034 281.935 L
450.542 282.187 L
451.049 282.523 L
451.557 282.779 L
452.065 283.257 L
452.572 283.576 L
453.08 284.017 L
453.587 284.38 L
454.095 284.743 L
454.602 285.167 L
455.11 285.495 L
455.617 286.095 L
456.125 286.29 L
456.632 286.642 L
457.14 286.957 L
457.647 287.236 L
458.155 287.537 L
458.662 287.858 L
459.17 288.256 L
459.677 288.507 L
460.185 288.927 L
460.692 289.222 L
461.2 289.536 L
461.708 289.668 L
462.215 289.951 L
462.723 290.326 L
463.23 290.559 L
463.738 290.906 L
464.245 291.251 L
464.753 291.568 L
465.26 291.902 L
465.768 292.184 L
466.275 292.503 L
466.783 292.954 L
467.29 293.333 L
467.798 293.733 L
468.305 294.23 L
468.813 294.66 L
469.32 295.159 L
469.828 295.69 L
470.335 296.09 L
470.843 296.696 L
471.351 297.301 L
471.858 297.919 L
472.366 298.386 L
472.873 298.919 L
473.381 299.419 L
473.888 299.94 L
474.396 300.441 L
474.903 300.807 L
475.411 301.299 L
475.918 301.762 L
476.426 302.266 L
476.933 302.65 L
477.441 303.065 L
477.948 303.491 L
478.456 303.88 L
478.963 304.28 L
479.471 304.663 L
479.978 304.99 L
480.486 305.3 L
480.994 305.692 L
481.501 306.057 L
482.009 306.29 L
482.516 306.726 L
483.024 307.043 L
483.531 307.42 L
484.039 307.718 L
484.546 308.025 L
485.054 308.417 L
485.561 308.757 L
486.069 309.23 L
486.576 309.496 L
487.084 309.841 L
487.591 310.268 L
488.099 310.65 L
488.606 310.975 L
489.114 311.462 L
489.622 311.802 L
490.129 312.217 L
490.637 312.56 L
491.144 312.957 L
491.652 313.409 L
492.159 313.714 L
492.667 314.121 L
493.174 314.483 L
493.682 314.849 L
494.189 315.312 L
494.697 315.639 L
495.204 315.993 L
495.712 316.353 L
496.219 316.67 L
496.727 317.083 L
497.234 317.411 L
497.742 317.788 L
498.249 318.124 L
498.757 318.576 L
499.265 318.897 L
499.772 319.246 L
500.28 319.667 L
500.787 320.091 L
501.295 320.597 L
501.802 321.114 L
502.31 321.607 L
502.817 322.203 L
503.325 322.68 L
503.832 323.238 L
504.34 323.783 L
504.847 324.407 L
505.355 325.012 L
505.862 325.713 L
506.37 326.357 L
506.877 326.907 L
507.385 327.533 L
507.892 328.196 L
508.4 328.877 L
508.908 329.425 L
509.415 330.03 L
509.923 330.617 L
510.43 331.177 L
510.938 331.824 L
511.445 332.353 L
511.953 332.911 L
512.46 333.462 L
512.968 333.999 L
513.475 334.499 L
513.983 335.05 L
514.49 335.555 L
514.998 336.033 L
515.505 336.506 L
516.013 337.001 L
516.52 337.535 L
517.028 338.013 L
517.535 338.5 L
518.043 339.039 L
518.551 339.621 L
519.058 340.171 L
519.566 340.763 L
520.073 341.317 L
520.581 341.887 L
521.088 342.525 L
521.596 343.152 L
522.103 343.729 L
522.611 344.409 L
523.118 345.077 L
523.626 345.646 L
524.133 346.255 L
524.641 346.888 L
525.148 347.534 L
525.656 348.158 L
526.163 348.782 L
526.671 349.408 L
527.179 350.007 L
527.686 350.672 L
528.194 351.24 L
528.701 351.811 L
529.209 352.442 L
529.716 353.12 L
530.224 353.716 L
530.731 354.354 L
531.239 354.986 L
531.746 355.655 L
532.254 356.24 L
532.761 356.828 L
533.269 357.444 L
533.776 358.058 L
534.284 358.689 L
534.791 359.299 L
535.299 359.909 L
535.806 360.593 L
536.314 361.241 L
536.821 361.85 L
537.329 362.489 L
537.837 363.139 L
538.344 363.829 L
538.852 364.469 L
539.359 365.125 L
539.867 365.815 L
540.374 366.46 L
540.882 367.116 L
541.389 367.791 L
541.897 368.506 L
542.404 369.192 L
542.912 369.854 L
543.419 370.569 L
543.927 371.233 L
544.434 371.908 L
544.942 372.64 L
545.449 373.364 L
545.957 374.079 L
546.465 374.735 L
546.972 375.5 L
547.48 376.193 L
547.987 376.908 L
548.495 377.629 L
549.002 378.354 L
549.51 379.061 L
550.017 379.799 L
550.525 380.591 L
551.032 381.248 L
551.54 381.992 L
552.047 382.767 L
552.555 383.489 L
553.062 384.215 L
553.57 384.942 L
554.077 385.756 L
554.585 386.459 L
555.092 387.161 L
555.6 387.804 L
556.108 388.41 L
556.615 388.952 L
557.123 389.427 L
557.63 389.917 L
558.138 390.299 L
558.645 390.574 L
559.153 390.88 L
559.66 391.128 L
560.168 391.343 L
560.675 391.556 L
561.183 391.708 L
561.69 391.828 L
562.198 391.97 L
562.705 392.066 L
563.213 392.188 L
563.72 392.213 L
564.228 392.241 L
564.735 392.243 L
565.243 392.253 L
565.751 392.247 L
566.258 392.245 L
566.766 392.203 L
567.273 392.221 L
567.781 392.227 L
568.288 392.231 L
568.796 392.327 L
569.303 392.368 L
569.811 392.388 L
570.318 392.412 L
570.826 392.457 L
571.333 392.477 L
571.841 392.524 L
572.348 392.568 L
572.856 392.667 L
573.363 392.713 L
573.871 392.822 L
574.378 392.869 L
574.886 392.965 L
575.394 392.965 L
575.901 392.991 L
576.409 393.038 L
576.916 393.051 L
577.424 393.066 L
577.931 393.07 L
578.439 393.078 L
578.946 393.047 L
579.454 393.016 L
579.961 393.034 L
580.469 393.018 L
580.976 392.981 L
581.484 392.965 L
581.991 392.953 L
582.499 392.96 L
583.006 392.944 L
583.514 392.901 L
584.021 392.912 L
584.529 392.87 L
585.037 392.862 L
585.544 392.829 L
586.052 392.811 L
586.559 392.809 L
587.067 392.748 L
587.574 392.748 L
588.082 392.804 L
588.589 392.842 L
589.097 392.871 L
589.604 392.936 L
590.112 392.914 L
590.619 392.947 L
591.127 392.959 L
591.634 392.972 L
592.142 392.984 L
592.649 393.043 L
593.157 393.055 L
593.665 393.092 L
594.172 393.12 L
594.68 393.127 L
595.187 393.157 L
595.695 393.156 L
596.202 393.186 L
596.71 393.151 L
597.217 393.146 L
597.725 393.102 L
598.232 393.061 L
598.74 393.039 L
599.247 393.027 L
599.755 392.982 L
600.262 392.962 L
600.77 392.937 L
601.277 392.91 L
601.785 392.91 L
602.292 392.878 L
602.8 392.828 L
603.308 392.779 L
603.815 392.781 L
604.323 392.764 L
604.83 392.745 L
605.338 392.737 L
605.845 392.725 L
606.353 392.724 L
606.86 392.725 L
607.368 392.727 L
607.875 392.759 L
608.383 392.761 L
608.89 392.803 L
609.398 392.784 L
609.905 392.798 L
610.413 392.815 L
610.92 392.801 L
611.428 392.809 L
611.935 392.816 L
612.443 392.852 L
612.951 392.857 L
613.458 392.882 L
613.966 392.913 L
614.473 392.913 L
614.981 392.852 L
615.488 392.819 L
615.996 392.754 L
616.503 392.761 L
617.011 392.776 L
617.518 392.763 L
618.026 392.724 L
618.533 392.704 L
619.041 392.699 L
619.548 392.682 L
620.056 392.784 L
620.563 392.78 L
621.071 392.804 L
621.578 392.8 L
622.086 392.835 L
622.594 392.894 L
623.101 392.929 L
623.609 392.966 L
624.116 393.01 L
624.624 393.044 L
625.131 393.058 L
625.639 393.079 L
626.146 393.095 L
626.654 393.165 L
627.161 393.176 L
627.669 393.19 L
628.176 393.174 L
628.684 393.221 L
629.191 393.231 L
629.699 393.266 L
630.206 393.214 L
630.714 393.252 L
631.221 393.225 L
631.729 393.256 L
632.237 393.287 L
632.744 393.258 L
633.252 393.287 L
633.759 393.294 L
634.267 393.325 L
634.774 393.327 L
635.282 393.325 L
635.789 393.353 L
636.297 393.356 L
636.804 393.358 L
637.312 393.395 L
637.819 393.399 L
638.327 393.439 L
638.834 393.448 L
639.342 393.45 L
639.849 393.433 L
640.357 393.433 L
640.865 393.435 L
641.372 393.376 L
641.88 393.351 L
642.387 393.376 L
642.895 393.374 L
643.402 393.365 L
643.91 393.391 L
644.417 393.384 L
644.925 393.373 L
645.432 393.358 L
645.94 393.32 L
646.447 393.307 L
646.955 393.24 L
647.462 393.259 L
647.97 393.28 L
648.477 393.304 L
648.985 393.295 L
649.492 393.29 L
650 393.314 L
650.056 393.314 L
S
GR
GS
[0.75 0 0 0.75 0 0] CT
0.467 0.675 0.188 RC
[8 8] 0 setdash
2 LJ
2 LW
N
304.882 445 M
305.389 444.262 L
305.897 443.506 L
306.404 442.731 L
306.912 441.937 L
307.419 441.119 L
307.927 440.274 L
308.434 439.401 L
308.942 438.502 L
309.449 437.578 L
309.957 436.631 L
310.465 435.666 L
310.972 434.683 L
311.48 433.686 L
311.987 432.677 L
312.495 431.66 L
313.002 430.641 L
313.51 429.623 L
314.017 428.613 L
314.525 427.613 L
315.032 426.63 L
315.54 425.665 L
316.047 424.72 L
316.555 423.797 L
317.062 422.895 L
317.57 422.014 L
318.077 421.155 L
318.585 420.317 L
319.092 419.5 L
319.6 418.704 L
320.108 417.93 L
320.615 417.179 L
321.123 416.448 L
321.63 415.732 L
322.138 415.029 L
322.645 414.333 L
323.153 413.641 L
323.66 412.953 L
324.168 412.267 L
324.675 411.581 L
325.183 410.893 L
325.69 410.2 L
326.198 409.5 L
326.705 408.79 L
327.213 408.067 L
327.72 407.333 L
328.228 406.587 L
328.735 405.828 L
329.243 405.055 L
329.751 404.268 L
330.258 403.47 L
330.766 402.662 L
331.273 401.845 L
331.781 401.02 L
332.288 400.185 L
332.796 399.342 L
333.303 398.493 L
333.811 397.639 L
334.318 396.782 L
334.826 395.922 L
335.333 395.062 L
335.841 394.201 L
336.348 393.339 L
336.856 392.477 L
337.363 391.615 L
337.871 390.757 L
338.379 389.9 L
338.886 389.046 L
339.394 388.191 L
339.901 387.337 L
340.409 386.483 L
340.916 385.628 L
341.424 384.771 L
341.931 383.911 L
342.439 383.048 L
342.946 382.18 L
343.454 381.306 L
343.961 380.424 L
344.469 379.531 L
344.976 378.625 L
345.484 377.706 L
345.991 376.776 L
346.499 375.833 L
347.006 374.876 L
347.514 373.903 L
348.022 372.913 L
348.529 371.906 L
349.037 370.885 L
349.544 369.85 L
350.052 368.8 L
350.559 367.738 L
351.067 366.664 L
351.574 365.58 L
352.082 364.487 L
352.589 363.389 L
353.097 362.29 L
353.604 361.19 L
354.112 360.089 L
354.619 358.988 L
355.127 357.888 L
355.634 356.791 L
356.142 355.697 L
356.649 354.607 L
357.157 353.524 L
357.665 352.444 L
358.172 351.368 L
358.68 350.294 L
359.187 349.221 L
359.695 348.148 L
360.202 347.074 L
360.71 346 L
361.217 344.924 L
361.725 343.846 L
362.232 342.763 L
362.74 341.672 L
363.247 340.574 L
363.755 339.468 L
364.262 338.353 L
364.77 337.228 L
365.277 336.097 L
365.785 334.958 L
366.292 333.814 L
366.8 332.665 L
367.308 331.513 L
367.815 330.358 L
368.323 329.204 L
368.83 328.052 L
369.338 326.9 L
369.845 325.751 L
370.353 324.605 L
370.86 323.463 L
371.368 322.325 L
371.875 321.193 L
372.383 320.067 L
372.89 318.945 L
373.398 317.828 L
373.905 316.717 L
374.413 315.612 L
374.92 314.512 L
375.428 313.417 L
375.935 312.326 L
376.443 311.234 L
376.951 310.142 L
377.458 309.051 L
377.966 307.959 L
378.473 306.867 L
378.981 305.774 L
379.488 304.679 L
379.996 303.582 L
380.503 302.485 L
381.011 301.387 L
381.518 300.288 L
382.026 299.188 L
382.533 298.086 L
383.041 296.983 L
383.548 295.88 L
384.056 294.778 L
384.563 293.677 L
385.071 292.578 L
385.578 291.48 L
386.086 290.384 L
386.594 289.29 L
387.101 288.196 L
387.609 287.101 L
388.116 286.006 L
388.624 284.908 L
389.131 283.808 L
389.639 282.704 L
390.146 281.598 L
390.654 280.489 L
391.161 279.376 L
391.669 278.258 L
392.176 277.136 L
392.684 276.008 L
393.191 274.875 L
393.699 273.738 L
394.206 272.597 L
394.714 271.454 L
395.221 270.307 L
395.729 269.157 L
396.237 268.005 L
396.744 266.853 L
397.252 265.702 L
397.759 264.553 L
398.267 263.404 L
398.774 262.255 L
399.282 261.109 L
399.789 259.965 L
400.297 258.822 L
400.804 257.681 L
401.312 256.542 L
401.819 255.404 L
402.327 254.27 L
402.834 253.136 L
403.342 252.002 L
403.849 250.869 L
404.357 249.736 L
404.865 248.603 L
405.372 247.468 L
405.88 246.333 L
406.387 245.195 L
406.895 244.054 L
407.402 242.912 L
407.91 241.764 L
408.417 240.613 L
408.925 239.457 L
409.432 238.3 L
409.94 237.14 L
410.447 235.977 L
410.955 234.812 L
411.462 233.646 L
411.97 232.479 L
412.477 231.313 L
412.985 230.146 L
413.492 228.98 L
414 227.815 L
414.508 226.652 L
415.015 225.491 L
415.523 224.334 L
416.03 223.18 L
416.538 222.029 L
417.045 220.882 L
417.553 219.738 L
418.06 218.599 L
418.568 217.465 L
419.075 216.334 L
419.583 215.206 L
420.09 214.08 L
420.598 212.957 L
421.105 211.837 L
421.613 210.72 L
422.12 209.606 L
422.628 208.495 L
423.135 207.385 L
423.643 206.277 L
424.151 205.17 L
424.658 204.065 L
425.166 202.961 L
425.673 201.859 L
426.181 200.758 L
426.688 199.659 L
427.196 198.562 L
427.703 197.467 L
428.211 196.374 L
428.718 195.284 L
429.226 194.197 L
429.733 193.113 L
430.241 192.032 L
430.748 190.954 L
431.256 189.878 L
431.763 188.805 L
432.271 187.736 L
432.779 186.67 L
433.286 185.607 L
433.794 184.548 L
434.301 183.492 L
434.809 182.439 L
435.316 181.389 L
435.824 180.341 L
436.331 179.296 L
436.839 178.253 L
437.346 177.211 L
437.854 176.17 L
438.361 175.129 L
438.869 174.088 L
439.376 173.046 L
439.884 172.003 L
440.391 170.959 L
440.899 169.914 L
441.406 168.868 L
441.914 167.82 L
442.422 166.77 L
442.929 165.719 L
443.437 164.666 L
443.944 163.612 L
444.452 162.557 L
444.959 161.501 L
445.467 160.443 L
445.974 159.385 L
446.482 158.327 L
446.989 157.269 L
447.497 156.212 L
448.004 155.155 L
448.512 154.099 L
449.019 153.044 L
449.527 151.991 L
450.034 150.942 L
450.542 149.896 L
451.049 148.852 L
451.557 147.811 L
452.065 146.774 L
452.572 145.741 L
453.08 144.712 L
453.587 143.687 L
454.095 142.666 L
454.602 141.648 L
455.11 140.634 L
455.617 139.625 L
456.125 138.62 L
456.632 137.617 L
457.14 136.618 L
457.647 135.622 L
458.155 134.629 L
458.662 133.639 L
459.17 132.652 L
459.677 131.669 L
460.185 130.689 L
460.692 129.712 L
461.2 128.739 L
461.708 127.768 L
462.215 126.799 L
462.723 125.833 L
463.23 124.87 L
463.738 123.91 L
464.245 122.954 L
464.753 122.001 L
465.26 121.051 L
465.768 120.105 L
466.275 119.161 L
466.783 118.221 L
467.29 117.285 L
467.798 116.353 L
468.305 115.426 L
468.813 114.503 L
469.32 113.585 L
469.828 112.672 L
470.335 111.764 L
470.843 110.861 L
471.351 109.964 L
471.858 109.073 L
472.366 108.187 L
472.873 107.307 L
473.381 106.431 L
473.888 105.561 L
474.396 104.696 L
474.903 103.835 L
475.411 102.978 L
475.918 102.126 L
476.426 101.279 L
476.933 100.437 L
477.441 99.598 L
477.948 98.764 L
478.456 97.933 L
478.963 97.107 L
479.471 96.285 L
479.978 95.466 L
480.486 94.65 L
480.994 93.838 L
481.501 93.029 L
482.009 92.224 L
482.516 91.422 L
483.024 90.624 L
483.531 89.829 L
484.039 89.037 L
484.546 88.249 L
485.054 87.464 L
485.561 86.683 L
486.069 85.906 L
486.576 85.132 L
487.084 84.362 L
487.591 83.595 L
488.099 82.832 L
488.606 82.073 L
489.114 81.318 L
489.622 80.568 L
490.129 79.821 L
490.637 79.077 L
491.144 78.338 L
491.652 77.602 L
492.159 76.871 L
492.667 76.143 L
493.174 75.419 L
493.682 74.698 L
494.189 73.982 L
494.697 73.27 L
495.204 72.561 L
495.712 71.855 L
496.219 71.153 L
496.727 70.455 L
497.234 69.76 L
497.742 69.069 L
498.249 68.381 L
498.757 67.698 L
499.265 67.018 L
499.772 66.342 L
500.28 65.669 L
500.787 65.001 L
501.295 64.337 L
501.802 63.678 L
502.31 63.025 L
502.817 62.377 L
503.325 61.734 L
503.832 61.096 L
504.34 60.464 L
504.847 59.838 L
505.355 59.218 L
505.862 58.605 L
506.37 57.998 L
506.877 57.397 L
507.385 56.802 L
507.892 56.214 L
508.4 55.632 L
508.908 55.056 L
509.415 54.486 L
509.923 53.922 L
510.43 53.364 L
510.938 52.812 L
511.445 52.266 L
511.953 51.725 L
512.46 51.19 L
512.968 50.66 L
513.475 50.135 L
513.983 49.616 L
514.49 49.102 L
514.998 48.593 L
515.505 48.088 L
516.013 47.588 L
516.52 47.094 L
517.028 46.605 L
517.535 46.12 L
518.043 45.641 L
518.551 45.167 L
519.058 44.699 L
519.566 44.236 L
520.073 43.779 L
520.581 43.328 L
521.088 42.883 L
521.596 42.444 L
522.103 42.012 L
522.611 41.585 L
523.118 41.165 L
S
GR
GS
[0.75 0 0 0.75 0 0] CT
1 GC
N
639 165 M
639 48 L
557 48 L
557 165 L
cp
f
GR
GS
[0.75 0 0 0.75 453 50.25] CT
/Helvetica 16.8 F
GS
[1 0 0 1 0 0] CT
0 0 moveto 
1 -1 scale
(V) t 
GR
GR
GS
[0.75 0 0 0.75 462 56.25] CT
/Helvetica 13.44 F
GS
[1 0 0 1 0 0] CT
0 0 moveto 
1 -1 scale
(D) t 
GR
GR
GS
[0.75 0 0 0.75 469.5 56.25] CT
/Helvetica 13.44 F
GS
[1 0 0 1 0 0] CT
0 0 moveto 
1 -1 scale
(S) t 
GR
GR
GS
[0.75 0 0 0.75 0 0] CT
0.851 0.325 0.098 RC
1 LJ
2 LW
N
561 63.932 M
601 63.932 L
S
GR
GS
[0.75 0 0 0.75 453 71.25] CT
/Helvetica 16.8 F
GS
[1 0 0 1 0 0] CT
0 0 moveto 
1 -1 scale
(I) t 
GR
GR
GS
[0.75 0 0 0.75 456.75 77.25] CT
/Helvetica 13.44 F
GS
[1 0 0 1 0 0] CT
0 0 moveto 
1 -1 scale
(D) t 
GR
GR
GS
[0.75 0 0 0.75 0 0] CT
0.929 0.694 0.125 RC
1 LJ
2 LW
N
561 92.311 M
601 92.311 L
S
GR
GS
[0.75 0 0 0.75 453 93] CT
/Helvetica 16.8 F
GS
[1 0 0 1 0 0] CT
0 0 moveto 
1 -1 scale
(P) t 
GR
GR
GS
[0.75 0 0 0.75 462 99] CT
/Helvetica 13.44 F
GS
[1 0 0 1 0 0] CT
0 0 moveto 
1 -1 scale
(s) t 
GR
GR
GS
[0.75 0 0 0.75 467.25 99] CT
/Helvetica 13.44 F
GS
[1 0 0 1 0 0] CT
0 0 moveto 
1 -1 scale
(w) t 
GR
GR
GS
[0.75 0 0 0.75 0 0] CT
0.494 0.184 0.557 RC
1 LJ
2 LW
N
561 120.689 M
601 120.689 L
S
GR
GS
[0.75 0 0 0.75 453 114] CT
/Helvetica 16.8 F
GS
[1 0 0 1 0 0] CT
0 0 moveto 
1 -1 scale
(E) t 
GR
GR
GS
[0.75 0 0 0.75 462 120] CT
/Helvetica 13.44 F
GS
[1 0 0 1 0 0] CT
0 0 moveto 
1 -1 scale
(s) t 
GR
GR
GS
[0.75 0 0 0.75 467.25 120] CT
/Helvetica 13.44 F
GS
[1 0 0 1 0 0] CT
0 0 moveto 
1 -1 scale
(w) t 
GR
GR
GS
[0.75 0 0 0.75 0 0] CT
0.467 0.675 0.188 RC
[8 8] 0 setdash
2 LJ
2 LW
N
561 149.068 M
601 149.068 L
S
GR
GS
[0.75 0 0 0.75 0 0] CT
0.149 GC
10.0 ML
0.667 LW
N
557 165 M
557 48 L
639 48 L
639 165 L
cp
S
GR
%%Trailer
%%Pages: 1
%%EOF
