%!PS-Adobe-3.0 EPSF-3.0
%%Creator: (MATLAB, The Mathworks, Inc. Version 24.1.0.2603908 \(R2024a\) Update 3. Operating System: Windows 10)
%%Title: (C:/Users/lorde/Documents/MATLAB/Master Lab Course/Exercise 3/E3_Rg30_Eoff1.eps)
%%CreationDate: 2024-06-30T10:10:31
%%Pages: (atend)
%%BoundingBox:     0     0   600   375
%%LanguageLevel: 3
%%EndComments
%%BeginProlog
%%BeginResource: procset (Apache XML Graphics Std ProcSet) 1.2 0
%%Version: 1.2 0
%%Copyright: (Copyright 2001-2003,2010 The Apache Software Foundation. License terms: http://www.apache.org/licenses/LICENSE-2.0)
/bd{bind def}bind def
/ld{load def}bd
/GR/grestore ld
/GS/gsave ld
/RM/rmoveto ld
/C/curveto ld
/t/show ld
/L/lineto ld
/ML/setmiterlimit ld
/CT/concat ld
/f/fill ld
/N/newpath ld
/S/stroke ld
/CC/setcmykcolor ld
/A/ashow ld
/cp/closepath ld
/RC/setrgbcolor ld
/LJ/setlinejoin ld
/GC/setgray ld
/LW/setlinewidth ld
/M/moveto ld
/re {4 2 roll M
1 index 0 rlineto
0 exch rlineto
neg 0 rlineto
cp } bd
/_ctm matrix def
/_tm matrix def
/BT { _ctm currentmatrix pop matrix _tm copy pop 0 0 moveto } bd
/ET { _ctm setmatrix } bd
/iTm { _ctm setmatrix _tm concat } bd
/Tm { _tm astore pop iTm 0 0 moveto } bd
/ux 0.0 def
/uy 0.0 def
/F {
  /Tp exch def
  /Tf exch def
  Tf findfont Tp scalefont setfont
  /cf Tf def  /cs Tp def
} bd
/ULS {currentpoint /uy exch def /ux exch def} bd
/ULE {
  /Tcx currentpoint pop def
  gsave
  newpath
  cf findfont cs scalefont dup
  /FontMatrix get 0 get /Ts exch def /FontInfo get dup
  /UnderlinePosition get Ts mul /To exch def
  /UnderlineThickness get Ts mul /Tt exch def
  ux uy To add moveto  Tcx uy To add lineto
  Tt setlinewidth stroke
  grestore
} bd
/OLE {
  /Tcx currentpoint pop def
  gsave
  newpath
  cf findfont cs scalefont dup
  /FontMatrix get 0 get /Ts exch def /FontInfo get dup
  /UnderlinePosition get Ts mul /To exch def
  /UnderlineThickness get Ts mul /Tt exch def
  ux uy To add cs add moveto Tcx uy To add cs add lineto
  Tt setlinewidth stroke
  grestore
} bd
/SOE {
  /Tcx currentpoint pop def
  gsave
  newpath
  cf findfont cs scalefont dup
  /FontMatrix get 0 get /Ts exch def /FontInfo get dup
  /UnderlinePosition get Ts mul /To exch def
  /UnderlineThickness get Ts mul /Tt exch def
  ux uy To add cs 10 mul 26 idiv add moveto Tcx uy To add cs 10 mul 26 idiv add lineto
  Tt setlinewidth stroke
  grestore
} bd
/QT {
/Y22 exch store
/X22 exch store
/Y21 exch store
/X21 exch store
currentpoint
/Y21 load 2 mul add 3 div exch
/X21 load 2 mul add 3 div exch
/X21 load 2 mul /X22 load add 3 div
/Y21 load 2 mul /Y22 load add 3 div
/X22 load /Y22 load curveto
} bd
/SSPD {
dup length /d exch dict def
{
/v exch def
/k exch def
currentpagedevice k known {
/cpdv currentpagedevice k get def
v cpdv ne {
/upd false def
/nullv v type /nulltype eq def
/nullcpdv cpdv type /nulltype eq def
nullv nullcpdv or
{
/upd true def
} {
/sametype v type cpdv type eq def
sametype {
v type /arraytype eq {
/vlen v length def
/cpdvlen cpdv length def
vlen cpdvlen eq {
0 1 vlen 1 sub {
/i exch def
/obj v i get def
/cpdobj cpdv i get def
obj cpdobj ne {
/upd true def
exit
} if
} for
} {
/upd true def
} ifelse
} {
v type /dicttype eq {
v {
/dv exch def
/dk exch def
/cpddv cpdv dk get def
dv cpddv ne {
/upd true def
exit
} if
} forall
} {
/upd true def
} ifelse
} ifelse
} if
} ifelse
upd true eq {
d k v put
} if
} if
} if
} forall
d length 0 gt {
d setpagedevice
} if
} bd
/RE { % /NewFontName [NewEncodingArray] /FontName RE -
  findfont dup length dict begin
  {
    1 index /FID ne
    {def} {pop pop} ifelse
  } forall
  /Encoding exch def
  /FontName 1 index def
  currentdict definefont pop
  end
} bind def
%%EndResource
%%BeginResource: procset (Apache XML Graphics EPS ProcSet) 1.0 0
%%Version: 1.0 0
%%Copyright: (Copyright 2002-2003 The Apache Software Foundation. License terms: http://www.apache.org/licenses/LICENSE-2.0)
/BeginEPSF { %def
/b4_Inc_state save def         % Save state for cleanup
/dict_count countdictstack def % Count objects on dict stack
/op_count count 1 sub def      % Count objects on operand stack
userdict begin                 % Push userdict on dict stack
/showpage { } def              % Redefine showpage, { } = null proc
0 setgray 0 setlinecap         % Prepare graphics state
1 setlinewidth 0 setlinejoin
10 setmiterlimit [ ] 0 setdash newpath
/languagelevel where           % If level not equal to 1 then
{pop languagelevel             % set strokeadjust and
1 ne                           % overprint to their defaults.
{false setstrokeadjust false setoverprint
} if
} if
} bd
/EndEPSF { %def
count op_count sub {pop} repeat            % Clean up stacks
countdictstack dict_count sub {end} repeat
b4_Inc_state restore
} bd
%%EndResource
%FOPBeginFontDict
%%IncludeResource: font Courier-Oblique
%%IncludeResource: font Courier-BoldOblique
%%IncludeResource: font Courier-Bold
%%IncludeResource: font ZapfDingbats
%%IncludeResource: font Symbol
%%IncludeResource: font Helvetica
%%IncludeResource: font Helvetica-Oblique
%%IncludeResource: font Helvetica-Bold
%%IncludeResource: font Helvetica-BoldOblique
%%IncludeResource: font Times-Roman
%%IncludeResource: font Times-Italic
%%IncludeResource: font Times-Bold
%%IncludeResource: font Times-BoldItalic
%%IncludeResource: font Courier
%FOPEndFontDict
%%BeginResource: encoding WinAnsiEncoding
/WinAnsiEncoding [
/.notdef /.notdef /.notdef /.notdef /.notdef
/.notdef /.notdef /.notdef /.notdef /.notdef
/.notdef /.notdef /.notdef /.notdef /.notdef
/.notdef /.notdef /.notdef /.notdef /.notdef
/.notdef /.notdef /.notdef /.notdef /.notdef
/.notdef /.notdef /.notdef /.notdef /.notdef
/.notdef /.notdef /space /exclam /quotedbl
/numbersign /dollar /percent /ampersand /quotesingle
/parenleft /parenright /asterisk /plus /comma
/hyphen /period /slash /zero /one
/two /three /four /five /six
/seven /eight /nine /colon /semicolon
/less /equal /greater /question /at
/A /B /C /D /E
/F /G /H /I /J
/K /L /M /N /O
/P /Q /R /S /T
/U /V /W /X /Y
/Z /bracketleft /backslash /bracketright /asciicircum
/underscore /quoteleft /a /b /c
/d /e /f /g /h
/i /j /k /l /m
/n /o /p /q /r
/s /t /u /v /w
/x /y /z /braceleft /bar
/braceright /asciitilde /bullet /Euro /bullet
/quotesinglbase /florin /quotedblbase /ellipsis /dagger
/daggerdbl /circumflex /perthousand /Scaron /guilsinglleft
/OE /bullet /Zcaron /bullet /bullet
/quoteleft /quoteright /quotedblleft /quotedblright /bullet
/endash /emdash /asciitilde /trademark /scaron
/guilsinglright /oe /bullet /zcaron /Ydieresis
/space /exclamdown /cent /sterling /currency
/yen /brokenbar /section /dieresis /copyright
/ordfeminine /guillemotleft /logicalnot /sfthyphen /registered
/macron /degree /plusminus /twosuperior /threesuperior
/acute /mu /paragraph /middot /cedilla
/onesuperior /ordmasculine /guillemotright /onequarter /onehalf
/threequarters /questiondown /Agrave /Aacute /Acircumflex
/Atilde /Adieresis /Aring /AE /Ccedilla
/Egrave /Eacute /Ecircumflex /Edieresis /Igrave
/Iacute /Icircumflex /Idieresis /Eth /Ntilde
/Ograve /Oacute /Ocircumflex /Otilde /Odieresis
/multiply /Oslash /Ugrave /Uacute /Ucircumflex
/Udieresis /Yacute /Thorn /germandbls /agrave
/aacute /acircumflex /atilde /adieresis /aring
/ae /ccedilla /egrave /eacute /ecircumflex
/edieresis /igrave /iacute /icircumflex /idieresis
/eth /ntilde /ograve /oacute /ocircumflex
/otilde /odieresis /divide /oslash /ugrave
/uacute /ucircumflex /udieresis /yacute /thorn
/ydieresis
] def
%%EndResource
%FOPBeginFontReencode
/Courier-Oblique findfont
dup length dict begin
  {1 index /FID ne {def} {pop pop} ifelse} forall
  /Encoding WinAnsiEncoding def
  currentdict
end
/Courier-Oblique exch definefont pop
/Courier-BoldOblique findfont
dup length dict begin
  {1 index /FID ne {def} {pop pop} ifelse} forall
  /Encoding WinAnsiEncoding def
  currentdict
end
/Courier-BoldOblique exch definefont pop
/Courier-Bold findfont
dup length dict begin
  {1 index /FID ne {def} {pop pop} ifelse} forall
  /Encoding WinAnsiEncoding def
  currentdict
end
/Courier-Bold exch definefont pop
/Helvetica findfont
dup length dict begin
  {1 index /FID ne {def} {pop pop} ifelse} forall
  /Encoding WinAnsiEncoding def
  currentdict
end
/Helvetica exch definefont pop
/Helvetica-Oblique findfont
dup length dict begin
  {1 index /FID ne {def} {pop pop} ifelse} forall
  /Encoding WinAnsiEncoding def
  currentdict
end
/Helvetica-Oblique exch definefont pop
/Helvetica-Bold findfont
dup length dict begin
  {1 index /FID ne {def} {pop pop} ifelse} forall
  /Encoding WinAnsiEncoding def
  currentdict
end
/Helvetica-Bold exch definefont pop
/Helvetica-BoldOblique findfont
dup length dict begin
  {1 index /FID ne {def} {pop pop} ifelse} forall
  /Encoding WinAnsiEncoding def
  currentdict
end
/Helvetica-BoldOblique exch definefont pop
/Times-Roman findfont
dup length dict begin
  {1 index /FID ne {def} {pop pop} ifelse} forall
  /Encoding WinAnsiEncoding def
  currentdict
end
/Times-Roman exch definefont pop
/Times-Italic findfont
dup length dict begin
  {1 index /FID ne {def} {pop pop} ifelse} forall
  /Encoding WinAnsiEncoding def
  currentdict
end
/Times-Italic exch definefont pop
/Times-Bold findfont
dup length dict begin
  {1 index /FID ne {def} {pop pop} ifelse} forall
  /Encoding WinAnsiEncoding def
  currentdict
end
/Times-Bold exch definefont pop
/Times-BoldItalic findfont
dup length dict begin
  {1 index /FID ne {def} {pop pop} ifelse} forall
  /Encoding WinAnsiEncoding def
  currentdict
end
/Times-BoldItalic exch definefont pop
/Courier findfont
dup length dict begin
  {1 index /FID ne {def} {pop pop} ifelse} forall
  /Encoding WinAnsiEncoding def
  currentdict
end
/Courier exch definefont pop
%FOPEndFontReencode
%%EndProlog
%%Page: 1 1
%%PageBoundingBox: 0 0 600 375
%%BeginPageSetup
[1 0 0 -1 0 375] CT
%%EndPageSetup
GS
[0.75 0 0 0.75 0 0] CT
1 GC
N
0 0 800 500 re
f
GR
GS
[0.75 0 0 0.75 0 0] CT
1 GC
N
0 0 800 500 re
f
GR
GS
[0.75 0 0 0.75 0 0] CT
0.941 GC
N
650 445 M
659 445 L
659 37 L
650 37 L
cp
f
GR
GS
[0.75 0 0 0.75 0 0] CT
0.149 GC
2 setlinecap
1 LJ
0.667 LW
N
650 445 M
659 445 L
S
GR
GS
[0.75 0 0 0.75 0 0] CT
0.929 0.694 0.125 RC
2 setlinecap
1 LJ
0.667 LW
N
659 445 M
659 37 L
S
GR
GS
[0.75 0 0 0.75 0 0] CT
0.929 0.694 0.125 RC
2 setlinecap
1 LJ
0.667 LW
N
659 445 M
654.92 445 L
S
GR
GS
[0.75 0 0 0.75 0 0] CT
0.929 0.694 0.125 RC
2 setlinecap
1 LJ
0.667 LW
N
659 377 M
654.92 377 L
S
GR
GS
[0.75 0 0 0.75 0 0] CT
0.929 0.694 0.125 RC
2 setlinecap
1 LJ
0.667 LW
N
659 309 M
654.92 309 L
S
GR
GS
[0.75 0 0 0.75 0 0] CT
0.929 0.694 0.125 RC
2 setlinecap
1 LJ
0.667 LW
N
659 241 M
654.92 241 L
S
GR
GS
[0.75 0 0 0.75 0 0] CT
0.929 0.694 0.125 RC
2 setlinecap
1 LJ
0.667 LW
N
659 173 M
654.92 173 L
S
GR
GS
[0.75 0 0 0.75 0 0] CT
0.929 0.694 0.125 RC
2 setlinecap
1 LJ
0.667 LW
N
659 105 M
654.92 105 L
S
GR
GS
[0.75 0 0 0.75 0 0] CT
0.929 0.694 0.125 RC
2 setlinecap
1 LJ
0.667 LW
N
659 37 M
654.92 37 L
S
GR
GS
[0.75 0 0 0.75 499.05002 333.75] CT
0.929 0.694 0.125 RC
/Helvetica 18.667 F
GS
[1 0 0 1 0 0] CT
0 7 moveto 
1 -1 scale
(-5) t 
GR
GR
GS
[0.75 0 0 0.75 499.05002 282.75] CT
0.929 0.694 0.125 RC
/Helvetica 18.667 F
GS
[1 0 0 1 0 0] CT
0 7 moveto 
1 -1 scale
(0) t 
GR
GR
GS
[0.75 0 0 0.75 499.05002 231.75] CT
0.929 0.694 0.125 RC
/Helvetica 18.667 F
GS
[1 0 0 1 0 0] CT
0 7 moveto 
1 -1 scale
(5) t 
GR
GR
GS
[0.75 0 0 0.75 499.05002 180.75] CT
0.929 0.694 0.125 RC
/Helvetica 18.667 F
GS
[1 0 0 1 0 0] CT
0 7 moveto 
1 -1 scale
(10) t 
GR
GR
GS
[0.75 0 0 0.75 499.05002 129.75] CT
0.929 0.694 0.125 RC
/Helvetica 18.667 F
GS
[1 0 0 1 0 0] CT
0 7 moveto 
1 -1 scale
(15) t 
GR
GR
GS
[0.75 0 0 0.75 499.05002 78.75] CT
0.929 0.694 0.125 RC
/Helvetica 18.667 F
GS
[1 0 0 1 0 0] CT
0 7 moveto 
1 -1 scale
(20) t 
GR
GR
GS
[0.75 0 0 0.75 499.05002 27.75] CT
0.929 0.694 0.125 RC
/Helvetica 18.667 F
GS
[1 0 0 1 0 0] CT
0 7 moveto 
1 -1 scale
(25) t 
GR
GR
GS
[0 -0.75 0.75 0 533.25 199.5] CT
0.929 0.694 0.125 RC
/Helvetica 20.533 F
GS
[1 0 0 1 0 0] CT
0 0 moveto 
1 -1 scale
(I) t 
GR
GR
GS
[0 -0.75 0.75 0 540.75 195] CT
0.929 0.694 0.125 RC
/Helvetica 16.427 F
GS
[1 0 0 1 0 0] CT
0 0 moveto 
1 -1 scale
(D) t 
GR
GR
GS
[0 -0.75 0.75 0 533.25 186] CT
0.929 0.694 0.125 RC
/Helvetica 20.533 F
GS
[1 0 0 1 0 0] CT
0 0 moveto 
1 -1 scale
( / A) t 
GR
GR
GS
[0.75 0 0 0.75 0 0] CT
0.941 GC
N
104 445 M
113 445 L
113 37 L
104 37 L
cp
f
GR
GS
[0.75 0 0 0.75 0 0] CT
0.149 GC
2 setlinecap
1 LJ
0.667 LW
N
104 445 M
113 445 L
S
GR
GS
[0.75 0 0 0.75 0 0] CT
0.494 0.184 0.557 RC
2 setlinecap
1 LJ
0.667 LW
N
104 445 M
104 37 L
S
GR
GS
[0.75 0 0 0.75 0 0] CT
0.494 0.184 0.557 RC
2 setlinecap
1 LJ
0.667 LW
N
104 445 M
108.08 445 L
S
GR
GS
[0.75 0 0 0.75 0 0] CT
0.494 0.184 0.557 RC
2 setlinecap
1 LJ
0.667 LW
N
104 386.714 M
108.08 386.714 L
S
GR
GS
[0.75 0 0 0.75 0 0] CT
0.494 0.184 0.557 RC
2 setlinecap
1 LJ
0.667 LW
N
104 328.429 M
108.08 328.429 L
S
GR
GS
[0.75 0 0 0.75 0 0] CT
0.494 0.184 0.557 RC
2 setlinecap
1 LJ
0.667 LW
N
104 270.143 M
108.08 270.143 L
S
GR
GS
[0.75 0 0 0.75 0 0] CT
0.494 0.184 0.557 RC
2 setlinecap
1 LJ
0.667 LW
N
104 211.857 M
108.08 211.857 L
S
GR
GS
[0.75 0 0 0.75 0 0] CT
0.494 0.184 0.557 RC
2 setlinecap
1 LJ
0.667 LW
N
104 153.571 M
108.08 153.571 L
S
GR
GS
[0.75 0 0 0.75 0 0] CT
0.494 0.184 0.557 RC
2 setlinecap
1 LJ
0.667 LW
N
104 95.286 M
108.08 95.286 L
S
GR
GS
[0.75 0 0 0.75 0 0] CT
0.494 0.184 0.557 RC
2 setlinecap
1 LJ
0.667 LW
N
104 37 M
108.08 37 L
S
GR
GS
[0.75 0 0 0.75 73.2 333.75] CT
0.494 0.184 0.557 RC
/Helvetica 18.667 F
GS
[1 0 0 1 0 0] CT
-38 7 moveto 
1 -1 scale
(-200) t 
GR
GR
GS
[0.75 0 0 0.75 73.2 290.03572] CT
0.494 0.184 0.557 RC
/Helvetica 18.667 F
GS
[1 0 0 1 0 0] CT
-11 7 moveto 
1 -1 scale
(0) t 
GR
GR
GS
[0.75 0 0 0.75 73.2 246.32142] CT
0.494 0.184 0.557 RC
/Helvetica 18.667 F
GS
[1 0 0 1 0 0] CT
-32 7 moveto 
1 -1 scale
(200) t 
GR
GR
GS
[0.75 0 0 0.75 73.2 202.60714] CT
0.494 0.184 0.557 RC
/Helvetica 18.667 F
GS
[1 0 0 1 0 0] CT
-32 7 moveto 
1 -1 scale
(400) t 
GR
GR
GS
[0.75 0 0 0.75 73.2 158.89286] CT
0.494 0.184 0.557 RC
/Helvetica 18.667 F
GS
[1 0 0 1 0 0] CT
-32 7 moveto 
1 -1 scale
(600) t 
GR
GR
GS
[0.75 0 0 0.75 73.2 115.17857] CT
0.494 0.184 0.557 RC
/Helvetica 18.667 F
GS
[1 0 0 1 0 0] CT
-32 7 moveto 
1 -1 scale
(800) t 
GR
GR
GS
[0.75 0 0 0.75 73.2 71.46428] CT
0.494 0.184 0.557 RC
/Helvetica 18.667 F
GS
[1 0 0 1 0 0] CT
-42 7 moveto 
1 -1 scale
(1000) t 
GR
GR
GS
[0.75 0 0 0.75 73.2 27.75] CT
0.494 0.184 0.557 RC
/Helvetica 18.667 F
GS
[1 0 0 1 0 0] CT
-42 7 moveto 
1 -1 scale
(1200) t 
GR
GR
GS
[0 -0.75 0.75 0 28.5 207.75] CT
0.494 0.184 0.557 RC
/Helvetica 20.533 F
GS
[1 0 0 1 0 0] CT
0 0 moveto 
1 -1 scale
(P) t 
GR
GR
GS
[0 -0.75 0.75 0 36 197.25] CT
0.494 0.184 0.557 RC
/Helvetica 16.427 F
GS
[1 0 0 1 0 0] CT
0 0 moveto 
1 -1 scale
(s) t 
GR
GR
GS
[0 -0.75 0.75 0 36 190.5] CT
0.494 0.184 0.557 RC
/Helvetica 16.427 F
GS
[1 0 0 1 0 0] CT
0 0 moveto 
1 -1 scale
(w) t 
GR
GR
GS
[0 -0.75 0.75 0 28.5 181.5] CT
0.494 0.184 0.557 RC
/Helvetica 20.533 F
GS
[1 0 0 1 0 0] CT
0 0 moveto 
1 -1 scale
( / W) t 
GR
GR
GS
[0.75 0 0 0.75 0 0] CT
0.941 GC
N
724 445 M
732 445 L
732 37 L
724 37 L
cp
f
GR
GS
[0.75 0 0 0.75 0 0] CT
0.149 GC
2 setlinecap
1 LJ
0.667 LW
N
724 445 M
732 445 L
S
GR
GS
[0.75 0 0 0.75 0 0] CT
0.467 0.675 0.188 RC
2 setlinecap
1 LJ
0.667 LW
N
732 445 M
732 37 L
S
GR
GS
[0.75 0 0 0.75 0 0] CT
0.467 0.675 0.188 RC
2 setlinecap
1 LJ
0.667 LW
N
732 445 M
727.92 445 L
S
GR
GS
[0.75 0 0 0.75 0 0] CT
0.467 0.675 0.188 RC
2 setlinecap
1 LJ
0.667 LW
N
732 343 M
727.92 343 L
S
GR
GS
[0.75 0 0 0.75 0 0] CT
0.467 0.675 0.188 RC
2 setlinecap
1 LJ
0.667 LW
N
732 241 M
727.92 241 L
S
GR
GS
[0.75 0 0 0.75 0 0] CT
0.467 0.675 0.188 RC
2 setlinecap
1 LJ
0.667 LW
N
732 139 M
727.92 139 L
S
GR
GS
[0.75 0 0 0.75 0 0] CT
0.467 0.675 0.188 RC
2 setlinecap
1 LJ
0.667 LW
N
732 37 M
727.92 37 L
S
GR
GS
[0.75 0 0 0.75 553.80002 333.75] CT
0.467 0.675 0.188 RC
/Helvetica 18.667 F
GS
[1 0 0 1 0 0] CT
0 7 moveto 
1 -1 scale
(0) t 
GR
GR
GS
[0.75 0 0 0.75 553.80002 257.25] CT
0.467 0.675 0.188 RC
/Helvetica 18.667 F
GS
[1 0 0 1 0 0] CT
0 7 moveto 
1 -1 scale
(5) t 
GR
GR
GS
[0.75 0 0 0.75 553.80002 180.75] CT
0.467 0.675 0.188 RC
/Helvetica 18.667 F
GS
[1 0 0 1 0 0] CT
0 7 moveto 
1 -1 scale
(10) t 
GR
GR
GS
[0.75 0 0 0.75 553.80002 104.25] CT
0.467 0.675 0.188 RC
/Helvetica 18.667 F
GS
[1 0 0 1 0 0] CT
0 7 moveto 
1 -1 scale
(15) t 
GR
GR
GS
[0.75 0 0 0.75 553.80002 27.75] CT
0.467 0.675 0.188 RC
/Helvetica 18.667 F
GS
[1 0 0 1 0 0] CT
0 7 moveto 
1 -1 scale
(20) t 
GR
GR
GS
[0 -0.75 0.75 0 588 210] CT
0.467 0.675 0.188 RC
/Helvetica 20.533 F
GS
[1 0 0 1 0 0] CT
0 0 moveto 
1 -1 scale
(E) t 
GR
GR
GS
[0 -0.75 0.75 0 595.5 199.5] CT
0.467 0.675 0.188 RC
/Helvetica 16.427 F
GS
[1 0 0 1 0 0] CT
0 0 moveto 
1 -1 scale
(s) t 
GR
GR
GS
[0 -0.75 0.75 0 595.5 192.75] CT
0.467 0.675 0.188 RC
/Helvetica 16.427 F
GS
[1 0 0 1 0 0] CT
0 0 moveto 
1 -1 scale
(w) t 
GR
GR
GS
[0 -0.75 0.75 0 588 183.75] CT
0.467 0.675 0.188 RC
/Helvetica 20.533 F
GS
[1 0 0 1 0 0] CT
0 0 moveto 
1 -1 scale
( / ) t 
GR
GR
GS
[0 -0.75 0.75 0 588 170.25] CT
0.467 0.675 0.188 RC
N
0.578 3.953 M
0.578 3.828 0.609 3.781 QT
3.688 -8.609 L
3.781 -8.906 4.023 -9.094 QT
4.266 -9.281 4.578 -9.281 QT
4.844 -9.281 5.023 -9.125 QT
5.203 -8.969 5.203 -8.703 QT
5.203 -8.641 5.203 -8.602 QT
5.203 -8.563 5.188 -8.516 QT
3.953 -3.609 L
3.75 -2.734 3.75 -2.109 QT
3.75 -1.328 4.117 -0.82 QT
4.484 -0.313 5.234 -0.313 QT
6.75 -0.313 7.922 -2.219 QT
7.922 -2.25 7.93 -2.258 QT
7.938 -2.266 7.938 -2.281 QT
9.453 -8.375 L
9.531 -8.656 9.781 -8.852 QT
10.031 -9.047 10.344 -9.047 QT
10.578 -9.047 10.773 -8.883 QT
10.969 -8.719 10.969 -8.453 QT
10.969 -8.344 10.938 -8.297 QT
9.438 -2.25 L
9.281 -1.656 9.281 -1.219 QT
9.281 -0.313 9.891 -0.313 QT
10.547 -0.313 10.883 -1.125 QT
11.219 -1.938 11.469 -3.094 QT
11.5 -3.203 11.641 -3.203 QT
11.891 -3.203 L
11.969 -3.203 12.023 -3.141 QT
12.078 -3.078 12.078 -3 QT
11.703 -1.531 11.273 -0.648 QT
10.844 0.234 9.859 0.234 QT
9.156 0.234 8.617 -0.164 QT
8.078 -0.563 7.922 -1.234 QT
7.391 -0.578 6.688 -0.172 QT
5.984 0.234 5.203 0.234 QT
3.891 0.234 3.141 -0.375 QT
2.078 3.859 L
2.016 4.156 1.773 4.344 QT
1.531 4.531 1.219 4.531 QT
0.969 4.531 0.773 4.375 QT
0.578 4.219 0.578 3.953 QT
cp
f
GR
GS
[0 -0.75 0.75 0 588 160.5] CT
0.467 0.675 0.188 RC
/Helvetica 20.533 F
GS
[1 0 0 1 0 0] CT
0 0 moveto 
1 -1 scale
(J) t 
GR
GR
GS
[0.75 0 0 0.75 0 0] CT
1 GC
N
178 445 M
650 445 L
650 37 L
178 37 L
cp
f
GR
GS
[0.75 0 0 0.75 0 0] CT
0.873 GC
1 LJ
0.667 LW
N
178 445 M
178 37 L
S
GR
GS
[0.75 0 0 0.75 0 0] CT
0.873 GC
1 LJ
0.667 LW
N
309.696 445 M
309.696 37 L
S
GR
GS
[0.75 0 0 0.75 0 0] CT
0.873 GC
1 LJ
0.667 LW
N
441.393 445 M
441.393 37 L
S
GR
GS
[0.75 0 0 0.75 0 0] CT
0.873 GC
1 LJ
0.667 LW
N
573.089 445 M
573.089 37 L
S
GR
GS
[0.75 0 0 0.75 0 0] CT
0.873 GC
1 LJ
0.667 LW
N
650 445 M
178 445 L
S
GR
GS
[0.75 0 0 0.75 0 0] CT
0.873 GC
1 LJ
0.667 LW
N
650 377 M
178 377 L
S
GR
GS
[0.75 0 0 0.75 0 0] CT
0.873 GC
1 LJ
0.667 LW
N
650 309 M
178 309 L
S
GR
GS
[0.75 0 0 0.75 0 0] CT
0.873 GC
1 LJ
0.667 LW
N
650 241 M
178 241 L
S
GR
GS
[0.75 0 0 0.75 0 0] CT
0.873 GC
1 LJ
0.667 LW
N
650 173 M
178 173 L
S
GR
GS
[0.75 0 0 0.75 0 0] CT
0.873 GC
1 LJ
0.667 LW
N
650 105 M
178 105 L
S
GR
GS
[0.75 0 0 0.75 0 0] CT
0.873 GC
1 LJ
0.667 LW
N
650 37 M
178 37 L
S
GR
GS
[0.75 0 0 0.75 0 0] CT
0.149 GC
2 setlinecap
1 LJ
0.667 LW
N
178 445 M
650 445 L
S
GR
GS
[0.75 0 0 0.75 0 0] CT
0.149 GC
2 setlinecap
1 LJ
0.667 LW
N
178 445 M
178 440.28 L
S
GR
GS
[0.75 0 0 0.75 0 0] CT
0.149 GC
2 setlinecap
1 LJ
0.667 LW
N
309.696 445 M
309.696 440.28 L
S
GR
GS
[0.75 0 0 0.75 0 0] CT
0.149 GC
2 setlinecap
1 LJ
0.667 LW
N
441.393 445 M
441.393 440.28 L
S
GR
GS
[0.75 0 0 0.75 0 0] CT
0.149 GC
2 setlinecap
1 LJ
0.667 LW
N
573.089 445 M
573.089 440.28 L
S
GR
GS
[0.75 0 0 0.75 133.5 338.55] CT
0.149 GC
/Helvetica 18.667 F
GS
[1 0 0 1 0 0] CT
-5.5 19 moveto 
1 -1 scale
(0) t 
GR
GR
GS
[0.75 0 0 0.75 232.27233 338.55] CT
0.149 GC
/Helvetica 18.667 F
GS
[1 0 0 1 0 0] CT
-10.5 19 moveto 
1 -1 scale
(50) t 
GR
GR
GS
[0.75 0 0 0.75 331.04464 338.55] CT
0.149 GC
/Helvetica 18.667 F
GS
[1 0 0 1 0 0] CT
-16 19 moveto 
1 -1 scale
(100) t 
GR
GR
GS
[0.75 0 0 0.75 429.81697 338.55] CT
0.149 GC
/Helvetica 18.667 F
GS
[1 0 0 1 0 0] CT
-16 19 moveto 
1 -1 scale
(150) t 
GR
GR
GS
[0.75 0 0 0.75 310.50016 357.55] CT
0.149 GC
/Helvetica 20.533 F
GS
[1 0 0 1 0 0] CT
-42.5 21 moveto 
1 -1 scale
(Time / ns) t 
GR
GR
GS
[0.75 0 0 0.75 0 0] CT
0.149 GC
2 setlinecap
1 LJ
0.667 LW
N
178 445 M
178 37 L
S
GR
GS
[0.75 0 0 0.75 0 0] CT
0.149 GC
2 setlinecap
1 LJ
0.667 LW
N
178 445 M
182.72 445 L
S
GR
GS
[0.75 0 0 0.75 0 0] CT
0.149 GC
2 setlinecap
1 LJ
0.667 LW
N
178 377 M
182.72 377 L
S
GR
GS
[0.75 0 0 0.75 0 0] CT
0.149 GC
2 setlinecap
1 LJ
0.667 LW
N
178 309 M
182.72 309 L
S
GR
GS
[0.75 0 0 0.75 0 0] CT
0.149 GC
2 setlinecap
1 LJ
0.667 LW
N
178 241 M
182.72 241 L
S
GR
GS
[0.75 0 0 0.75 0 0] CT
0.149 GC
2 setlinecap
1 LJ
0.667 LW
N
178 173 M
182.72 173 L
S
GR
GS
[0.75 0 0 0.75 0 0] CT
0.149 GC
2 setlinecap
1 LJ
0.667 LW
N
178 105 M
182.72 105 L
S
GR
GS
[0.75 0 0 0.75 0 0] CT
0.149 GC
2 setlinecap
1 LJ
0.667 LW
N
178 37 M
182.72 37 L
S
GR
GS
[0.75 0 0 0.75 128.7 333.75] CT
0.149 GC
/Helvetica 18.667 F
GS
[1 0 0 1 0 0] CT
-11 7 moveto 
1 -1 scale
(0) t 
GR
GR
GS
[0.75 0 0 0.75 128.7 282.75] CT
0.149 GC
/Helvetica 18.667 F
GS
[1 0 0 1 0 0] CT
-21 7 moveto 
1 -1 scale
(10) t 
GR
GR
GS
[0.75 0 0 0.75 128.7 231.75] CT
0.149 GC
/Helvetica 18.667 F
GS
[1 0 0 1 0 0] CT
-21 7 moveto 
1 -1 scale
(20) t 
GR
GR
GS
[0.75 0 0 0.75 128.7 180.75] CT
0.149 GC
/Helvetica 18.667 F
GS
[1 0 0 1 0 0] CT
-21 7 moveto 
1 -1 scale
(30) t 
GR
GR
GS
[0.75 0 0 0.75 128.7 129.75] CT
0.149 GC
/Helvetica 18.667 F
GS
[1 0 0 1 0 0] CT
-21 7 moveto 
1 -1 scale
(40) t 
GR
GR
GS
[0.75 0 0 0.75 128.7 78.75] CT
0.149 GC
/Helvetica 18.667 F
GS
[1 0 0 1 0 0] CT
-21 7 moveto 
1 -1 scale
(50) t 
GR
GR
GS
[0.75 0 0 0.75 128.7 27.75] CT
0.149 GC
/Helvetica 18.667 F
GS
[1 0 0 1 0 0] CT
-21 7 moveto 
1 -1 scale
(60) t 
GR
GR
GS
[0 -0.75 0.75 0 99.75 206.25] CT
0.149 GC
/Helvetica 20.533 F
GS
[1 0 0 1 0 0] CT
0 0 moveto 
1 -1 scale
(V) t 
GR
GR
GS
[0 -0.75 0.75 0 107.25 195.75] CT
0.149 GC
/Helvetica 16.427 F
GS
[1 0 0 1 0 0] CT
0 0 moveto 
1 -1 scale
(D) t 
GR
GR
GS
[0 -0.75 0.75 0 107.25 186.75] CT
0.149 GC
/Helvetica 16.427 F
GS
[1 0 0 1 0 0] CT
0 0 moveto 
1 -1 scale
(S) t 
GR
GR
GS
[0 -0.75 0.75 0 99.75 178.5] CT
0.149 GC
/Helvetica 20.533 F
GS
[1 0 0 1 0 0] CT
0 0 moveto 
1 -1 scale
( / V) t 
GR
GR
GS
[0.75 0 0 0.75 0 0] CT
0.851 0.325 0.098 RC
1 LJ
2 LW
N
177.944 442.654 M
178 442.649 L
179.054 442.649 L
180.107 442.649 L
181.161 442.739 L
182.214 442.649 L
183.268 442.74 L
184.321 442.739 L
185.375 442.83 L
186.429 442.83 L
187.482 442.739 L
188.536 442.739 L
189.589 442.649 L
190.643 442.739 L
191.696 442.739 L
192.75 442.83 L
193.804 442.83 L
194.857 442.648 L
195.911 442.648 L
196.964 442.557 L
198.018 442.648 L
199.071 442.738 L
200.125 442.739 L
201.179 442.648 L
202.232 442.648 L
203.286 442.739 L
204.339 442.739 L
205.393 442.739 L
206.446 442.829 L
207.5 442.829 L
208.554 442.83 L
209.607 442.92 L
210.661 442.83 L
211.714 442.92 L
212.768 442.92 L
213.821 442.92 L
214.875 442.83 L
215.929 442.739 L
216.982 442.92 L
218.036 442.829 L
219.089 443.011 L
220.143 442.92 L
221.196 443.011 L
222.25 443.011 L
223.304 443.011 L
224.357 442.921 L
225.411 442.921 L
226.464 443.102 L
227.518 443.193 L
228.571 443.102 L
229.625 443.284 L
230.679 443.284 L
231.732 443.194 L
232.786 443.193 L
233.839 443.103 L
234.893 443.012 L
235.946 443.012 L
237 443.012 L
238.054 442.921 L
239.107 443.011 L
240.161 442.921 L
241.214 442.74 L
242.268 442.921 L
243.321 442.739 L
244.375 442.739 L
245.429 442.739 L
246.482 443.011 L
247.536 443.011 L
248.589 442.739 L
249.643 442.921 L
250.696 442.739 L
251.75 442.739 L
252.804 442.739 L
253.857 442.739 L
254.911 442.739 L
255.964 442.829 L
257.018 442.92 L
258.071 442.92 L
259.125 442.739 L
260.179 443.011 L
261.232 442.92 L
262.286 442.738 L
263.339 442.738 L
264.393 442.829 L
265.446 442.829 L
266.5 442.738 L
267.554 442.738 L
268.607 442.739 L
269.661 442.83 L
270.714 442.648 L
271.768 442.92 L
272.821 443.192 L
273.875 443.101 L
274.929 443.192 L
275.982 443.192 L
277.036 443.101 L
278.089 443.011 L
279.143 443.101 L
280.196 443.101 L
281.25 442.92 L
282.304 443.011 L
283.357 443.011 L
284.411 442.83 L
285.464 442.649 L
286.518 442.467 L
287.571 442.104 L
288.625 441.651 L
289.679 441.197 L
290.732 440.926 L
291.786 440.291 L
292.839 439.384 L
293.893 438.659 L
294.946 437.752 L
296 436.574 L
297.054 435.486 L
298.107 434.307 L
299.161 432.675 L
300.214 431.043 L
301.268 429.229 L
302.321 427.326 L
303.375 425.059 L
304.429 422.702 L
305.482 420.344 L
306.536 417.715 L
307.589 415.086 L
308.643 412.185 L
309.696 409.103 L
310.75 405.476 L
311.804 401.94 L
312.857 398.313 L
313.911 394.324 L
314.964 390.244 L
316.018 385.982 L
317.071 381.449 L
318.125 376.825 L
319.179 371.929 L
320.232 367.033 L
321.286 361.775 L
322.339 356.425 L
323.393 350.985 L
324.446 345.726 L
325.5 340.105 L
326.554 334.303 L
327.607 328.5 L
328.661 322.426 L
329.714 316.26 L
330.768 310.367 L
331.821 304.111 L
332.875 297.493 L
333.929 291.055 L
334.982 284.437 L
336.036 277.546 L
337.089 270.564 L
338.143 263.583 L
339.196 256.238 L
340.25 249.166 L
341.304 241.64 L
342.357 234.387 L
343.411 226.771 L
344.464 218.974 L
345.518 211.086 L
346.571 203.198 L
347.625 195.22 L
348.679 187.15 L
349.732 178.899 L
350.786 170.83 L
351.839 163.305 L
352.893 156.233 L
353.946 149.614 L
355 143.358 L
356.054 137.193 L
357.107 131.119 L
358.161 125.225 L
359.214 119.422 L
360.268 113.982 L
361.321 109.087 L
362.375 104.281 L
363.429 99.928 L
364.482 95.939 L
365.536 92.04 L
366.589 88.504 L
367.643 85.422 L
368.696 82.611 L
369.75 80.163 L
370.804 78.169 L
371.857 76.265 L
372.911 74.814 L
373.964 73.635 L
375.018 73 L
376.071 72.547 L
377.125 72.275 L
378.179 72.275 L
379.232 72.637 L
380.286 73.363 L
381.339 74.451 L
382.393 75.721 L
383.446 76.718 L
384.5 77.352 L
385.554 77.625 L
386.607 77.806 L
387.661 77.987 L
388.714 78.35 L
389.768 78.894 L
390.821 79.438 L
391.875 79.982 L
392.929 80.163 L
393.982 80.435 L
395.036 80.616 L
396.089 80.798 L
397.143 81.07 L
398.196 81.251 L
399.25 81.342 L
400.304 81.432 L
401.357 81.433 L
402.411 81.432 L
403.464 81.523 L
404.518 81.432 L
405.571 81.342 L
406.625 81.251 L
407.679 81.161 L
408.732 81.251 L
409.786 81.343 L
410.839 81.343 L
411.893 81.251 L
412.946 81.251 L
414 81.16 L
415.054 80.888 L
416.107 81.069 L
417.161 81.069 L
418.214 81.069 L
419.268 81.069 L
420.321 81.159 L
421.375 81.159 L
422.429 81.25 L
423.482 81.249 L
424.536 81.159 L
425.589 81.068 L
426.643 81.068 L
427.696 81.159 L
428.75 81.068 L
429.804 81.068 L
430.857 81.068 L
431.911 80.977 L
432.964 80.977 L
434.018 80.887 L
435.071 80.615 L
436.125 80.615 L
437.179 80.524 L
438.232 80.524 L
439.286 80.524 L
440.339 80.523 L
441.393 80.432 L
442.446 80.342 L
443.5 80.342 L
444.554 80.251 L
445.607 80.433 L
446.661 80.433 L
447.714 80.251 L
448.768 80.252 L
449.821 80.252 L
450.875 80.252 L
451.929 80.252 L
452.982 80.343 L
454.036 80.343 L
455.089 80.343 L
456.143 80.525 L
457.196 80.706 L
458.25 80.525 L
459.304 80.525 L
460.357 80.616 L
461.411 80.615 L
462.464 80.706 L
463.518 80.796 L
464.571 80.796 L
465.625 80.796 L
466.679 80.978 L
467.732 80.978 L
468.786 81.069 L
469.839 81.069 L
470.893 81.069 L
471.946 80.978 L
473 80.979 L
474.054 80.978 L
475.107 80.978 L
476.161 80.978 L
477.214 80.797 L
478.268 80.797 L
479.321 80.887 L
480.375 80.887 L
481.429 80.887 L
482.482 80.887 L
483.536 80.796 L
484.589 80.706 L
485.643 80.706 L
486.696 80.706 L
487.75 80.706 L
488.804 80.615 L
489.857 80.796 L
490.911 80.796 L
491.964 80.796 L
493.018 80.887 L
494.071 80.796 L
495.125 80.797 L
496.179 80.887 L
497.232 80.887 L
498.286 80.797 L
499.339 80.978 L
500.393 80.888 L
501.446 80.797 L
502.5 80.797 L
503.554 80.797 L
504.607 80.796 L
505.661 80.797 L
506.714 80.797 L
507.768 80.797 L
508.821 80.797 L
509.875 80.797 L
510.929 80.706 L
511.982 80.797 L
513.036 80.798 L
514.089 80.797 L
515.143 80.979 L
516.196 80.979 L
517.25 80.979 L
518.304 80.979 L
519.357 80.797 L
520.411 80.707 L
521.464 80.798 L
522.518 80.798 L
523.571 80.798 L
524.625 80.708 L
525.679 80.708 L
526.732 80.708 L
527.786 80.616 L
528.839 80.707 L
529.893 80.706 L
530.946 80.616 L
532 80.616 L
533.054 80.616 L
534.107 80.526 L
535.161 80.526 L
536.214 80.526 L
537.268 80.526 L
538.321 80.526 L
539.375 80.526 L
540.429 80.436 L
541.482 80.527 L
542.536 80.527 L
543.589 80.436 L
544.643 80.346 L
545.696 80.346 L
546.75 80.255 L
547.804 80.164 L
548.857 80.164 L
549.911 80.164 L
550.964 80.436 L
552.018 80.527 L
553.071 80.436 L
554.125 80.345 L
555.179 80.345 L
556.232 80.254 L
557.286 80.254 L
558.339 80.163 L
559.393 80.163 L
560.446 80.073 L
561.5 80.073 L
562.554 79.983 L
563.607 80.163 L
564.661 80.163 L
565.714 80.345 L
566.768 80.345 L
567.821 80.345 L
568.875 80.255 L
569.929 80.436 L
570.982 80.435 L
572.036 80.616 L
573.089 80.525 L
574.143 80.616 L
575.196 80.615 L
576.25 80.706 L
577.304 80.615 L
578.357 80.524 L
579.411 80.615 L
580.464 80.615 L
581.518 80.706 L
582.571 80.615 L
583.625 80.615 L
584.679 80.615 L
585.732 80.706 L
586.786 80.616 L
587.839 80.706 L
588.893 80.706 L
589.946 80.888 L
591 80.888 L
592.054 80.888 L
593.107 80.888 L
594.161 80.888 L
595.214 80.797 L
596.268 80.797 L
597.321 80.707 L
598.375 80.707 L
599.429 80.616 L
600.482 80.707 L
601.536 80.526 L
602.589 80.345 L
603.643 80.254 L
604.696 80.163 L
605.75 79.982 L
606.804 79.983 L
607.857 79.983 L
608.911 80.073 L
609.964 80.164 L
611.018 80.073 L
612.071 80.072 L
613.125 79.982 L
614.179 79.981 L
615.232 79.981 L
616.286 79.981 L
617.339 79.981 L
618.393 80.072 L
619.446 80.072 L
620.5 80.072 L
621.554 79.981 L
622.607 79.981 L
623.661 79.981 L
624.714 79.981 L
625.768 79.981 L
626.821 79.981 L
627.875 79.981 L
628.929 79.981 L
629.982 79.89 L
631.036 79.981 L
632.089 79.981 L
633.143 79.981 L
634.196 80.162 L
635.25 80.072 L
636.304 80.163 L
637.357 80.253 L
638.411 80.253 L
639.464 80.253 L
640.518 80.162 L
641.571 79.981 L
642.625 80.071 L
643.679 80.072 L
644.732 79.981 L
645.786 79.981 L
646.839 79.982 L
647.893 79.981 L
648.946 79.982 L
650 80.072 L
650.056 80.072 L
S
GR
GS
[0.75 0 0 0.75 0 0] CT
0.929 0.694 0.125 RC
1 LJ
2 LW
N
177.944 273.703 M
178 273.717 L
179.054 273.771 L
180.107 273.771 L
181.161 273.935 L
182.214 273.935 L
183.268 273.826 L
184.321 273.989 L
185.375 274.098 L
186.429 274.153 L
187.482 274.207 L
188.536 274.37 L
189.589 274.261 L
190.643 274.261 L
191.696 274.207 L
192.75 274.207 L
193.804 274.098 L
194.857 274.152 L
195.911 274.098 L
196.964 274.152 L
198.018 274.315 L
199.071 274.315 L
200.125 274.424 L
201.179 274.641 L
202.232 274.696 L
203.286 274.696 L
204.339 274.641 L
205.393 274.696 L
206.446 274.696 L
207.5 274.641 L
208.554 274.641 L
209.607 274.695 L
210.661 274.696 L
211.714 274.587 L
212.768 274.641 L
213.821 274.533 L
214.875 274.315 L
215.929 274.37 L
216.982 274.37 L
218.036 274.315 L
219.089 274.206 L
220.143 274.152 L
221.196 274.152 L
222.25 274.098 L
223.304 274.207 L
224.357 274.207 L
225.411 274.37 L
226.464 274.207 L
227.518 274.207 L
228.571 274.206 L
229.625 274.152 L
230.679 274.207 L
231.732 274.098 L
232.786 274.153 L
233.839 274.316 L
234.893 274.153 L
235.946 274.37 L
237 274.37 L
238.054 274.316 L
239.107 274.37 L
240.161 274.37 L
241.214 274.316 L
242.268 274.153 L
243.321 274.207 L
244.375 274.262 L
245.429 274.207 L
246.482 274.262 L
247.536 274.316 L
248.589 274.316 L
249.643 274.37 L
250.696 274.424 L
251.75 274.207 L
252.804 274.315 L
253.857 274.37 L
254.911 274.479 L
255.964 274.37 L
257.018 274.316 L
258.071 274.315 L
259.125 274.206 L
260.179 274.152 L
261.232 273.934 L
262.286 273.989 L
263.339 273.934 L
264.393 273.879 L
265.446 273.988 L
266.5 273.988 L
267.554 273.988 L
268.607 273.88 L
269.661 273.934 L
270.714 273.988 L
271.768 273.88 L
272.821 273.879 L
273.875 273.825 L
274.929 273.771 L
275.982 273.825 L
277.036 273.662 L
278.089 273.825 L
279.143 273.662 L
280.196 273.717 L
281.25 273.717 L
282.304 273.825 L
283.357 273.717 L
284.411 273.826 L
285.464 273.771 L
286.518 273.88 L
287.571 273.88 L
288.625 274.043 L
289.679 274.152 L
290.732 274.315 L
291.786 274.478 L
292.839 274.587 L
293.893 274.804 L
294.946 275.131 L
296 275.348 L
297.054 275.512 L
298.107 275.838 L
299.161 276.11 L
300.214 276.165 L
301.268 276.491 L
302.321 276.872 L
303.375 277.035 L
304.429 277.307 L
305.482 277.307 L
306.536 277.416 L
307.589 277.688 L
308.643 277.797 L
309.696 277.906 L
310.75 278.232 L
311.804 278.613 L
312.857 278.885 L
313.911 279.048 L
314.964 279.429 L
316.018 279.483 L
317.071 279.809 L
318.125 279.918 L
319.179 280.081 L
320.232 280.136 L
321.286 280.245 L
322.339 280.136 L
323.393 280.136 L
324.446 280.19 L
325.5 280.408 L
326.554 280.408 L
327.607 280.408 L
328.661 280.517 L
329.714 280.68 L
330.768 280.844 L
331.821 280.844 L
332.875 280.953 L
333.929 280.953 L
334.982 280.953 L
336.036 280.735 L
337.089 280.898 L
338.143 281.007 L
339.196 281.061 L
340.25 281.116 L
341.304 281.279 L
342.357 281.225 L
343.411 281.551 L
344.464 281.443 L
345.518 281.715 L
346.571 281.878 L
347.625 282.259 L
348.679 282.422 L
349.732 282.694 L
350.786 282.748 L
351.839 282.803 L
352.893 283.184 L
353.946 283.401 L
355 283.51 L
356.054 283.347 L
357.107 283.238 L
358.161 283.293 L
359.214 283.184 L
360.268 283.129 L
361.321 283.021 L
362.375 283.129 L
363.429 282.857 L
364.482 282.64 L
365.536 282.422 L
366.589 281.932 L
367.643 281.66 L
368.696 281.225 L
369.75 281.008 L
370.804 280.79 L
371.857 280.627 L
372.911 280.681 L
373.964 280.572 L
375.018 280.626 L
376.071 280.626 L
377.125 280.79 L
378.179 281.225 L
379.232 281.443 L
380.286 281.878 L
381.339 282.422 L
382.393 282.966 L
383.446 283.564 L
384.5 284.217 L
385.554 284.816 L
386.607 285.523 L
387.661 286.611 L
388.714 287.536 L
389.768 288.46 L
390.821 289.331 L
391.875 290.31 L
392.929 291.289 L
393.982 292.323 L
395.036 293.247 L
396.089 294.281 L
397.143 294.988 L
398.196 295.695 L
399.25 296.239 L
400.304 296.783 L
401.357 297.436 L
402.411 298.089 L
403.464 298.47 L
404.518 298.959 L
405.571 299.395 L
406.625 299.721 L
407.679 299.993 L
408.732 300.102 L
409.786 300.429 L
410.839 300.701 L
411.893 300.809 L
412.946 301.027 L
414 301.407 L
415.054 301.788 L
416.107 302.115 L
417.161 302.55 L
418.214 303.148 L
419.268 303.583 L
420.321 304.29 L
421.375 304.671 L
422.429 305.324 L
423.482 305.867 L
424.536 306.629 L
425.589 307.391 L
426.643 308.043 L
427.696 308.805 L
428.75 309.457 L
429.804 310.165 L
430.857 310.981 L
431.911 311.688 L
432.964 312.232 L
434.018 312.667 L
435.071 313.265 L
436.125 313.755 L
437.179 314.135 L
438.232 314.571 L
439.286 314.951 L
440.339 315.223 L
441.393 315.277 L
442.446 315.604 L
443.5 315.604 L
444.554 315.604 L
445.607 315.713 L
446.661 315.495 L
447.714 315.386 L
448.768 315.278 L
449.821 315.169 L
450.875 314.951 L
451.929 315.006 L
452.982 315.114 L
454.036 315.006 L
455.089 315.115 L
456.143 315.332 L
457.196 315.387 L
458.25 315.713 L
459.304 315.876 L
460.357 316.257 L
461.411 316.474 L
462.464 317.018 L
463.518 317.127 L
464.571 317.399 L
465.625 317.78 L
466.679 318.161 L
467.732 318.541 L
468.786 318.977 L
469.839 319.249 L
470.893 319.521 L
471.946 320.01 L
473 320.282 L
474.054 320.5 L
475.107 320.772 L
476.161 320.881 L
477.214 320.989 L
478.268 321.261 L
479.321 321.424 L
480.375 321.315 L
481.429 321.478 L
482.482 321.805 L
483.536 321.968 L
484.589 322.131 L
485.643 322.24 L
486.696 322.567 L
487.75 323.056 L
488.804 323.22 L
489.857 323.491 L
490.911 323.763 L
491.964 324.199 L
493.018 324.688 L
494.071 325.123 L
495.125 325.558 L
496.179 326.048 L
497.232 326.646 L
498.286 327.082 L
499.339 327.68 L
500.393 328.116 L
501.446 328.442 L
502.5 328.931 L
503.554 329.258 L
504.607 329.693 L
505.661 330.019 L
506.714 330.455 L
507.768 330.672 L
508.821 330.89 L
509.875 331.107 L
510.929 331.325 L
511.982 331.542 L
513.036 331.814 L
514.089 332.086 L
515.143 332.358 L
516.196 332.685 L
517.25 333.12 L
518.304 333.283 L
519.357 333.392 L
520.411 333.773 L
521.464 333.936 L
522.518 333.881 L
523.571 334.262 L
524.625 334.534 L
525.679 334.589 L
526.732 334.752 L
527.786 334.861 L
528.839 334.915 L
529.893 335.078 L
530.946 335.241 L
532 335.513 L
533.054 335.568 L
534.107 335.731 L
535.161 335.894 L
536.214 336.003 L
537.268 336.22 L
538.321 336.492 L
539.375 336.656 L
540.429 336.765 L
541.482 336.873 L
542.536 336.928 L
543.589 337.037 L
544.643 337.309 L
545.696 337.472 L
546.75 337.907 L
547.804 338.07 L
548.857 338.288 L
549.911 338.506 L
550.964 338.56 L
552.018 338.669 L
553.071 338.832 L
554.125 338.941 L
555.179 339.322 L
556.232 339.321 L
557.286 339.43 L
558.339 339.539 L
559.393 339.593 L
560.446 339.648 L
561.5 339.811 L
562.554 340.192 L
563.607 340.083 L
564.661 339.974 L
565.714 340.137 L
566.768 340.518 L
567.821 340.736 L
568.875 341.008 L
569.929 341.334 L
570.982 341.497 L
572.036 341.823 L
573.089 342.041 L
574.143 342.476 L
575.196 342.911 L
576.25 343.564 L
577.304 344.163 L
578.357 344.652 L
579.411 345.359 L
580.464 345.849 L
581.518 346.502 L
582.571 347.046 L
583.625 347.535 L
584.679 347.971 L
585.732 348.352 L
586.786 348.624 L
587.839 348.787 L
588.893 348.95 L
589.946 349.059 L
591 349.331 L
592.054 349.331 L
593.107 349.276 L
594.161 349.276 L
595.214 349.004 L
596.268 348.786 L
597.321 348.46 L
598.375 347.916 L
599.429 347.372 L
600.482 346.72 L
601.536 346.23 L
602.589 345.577 L
603.643 345.087 L
604.696 344.38 L
605.75 343.836 L
606.804 343.238 L
607.857 342.857 L
608.911 342.531 L
609.964 342.204 L
611.018 342.095 L
612.071 341.823 L
613.125 341.606 L
614.179 341.551 L
615.232 341.551 L
616.286 341.714 L
617.339 341.605 L
618.393 341.823 L
619.446 342.095 L
620.5 342.258 L
621.554 342.367 L
622.607 342.802 L
623.661 342.965 L
624.714 343.02 L
625.768 343.238 L
626.821 343.237 L
627.875 343.129 L
628.929 342.911 L
629.982 342.857 L
631.036 342.531 L
632.089 342.313 L
633.143 341.933 L
634.196 341.552 L
635.25 341.171 L
636.304 340.518 L
637.357 340.029 L
638.411 339.376 L
639.464 338.887 L
640.518 338.397 L
641.571 337.798 L
642.625 337.145 L
643.679 336.656 L
644.732 336.166 L
645.786 335.785 L
646.839 335.187 L
647.893 335.024 L
648.946 334.643 L
650 334.48 L
650.056 334.48 L
S
GR
GS
[0.75 0 0 0.75 0 0] CT
0.494 0.184 0.557 RC
1 LJ
2 LW
N
177.944 385.951 M
178 385.949 L
179.054 385.95 L
180.107 385.95 L
181.161 385.98 L
182.214 385.951 L
183.268 385.979 L
184.321 385.98 L
185.375 386.011 L
186.429 386.011 L
187.482 385.982 L
188.536 385.983 L
189.589 385.953 L
190.643 385.982 L
191.696 385.982 L
192.75 386.011 L
193.804 386.011 L
194.857 385.952 L
195.911 385.952 L
196.964 385.922 L
198.018 385.953 L
199.071 385.982 L
200.125 385.983 L
201.179 385.956 L
202.232 385.956 L
203.286 385.985 L
204.339 385.985 L
205.393 385.985 L
206.446 386.014 L
207.5 386.014 L
208.554 386.014 L
209.607 386.044 L
210.661 386.015 L
211.714 386.043 L
212.768 386.043 L
213.821 386.043 L
214.875 386.012 L
215.929 385.983 L
216.982 386.042 L
218.036 386.012 L
219.089 386.07 L
220.143 386.04 L
221.196 386.07 L
222.25 386.069 L
223.304 386.07 L
224.357 386.041 L
225.411 386.042 L
226.464 386.1 L
227.518 386.129 L
228.571 386.1 L
229.625 386.158 L
230.679 386.159 L
231.732 386.129 L
232.786 386.129 L
233.839 386.1 L
234.893 386.07 L
235.946 386.071 L
237 386.071 L
238.054 386.042 L
239.107 386.071 L
240.161 386.042 L
241.214 385.983 L
242.268 386.04 L
243.321 385.982 L
244.375 385.982 L
245.429 385.982 L
246.482 386.07 L
247.536 386.071 L
248.589 385.983 L
249.643 386.042 L
250.696 385.983 L
251.75 385.982 L
252.804 385.983 L
253.857 385.983 L
254.911 385.984 L
255.964 386.012 L
257.018 386.041 L
258.071 386.041 L
259.125 385.982 L
260.179 386.07 L
261.232 386.039 L
262.286 385.98 L
263.339 385.98 L
264.393 386.009 L
265.446 386.009 L
266.5 385.98 L
267.554 385.98 L
268.607 385.979 L
269.661 386.009 L
270.714 385.951 L
271.768 386.038 L
272.821 386.127 L
273.875 386.097 L
274.929 386.126 L
275.982 386.127 L
277.036 386.096 L
278.089 386.067 L
279.143 386.096 L
280.196 386.096 L
281.25 386.037 L
282.304 386.067 L
283.357 386.067 L
284.411 386.009 L
285.464 385.949 L
286.518 385.891 L
287.571 385.773 L
288.625 385.628 L
289.679 385.482 L
290.732 385.396 L
291.786 385.193 L
292.839 384.902 L
293.893 384.672 L
294.946 384.388 L
296 384.015 L
297.054 383.672 L
298.107 383.306 L
299.161 382.796 L
300.214 382.279 L
301.268 381.719 L
302.321 381.138 L
303.375 380.432 L
304.429 379.709 L
305.482 378.969 L
306.536 378.152 L
307.589 377.353 L
308.643 376.456 L
309.696 375.505 L
310.75 374.413 L
311.804 373.364 L
312.857 372.279 L
313.911 371.072 L
314.964 369.878 L
316.018 368.578 L
317.071 367.25 L
318.125 365.857 L
319.179 364.397 L
320.232 362.915 L
321.286 361.339 L
322.339 359.677 L
323.393 358.017 L
324.446 356.429 L
325.5 354.786 L
326.554 353.02 L
327.607 351.253 L
328.661 349.446 L
329.714 347.638 L
330.768 345.919 L
331.821 344.023 L
332.875 342.068 L
333.929 340.12 L
334.982 338.117 L
336.036 335.916 L
337.089 333.888 L
338.143 331.836 L
339.196 329.646 L
340.25 327.542 L
341.304 325.373 L
342.357 323.149 L
343.411 321.075 L
344.464 318.652 L
345.518 316.477 L
346.571 314.233 L
347.625 312.141 L
348.679 309.865 L
349.732 307.634 L
350.786 305.283 L
351.839 303.096 L
352.893 301.343 L
353.946 299.589 L
355 297.847 L
356.054 295.873 L
357.107 293.972 L
358.161 292.286 L
359.214 290.461 L
360.268 288.796 L
361.321 287.232 L
362.375 285.926 L
363.429 284.342 L
364.482 282.92 L
365.536 281.518 L
366.589 279.914 L
367.643 278.682 L
368.696 277.341 L
369.75 276.352 L
370.804 275.497 L
371.857 274.73 L
372.911 274.353 L
373.964 273.868 L
375.018 273.738 L
376.071 273.601 L
377.125 273.71 L
378.179 274.221 L
379.232 274.586 L
380.286 275.314 L
381.339 276.276 L
382.393 277.287 L
383.446 278.277 L
384.5 279.22 L
385.554 279.993 L
386.607 280.863 L
387.661 282.174 L
388.714 283.346 L
389.768 284.567 L
390.821 285.721 L
391.875 286.998 L
392.929 288.173 L
393.982 289.434 L
395.036 290.544 L
396.089 291.778 L
397.143 292.66 L
398.196 293.517 L
399.25 294.164 L
400.304 294.81 L
401.357 295.559 L
402.411 296.306 L
403.464 296.765 L
404.518 297.303 L
405.571 297.78 L
406.625 298.132 L
407.679 298.422 L
408.732 298.569 L
409.786 298.965 L
410.839 299.277 L
411.893 299.38 L
412.946 299.629 L
414 300.043 L
415.054 300.415 L
416.107 300.833 L
417.161 301.332 L
418.214 302.018 L
419.268 302.517 L
420.321 303.349 L
421.375 303.785 L
422.429 304.554 L
423.482 305.177 L
424.536 306.03 L
425.589 306.883 L
426.643 307.632 L
427.696 308.524 L
428.75 309.253 L
429.804 310.065 L
430.857 311 L
431.911 311.793 L
432.964 312.417 L
434.018 312.898 L
435.071 313.529 L
436.125 314.092 L
437.179 314.511 L
438.232 315.01 L
439.286 315.448 L
440.339 315.76 L
441.393 315.804 L
442.446 316.162 L
443.5 316.162 L
444.554 316.144 L
445.607 316.305 L
446.661 316.055 L
447.714 315.894 L
448.768 315.77 L
449.821 315.645 L
450.875 315.395 L
451.929 315.457 L
452.982 315.6 L
454.036 315.475 L
455.089 315.6 L
456.143 315.885 L
457.196 315.983 L
458.25 316.323 L
459.304 316.51 L
460.357 316.965 L
461.411 317.215 L
462.464 317.856 L
463.518 317.998 L
464.571 318.31 L
465.625 318.747 L
466.679 319.218 L
467.732 319.655 L
468.786 320.171 L
469.839 320.483 L
470.893 320.795 L
471.946 321.34 L
473 321.652 L
474.054 321.902 L
475.107 322.214 L
476.161 322.339 L
477.214 322.431 L
478.268 322.743 L
479.321 322.946 L
480.375 322.821 L
481.429 323.008 L
482.482 323.382 L
483.536 323.554 L
484.589 323.726 L
485.643 323.851 L
486.696 324.225 L
487.75 324.788 L
488.804 324.96 L
489.857 325.302 L
490.911 325.615 L
491.964 326.114 L
493.018 326.691 L
494.071 327.175 L
495.125 327.675 L
496.179 328.251 L
497.232 328.938 L
498.286 329.423 L
499.339 330.138 L
500.393 330.624 L
501.446 330.984 L
502.5 331.546 L
503.554 331.92 L
504.607 332.42 L
505.661 332.795 L
506.714 333.294 L
507.768 333.544 L
508.821 333.793 L
509.875 334.043 L
510.929 334.28 L
511.982 334.543 L
513.036 334.855 L
514.089 335.167 L
515.143 335.505 L
516.196 335.879 L
517.25 336.378 L
518.304 336.566 L
519.357 336.665 L
520.411 337.09 L
521.464 337.29 L
522.518 337.227 L
523.571 337.664 L
524.625 337.964 L
525.679 338.027 L
526.732 338.214 L
527.786 338.327 L
528.839 338.401 L
529.893 338.588 L
530.946 338.764 L
532 339.076 L
533.054 339.139 L
534.107 339.314 L
535.161 339.502 L
536.214 339.627 L
537.268 339.877 L
538.321 340.189 L
539.375 340.377 L
540.429 340.49 L
541.482 340.627 L
542.536 340.689 L
543.589 340.803 L
544.643 341.104 L
545.696 341.292 L
546.75 341.781 L
547.804 341.957 L
548.857 342.207 L
549.911 342.458 L
550.964 342.553 L
552.018 342.689 L
553.071 342.866 L
554.125 342.98 L
555.179 343.417 L
556.232 343.406 L
557.286 343.531 L
558.339 343.646 L
559.393 343.708 L
560.446 343.76 L
561.5 343.948 L
562.554 344.375 L
563.607 344.271 L
564.661 344.146 L
565.714 344.354 L
566.768 344.792 L
567.821 345.042 L
568.875 345.345 L
569.929 345.74 L
570.982 345.927 L
572.036 346.322 L
573.089 346.562 L
574.143 347.072 L
575.196 347.571 L
576.25 348.33 L
577.304 349.008 L
578.357 349.561 L
579.411 350.382 L
580.464 350.944 L
581.518 351.702 L
582.571 352.318 L
583.625 352.881 L
584.679 353.381 L
585.732 353.826 L
586.786 354.131 L
587.839 354.326 L
588.893 354.513 L
589.946 354.654 L
591 354.966 L
592.054 354.966 L
593.107 354.903 L
594.161 354.903 L
595.214 354.583 L
596.268 354.334 L
597.321 353.951 L
598.375 353.327 L
599.429 352.694 L
600.482 351.953 L
601.536 351.373 L
602.589 350.605 L
603.643 350.034 L
604.696 349.211 L
605.75 348.567 L
606.804 347.879 L
607.857 347.441 L
608.911 347.075 L
609.964 346.71 L
611.018 346.575 L
612.071 346.262 L
613.125 346.001 L
614.179 345.939 L
615.232 345.939 L
616.286 346.126 L
617.339 346.001 L
618.393 346.261 L
619.446 346.574 L
620.5 346.761 L
621.554 346.877 L
622.607 347.377 L
623.661 347.565 L
624.714 347.628 L
625.768 347.878 L
626.821 347.878 L
627.875 347.753 L
628.929 347.503 L
629.982 347.431 L
631.036 347.065 L
632.089 346.815 L
633.143 346.377 L
634.196 345.96 L
635.25 345.512 L
636.304 344.772 L
637.357 344.219 L
638.411 343.469 L
639.464 342.906 L
640.518 342.332 L
641.571 341.622 L
642.625 340.882 L
643.679 340.319 L
644.732 339.744 L
645.786 339.306 L
646.839 338.618 L
647.893 338.431 L
648.946 337.993 L
650 337.817 L
650.056 337.817 L
S
GR
GS
[0.75 0 0 0.75 0 0] CT
0.467 0.675 0.188 RC
[8 8] 0 setdash
2 LJ
2 LW
N
309.696 445 M
310.75 444.671 L
311.804 444.312 L
312.857 443.923 L
313.911 443.502 L
314.964 443.047 L
316.018 442.557 L
317.071 442.031 L
318.125 441.466 L
319.179 440.862 L
320.232 440.216 L
321.286 439.528 L
322.339 438.794 L
323.393 438.014 L
324.446 437.188 L
325.5 436.317 L
326.554 435.398 L
327.607 434.43 L
328.661 433.412 L
329.714 432.343 L
330.768 431.225 L
331.821 430.056 L
332.875 428.833 L
333.929 427.556 L
334.982 426.223 L
336.036 424.832 L
337.089 423.381 L
338.143 421.873 L
339.196 420.306 L
340.25 418.679 L
341.304 416.991 L
342.357 415.243 L
343.411 413.434 L
344.464 411.562 L
345.518 409.626 L
346.571 407.628 L
347.625 405.569 L
348.679 403.449 L
349.732 401.266 L
350.786 399.019 L
351.839 396.708 L
352.893 394.342 L
353.946 391.927 L
355 389.464 L
356.054 386.948 L
357.107 384.377 L
358.161 381.757 L
359.214 379.087 L
360.268 376.369 L
361.321 373.605 L
362.375 370.802 L
363.429 367.957 L
364.482 365.071 L
365.536 362.145 L
366.589 359.177 L
367.643 356.17 L
368.696 353.126 L
369.75 350.05 L
370.804 346.948 L
371.857 343.823 L
372.911 340.682 L
373.964 337.529 L
375.018 334.367 L
376.071 331.202 L
377.125 328.037 L
378.179 324.88 L
379.232 321.735 L
380.286 318.606 L
381.339 315.5 L
382.393 312.422 L
383.446 309.372 L
384.5 306.349 L
385.554 303.35 L
386.607 300.374 L
387.661 297.428 L
388.714 294.517 L
389.768 291.64 L
390.821 288.796 L
391.875 285.986 L
392.929 283.211 L
393.982 280.469 L
395.036 277.761 L
396.089 275.085 L
397.143 272.439 L
398.196 269.818 L
399.25 267.217 L
400.304 264.635 L
401.357 262.072 L
402.411 259.53 L
403.464 257.005 L
404.518 254.494 L
405.571 251.997 L
406.625 249.512 L
407.679 247.036 L
408.732 244.566 L
409.786 242.103 L
410.839 239.651 L
411.893 237.204 L
412.946 234.762 L
414 232.329 L
415.054 229.908 L
416.107 227.497 L
417.161 225.1 L
418.214 222.719 L
419.268 220.354 L
420.321 218.008 L
421.375 215.68 L
422.429 213.369 L
423.482 211.077 L
424.536 208.806 L
425.589 206.559 L
426.643 204.334 L
427.696 202.132 L
428.75 199.953 L
429.804 197.795 L
430.857 195.662 L
431.911 193.553 L
432.964 191.464 L
434.018 189.391 L
435.071 187.333 L
436.125 185.291 L
437.179 183.264 L
438.232 181.249 L
439.286 179.248 L
440.339 177.256 L
441.393 175.27 L
442.446 173.29 L
443.5 171.314 L
444.554 169.339 L
445.607 167.365 L
446.661 165.39 L
447.714 163.409 L
448.768 161.425 L
449.821 159.436 L
450.875 157.443 L
451.929 155.447 L
452.982 153.454 L
454.036 151.461 L
455.089 149.468 L
456.143 147.481 L
457.196 145.499 L
458.25 143.523 L
459.304 141.555 L
460.357 139.595 L
461.411 137.646 L
462.464 135.709 L
463.518 133.783 L
464.571 131.863 L
465.625 129.954 L
466.679 128.057 L
467.732 126.174 L
468.786 124.303 L
469.839 122.444 L
470.893 120.594 L
471.946 118.756 L
473 116.93 L
474.054 115.112 L
475.107 113.301 L
476.161 111.497 L
477.214 109.696 L
478.268 107.9 L
479.321 106.112 L
480.375 104.325 L
481.429 102.538 L
482.482 100.76 L
483.536 98.989 L
484.589 97.223 L
485.643 95.461 L
486.696 93.706 L
487.75 91.964 L
488.804 90.233 L
489.857 88.508 L
490.911 86.793 L
491.964 85.089 L
493.018 83.401 L
494.071 81.727 L
495.125 80.067 L
496.179 78.422 L
497.232 76.794 L
498.286 75.183 L
499.339 73.589 L
500.393 72.012 L
501.446 70.446 L
502.5 68.894 L
503.554 67.354 L
504.607 65.827 L
505.661 64.312 L
506.714 62.809 L
507.768 61.317 L
508.821 59.832 L
509.875 58.353 L
510.929 56.882 L
511.982 55.417 L
513.036 53.961 L
514.089 52.513 L
515.143 51.075 L
516.196 49.646 L
517.25 48.23 L
518.304 46.823 L
S
GR
GS
[0.75 0 0 0.75 0 0] CT
1 GC
N
636 214 M
636 97 L
554 97 L
554 214 L
cp
f
GR
GS
[0.75 0 0 0.75 450.75 87] CT
/Helvetica 16.8 F
GS
[1 0 0 1 0 0] CT
0 0 moveto 
1 -1 scale
(V) t 
GR
GR
GS
[0.75 0 0 0.75 459.75 93] CT
/Helvetica 13.44 F
GS
[1 0 0 1 0 0] CT
0 0 moveto 
1 -1 scale
(D) t 
GR
GR
GS
[0.75 0 0 0.75 467.25 93] CT
/Helvetica 13.44 F
GS
[1 0 0 1 0 0] CT
0 0 moveto 
1 -1 scale
(S) t 
GR
GR
GS
[0.75 0 0 0.75 0 0] CT
0.851 0.325 0.098 RC
1 LJ
2 LW
N
558 112.932 M
598 112.932 L
S
GR
GS
[0.75 0 0 0.75 450.75 108] CT
/Helvetica 16.8 F
GS
[1 0 0 1 0 0] CT
0 0 moveto 
1 -1 scale
(I) t 
GR
GR
GS
[0.75 0 0 0.75 454.5 114] CT
/Helvetica 13.44 F
GS
[1 0 0 1 0 0] CT
0 0 moveto 
1 -1 scale
(D) t 
GR
GR
GS
[0.75 0 0 0.75 0 0] CT
0.929 0.694 0.125 RC
1 LJ
2 LW
N
558 141.311 M
598 141.311 L
S
GR
GS
[0.75 0 0 0.75 450.75 129.75] CT
/Helvetica 16.8 F
GS
[1 0 0 1 0 0] CT
0 0 moveto 
1 -1 scale
(P) t 
GR
GR
GS
[0.75 0 0 0.75 459.75 135.75] CT
/Helvetica 13.44 F
GS
[1 0 0 1 0 0] CT
0 0 moveto 
1 -1 scale
(s) t 
GR
GR
GS
[0.75 0 0 0.75 465 135.75] CT
/Helvetica 13.44 F
GS
[1 0 0 1 0 0] CT
0 0 moveto 
1 -1 scale
(w) t 
GR
GR
GS
[0.75 0 0 0.75 0 0] CT
0.494 0.184 0.557 RC
1 LJ
2 LW
N
558 169.689 M
598 169.689 L
S
GR
GS
[0.75 0 0 0.75 450.75 150.75] CT
/Helvetica 16.8 F
GS
[1 0 0 1 0 0] CT
0 0 moveto 
1 -1 scale
(E) t 
GR
GR
GS
[0.75 0 0 0.75 459.75 156.75] CT
/Helvetica 13.44 F
GS
[1 0 0 1 0 0] CT
0 0 moveto 
1 -1 scale
(s) t 
GR
GR
GS
[0.75 0 0 0.75 465 156.75] CT
/Helvetica 13.44 F
GS
[1 0 0 1 0 0] CT
0 0 moveto 
1 -1 scale
(w) t 
GR
GR
GS
[0.75 0 0 0.75 0 0] CT
0.467 0.675 0.188 RC
[8 8] 0 setdash
2 LJ
2 LW
N
558 198.068 M
598 198.068 L
S
GR
GS
[0.75 0 0 0.75 0 0] CT
0.149 GC
10.0 ML
0.667 LW
N
554 214 M
554 97 L
636 97 L
636 214 L
cp
S
GR
%%Trailer
%%Pages: 1
%%EOF
