%!PS-Adobe-3.0 EPSF-3.0
%%Creator: (MATLAB, The Mathworks, Inc. Version 24.1.0.2603908 \(R2024a\) Update 3. Operating System: Windows 10)
%%Title: (C:/Users/lorde/Documents/MATLAB/Master Lab Course/Exercise 3/E3_Rg10_Eoff3.eps)
%%CreationDate: 2024-06-30T10:04:43
%%Pages: (atend)
%%BoundingBox:     0     0   600   375
%%LanguageLevel: 3
%%EndComments
%%BeginProlog
%%BeginResource: procset (Apache XML Graphics Std ProcSet) 1.2 0
%%Version: 1.2 0
%%Copyright: (Copyright 2001-2003,2010 The Apache Software Foundation. License terms: http://www.apache.org/licenses/LICENSE-2.0)
/bd{bind def}bind def
/ld{load def}bd
/GR/grestore ld
/GS/gsave ld
/RM/rmoveto ld
/C/curveto ld
/t/show ld
/L/lineto ld
/ML/setmiterlimit ld
/CT/concat ld
/f/fill ld
/N/newpath ld
/S/stroke ld
/CC/setcmykcolor ld
/A/ashow ld
/cp/closepath ld
/RC/setrgbcolor ld
/LJ/setlinejoin ld
/GC/setgray ld
/LW/setlinewidth ld
/M/moveto ld
/re {4 2 roll M
1 index 0 rlineto
0 exch rlineto
neg 0 rlineto
cp } bd
/_ctm matrix def
/_tm matrix def
/BT { _ctm currentmatrix pop matrix _tm copy pop 0 0 moveto } bd
/ET { _ctm setmatrix } bd
/iTm { _ctm setmatrix _tm concat } bd
/Tm { _tm astore pop iTm 0 0 moveto } bd
/ux 0.0 def
/uy 0.0 def
/F {
  /Tp exch def
  /Tf exch def
  Tf findfont Tp scalefont setfont
  /cf Tf def  /cs Tp def
} bd
/ULS {currentpoint /uy exch def /ux exch def} bd
/ULE {
  /Tcx currentpoint pop def
  gsave
  newpath
  cf findfont cs scalefont dup
  /FontMatrix get 0 get /Ts exch def /FontInfo get dup
  /UnderlinePosition get Ts mul /To exch def
  /UnderlineThickness get Ts mul /Tt exch def
  ux uy To add moveto  Tcx uy To add lineto
  Tt setlinewidth stroke
  grestore
} bd
/OLE {
  /Tcx currentpoint pop def
  gsave
  newpath
  cf findfont cs scalefont dup
  /FontMatrix get 0 get /Ts exch def /FontInfo get dup
  /UnderlinePosition get Ts mul /To exch def
  /UnderlineThickness get Ts mul /Tt exch def
  ux uy To add cs add moveto Tcx uy To add cs add lineto
  Tt setlinewidth stroke
  grestore
} bd
/SOE {
  /Tcx currentpoint pop def
  gsave
  newpath
  cf findfont cs scalefont dup
  /FontMatrix get 0 get /Ts exch def /FontInfo get dup
  /UnderlinePosition get Ts mul /To exch def
  /UnderlineThickness get Ts mul /Tt exch def
  ux uy To add cs 10 mul 26 idiv add moveto Tcx uy To add cs 10 mul 26 idiv add lineto
  Tt setlinewidth stroke
  grestore
} bd
/QT {
/Y22 exch store
/X22 exch store
/Y21 exch store
/X21 exch store
currentpoint
/Y21 load 2 mul add 3 div exch
/X21 load 2 mul add 3 div exch
/X21 load 2 mul /X22 load add 3 div
/Y21 load 2 mul /Y22 load add 3 div
/X22 load /Y22 load curveto
} bd
/SSPD {
dup length /d exch dict def
{
/v exch def
/k exch def
currentpagedevice k known {
/cpdv currentpagedevice k get def
v cpdv ne {
/upd false def
/nullv v type /nulltype eq def
/nullcpdv cpdv type /nulltype eq def
nullv nullcpdv or
{
/upd true def
} {
/sametype v type cpdv type eq def
sametype {
v type /arraytype eq {
/vlen v length def
/cpdvlen cpdv length def
vlen cpdvlen eq {
0 1 vlen 1 sub {
/i exch def
/obj v i get def
/cpdobj cpdv i get def
obj cpdobj ne {
/upd true def
exit
} if
} for
} {
/upd true def
} ifelse
} {
v type /dicttype eq {
v {
/dv exch def
/dk exch def
/cpddv cpdv dk get def
dv cpddv ne {
/upd true def
exit
} if
} forall
} {
/upd true def
} ifelse
} ifelse
} if
} ifelse
upd true eq {
d k v put
} if
} if
} if
} forall
d length 0 gt {
d setpagedevice
} if
} bd
/RE { % /NewFontName [NewEncodingArray] /FontName RE -
  findfont dup length dict begin
  {
    1 index /FID ne
    {def} {pop pop} ifelse
  } forall
  /Encoding exch def
  /FontName 1 index def
  currentdict definefont pop
  end
} bind def
%%EndResource
%%BeginResource: procset (Apache XML Graphics EPS ProcSet) 1.0 0
%%Version: 1.0 0
%%Copyright: (Copyright 2002-2003 The Apache Software Foundation. License terms: http://www.apache.org/licenses/LICENSE-2.0)
/BeginEPSF { %def
/b4_Inc_state save def         % Save state for cleanup
/dict_count countdictstack def % Count objects on dict stack
/op_count count 1 sub def      % Count objects on operand stack
userdict begin                 % Push userdict on dict stack
/showpage { } def              % Redefine showpage, { } = null proc
0 setgray 0 setlinecap         % Prepare graphics state
1 setlinewidth 0 setlinejoin
10 setmiterlimit [ ] 0 setdash newpath
/languagelevel where           % If level not equal to 1 then
{pop languagelevel             % set strokeadjust and
1 ne                           % overprint to their defaults.
{false setstrokeadjust false setoverprint
} if
} if
} bd
/EndEPSF { %def
count op_count sub {pop} repeat            % Clean up stacks
countdictstack dict_count sub {end} repeat
b4_Inc_state restore
} bd
%%EndResource
%FOPBeginFontDict
%%IncludeResource: font Courier-Oblique
%%IncludeResource: font Courier-BoldOblique
%%IncludeResource: font Courier-Bold
%%IncludeResource: font ZapfDingbats
%%IncludeResource: font Symbol
%%IncludeResource: font Helvetica
%%IncludeResource: font Helvetica-Oblique
%%IncludeResource: font Helvetica-Bold
%%IncludeResource: font Helvetica-BoldOblique
%%IncludeResource: font Times-Roman
%%IncludeResource: font Times-Italic
%%IncludeResource: font Times-Bold
%%IncludeResource: font Times-BoldItalic
%%IncludeResource: font Courier
%FOPEndFontDict
%%BeginResource: encoding WinAnsiEncoding
/WinAnsiEncoding [
/.notdef /.notdef /.notdef /.notdef /.notdef
/.notdef /.notdef /.notdef /.notdef /.notdef
/.notdef /.notdef /.notdef /.notdef /.notdef
/.notdef /.notdef /.notdef /.notdef /.notdef
/.notdef /.notdef /.notdef /.notdef /.notdef
/.notdef /.notdef /.notdef /.notdef /.notdef
/.notdef /.notdef /space /exclam /quotedbl
/numbersign /dollar /percent /ampersand /quotesingle
/parenleft /parenright /asterisk /plus /comma
/hyphen /period /slash /zero /one
/two /three /four /five /six
/seven /eight /nine /colon /semicolon
/less /equal /greater /question /at
/A /B /C /D /E
/F /G /H /I /J
/K /L /M /N /O
/P /Q /R /S /T
/U /V /W /X /Y
/Z /bracketleft /backslash /bracketright /asciicircum
/underscore /quoteleft /a /b /c
/d /e /f /g /h
/i /j /k /l /m
/n /o /p /q /r
/s /t /u /v /w
/x /y /z /braceleft /bar
/braceright /asciitilde /bullet /Euro /bullet
/quotesinglbase /florin /quotedblbase /ellipsis /dagger
/daggerdbl /circumflex /perthousand /Scaron /guilsinglleft
/OE /bullet /Zcaron /bullet /bullet
/quoteleft /quoteright /quotedblleft /quotedblright /bullet
/endash /emdash /asciitilde /trademark /scaron
/guilsinglright /oe /bullet /zcaron /Ydieresis
/space /exclamdown /cent /sterling /currency
/yen /brokenbar /section /dieresis /copyright
/ordfeminine /guillemotleft /logicalnot /sfthyphen /registered
/macron /degree /plusminus /twosuperior /threesuperior
/acute /mu /paragraph /middot /cedilla
/onesuperior /ordmasculine /guillemotright /onequarter /onehalf
/threequarters /questiondown /Agrave /Aacute /Acircumflex
/Atilde /Adieresis /Aring /AE /Ccedilla
/Egrave /Eacute /Ecircumflex /Edieresis /Igrave
/Iacute /Icircumflex /Idieresis /Eth /Ntilde
/Ograve /Oacute /Ocircumflex /Otilde /Odieresis
/multiply /Oslash /Ugrave /Uacute /Ucircumflex
/Udieresis /Yacute /Thorn /germandbls /agrave
/aacute /acircumflex /atilde /adieresis /aring
/ae /ccedilla /egrave /eacute /ecircumflex
/edieresis /igrave /iacute /icircumflex /idieresis
/eth /ntilde /ograve /oacute /ocircumflex
/otilde /odieresis /divide /oslash /ugrave
/uacute /ucircumflex /udieresis /yacute /thorn
/ydieresis
] def
%%EndResource
%FOPBeginFontReencode
/Courier-Oblique findfont
dup length dict begin
  {1 index /FID ne {def} {pop pop} ifelse} forall
  /Encoding WinAnsiEncoding def
  currentdict
end
/Courier-Oblique exch definefont pop
/Courier-BoldOblique findfont
dup length dict begin
  {1 index /FID ne {def} {pop pop} ifelse} forall
  /Encoding WinAnsiEncoding def
  currentdict
end
/Courier-BoldOblique exch definefont pop
/Courier-Bold findfont
dup length dict begin
  {1 index /FID ne {def} {pop pop} ifelse} forall
  /Encoding WinAnsiEncoding def
  currentdict
end
/Courier-Bold exch definefont pop
/Helvetica findfont
dup length dict begin
  {1 index /FID ne {def} {pop pop} ifelse} forall
  /Encoding WinAnsiEncoding def
  currentdict
end
/Helvetica exch definefont pop
/Helvetica-Oblique findfont
dup length dict begin
  {1 index /FID ne {def} {pop pop} ifelse} forall
  /Encoding WinAnsiEncoding def
  currentdict
end
/Helvetica-Oblique exch definefont pop
/Helvetica-Bold findfont
dup length dict begin
  {1 index /FID ne {def} {pop pop} ifelse} forall
  /Encoding WinAnsiEncoding def
  currentdict
end
/Helvetica-Bold exch definefont pop
/Helvetica-BoldOblique findfont
dup length dict begin
  {1 index /FID ne {def} {pop pop} ifelse} forall
  /Encoding WinAnsiEncoding def
  currentdict
end
/Helvetica-BoldOblique exch definefont pop
/Times-Roman findfont
dup length dict begin
  {1 index /FID ne {def} {pop pop} ifelse} forall
  /Encoding WinAnsiEncoding def
  currentdict
end
/Times-Roman exch definefont pop
/Times-Italic findfont
dup length dict begin
  {1 index /FID ne {def} {pop pop} ifelse} forall
  /Encoding WinAnsiEncoding def
  currentdict
end
/Times-Italic exch definefont pop
/Times-Bold findfont
dup length dict begin
  {1 index /FID ne {def} {pop pop} ifelse} forall
  /Encoding WinAnsiEncoding def
  currentdict
end
/Times-Bold exch definefont pop
/Times-BoldItalic findfont
dup length dict begin
  {1 index /FID ne {def} {pop pop} ifelse} forall
  /Encoding WinAnsiEncoding def
  currentdict
end
/Times-BoldItalic exch definefont pop
/Courier findfont
dup length dict begin
  {1 index /FID ne {def} {pop pop} ifelse} forall
  /Encoding WinAnsiEncoding def
  currentdict
end
/Courier exch definefont pop
%FOPEndFontReencode
%%EndProlog
%%Page: 1 1
%%PageBoundingBox: 0 0 600 375
%%BeginPageSetup
[1 0 0 -1 0 375] CT
%%EndPageSetup
GS
[0.75 0 0 0.75 0 0] CT
1 GC
N
0 0 800 500 re
f
GR
GS
[0.75 0 0 0.75 0 0] CT
1 GC
N
0 0 800 500 re
f
GR
GS
[0.75 0 0 0.75 0 0] CT
0.941 GC
N
650 445 M
659 445 L
659 37 L
650 37 L
cp
f
GR
GS
[0.75 0 0 0.75 0 0] CT
0.149 GC
2 setlinecap
1 LJ
0.667 LW
N
650 445 M
659 445 L
S
GR
GS
[0.75 0 0 0.75 0 0] CT
0.929 0.694 0.125 RC
2 setlinecap
1 LJ
0.667 LW
N
659 445 M
659 37 L
S
GR
GS
[0.75 0 0 0.75 0 0] CT
0.929 0.694 0.125 RC
2 setlinecap
1 LJ
0.667 LW
N
659 445 M
654.92 445 L
S
GR
GS
[0.75 0 0 0.75 0 0] CT
0.929 0.694 0.125 RC
2 setlinecap
1 LJ
0.667 LW
N
659 363.4 M
654.92 363.4 L
S
GR
GS
[0.75 0 0 0.75 0 0] CT
0.929 0.694 0.125 RC
2 setlinecap
1 LJ
0.667 LW
N
659 281.8 M
654.92 281.8 L
S
GR
GS
[0.75 0 0 0.75 0 0] CT
0.929 0.694 0.125 RC
2 setlinecap
1 LJ
0.667 LW
N
659 200.2 M
654.92 200.2 L
S
GR
GS
[0.75 0 0 0.75 0 0] CT
0.929 0.694 0.125 RC
2 setlinecap
1 LJ
0.667 LW
N
659 118.6 M
654.92 118.6 L
S
GR
GS
[0.75 0 0 0.75 0 0] CT
0.929 0.694 0.125 RC
2 setlinecap
1 LJ
0.667 LW
N
659 37 M
654.92 37 L
S
GR
GS
[0.75 0 0 0.75 499.05002 333.75] CT
0.929 0.694 0.125 RC
/Helvetica 18.667 F
GS
[1 0 0 1 0 0] CT
0 7 moveto 
1 -1 scale
(-5) t 
GR
GR
GS
[0.75 0 0 0.75 499.05002 272.55] CT
0.929 0.694 0.125 RC
/Helvetica 18.667 F
GS
[1 0 0 1 0 0] CT
0 7 moveto 
1 -1 scale
(0) t 
GR
GR
GS
[0.75 0 0 0.75 499.05002 211.34999] CT
0.929 0.694 0.125 RC
/Helvetica 18.667 F
GS
[1 0 0 1 0 0] CT
0 7 moveto 
1 -1 scale
(5) t 
GR
GR
GS
[0.75 0 0 0.75 499.05002 150.15] CT
0.929 0.694 0.125 RC
/Helvetica 18.667 F
GS
[1 0 0 1 0 0] CT
0 7 moveto 
1 -1 scale
(10) t 
GR
GR
GS
[0.75 0 0 0.75 499.05002 88.95] CT
0.929 0.694 0.125 RC
/Helvetica 18.667 F
GS
[1 0 0 1 0 0] CT
0 7 moveto 
1 -1 scale
(15) t 
GR
GR
GS
[0.75 0 0 0.75 499.05002 27.75] CT
0.929 0.694 0.125 RC
/Helvetica 18.667 F
GS
[1 0 0 1 0 0] CT
0 7 moveto 
1 -1 scale
(20) t 
GR
GR
GS
[0 -0.75 0.75 0 533.25 199.5] CT
0.929 0.694 0.125 RC
/Helvetica 20.533 F
GS
[1 0 0 1 0 0] CT
0 0 moveto 
1 -1 scale
(I) t 
GR
GR
GS
[0 -0.75 0.75 0 540.75 195] CT
0.929 0.694 0.125 RC
/Helvetica 16.427 F
GS
[1 0 0 1 0 0] CT
0 0 moveto 
1 -1 scale
(D) t 
GR
GR
GS
[0 -0.75 0.75 0 533.25 186] CT
0.929 0.694 0.125 RC
/Helvetica 20.533 F
GS
[1 0 0 1 0 0] CT
0 0 moveto 
1 -1 scale
( / A) t 
GR
GR
GS
[0.75 0 0 0.75 0 0] CT
0.941 GC
N
104 445 M
113 445 L
113 37 L
104 37 L
cp
f
GR
GS
[0.75 0 0 0.75 0 0] CT
0.149 GC
2 setlinecap
1 LJ
0.667 LW
N
104 445 M
113 445 L
S
GR
GS
[0.75 0 0 0.75 0 0] CT
0.494 0.184 0.557 RC
2 setlinecap
1 LJ
0.667 LW
N
104 445 M
104 37 L
S
GR
GS
[0.75 0 0 0.75 0 0] CT
0.494 0.184 0.557 RC
2 setlinecap
1 LJ
0.667 LW
N
104 445 M
108.08 445 L
S
GR
GS
[0.75 0 0 0.75 0 0] CT
0.494 0.184 0.557 RC
2 setlinecap
1 LJ
0.667 LW
N
104 386.714 M
108.08 386.714 L
S
GR
GS
[0.75 0 0 0.75 0 0] CT
0.494 0.184 0.557 RC
2 setlinecap
1 LJ
0.667 LW
N
104 328.429 M
108.08 328.429 L
S
GR
GS
[0.75 0 0 0.75 0 0] CT
0.494 0.184 0.557 RC
2 setlinecap
1 LJ
0.667 LW
N
104 270.143 M
108.08 270.143 L
S
GR
GS
[0.75 0 0 0.75 0 0] CT
0.494 0.184 0.557 RC
2 setlinecap
1 LJ
0.667 LW
N
104 211.857 M
108.08 211.857 L
S
GR
GS
[0.75 0 0 0.75 0 0] CT
0.494 0.184 0.557 RC
2 setlinecap
1 LJ
0.667 LW
N
104 153.571 M
108.08 153.571 L
S
GR
GS
[0.75 0 0 0.75 0 0] CT
0.494 0.184 0.557 RC
2 setlinecap
1 LJ
0.667 LW
N
104 95.286 M
108.08 95.286 L
S
GR
GS
[0.75 0 0 0.75 0 0] CT
0.494 0.184 0.557 RC
2 setlinecap
1 LJ
0.667 LW
N
104 37 M
108.08 37 L
S
GR
GS
[0.75 0 0 0.75 73.2 333.75] CT
0.494 0.184 0.557 RC
/Helvetica 18.667 F
GS
[1 0 0 1 0 0] CT
-27 7 moveto 
1 -1 scale
(-50) t 
GR
GR
GS
[0.75 0 0 0.75 73.2 290.03572] CT
0.494 0.184 0.557 RC
/Helvetica 18.667 F
GS
[1 0 0 1 0 0] CT
-11 7 moveto 
1 -1 scale
(0) t 
GR
GR
GS
[0.75 0 0 0.75 73.2 246.32142] CT
0.494 0.184 0.557 RC
/Helvetica 18.667 F
GS
[1 0 0 1 0 0] CT
-21 7 moveto 
1 -1 scale
(50) t 
GR
GR
GS
[0.75 0 0 0.75 73.2 202.60714] CT
0.494 0.184 0.557 RC
/Helvetica 18.667 F
GS
[1 0 0 1 0 0] CT
-32 7 moveto 
1 -1 scale
(100) t 
GR
GR
GS
[0.75 0 0 0.75 73.2 158.89286] CT
0.494 0.184 0.557 RC
/Helvetica 18.667 F
GS
[1 0 0 1 0 0] CT
-32 7 moveto 
1 -1 scale
(150) t 
GR
GR
GS
[0.75 0 0 0.75 73.2 115.17857] CT
0.494 0.184 0.557 RC
/Helvetica 18.667 F
GS
[1 0 0 1 0 0] CT
-32 7 moveto 
1 -1 scale
(200) t 
GR
GR
GS
[0.75 0 0 0.75 73.2 71.46428] CT
0.494 0.184 0.557 RC
/Helvetica 18.667 F
GS
[1 0 0 1 0 0] CT
-32 7 moveto 
1 -1 scale
(250) t 
GR
GR
GS
[0.75 0 0 0.75 73.2 27.75] CT
0.494 0.184 0.557 RC
/Helvetica 18.667 F
GS
[1 0 0 1 0 0] CT
-32 7 moveto 
1 -1 scale
(300) t 
GR
GR
GS
[0 -0.75 0.75 0 36 207.75] CT
0.494 0.184 0.557 RC
/Helvetica 20.533 F
GS
[1 0 0 1 0 0] CT
0 0 moveto 
1 -1 scale
(P) t 
GR
GR
GS
[0 -0.75 0.75 0 43.5 197.25] CT
0.494 0.184 0.557 RC
/Helvetica 16.427 F
GS
[1 0 0 1 0 0] CT
0 0 moveto 
1 -1 scale
(s) t 
GR
GR
GS
[0 -0.75 0.75 0 43.5 190.5] CT
0.494 0.184 0.557 RC
/Helvetica 16.427 F
GS
[1 0 0 1 0 0] CT
0 0 moveto 
1 -1 scale
(w) t 
GR
GR
GS
[0 -0.75 0.75 0 36 181.5] CT
0.494 0.184 0.557 RC
/Helvetica 20.533 F
GS
[1 0 0 1 0 0] CT
0 0 moveto 
1 -1 scale
( / W) t 
GR
GR
GS
[0.75 0 0 0.75 0 0] CT
0.941 GC
N
724 445 M
732 445 L
732 37 L
724 37 L
cp
f
GR
GS
[0.75 0 0 0.75 0 0] CT
0.149 GC
2 setlinecap
1 LJ
0.667 LW
N
724 445 M
732 445 L
S
GR
GS
[0.75 0 0 0.75 0 0] CT
0.467 0.675 0.188 RC
2 setlinecap
1 LJ
0.667 LW
N
732 445 M
732 37 L
S
GR
GS
[0.75 0 0 0.75 0 0] CT
0.467 0.675 0.188 RC
2 setlinecap
1 LJ
0.667 LW
N
732 445 M
727.92 445 L
S
GR
GS
[0.75 0 0 0.75 0 0] CT
0.467 0.675 0.188 RC
2 setlinecap
1 LJ
0.667 LW
N
732 377 M
727.92 377 L
S
GR
GS
[0.75 0 0 0.75 0 0] CT
0.467 0.675 0.188 RC
2 setlinecap
1 LJ
0.667 LW
N
732 309 M
727.92 309 L
S
GR
GS
[0.75 0 0 0.75 0 0] CT
0.467 0.675 0.188 RC
2 setlinecap
1 LJ
0.667 LW
N
732 241 M
727.92 241 L
S
GR
GS
[0.75 0 0 0.75 0 0] CT
0.467 0.675 0.188 RC
2 setlinecap
1 LJ
0.667 LW
N
732 173 M
727.92 173 L
S
GR
GS
[0.75 0 0 0.75 0 0] CT
0.467 0.675 0.188 RC
2 setlinecap
1 LJ
0.667 LW
N
732 105 M
727.92 105 L
S
GR
GS
[0.75 0 0 0.75 0 0] CT
0.467 0.675 0.188 RC
2 setlinecap
1 LJ
0.667 LW
N
732 37 M
727.92 37 L
S
GR
GS
[0.75 0 0 0.75 553.80002 333.75] CT
0.467 0.675 0.188 RC
/Helvetica 18.667 F
GS
[1 0 0 1 0 0] CT
0 7 moveto 
1 -1 scale
(0) t 
GR
GR
GS
[0.75 0 0 0.75 553.80002 282.75] CT
0.467 0.675 0.188 RC
/Helvetica 18.667 F
GS
[1 0 0 1 0 0] CT
0 7 moveto 
1 -1 scale
(5) t 
GR
GR
GS
[0.75 0 0 0.75 553.80002 231.75] CT
0.467 0.675 0.188 RC
/Helvetica 18.667 F
GS
[1 0 0 1 0 0] CT
0 7 moveto 
1 -1 scale
(10) t 
GR
GR
GS
[0.75 0 0 0.75 553.80002 180.75] CT
0.467 0.675 0.188 RC
/Helvetica 18.667 F
GS
[1 0 0 1 0 0] CT
0 7 moveto 
1 -1 scale
(15) t 
GR
GR
GS
[0.75 0 0 0.75 553.80002 129.75] CT
0.467 0.675 0.188 RC
/Helvetica 18.667 F
GS
[1 0 0 1 0 0] CT
0 7 moveto 
1 -1 scale
(20) t 
GR
GR
GS
[0.75 0 0 0.75 553.80002 78.75] CT
0.467 0.675 0.188 RC
/Helvetica 18.667 F
GS
[1 0 0 1 0 0] CT
0 7 moveto 
1 -1 scale
(25) t 
GR
GR
GS
[0.75 0 0 0.75 553.80002 27.75] CT
0.467 0.675 0.188 RC
/Helvetica 18.667 F
GS
[1 0 0 1 0 0] CT
0 7 moveto 
1 -1 scale
(30) t 
GR
GR
GS
[0 -0.75 0.75 0 588 210] CT
0.467 0.675 0.188 RC
/Helvetica 20.533 F
GS
[1 0 0 1 0 0] CT
0 0 moveto 
1 -1 scale
(E) t 
GR
GR
GS
[0 -0.75 0.75 0 595.5 199.5] CT
0.467 0.675 0.188 RC
/Helvetica 16.427 F
GS
[1 0 0 1 0 0] CT
0 0 moveto 
1 -1 scale
(s) t 
GR
GR
GS
[0 -0.75 0.75 0 595.5 192.75] CT
0.467 0.675 0.188 RC
/Helvetica 16.427 F
GS
[1 0 0 1 0 0] CT
0 0 moveto 
1 -1 scale
(w) t 
GR
GR
GS
[0 -0.75 0.75 0 588 183.75] CT
0.467 0.675 0.188 RC
/Helvetica 20.533 F
GS
[1 0 0 1 0 0] CT
0 0 moveto 
1 -1 scale
( / ) t 
GR
GR
GS
[0 -0.75 0.75 0 588 170.25] CT
0.467 0.675 0.188 RC
N
0.578 3.953 M
0.578 3.828 0.609 3.781 QT
3.688 -8.609 L
3.781 -8.906 4.023 -9.094 QT
4.266 -9.281 4.578 -9.281 QT
4.844 -9.281 5.023 -9.125 QT
5.203 -8.969 5.203 -8.703 QT
5.203 -8.641 5.203 -8.602 QT
5.203 -8.563 5.188 -8.516 QT
3.953 -3.609 L
3.75 -2.734 3.75 -2.109 QT
3.75 -1.328 4.117 -0.82 QT
4.484 -0.313 5.234 -0.313 QT
6.75 -0.313 7.922 -2.219 QT
7.922 -2.25 7.93 -2.258 QT
7.938 -2.266 7.938 -2.281 QT
9.453 -8.375 L
9.531 -8.656 9.781 -8.852 QT
10.031 -9.047 10.344 -9.047 QT
10.578 -9.047 10.773 -8.883 QT
10.969 -8.719 10.969 -8.453 QT
10.969 -8.344 10.938 -8.297 QT
9.438 -2.25 L
9.281 -1.656 9.281 -1.219 QT
9.281 -0.313 9.891 -0.313 QT
10.547 -0.313 10.883 -1.125 QT
11.219 -1.938 11.469 -3.094 QT
11.5 -3.203 11.641 -3.203 QT
11.891 -3.203 L
11.969 -3.203 12.023 -3.141 QT
12.078 -3.078 12.078 -3 QT
11.703 -1.531 11.273 -0.648 QT
10.844 0.234 9.859 0.234 QT
9.156 0.234 8.617 -0.164 QT
8.078 -0.563 7.922 -1.234 QT
7.391 -0.578 6.688 -0.172 QT
5.984 0.234 5.203 0.234 QT
3.891 0.234 3.141 -0.375 QT
2.078 3.859 L
2.016 4.156 1.773 4.344 QT
1.531 4.531 1.219 4.531 QT
0.969 4.531 0.773 4.375 QT
0.578 4.219 0.578 3.953 QT
cp
f
GR
GS
[0 -0.75 0.75 0 588 160.5] CT
0.467 0.675 0.188 RC
/Helvetica 20.533 F
GS
[1 0 0 1 0 0] CT
0 0 moveto 
1 -1 scale
(J) t 
GR
GR
GS
[0.75 0 0 0.75 0 0] CT
1 GC
N
178 445 M
650 445 L
650 37 L
178 37 L
cp
f
GR
GS
[0.75 0 0 0.75 0 0] CT
0.873 GC
1 LJ
0.667 LW
N
178 445 M
178 37 L
S
GR
GS
[0.75 0 0 0.75 0 0] CT
0.873 GC
1 LJ
0.667 LW
N
241.646 445 M
241.646 37 L
S
GR
GS
[0.75 0 0 0.75 0 0] CT
0.873 GC
1 LJ
0.667 LW
N
305.292 445 M
305.292 37 L
S
GR
GS
[0.75 0 0 0.75 0 0] CT
0.873 GC
1 LJ
0.667 LW
N
368.939 445 M
368.939 37 L
S
GR
GS
[0.75 0 0 0.75 0 0] CT
0.873 GC
1 LJ
0.667 LW
N
432.585 445 M
432.585 37 L
S
GR
GS
[0.75 0 0 0.75 0 0] CT
0.873 GC
1 LJ
0.667 LW
N
496.231 445 M
496.231 37 L
S
GR
GS
[0.75 0 0 0.75 0 0] CT
0.873 GC
1 LJ
0.667 LW
N
559.877 445 M
559.877 37 L
S
GR
GS
[0.75 0 0 0.75 0 0] CT
0.873 GC
1 LJ
0.667 LW
N
623.523 445 M
623.523 37 L
S
GR
GS
[0.75 0 0 0.75 0 0] CT
0.873 GC
1 LJ
0.667 LW
N
650 445 M
178 445 L
S
GR
GS
[0.75 0 0 0.75 0 0] CT
0.873 GC
1 LJ
0.667 LW
N
650 386.714 M
178 386.714 L
S
GR
GS
[0.75 0 0 0.75 0 0] CT
0.873 GC
1 LJ
0.667 LW
N
650 328.429 M
178 328.429 L
S
GR
GS
[0.75 0 0 0.75 0 0] CT
0.873 GC
1 LJ
0.667 LW
N
650 270.143 M
178 270.143 L
S
GR
GS
[0.75 0 0 0.75 0 0] CT
0.873 GC
1 LJ
0.667 LW
N
650 211.857 M
178 211.857 L
S
GR
GS
[0.75 0 0 0.75 0 0] CT
0.873 GC
1 LJ
0.667 LW
N
650 153.571 M
178 153.571 L
S
GR
GS
[0.75 0 0 0.75 0 0] CT
0.873 GC
1 LJ
0.667 LW
N
650 95.286 M
178 95.286 L
S
GR
GS
[0.75 0 0 0.75 0 0] CT
0.873 GC
1 LJ
0.667 LW
N
650 37 M
178 37 L
S
GR
GS
[0.75 0 0 0.75 0 0] CT
0.149 GC
2 setlinecap
1 LJ
0.667 LW
N
178 445 M
650 445 L
S
GR
GS
[0.75 0 0 0.75 0 0] CT
0.149 GC
2 setlinecap
1 LJ
0.667 LW
N
178 445 M
178 440.28 L
S
GR
GS
[0.75 0 0 0.75 0 0] CT
0.149 GC
2 setlinecap
1 LJ
0.667 LW
N
241.646 445 M
241.646 440.28 L
S
GR
GS
[0.75 0 0 0.75 0 0] CT
0.149 GC
2 setlinecap
1 LJ
0.667 LW
N
305.292 445 M
305.292 440.28 L
S
GR
GS
[0.75 0 0 0.75 0 0] CT
0.149 GC
2 setlinecap
1 LJ
0.667 LW
N
368.939 445 M
368.939 440.28 L
S
GR
GS
[0.75 0 0 0.75 0 0] CT
0.149 GC
2 setlinecap
1 LJ
0.667 LW
N
432.585 445 M
432.585 440.28 L
S
GR
GS
[0.75 0 0 0.75 0 0] CT
0.149 GC
2 setlinecap
1 LJ
0.667 LW
N
496.231 445 M
496.231 440.28 L
S
GR
GS
[0.75 0 0 0.75 0 0] CT
0.149 GC
2 setlinecap
1 LJ
0.667 LW
N
559.877 445 M
559.877 440.28 L
S
GR
GS
[0.75 0 0 0.75 0 0] CT
0.149 GC
2 setlinecap
1 LJ
0.667 LW
N
623.523 445 M
623.523 440.28 L
S
GR
GS
[0.75 0 0 0.75 133.5 338.55] CT
0.149 GC
/Helvetica 18.667 F
GS
[1 0 0 1 0 0] CT
-5.5 19 moveto 
1 -1 scale
(0) t 
GR
GR
GS
[0.75 0 0 0.75 181.23462 338.55] CT
0.149 GC
/Helvetica 18.667 F
GS
[1 0 0 1 0 0] CT
-10.5 19 moveto 
1 -1 scale
(50) t 
GR
GR
GS
[0.75 0 0 0.75 228.96925 338.55] CT
0.149 GC
/Helvetica 18.667 F
GS
[1 0 0 1 0 0] CT
-16 19 moveto 
1 -1 scale
(100) t 
GR
GR
GS
[0.75 0 0 0.75 276.70388 338.55] CT
0.149 GC
/Helvetica 18.667 F
GS
[1 0 0 1 0 0] CT
-16 19 moveto 
1 -1 scale
(150) t 
GR
GR
GS
[0.75 0 0 0.75 324.43851 338.55] CT
0.149 GC
/Helvetica 18.667 F
GS
[1 0 0 1 0 0] CT
-16 19 moveto 
1 -1 scale
(200) t 
GR
GR
GS
[0.75 0 0 0.75 372.17315 338.55] CT
0.149 GC
/Helvetica 18.667 F
GS
[1 0 0 1 0 0] CT
-16 19 moveto 
1 -1 scale
(250) t 
GR
GR
GS
[0.75 0 0 0.75 419.90776 338.55] CT
0.149 GC
/Helvetica 18.667 F
GS
[1 0 0 1 0 0] CT
-16 19 moveto 
1 -1 scale
(300) t 
GR
GR
GS
[0.75 0 0 0.75 467.6424 338.55] CT
0.149 GC
/Helvetica 18.667 F
GS
[1 0 0 1 0 0] CT
-16 19 moveto 
1 -1 scale
(350) t 
GR
GR
GS
[0.75 0 0 0.75 310.50016 357.55] CT
0.149 GC
/Helvetica 20.533 F
GS
[1 0 0 1 0 0] CT
-42.5 21 moveto 
1 -1 scale
(Time / ns) t 
GR
GR
GS
[0.75 0 0 0.75 0 0] CT
0.149 GC
2 setlinecap
1 LJ
0.667 LW
N
178 445 M
178 37 L
S
GR
GS
[0.75 0 0 0.75 0 0] CT
0.149 GC
2 setlinecap
1 LJ
0.667 LW
N
178 445 M
182.72 445 L
S
GR
GS
[0.75 0 0 0.75 0 0] CT
0.149 GC
2 setlinecap
1 LJ
0.667 LW
N
178 386.714 M
182.72 386.714 L
S
GR
GS
[0.75 0 0 0.75 0 0] CT
0.149 GC
2 setlinecap
1 LJ
0.667 LW
N
178 328.429 M
182.72 328.429 L
S
GR
GS
[0.75 0 0 0.75 0 0] CT
0.149 GC
2 setlinecap
1 LJ
0.667 LW
N
178 270.143 M
182.72 270.143 L
S
GR
GS
[0.75 0 0 0.75 0 0] CT
0.149 GC
2 setlinecap
1 LJ
0.667 LW
N
178 211.857 M
182.72 211.857 L
S
GR
GS
[0.75 0 0 0.75 0 0] CT
0.149 GC
2 setlinecap
1 LJ
0.667 LW
N
178 153.571 M
182.72 153.571 L
S
GR
GS
[0.75 0 0 0.75 0 0] CT
0.149 GC
2 setlinecap
1 LJ
0.667 LW
N
178 95.286 M
182.72 95.286 L
S
GR
GS
[0.75 0 0 0.75 0 0] CT
0.149 GC
2 setlinecap
1 LJ
0.667 LW
N
178 37 M
182.72 37 L
S
GR
GS
[0.75 0 0 0.75 128.7 333.75] CT
0.149 GC
/Helvetica 18.667 F
GS
[1 0 0 1 0 0] CT
-27 7 moveto 
1 -1 scale
(-10) t 
GR
GR
GS
[0.75 0 0 0.75 128.7 290.03572] CT
0.149 GC
/Helvetica 18.667 F
GS
[1 0 0 1 0 0] CT
-11 7 moveto 
1 -1 scale
(0) t 
GR
GR
GS
[0.75 0 0 0.75 128.7 246.32142] CT
0.149 GC
/Helvetica 18.667 F
GS
[1 0 0 1 0 0] CT
-21 7 moveto 
1 -1 scale
(10) t 
GR
GR
GS
[0.75 0 0 0.75 128.7 202.60714] CT
0.149 GC
/Helvetica 18.667 F
GS
[1 0 0 1 0 0] CT
-21 7 moveto 
1 -1 scale
(20) t 
GR
GR
GS
[0.75 0 0 0.75 128.7 158.89286] CT
0.149 GC
/Helvetica 18.667 F
GS
[1 0 0 1 0 0] CT
-21 7 moveto 
1 -1 scale
(30) t 
GR
GR
GS
[0.75 0 0 0.75 128.7 115.17857] CT
0.149 GC
/Helvetica 18.667 F
GS
[1 0 0 1 0 0] CT
-21 7 moveto 
1 -1 scale
(40) t 
GR
GR
GS
[0.75 0 0 0.75 128.7 71.46428] CT
0.149 GC
/Helvetica 18.667 F
GS
[1 0 0 1 0 0] CT
-21 7 moveto 
1 -1 scale
(50) t 
GR
GR
GS
[0.75 0 0 0.75 128.7 27.75] CT
0.149 GC
/Helvetica 18.667 F
GS
[1 0 0 1 0 0] CT
-21 7 moveto 
1 -1 scale
(60) t 
GR
GR
GS
[0 -0.75 0.75 0 95.25 206.25] CT
0.149 GC
/Helvetica 20.533 F
GS
[1 0 0 1 0 0] CT
0 0 moveto 
1 -1 scale
(V) t 
GR
GR
GS
[0 -0.75 0.75 0 102.75 195.75] CT
0.149 GC
/Helvetica 16.427 F
GS
[1 0 0 1 0 0] CT
0 0 moveto 
1 -1 scale
(D) t 
GR
GR
GS
[0 -0.75 0.75 0 102.75 186.75] CT
0.149 GC
/Helvetica 16.427 F
GS
[1 0 0 1 0 0] CT
0 0 moveto 
1 -1 scale
(S) t 
GR
GR
GS
[0 -0.75 0.75 0 95.25 178.5] CT
0.149 GC
/Helvetica 20.533 F
GS
[1 0 0 1 0 0] CT
0 0 moveto 
1 -1 scale
( / V) t 
GR
GR
GS
[0.75 0 0 0.75 0 0] CT
0.851 0.325 0.098 RC
1 LJ
2 LW
N
177.944 390.799 M
178 390.794 L
178.509 390.817 L
179.018 390.794 L
179.528 390.794 L
180.037 390.793 L
180.546 390.794 L
181.055 390.77 L
181.564 390.747 L
182.073 390.77 L
182.583 390.793 L
183.092 390.793 L
183.601 390.77 L
184.11 390.77 L
184.619 390.77 L
185.128 390.77 L
185.638 390.77 L
186.147 390.793 L
186.656 390.793 L
187.165 390.793 L
187.674 390.817 L
188.183 390.817 L
188.693 390.793 L
189.202 390.77 L
189.711 390.793 L
190.22 390.817 L
190.729 390.817 L
191.238 390.84 L
191.748 390.84 L
192.257 390.817 L
192.766 390.794 L
193.275 390.84 L
193.784 390.817 L
194.293 390.794 L
194.803 390.817 L
195.312 390.794 L
195.821 390.771 L
196.33 390.724 L
196.839 390.701 L
197.348 390.724 L
197.858 390.701 L
198.367 390.654 L
198.876 390.654 L
199.385 390.631 L
199.894 390.654 L
200.403 390.678 L
200.913 390.678 L
201.422 390.701 L
201.931 390.701 L
202.44 390.701 L
202.949 390.655 L
203.458 390.678 L
203.968 390.678 L
204.477 390.654 L
204.986 390.654 L
205.495 390.608 L
206.004 390.631 L
206.513 390.631 L
207.023 390.631 L
207.532 390.631 L
208.041 390.608 L
208.55 390.631 L
209.059 390.654 L
209.568 390.631 L
210.078 390.608 L
210.587 390.631 L
211.096 390.631 L
211.605 390.655 L
212.114 390.655 L
212.624 390.655 L
213.133 390.655 L
213.642 390.678 L
214.151 390.701 L
214.66 390.725 L
215.169 390.678 L
215.679 390.678 L
216.188 390.701 L
216.697 390.678 L
217.206 390.655 L
217.715 390.631 L
218.224 390.608 L
218.734 390.608 L
219.243 390.585 L
219.752 390.608 L
220.261 390.631 L
220.77 390.678 L
221.279 390.678 L
221.789 390.678 L
222.298 390.701 L
222.807 390.701 L
223.316 390.725 L
223.825 390.748 L
224.334 390.748 L
224.844 390.748 L
225.353 390.748 L
225.862 390.771 L
226.371 390.748 L
226.88 390.748 L
227.389 390.771 L
227.899 390.748 L
228.408 390.771 L
228.917 390.771 L
229.426 390.748 L
229.935 390.748 L
230.444 390.748 L
230.954 390.748 L
231.463 390.771 L
231.972 390.771 L
232.481 390.724 L
232.99 390.724 L
233.499 390.724 L
234.009 390.724 L
234.518 390.724 L
235.027 390.748 L
235.536 390.748 L
236.045 390.748 L
236.554 390.724 L
237.064 390.701 L
237.573 390.701 L
238.082 390.678 L
238.591 390.701 L
239.1 390.701 L
239.609 390.724 L
240.119 390.701 L
240.628 390.724 L
241.137 390.724 L
241.646 390.724 L
242.155 390.701 L
242.665 390.678 L
243.174 390.701 L
243.683 390.678 L
244.192 390.701 L
244.701 390.725 L
245.21 390.725 L
245.72 390.701 L
246.229 390.701 L
246.738 390.701 L
247.247 390.678 L
247.756 390.655 L
248.265 390.655 L
248.775 390.678 L
249.284 390.678 L
249.793 390.678 L
250.302 390.678 L
250.811 390.701 L
251.32 390.701 L
251.83 390.701 L
252.339 390.678 L
252.848 390.678 L
253.357 390.654 L
253.866 390.654 L
254.375 390.631 L
254.885 390.631 L
255.394 390.678 L
255.903 390.701 L
256.412 390.701 L
256.921 390.701 L
257.43 390.701 L
257.94 390.724 L
258.449 390.747 L
258.958 390.747 L
259.467 390.771 L
259.976 390.794 L
260.485 390.771 L
260.995 390.771 L
261.504 390.794 L
262.013 390.794 L
262.522 390.794 L
263.031 390.841 L
263.54 390.817 L
264.05 390.817 L
264.559 390.771 L
265.068 390.771 L
265.577 390.794 L
266.086 390.794 L
266.595 390.771 L
267.105 390.771 L
267.614 390.771 L
268.123 390.771 L
268.632 390.748 L
269.141 390.724 L
269.65 390.701 L
270.16 390.748 L
270.669 390.748 L
271.178 390.748 L
271.687 390.771 L
272.196 390.794 L
272.706 390.794 L
273.215 390.817 L
273.724 390.864 L
274.233 390.817 L
274.742 390.747 L
275.251 390.608 L
275.761 390.398 L
276.27 390.165 L
276.779 389.908 L
277.288 389.558 L
277.797 389.139 L
278.306 388.696 L
278.816 388.183 L
279.325 387.623 L
279.834 387.11 L
280.343 386.551 L
280.852 385.968 L
281.361 385.338 L
281.871 384.662 L
282.38 384.009 L
282.889 383.333 L
283.398 382.657 L
283.907 382.028 L
284.416 381.421 L
284.926 380.792 L
285.435 380.139 L
285.944 379.51 L
286.453 378.834 L
286.962 378.158 L
287.471 377.481 L
287.981 376.875 L
288.49 376.246 L
288.999 375.64 L
289.508 375.033 L
290.017 374.427 L
290.526 373.821 L
291.036 373.215 L
291.545 372.608 L
292.054 372.026 L
292.563 371.443 L
293.072 370.837 L
293.581 370.231 L
294.091 369.625 L
294.6 369.042 L
295.109 368.412 L
295.618 367.83 L
296.127 367.177 L
296.636 366.594 L
297.146 366.011 L
297.655 365.428 L
298.164 364.799 L
298.673 364.146 L
299.182 363.563 L
299.691 362.933 L
300.201 362.304 L
300.71 361.651 L
301.219 361.068 L
301.728 360.415 L
302.237 359.786 L
302.746 359.133 L
303.256 358.48 L
303.765 357.851 L
304.274 357.245 L
304.783 356.615 L
305.292 356.009 L
305.802 355.379 L
306.311 354.75 L
306.82 354.144 L
307.329 353.537 L
307.838 352.908 L
308.347 352.302 L
308.857 351.696 L
309.366 351.09 L
309.875 350.483 L
310.384 349.854 L
310.893 349.248 L
311.402 348.618 L
311.912 347.989 L
312.421 347.429 L
312.93 346.8 L
313.439 346.194 L
313.948 345.541 L
314.457 344.888 L
314.967 344.259 L
315.476 343.629 L
315.985 343 L
316.494 342.417 L
317.003 341.764 L
317.512 341.158 L
318.022 340.528 L
318.531 339.946 L
319.04 339.339 L
319.549 338.71 L
320.058 338.034 L
320.567 337.404 L
321.077 336.775 L
321.586 336.192 L
322.095 335.563 L
322.604 334.98 L
323.113 334.327 L
323.622 333.721 L
324.132 333.091 L
324.641 332.485 L
325.15 331.925 L
325.659 331.342 L
326.168 330.666 L
326.677 330.037 L
327.187 329.454 L
327.696 328.848 L
328.205 328.218 L
328.714 327.565 L
329.223 326.959 L
329.732 326.353 L
330.242 325.747 L
330.751 325.141 L
331.26 324.511 L
331.769 323.905 L
332.278 323.229 L
332.787 322.623 L
333.297 321.993 L
333.806 321.387 L
334.315 320.781 L
334.824 320.198 L
335.333 319.545 L
335.842 318.916 L
336.352 318.31 L
336.861 317.68 L
337.37 317.098 L
337.879 316.468 L
338.388 315.862 L
338.898 315.256 L
339.407 314.626 L
339.916 313.997 L
340.425 313.391 L
340.934 312.784 L
341.443 312.178 L
341.953 311.549 L
342.462 310.943 L
342.971 310.337 L
343.48 309.754 L
343.989 309.148 L
344.498 308.471 L
345.008 307.889 L
345.517 307.259 L
346.026 306.63 L
346.535 306.047 L
347.044 305.417 L
347.553 304.764 L
348.063 304.135 L
348.572 303.552 L
349.081 302.899 L
349.59 302.247 L
350.099 301.617 L
350.608 301.011 L
351.118 300.358 L
351.627 299.775 L
352.136 299.169 L
352.645 298.586 L
353.154 298.027 L
353.663 297.42 L
354.173 296.768 L
354.682 296.185 L
355.191 295.579 L
355.7 294.949 L
356.209 294.32 L
356.718 293.714 L
357.228 293.061 L
357.737 292.431 L
358.246 291.802 L
358.755 291.219 L
359.264 290.519 L
359.773 289.89 L
360.283 289.26 L
360.792 288.654 L
361.301 288.025 L
361.81 287.395 L
362.319 286.766 L
362.828 286.136 L
363.338 285.507 L
363.847 284.854 L
364.356 284.224 L
364.865 283.618 L
365.374 283.035 L
365.884 282.429 L
366.393 281.823 L
366.902 281.24 L
367.411 280.634 L
367.92 280.004 L
368.429 279.398 L
368.939 278.792 L
369.448 278.186 L
369.957 277.556 L
370.466 276.927 L
370.975 276.274 L
371.484 275.668 L
371.994 275.038 L
372.503 274.409 L
373.012 273.803 L
373.521 273.197 L
374.03 272.59 L
374.539 271.961 L
375.049 271.308 L
375.558 270.702 L
376.067 270.096 L
376.576 269.49 L
377.085 268.884 L
377.594 268.254 L
378.104 267.625 L
378.613 267.018 L
379.122 266.389 L
379.631 265.783 L
380.14 265.153 L
380.649 264.547 L
381.159 263.941 L
381.668 263.358 L
382.177 262.752 L
382.686 262.169 L
383.195 261.516 L
383.704 260.91 L
384.214 260.304 L
384.723 259.721 L
385.232 259.115 L
385.741 258.462 L
386.25 257.809 L
386.759 257.203 L
387.269 256.573 L
387.778 255.944 L
388.287 255.314 L
388.796 254.661 L
389.305 254.055 L
389.814 253.426 L
390.324 252.82 L
390.833 252.213 L
391.342 251.584 L
391.851 250.954 L
392.36 250.301 L
392.869 249.672 L
393.379 249.042 L
393.888 248.459 L
394.397 247.807 L
394.906 247.177 L
395.415 246.548 L
395.924 245.941 L
396.434 245.312 L
396.943 244.706 L
397.452 244.053 L
397.961 243.423 L
398.47 242.817 L
398.98 242.211 L
399.489 241.582 L
399.998 240.952 L
400.507 240.299 L
401.016 239.693 L
401.525 239.064 L
402.035 238.434 L
402.544 237.782 L
403.053 237.199 L
403.562 236.569 L
404.071 235.963 L
404.58 235.357 L
405.09 234.751 L
405.599 234.144 L
406.108 233.562 L
406.617 232.932 L
407.126 232.326 L
407.635 231.65 L
408.145 230.997 L
408.654 230.368 L
409.163 229.761 L
409.672 229.179 L
410.181 228.596 L
410.69 227.99 L
411.2 227.43 L
411.709 226.824 L
412.218 226.241 L
412.727 225.635 L
413.236 224.982 L
413.745 224.376 L
414.255 223.746 L
414.764 223.117 L
415.273 222.534 L
415.782 221.881 L
416.291 221.275 L
416.8 220.692 L
417.31 220.062 L
417.819 219.456 L
418.328 218.804 L
418.837 218.174 L
419.346 217.521 L
419.855 216.892 L
420.365 216.262 L
420.874 215.656 L
421.383 215.003 L
421.892 214.397 L
422.401 213.768 L
422.91 213.138 L
423.42 212.509 L
423.929 211.856 L
424.438 211.25 L
424.947 210.62 L
425.456 209.991 L
425.965 209.384 L
426.475 208.778 L
426.984 208.172 L
427.493 207.566 L
428.002 206.936 L
428.511 206.33 L
429.02 205.677 L
429.53 205.048 L
430.039 204.395 L
430.548 203.766 L
431.057 203.16 L
431.566 202.553 L
432.076 201.9 L
432.585 201.294 L
433.094 200.665 L
433.603 200.059 L
434.112 199.453 L
434.621 198.823 L
435.131 198.17 L
435.64 197.587 L
436.149 196.981 L
436.658 196.352 L
437.167 195.722 L
437.676 195.093 L
438.186 194.463 L
438.695 193.834 L
439.204 193.204 L
439.713 192.598 L
440.222 192.016 L
440.731 191.363 L
441.241 190.733 L
441.75 190.104 L
442.259 189.498 L
442.768 188.868 L
443.277 188.262 L
443.786 187.632 L
444.296 186.98 L
444.805 186.35 L
445.314 185.744 L
445.823 185.091 L
446.332 184.485 L
446.841 183.902 L
447.351 183.296 L
447.86 182.643 L
448.369 182.014 L
448.878 181.361 L
449.387 180.708 L
449.896 180.078 L
450.406 179.472 L
450.915 178.843 L
451.424 178.213 L
451.933 177.56 L
452.442 176.954 L
452.951 176.348 L
453.461 175.742 L
453.97 175.136 L
454.479 174.506 L
454.988 173.877 L
455.497 173.224 L
456.006 172.618 L
456.516 171.988 L
457.025 171.359 L
457.534 170.776 L
458.043 170.17 L
458.552 169.54 L
459.061 168.934 L
459.571 168.305 L
460.08 167.698 L
460.589 167.046 L
461.098 166.44 L
461.607 165.833 L
462.117 165.204 L
462.626 164.551 L
463.135 163.921 L
463.644 163.292 L
464.153 162.663 L
464.662 162.033 L
465.172 161.403 L
465.681 160.75 L
466.19 160.098 L
466.699 159.445 L
467.208 158.839 L
467.717 158.186 L
468.227 157.557 L
468.736 156.927 L
469.245 156.298 L
469.754 155.715 L
470.263 155.109 L
470.772 154.456 L
471.282 153.826 L
471.791 153.197 L
472.3 152.567 L
472.809 151.938 L
473.318 151.308 L
473.827 150.726 L
474.337 150.12 L
474.846 149.49 L
475.355 148.861 L
475.864 148.208 L
476.373 147.602 L
476.882 146.902 L
477.392 146.296 L
477.901 145.666 L
478.41 145.014 L
478.919 144.361 L
479.428 143.732 L
479.937 143.102 L
480.447 142.473 L
480.956 141.843 L
481.465 141.214 L
481.974 140.538 L
482.483 139.932 L
482.992 139.279 L
483.502 138.626 L
484.011 138.02 L
484.52 137.39 L
485.029 136.761 L
485.538 136.178 L
486.047 135.525 L
486.557 134.873 L
487.066 134.266 L
487.575 133.614 L
488.084 132.961 L
488.593 132.331 L
489.102 131.748 L
489.612 131.119 L
490.121 130.489 L
490.63 129.883 L
491.139 129.3 L
491.648 128.694 L
492.158 128.088 L
492.667 127.435 L
493.176 126.783 L
493.685 126.153 L
494.194 125.5 L
494.703 124.894 L
495.213 124.218 L
495.722 123.565 L
496.231 122.936 L
496.74 122.33 L
497.249 121.747 L
497.758 121.141 L
498.268 120.488 L
498.777 119.812 L
499.286 119.159 L
499.795 118.529 L
500.304 117.946 L
500.813 117.363 L
501.323 116.757 L
501.832 116.174 L
502.341 115.568 L
502.85 114.962 L
503.359 114.332 L
503.868 113.68 L
504.378 113.05 L
504.887 112.444 L
505.396 111.838 L
505.905 111.208 L
506.414 110.602 L
506.923 109.973 L
507.433 109.366 L
507.942 108.76 L
508.451 108.108 L
508.96 107.501 L
509.469 106.872 L
509.978 106.219 L
510.488 105.59 L
510.997 104.983 L
511.506 104.377 L
512.015 103.724 L
512.524 103.072 L
513.033 102.442 L
513.543 101.813 L
514.052 101.16 L
514.561 100.554 L
515.07 99.924 L
515.579 99.271 L
516.088 98.665 L
516.598 98.036 L
517.107 97.383 L
517.616 96.753 L
518.125 96.124 L
518.634 95.495 L
519.143 94.912 L
519.653 94.282 L
520.162 93.653 L
520.671 93.047 L
521.18 92.44 L
521.689 91.788 L
522.198 91.135 L
522.708 90.528 L
523.217 89.899 L
523.726 89.293 L
524.235 88.663 L
524.744 88.01 L
525.253 87.358 L
525.763 86.728 L
526.272 86.099 L
526.781 85.469 L
527.29 84.84 L
527.799 84.21 L
528.309 83.558 L
528.818 82.998 L
529.327 82.462 L
529.836 81.949 L
530.345 81.529 L
530.854 81.133 L
531.364 80.783 L
531.873 80.527 L
532.382 80.271 L
532.891 80.037 L
533.4 79.898 L
533.909 79.804 L
534.419 79.711 L
534.928 79.641 L
535.437 79.571 L
535.946 79.548 L
536.455 79.571 L
536.964 79.618 L
537.474 79.664 L
537.983 79.711 L
538.492 79.711 L
539.001 79.688 L
539.51 79.687 L
540.019 79.664 L
540.529 79.641 L
541.038 79.688 L
541.547 79.781 L
542.056 79.804 L
542.565 79.804 L
543.074 79.781 L
543.584 79.758 L
544.093 79.734 L
544.602 79.734 L
545.111 79.711 L
545.62 79.664 L
546.129 79.641 L
546.639 79.571 L
547.148 79.524 L
547.657 79.478 L
548.166 79.431 L
548.675 79.408 L
549.184 79.384 L
549.694 79.384 L
550.203 79.361 L
550.712 79.361 L
551.221 79.338 L
551.73 79.314 L
552.24 79.268 L
552.749 79.244 L
553.258 79.268 L
553.767 79.244 L
554.276 79.244 L
554.785 79.245 L
555.294 79.221 L
555.804 79.198 L
556.313 79.221 L
556.822 79.198 L
557.331 79.198 L
557.84 79.174 L
558.349 79.128 L
558.859 79.105 L
559.368 79.081 L
559.877 79.058 L
560.386 79.058 L
560.895 79.058 L
561.405 79.035 L
561.914 79.011 L
562.423 79.011 L
562.932 79.011 L
563.441 79.011 L
563.95 78.988 L
564.46 78.965 L
564.969 78.965 L
565.478 78.965 L
565.987 78.942 L
566.496 78.918 L
567.005 78.895 L
567.515 78.872 L
568.024 78.802 L
568.533 78.825 L
569.042 78.825 L
569.551 78.801 L
570.06 78.802 L
570.57 78.802 L
571.079 78.778 L
571.588 78.825 L
572.097 78.801 L
572.606 78.801 L
573.115 78.755 L
573.625 78.731 L
574.134 78.708 L
574.643 78.731 L
575.152 78.754 L
575.661 78.708 L
576.17 78.661 L
576.68 78.638 L
577.189 78.615 L
577.698 78.638 L
578.207 78.638 L
578.716 78.615 L
579.225 78.568 L
579.735 78.522 L
580.244 78.475 L
580.753 78.498 L
581.262 78.498 L
581.771 78.428 L
582.28 78.405 L
582.79 78.358 L
583.299 78.358 L
583.808 78.335 L
584.317 78.335 L
584.826 78.335 L
585.336 78.312 L
585.845 78.288 L
586.354 78.265 L
586.863 78.288 L
587.372 78.265 L
587.881 78.265 L
588.391 78.242 L
588.9 78.265 L
589.409 78.242 L
589.918 78.265 L
590.427 78.265 L
590.936 78.265 L
591.445 78.288 L
591.955 78.288 L
592.464 78.288 L
592.973 78.265 L
593.482 78.241 L
593.991 78.241 L
594.501 78.218 L
595.01 78.218 L
595.519 78.241 L
596.028 78.195 L
596.537 78.148 L
597.046 78.125 L
597.556 78.125 L
598.065 78.101 L
598.574 78.078 L
599.083 78.101 L
599.592 78.078 L
600.101 78.055 L
600.611 78.055 L
601.12 78.055 L
601.629 78.078 L
602.138 78.125 L
602.647 78.125 L
603.156 78.078 L
603.666 78.101 L
604.175 78.101 L
604.684 78.101 L
605.193 78.078 L
605.702 78.078 L
606.211 78.031 L
606.721 78.008 L
607.23 78.008 L
607.739 77.985 L
608.248 77.938 L
608.757 77.962 L
609.266 77.938 L
609.776 77.938 L
610.285 77.938 L
610.794 77.961 L
611.303 77.938 L
611.812 77.938 L
612.321 77.938 L
612.831 77.892 L
613.34 77.845 L
613.849 77.845 L
614.358 77.845 L
614.867 77.845 L
615.376 77.822 L
615.886 77.798 L
616.395 77.775 L
616.904 77.752 L
617.413 77.752 L
617.922 77.775 L
618.432 77.798 L
618.941 77.775 L
619.45 77.775 L
619.959 77.729 L
620.468 77.752 L
620.977 77.752 L
621.487 77.705 L
621.996 77.659 L
622.505 77.682 L
623.014 77.659 L
623.523 77.635 L
624.032 77.612 L
624.542 77.612 L
625.051 77.635 L
625.56 77.659 L
626.069 77.682 L
626.578 77.705 L
627.087 77.705 L
627.597 77.682 L
628.106 77.659 L
628.615 77.659 L
629.124 77.682 L
629.633 77.682 L
630.142 77.682 L
630.652 77.682 L
631.161 77.659 L
631.67 77.659 L
632.179 77.635 L
632.688 77.635 L
633.197 77.659 L
633.707 77.635 L
634.216 77.612 L
634.725 77.612 L
635.234 77.589 L
635.743 77.565 L
636.252 77.565 L
636.762 77.565 L
637.271 77.495 L
637.78 77.519 L
638.289 77.495 L
638.798 77.472 L
639.307 77.472 L
639.817 77.449 L
640.326 77.449 L
640.835 77.495 L
641.344 77.495 L
641.853 77.472 L
642.362 77.472 L
642.872 77.472 L
643.381 77.495 L
643.89 77.472 L
644.399 77.472 L
644.908 77.495 L
645.417 77.472 L
645.927 77.449 L
646.436 77.449 L
646.945 77.426 L
647.454 77.426 L
647.963 77.426 L
648.472 77.403 L
648.982 77.449 L
649.491 77.426 L
650 77.426 L
650.056 77.423 L
S
GR
GS
[0.75 0 0 0.75 0 0] CT
0.929 0.694 0.125 RC
1 LJ
2 LW
N
177.944 121.869 M
178 121.863 L
178.509 121.785 L
179.018 121.68 L
179.528 121.733 L
180.037 121.68 L
180.546 121.68 L
181.055 121.654 L
181.564 121.654 L
182.073 121.602 L
182.583 121.576 L
183.092 121.576 L
183.601 121.524 L
184.11 121.576 L
184.619 121.576 L
185.128 121.55 L
185.638 121.55 L
186.147 121.602 L
186.656 121.602 L
187.165 121.602 L
187.674 121.576 L
188.183 121.523 L
188.693 121.523 L
189.202 121.497 L
189.711 121.497 L
190.22 121.497 L
190.729 121.445 L
191.238 121.445 L
191.748 121.472 L
192.257 121.446 L
192.766 121.419 L
193.275 121.42 L
193.784 121.393 L
194.293 121.315 L
194.803 121.341 L
195.312 121.289 L
195.821 121.211 L
196.33 121.133 L
196.839 121.106 L
197.348 121.107 L
197.858 121.107 L
198.367 121.054 L
198.876 121.081 L
199.385 121.028 L
199.894 120.976 L
200.403 120.976 L
200.913 121.054 L
201.422 121.081 L
201.931 121.133 L
202.44 121.081 L
202.949 121.029 L
203.458 121.107 L
203.968 121.029 L
204.477 121.055 L
204.986 121.081 L
205.495 121.028 L
206.004 121.055 L
206.513 121.002 L
207.023 120.976 L
207.532 121.002 L
208.041 121.002 L
208.55 121.028 L
209.059 121.002 L
209.568 121.055 L
210.078 121.055 L
210.587 120.976 L
211.096 121.055 L
211.605 121.055 L
212.114 120.95 L
212.624 120.976 L
213.133 121.002 L
213.642 121.029 L
214.151 120.976 L
214.66 120.924 L
215.169 120.898 L
215.679 120.872 L
216.188 120.898 L
216.697 120.82 L
217.206 120.82 L
217.715 120.794 L
218.224 120.767 L
218.734 120.767 L
219.243 120.715 L
219.752 120.715 L
220.261 120.663 L
220.77 120.689 L
221.279 120.741 L
221.789 120.741 L
222.298 120.741 L
222.807 120.767 L
223.316 120.741 L
223.825 120.846 L
224.334 120.872 L
224.844 120.898 L
225.353 120.898 L
225.862 120.95 L
226.371 120.95 L
226.88 120.976 L
227.389 120.95 L
227.899 120.872 L
228.408 120.898 L
228.917 120.872 L
229.426 120.846 L
229.935 120.794 L
230.444 120.872 L
230.954 120.872 L
231.463 120.872 L
231.972 120.872 L
232.481 120.767 L
232.99 120.689 L
233.499 120.637 L
234.009 120.558 L
234.518 120.506 L
235.027 120.454 L
235.536 120.324 L
236.045 120.271 L
236.554 120.402 L
237.064 120.454 L
237.573 120.506 L
238.082 120.454 L
238.591 120.532 L
239.1 120.506 L
239.609 120.532 L
240.119 120.454 L
240.628 120.428 L
241.137 120.376 L
241.646 120.271 L
242.155 120.245 L
242.665 120.219 L
243.174 120.323 L
243.683 120.219 L
244.192 120.245 L
244.701 120.193 L
245.21 120.167 L
245.72 120.063 L
246.229 120.089 L
246.738 120.089 L
247.247 120.036 L
247.756 120.063 L
248.265 120.089 L
248.775 119.984 L
249.284 119.984 L
249.793 119.932 L
250.302 119.932 L
250.811 119.854 L
251.32 119.853 L
251.83 119.879 L
252.339 119.827 L
252.848 119.801 L
253.357 119.749 L
253.866 119.801 L
254.375 119.749 L
254.885 119.749 L
255.394 119.749 L
255.903 119.723 L
256.412 119.723 L
256.921 119.67 L
257.43 119.67 L
257.94 119.644 L
258.449 119.592 L
258.958 119.592 L
259.467 119.644 L
259.976 119.618 L
260.485 119.592 L
260.995 119.566 L
261.504 119.54 L
262.013 119.487 L
262.522 119.488 L
263.031 119.409 L
263.54 119.409 L
264.05 119.435 L
264.559 119.435 L
265.068 119.383 L
265.577 119.383 L
266.086 119.461 L
266.595 119.383 L
267.105 119.435 L
267.614 119.435 L
268.123 119.383 L
268.632 119.462 L
269.141 119.357 L
269.65 119.435 L
270.16 119.357 L
270.669 119.409 L
271.178 119.435 L
271.687 119.409 L
272.196 119.383 L
272.706 119.279 L
273.215 119.331 L
273.724 119.461 L
274.233 119.618 L
274.742 119.749 L
275.251 120.14 L
275.761 120.793 L
276.27 121.707 L
276.779 122.673 L
277.288 123.483 L
277.797 124.005 L
278.306 124.318 L
278.816 124.658 L
279.325 125.258 L
279.834 126.146 L
280.343 127.086 L
280.852 128 L
281.361 128.809 L
281.871 129.462 L
282.38 130.089 L
282.889 130.898 L
283.398 131.76 L
283.907 132.857 L
284.416 133.588 L
284.926 134.267 L
285.435 134.815 L
285.944 134.894 L
286.453 135.155 L
286.962 135.181 L
287.471 135.181 L
287.981 135.181 L
288.49 135.259 L
288.999 135.207 L
289.508 134.945 L
290.017 134.475 L
290.526 133.875 L
291.036 133.3 L
291.545 132.804 L
292.054 132.386 L
292.563 132.073 L
293.072 131.682 L
293.581 131.342 L
294.091 130.924 L
294.6 130.663 L
295.109 130.481 L
295.618 130.585 L
296.127 130.742 L
296.636 131.16 L
297.146 131.421 L
297.655 131.839 L
298.164 132.335 L
298.673 132.909 L
299.182 133.849 L
299.691 134.789 L
300.201 135.703 L
300.71 136.669 L
301.219 137.531 L
301.728 138.497 L
302.237 139.463 L
302.746 140.507 L
303.256 141.526 L
303.765 142.492 L
304.274 143.354 L
304.783 144.111 L
305.292 144.737 L
305.802 145.234 L
306.311 145.703 L
306.82 146.069 L
307.329 146.461 L
307.838 146.722 L
308.347 146.931 L
308.857 147.035 L
309.366 147.088 L
309.875 147.14 L
310.384 147.088 L
310.893 147.088 L
311.402 147.035 L
311.912 147.088 L
312.421 147.088 L
312.93 147.218 L
313.439 147.505 L
313.948 147.819 L
314.457 148.21 L
314.967 148.681 L
315.476 149.281 L
315.985 150.012 L
316.494 150.874 L
317.003 151.762 L
317.512 152.78 L
318.022 153.877 L
318.531 154.921 L
319.04 156.018 L
319.549 157.037 L
320.058 158.107 L
320.567 159.204 L
321.077 160.144 L
321.586 161.136 L
322.095 162.076 L
322.604 162.912 L
323.113 163.721 L
323.622 164.322 L
324.132 164.922 L
324.641 165.445 L
325.15 165.706 L
325.659 165.941 L
326.168 166.097 L
326.677 166.123 L
327.187 166.149 L
327.696 166.202 L
328.205 166.149 L
328.714 166.123 L
329.223 166.228 L
329.732 166.28 L
330.242 166.411 L
330.751 166.646 L
331.26 166.907 L
331.769 167.194 L
332.278 167.612 L
332.787 168.056 L
333.297 168.63 L
333.806 169.335 L
334.315 170.119 L
334.824 170.928 L
335.333 171.816 L
335.842 172.756 L
336.352 173.592 L
336.861 174.479 L
337.37 175.263 L
337.879 175.968 L
338.388 176.647 L
338.898 177.352 L
339.407 177.796 L
339.916 178.24 L
340.425 178.631 L
340.934 178.814 L
341.443 178.971 L
341.953 179.101 L
342.462 179.18 L
342.971 179.128 L
343.48 179.023 L
343.989 179.023 L
344.498 178.997 L
345.008 178.971 L
345.517 178.971 L
346.026 179.101 L
346.535 179.31 L
347.044 179.519 L
347.553 179.676 L
348.063 180.172 L
348.572 180.642 L
349.081 181.112 L
349.59 181.687 L
350.099 182.235 L
350.608 182.836 L
351.118 183.41 L
351.627 183.985 L
352.136 184.507 L
352.645 185.029 L
353.154 185.551 L
353.663 185.995 L
354.173 186.387 L
354.682 186.726 L
355.191 187.092 L
355.7 187.353 L
356.209 187.666 L
356.718 187.901 L
357.228 188.11 L
357.737 188.371 L
358.246 188.58 L
358.755 188.841 L
359.264 189.102 L
359.773 189.442 L
360.283 189.781 L
360.792 190.251 L
361.301 190.878 L
361.81 191.504 L
362.319 192.157 L
362.828 192.914 L
363.338 193.567 L
363.847 194.298 L
364.356 195.081 L
364.865 195.786 L
365.374 196.518 L
365.884 197.223 L
366.393 197.954 L
366.902 198.554 L
367.411 199.129 L
367.92 199.599 L
368.429 200.121 L
368.939 200.513 L
369.448 200.878 L
369.957 201.218 L
370.466 201.427 L
370.975 201.61 L
371.484 201.74 L
371.994 201.949 L
372.503 202.08 L
373.012 202.262 L
373.521 202.445 L
374.03 202.68 L
374.539 203.02 L
375.049 203.333 L
375.558 203.751 L
376.067 204.195 L
376.576 204.639 L
377.085 205.213 L
377.594 205.84 L
378.104 206.441 L
378.613 207.093 L
379.122 207.85 L
379.631 208.608 L
380.14 209.365 L
380.649 210.148 L
381.159 210.984 L
381.668 211.663 L
382.177 212.316 L
382.686 212.89 L
383.195 213.49 L
383.704 213.83 L
384.214 214.274 L
384.723 214.666 L
385.232 215.005 L
385.741 215.188 L
386.25 215.423 L
386.759 215.658 L
387.269 215.919 L
387.778 216.101 L
388.287 216.258 L
388.796 216.467 L
389.305 216.624 L
389.814 216.859 L
390.324 217.094 L
390.833 217.407 L
391.342 217.799 L
391.851 218.138 L
392.36 218.503 L
392.869 218.869 L
393.379 219.417 L
393.888 219.861 L
394.397 220.383 L
394.906 220.932 L
395.415 221.428 L
395.924 221.95 L
396.434 222.472 L
396.943 222.968 L
397.452 223.49 L
397.961 224.013 L
398.47 224.3 L
398.98 224.692 L
399.489 225.057 L
399.998 225.397 L
400.507 225.762 L
401.016 226.102 L
401.525 226.441 L
402.035 226.729 L
402.544 226.964 L
403.053 227.225 L
403.562 227.486 L
404.071 227.747 L
404.58 228.06 L
405.09 228.348 L
405.599 228.687 L
406.108 229.053 L
406.617 229.418 L
407.126 229.784 L
407.635 230.306 L
408.145 230.828 L
408.654 231.403 L
409.163 231.847 L
409.672 232.395 L
410.181 232.97 L
410.69 233.622 L
411.2 234.249 L
411.709 234.876 L
412.218 235.502 L
412.727 236.155 L
413.236 236.834 L
413.745 237.539 L
414.255 238.113 L
414.764 238.792 L
415.273 239.471 L
415.782 240.124 L
416.291 240.672 L
416.8 241.299 L
417.31 241.873 L
417.819 242.396 L
418.328 243.022 L
418.837 243.466 L
419.346 244.093 L
419.855 244.563 L
420.365 245.059 L
420.874 245.607 L
421.383 246.025 L
421.892 246.548 L
422.401 246.991 L
422.91 247.461 L
423.42 247.853 L
423.929 248.271 L
424.438 248.793 L
424.947 249.237 L
425.456 249.655 L
425.965 250.046 L
426.475 250.412 L
426.984 250.856 L
427.493 251.247 L
428.002 251.587 L
428.511 251.952 L
429.02 252.318 L
429.53 252.605 L
430.039 252.997 L
430.548 253.284 L
431.057 253.676 L
431.566 254.015 L
432.076 254.355 L
432.585 254.746 L
433.094 255.138 L
433.603 255.582 L
434.112 255.922 L
434.621 256.392 L
435.131 256.862 L
435.64 257.358 L
436.149 257.828 L
436.658 258.298 L
437.167 258.742 L
437.676 259.186 L
438.186 259.708 L
438.695 260.178 L
439.204 260.726 L
439.713 261.17 L
440.222 261.719 L
440.731 262.084 L
441.241 262.502 L
441.75 262.842 L
442.259 263.181 L
442.768 263.573 L
443.277 263.86 L
443.786 264.147 L
444.296 264.408 L
444.805 264.669 L
445.314 264.957 L
445.823 265.165 L
446.332 265.374 L
446.841 265.687 L
447.351 265.949 L
447.86 266.157 L
448.369 266.445 L
448.878 266.758 L
449.387 267.045 L
449.896 267.411 L
450.406 267.854 L
450.915 268.298 L
451.424 268.742 L
451.933 269.291 L
452.442 269.813 L
452.951 270.387 L
453.461 270.91 L
453.97 271.562 L
454.479 272.111 L
454.988 272.711 L
455.497 273.234 L
456.006 273.756 L
456.516 274.226 L
457.025 274.774 L
457.534 275.349 L
458.043 275.845 L
458.552 276.263 L
459.061 276.759 L
459.571 277.151 L
460.08 277.621 L
460.589 278.064 L
461.098 278.43 L
461.607 278.874 L
462.117 279.213 L
462.626 279.605 L
463.135 279.944 L
463.644 280.258 L
464.153 280.676 L
464.662 281.172 L
465.172 281.72 L
465.681 282.242 L
466.19 282.738 L
466.699 283.313 L
467.208 283.965 L
467.717 284.566 L
468.227 285.141 L
468.736 285.819 L
469.245 286.472 L
469.754 287.203 L
470.263 287.804 L
470.772 288.431 L
471.282 289.11 L
471.791 289.71 L
472.3 290.311 L
472.809 290.885 L
473.318 291.46 L
473.827 292.008 L
474.337 292.478 L
474.846 292.844 L
475.355 293.21 L
475.864 293.497 L
476.373 293.784 L
476.882 294.071 L
477.392 294.28 L
477.901 294.541 L
478.41 294.698 L
478.919 294.933 L
479.428 295.22 L
479.937 295.429 L
480.447 295.69 L
480.956 295.899 L
481.465 296.239 L
481.974 296.604 L
482.483 296.97 L
482.992 297.362 L
483.502 297.727 L
484.011 298.197 L
484.52 298.667 L
485.029 299.111 L
485.538 299.634 L
486.047 300.104 L
486.557 300.678 L
487.066 301.331 L
487.575 301.905 L
488.084 302.401 L
488.593 303.08 L
489.102 303.603 L
489.612 304.099 L
490.121 304.673 L
490.63 305.117 L
491.139 305.535 L
491.648 305.927 L
492.158 306.292 L
492.667 306.658 L
493.176 307.05 L
493.685 307.363 L
494.194 307.702 L
494.703 308.094 L
495.213 308.355 L
495.722 308.669 L
496.231 309.034 L
496.74 309.426 L
497.249 309.765 L
497.758 310.079 L
498.268 310.522 L
498.777 310.862 L
499.286 311.332 L
499.795 311.776 L
500.304 312.272 L
500.813 312.716 L
501.323 313.186 L
501.832 313.76 L
502.341 314.256 L
502.85 314.674 L
503.359 315.248 L
503.868 315.771 L
504.378 316.319 L
504.887 316.815 L
505.396 317.285 L
505.905 317.781 L
506.414 318.199 L
506.923 318.617 L
507.433 319.061 L
507.942 319.531 L
508.451 320.001 L
508.96 320.419 L
509.469 320.863 L
509.978 321.28 L
510.488 321.646 L
510.997 322.011 L
511.506 322.481 L
512.015 322.899 L
512.524 323.317 L
513.033 323.813 L
513.543 324.257 L
514.052 324.701 L
514.561 325.171 L
515.07 325.693 L
515.579 326.111 L
516.088 326.607 L
516.598 327.129 L
517.107 327.625 L
517.616 328.2 L
518.125 328.618 L
518.634 329.114 L
519.143 329.61 L
519.653 330.132 L
520.162 330.55 L
520.671 331.046 L
521.18 331.542 L
521.689 332.012 L
522.198 332.456 L
522.708 332.926 L
523.217 333.37 L
523.726 333.892 L
524.235 334.336 L
524.744 334.754 L
525.253 335.145 L
525.763 335.563 L
526.272 335.955 L
526.781 336.373 L
527.29 336.817 L
527.799 337.183 L
528.309 337.496 L
528.818 337.679 L
529.327 337.914 L
529.836 337.992 L
530.345 337.757 L
530.854 337.183 L
531.364 336.608 L
531.873 336.19 L
532.382 336.112 L
532.891 336.164 L
533.4 336.295 L
533.909 336.138 L
534.419 335.668 L
534.928 335.094 L
535.437 334.624 L
535.946 334.206 L
536.455 333.919 L
536.964 333.762 L
537.474 333.344 L
537.983 332.9 L
538.492 332.247 L
539.001 331.934 L
539.51 331.725 L
540.019 331.568 L
540.529 331.908 L
541.038 332.143 L
541.547 332.587 L
542.056 333.135 L
542.565 333.553 L
543.074 333.945 L
543.584 334.519 L
544.093 335.303 L
544.602 336.243 L
545.111 337.339 L
545.62 338.358 L
546.129 339.35 L
546.639 340.238 L
547.148 340.969 L
547.657 341.83 L
548.166 342.692 L
548.675 343.423 L
549.184 344.154 L
549.694 344.729 L
550.203 345.042 L
550.712 345.199 L
551.221 345.225 L
551.73 345.381 L
552.24 345.303 L
552.749 345.225 L
553.258 344.964 L
553.767 344.468 L
554.276 343.893 L
554.785 343.397 L
555.294 342.901 L
555.804 342.405 L
556.313 341.935 L
556.822 341.465 L
557.331 340.786 L
557.84 340.133 L
558.349 339.637 L
558.859 339.297 L
559.368 338.984 L
559.877 338.827 L
560.386 338.801 L
560.895 338.88 L
561.405 338.906 L
561.914 338.932 L
562.423 339.219 L
562.932 339.506 L
563.441 339.872 L
563.95 340.211 L
564.46 340.682 L
564.969 341.152 L
565.478 341.596 L
565.987 341.987 L
566.496 342.405 L
567.005 342.718 L
567.515 343.006 L
568.024 343.188 L
568.533 343.267 L
569.042 343.24 L
569.551 343.11 L
570.06 342.901 L
570.57 342.535 L
571.079 342.144 L
571.588 341.648 L
572.097 341.073 L
572.606 340.498 L
573.115 339.872 L
573.625 339.297 L
574.134 338.723 L
574.643 338.174 L
575.152 337.547 L
575.661 336.999 L
576.17 336.477 L
576.68 336.007 L
577.189 335.563 L
577.698 335.276 L
578.207 335.093 L
578.716 334.936 L
579.225 334.963 L
579.735 334.989 L
580.244 335.198 L
580.753 335.459 L
581.262 335.85 L
581.771 336.242 L
582.28 336.556 L
582.79 336.947 L
583.299 337.365 L
583.808 337.704 L
584.317 338.018 L
584.826 338.253 L
585.336 338.357 L
585.845 338.488 L
586.354 338.566 L
586.863 338.514 L
587.372 338.409 L
587.881 338.253 L
588.391 337.992 L
588.9 337.678 L
589.409 337.287 L
589.918 336.79 L
590.427 336.425 L
590.936 336.033 L
591.445 335.563 L
591.955 335.302 L
592.464 335.067 L
592.973 334.884 L
593.482 334.675 L
593.991 334.701 L
594.501 334.675 L
595.01 334.753 L
595.519 335.014 L
596.028 335.276 L
596.537 335.589 L
597.046 335.954 L
597.556 336.372 L
598.065 336.868 L
598.574 337.26 L
599.083 337.625 L
599.592 338.069 L
600.101 338.383 L
600.611 338.722 L
601.12 338.853 L
601.629 339.062 L
602.138 339.245 L
602.647 339.218 L
603.156 339.088 L
603.666 339.062 L
604.175 338.879 L
604.684 338.722 L
605.193 338.539 L
605.702 338.357 L
606.211 338.252 L
606.721 338.226 L
607.23 338.148 L
607.739 338.148 L
608.248 338.122 L
608.757 338.174 L
609.266 338.226 L
609.776 338.331 L
610.285 338.54 L
610.794 338.722 L
611.303 338.983 L
611.812 339.192 L
612.321 339.349 L
612.831 339.558 L
613.34 339.793 L
613.849 339.923 L
614.358 340.054 L
614.867 340.158 L
615.376 340.132 L
615.886 340.002 L
616.395 339.767 L
616.904 339.558 L
617.413 339.297 L
617.922 338.957 L
618.432 338.67 L
618.941 338.383 L
619.45 338.148 L
619.959 337.861 L
620.468 337.574 L
620.977 337.313 L
621.487 337.13 L
621.996 336.973 L
622.505 336.869 L
623.014 336.921 L
623.523 336.947 L
624.032 337.104 L
624.542 337.208 L
625.051 337.391 L
625.56 337.6 L
626.069 337.861 L
626.578 338.174 L
627.087 338.409 L
627.597 338.67 L
628.106 338.905 L
628.615 339.062 L
629.124 339.219 L
629.633 339.323 L
630.142 339.323 L
630.652 339.297 L
631.161 339.297 L
631.67 339.14 L
632.179 338.932 L
632.688 338.749 L
633.197 338.487 L
633.707 338.174 L
634.216 337.939 L
634.725 337.626 L
635.234 337.286 L
635.743 336.895 L
636.252 336.686 L
636.762 336.425 L
637.271 336.268 L
637.78 336.164 L
638.289 336.19 L
638.798 336.163 L
639.307 336.216 L
639.817 336.268 L
640.326 336.503 L
640.835 336.659 L
641.344 336.868 L
641.853 337.077 L
642.362 337.339 L
642.872 337.626 L
643.381 337.913 L
643.89 338.174 L
644.399 338.331 L
644.908 338.435 L
645.417 338.566 L
645.927 338.644 L
646.436 338.67 L
646.945 338.723 L
647.454 338.697 L
647.963 338.618 L
648.472 338.645 L
648.982 338.514 L
649.491 338.462 L
650 338.279 L
650.056 338.27 L
S
GR
GS
[0.75 0 0 0.75 0 0] CT
0.494 0.184 0.557 RC
1 LJ
2 LW
N
177.944 398.804 M
178 398.789 L
178.509 398.862 L
179.018 398.798 L
179.528 398.796 L
180.037 398.798 L
180.546 398.798 L
181.055 398.73 L
181.564 398.661 L
182.073 398.733 L
182.583 398.803 L
183.092 398.803 L
183.601 398.737 L
184.11 398.734 L
184.619 398.734 L
185.128 398.735 L
185.638 398.735 L
186.147 398.801 L
186.656 398.801 L
187.165 398.801 L
187.674 398.872 L
188.183 398.875 L
188.693 398.805 L
189.202 398.738 L
189.711 398.807 L
190.22 398.876 L
190.729 398.879 L
191.238 398.948 L
191.748 398.947 L
192.257 398.88 L
192.766 398.812 L
193.275 398.95 L
193.784 398.882 L
194.293 398.817 L
194.803 398.885 L
195.312 398.819 L
195.821 398.754 L
196.33 398.619 L
196.839 398.551 L
197.348 398.621 L
197.858 398.552 L
198.367 398.416 L
198.876 398.415 L
199.385 398.348 L
199.894 398.42 L
200.403 398.489 L
200.913 398.485 L
201.422 398.554 L
201.931 398.551 L
202.44 398.554 L
202.949 398.418 L
203.458 398.484 L
203.968 398.487 L
204.477 398.416 L
204.986 398.415 L
205.495 398.279 L
206.004 398.347 L
206.513 398.349 L
207.023 398.351 L
207.532 398.35 L
208.041 398.28 L
208.55 398.348 L
209.059 398.419 L
209.568 398.347 L
210.078 398.278 L
210.587 398.351 L
211.096 398.348 L
211.605 398.417 L
212.114 398.422 L
212.624 398.42 L
213.133 398.419 L
213.642 398.487 L
214.151 398.559 L
214.66 398.631 L
215.169 398.494 L
215.679 398.495 L
216.188 398.563 L
216.697 398.498 L
217.206 398.428 L
217.715 398.36 L
218.224 398.292 L
218.734 398.292 L
219.243 398.225 L
219.752 398.294 L
220.261 398.366 L
220.77 398.504 L
221.279 398.501 L
221.789 398.501 L
222.298 398.57 L
222.807 398.569 L
223.316 398.64 L
223.825 398.704 L
224.334 398.703 L
224.844 398.701 L
225.353 398.701 L
225.862 398.768 L
226.371 398.699 L
226.88 398.697 L
227.389 398.768 L
227.899 398.703 L
228.408 398.771 L
228.917 398.772 L
229.426 398.704 L
229.935 398.707 L
230.444 398.703 L
230.954 398.702 L
231.463 398.771 L
231.972 398.771 L
232.481 398.638 L
232.99 398.642 L
233.499 398.644 L
234.009 398.648 L
234.518 398.651 L
235.027 398.723 L
235.536 398.73 L
236.045 398.732 L
236.554 398.656 L
237.064 398.584 L
237.573 398.581 L
238.082 398.515 L
238.591 398.58 L
239.1 398.581 L
239.609 398.649 L
240.119 398.584 L
240.628 398.654 L
241.137 398.657 L
241.646 398.662 L
242.155 398.594 L
242.665 398.526 L
243.174 398.591 L
243.683 398.526 L
244.192 398.595 L
244.701 398.667 L
245.21 398.668 L
245.72 398.604 L
246.229 398.603 L
246.738 398.603 L
247.247 398.536 L
247.756 398.465 L
248.265 398.464 L
248.775 398.538 L
249.284 398.538 L
249.793 398.541 L
250.302 398.541 L
250.811 398.614 L
251.32 398.614 L
251.83 398.612 L
252.339 398.545 L
252.848 398.546 L
253.357 398.479 L
253.866 398.476 L
254.375 398.41 L
254.885 398.409 L
255.394 398.548 L
255.903 398.619 L
256.412 398.619 L
256.921 398.622 L
257.43 398.622 L
257.94 398.693 L
258.449 398.765 L
258.958 398.765 L
259.467 398.832 L
259.976 398.903 L
260.485 398.834 L
260.995 398.836 L
261.504 398.906 L
262.013 398.909 L
262.522 398.909 L
263.031 399.053 L
263.54 398.983 L
264.05 398.981 L
264.559 398.842 L
265.068 398.845 L
265.577 398.915 L
266.086 398.911 L
266.595 398.845 L
267.105 398.842 L
267.614 398.842 L
268.123 398.845 L
268.632 398.772 L
269.141 398.707 L
269.65 398.633 L
270.16 398.777 L
270.669 398.774 L
271.178 398.773 L
271.687 398.844 L
272.196 398.915 L
272.706 398.92 L
273.215 398.987 L
273.724 399.119 L
274.233 398.972 L
274.742 398.757 L
275.251 398.321 L
275.761 397.665 L
276.27 396.934 L
276.779 396.136 L
277.288 395.076 L
277.797 393.827 L
278.306 392.52 L
278.816 391.011 L
279.325 389.367 L
279.834 387.866 L
280.343 386.241 L
280.852 384.561 L
281.361 382.758 L
281.871 380.831 L
282.38 378.98 L
282.889 377.081 L
283.398 375.197 L
283.907 373.473 L
284.416 371.808 L
284.926 370.085 L
285.435 368.296 L
285.944 366.54 L
286.453 364.672 L
286.962 362.783 L
287.471 360.892 L
287.981 359.197 L
288.49 357.446 L
288.999 355.744 L
289.508 354.011 L
290.017 352.243 L
290.526 350.448 L
291.036 348.647 L
291.545 346.852 L
292.054 345.13 L
292.563 343.422 L
293.072 341.627 L
293.581 339.838 L
294.091 338.026 L
294.6 336.309 L
295.109 334.473 L
295.618 332.834 L
296.127 331.009 L
296.636 329.45 L
297.146 327.857 L
297.655 326.309 L
298.164 324.656 L
298.673 322.966 L
299.182 321.587 L
299.691 320.089 L
300.201 318.599 L
300.71 317.074 L
301.219 315.726 L
301.728 314.23 L
302.237 312.814 L
302.746 311.375 L
303.256 309.945 L
303.765 308.575 L
304.274 307.245 L
304.783 305.827 L
305.292 304.433 L
305.802 302.937 L
306.311 301.437 L
306.82 299.966 L
307.329 298.511 L
307.838 296.946 L
308.347 295.425 L
308.857 293.861 L
309.366 292.277 L
309.875 290.693 L
310.384 289.001 L
310.893 287.395 L
311.402 285.702 L
311.912 284.058 L
312.421 282.574 L
312.93 280.969 L
313.439 279.506 L
313.948 277.937 L
314.457 276.413 L
314.967 274.998 L
315.476 273.658 L
315.985 272.398 L
316.494 271.342 L
317.003 270.131 L
317.512 269.128 L
318.022 268.124 L
318.531 267.226 L
319.04 266.314 L
319.549 265.313 L
320.058 264.242 L
320.567 263.321 L
321.077 262.321 L
321.586 261.484 L
322.095 260.513 L
322.604 259.604 L
323.113 258.52 L
323.622 257.427 L
324.132 256.286 L
324.641 255.158 L
325.15 253.976 L
325.659 252.723 L
326.168 251.195 L
326.677 249.69 L
327.187 248.3 L
327.696 246.871 L
328.205 245.312 L
328.714 243.715 L
329.223 242.326 L
329.732 240.9 L
330.242 239.534 L
330.751 238.248 L
331.26 236.929 L
331.769 235.691 L
332.278 234.39 L
332.787 233.284 L
333.297 232.232 L
333.806 231.35 L
334.315 230.542 L
334.824 229.821 L
335.333 229.012 L
335.842 228.316 L
336.352 227.6 L
336.861 226.887 L
337.37 226.206 L
337.879 225.361 L
338.388 224.559 L
338.898 223.789 L
339.407 222.746 L
339.916 221.71 L
340.425 220.686 L
340.934 219.479 L
341.443 218.251 L
341.953 216.948 L
342.462 215.652 L
342.971 214.235 L
343.48 212.82 L
343.989 211.451 L
344.498 209.898 L
345.008 208.555 L
345.517 207.133 L
346.026 205.838 L
346.535 204.728 L
347.044 203.516 L
347.553 202.202 L
348.063 201.287 L
348.572 200.458 L
349.081 199.478 L
349.59 198.615 L
350.099 197.785 L
350.608 197.07 L
351.118 196.234 L
351.627 195.56 L
352.136 194.788 L
352.645 194.074 L
353.154 193.418 L
353.663 192.582 L
354.173 191.594 L
354.682 190.707 L
355.191 189.803 L
355.7 188.736 L
356.209 187.733 L
356.718 186.695 L
357.228 185.531 L
357.737 184.48 L
358.246 183.373 L
358.755 182.43 L
359.264 181.242 L
359.773 180.3 L
360.283 179.364 L
360.792 178.639 L
361.301 178.061 L
361.81 177.492 L
362.319 176.966 L
362.828 176.578 L
363.338 176.072 L
363.847 175.626 L
364.356 175.305 L
364.865 174.945 L
365.374 174.677 L
365.884 174.338 L
366.393 174.044 L
366.902 173.638 L
367.411 173.16 L
367.92 172.508 L
368.429 171.978 L
368.939 171.283 L
369.448 170.56 L
369.957 169.76 L
370.466 168.79 L
370.975 167.741 L
371.484 166.718 L
371.994 165.756 L
372.503 164.691 L
373.012 163.745 L
373.521 162.802 L
374.03 161.935 L
374.539 161.173 L
375.049 160.333 L
375.558 159.738 L
376.067 159.186 L
376.576 158.641 L
377.085 158.292 L
377.594 157.981 L
378.104 157.643 L
378.613 157.434 L
379.122 157.345 L
379.631 157.312 L
380.14 157.246 L
380.649 157.274 L
381.159 157.393 L
381.668 157.331 L
382.177 157.195 L
382.686 156.992 L
383.195 156.709 L
383.704 156.119 L
384.214 155.696 L
384.723 155.24 L
385.232 154.666 L
385.741 153.766 L
386.25 152.952 L
386.759 152.225 L
387.269 151.502 L
387.778 150.657 L
388.287 149.773 L
388.796 148.933 L
389.305 148.096 L
389.814 147.348 L
390.324 146.645 L
390.833 146.074 L
391.342 145.597 L
391.851 145.038 L
392.36 144.487 L
392.869 143.983 L
393.379 143.793 L
393.888 143.516 L
394.397 143.257 L
394.906 143.092 L
395.415 142.845 L
395.924 142.691 L
396.434 142.504 L
396.943 142.321 L
397.452 142.11 L
397.961 141.948 L
398.47 141.419 L
398.98 141.079 L
399.489 140.66 L
399.998 140.199 L
400.507 139.751 L
401.016 139.34 L
401.525 138.896 L
402.035 138.361 L
402.544 137.697 L
403.053 137.201 L
403.562 136.631 L
404.071 136.103 L
404.58 135.677 L
405.09 135.206 L
405.599 134.838 L
406.108 134.561 L
406.617 134.214 L
407.126 133.91 L
407.635 133.796 L
408.145 133.727 L
408.654 133.805 L
409.163 133.679 L
409.672 133.798 L
410.181 133.976 L
410.69 134.277 L
411.2 134.61 L
411.709 134.878 L
412.218 135.192 L
412.727 135.531 L
413.236 135.858 L
413.745 136.321 L
414.255 136.497 L
414.764 136.892 L
415.273 137.368 L
415.782 137.695 L
416.291 137.891 L
416.8 138.289 L
417.31 138.52 L
417.819 138.688 L
418.328 139.01 L
418.837 138.998 L
419.346 139.338 L
419.855 139.396 L
420.365 139.515 L
420.874 139.786 L
421.383 139.722 L
421.892 139.954 L
422.401 139.993 L
422.91 140.095 L
423.42 140.036 L
423.929 140.007 L
424.438 140.275 L
424.947 140.348 L
425.456 140.372 L
425.965 140.378 L
426.475 140.333 L
426.984 140.465 L
427.493 140.489 L
428.002 140.372 L
428.511 140.349 L
429.02 140.269 L
429.53 140.051 L
430.039 140.04 L
430.548 139.832 L
431.057 139.896 L
431.566 139.846 L
432.076 139.74 L
432.585 139.82 L
433.094 139.875 L
433.603 140.087 L
434.112 140.065 L
434.621 140.318 L
435.131 140.548 L
435.64 140.937 L
436.149 141.242 L
436.658 141.524 L
437.167 141.753 L
437.676 141.988 L
438.186 142.414 L
438.695 142.725 L
439.204 143.229 L
439.713 143.523 L
440.222 144.101 L
440.731 144.163 L
441.241 144.385 L
441.75 144.425 L
442.259 144.498 L
442.768 144.674 L
443.277 144.632 L
443.786 144.564 L
444.296 144.409 L
444.805 144.287 L
445.314 144.261 L
445.823 143.989 L
446.332 143.777 L
446.841 143.855 L
447.351 143.781 L
447.86 143.523 L
448.369 143.493 L
448.878 143.506 L
449.387 143.458 L
449.896 143.64 L
450.406 144.054 L
450.915 144.448 L
451.424 144.849 L
451.933 145.497 L
452.442 146.14 L
452.951 146.926 L
453.461 147.585 L
453.97 148.591 L
454.479 149.309 L
454.988 150.171 L
455.497 150.812 L
456.006 151.512 L
456.516 152.057 L
457.025 152.817 L
457.534 153.704 L
458.043 154.366 L
458.552 154.802 L
459.061 155.48 L
459.571 155.86 L
460.08 156.481 L
460.589 156.99 L
461.098 157.342 L
461.607 157.912 L
462.117 158.182 L
462.626 158.575 L
463.135 158.855 L
463.644 159.069 L
464.153 159.575 L
464.662 160.303 L
465.172 161.182 L
465.681 161.974 L
466.19 162.703 L
466.699 163.658 L
467.208 164.886 L
467.717 165.932 L
468.227 166.938 L
468.736 168.246 L
469.245 169.491 L
469.754 171.011 L
470.263 172.15 L
470.772 173.328 L
471.282 174.688 L
471.791 175.834 L
472.3 176.989 L
472.809 178.078 L
473.318 179.176 L
473.827 180.248 L
474.337 181.081 L
474.846 181.597 L
475.355 182.118 L
475.864 182.396 L
476.373 182.718 L
476.882 182.966 L
477.392 183.066 L
477.901 183.304 L
478.41 183.218 L
478.919 183.366 L
479.428 183.694 L
479.937 183.791 L
480.447 184.049 L
480.956 184.153 L
481.465 184.654 L
481.974 185.201 L
482.483 185.81 L
482.992 186.467 L
483.502 187.049 L
484.011 187.994 L
484.52 188.927 L
485.029 189.788 L
485.538 190.932 L
486.047 191.87 L
486.557 193.136 L
487.066 194.689 L
487.575 195.975 L
488.084 197.026 L
488.593 198.671 L
489.102 199.872 L
489.612 200.965 L
490.121 202.311 L
490.63 203.273 L
491.139 204.174 L
491.648 204.983 L
492.158 205.715 L
492.667 206.419 L
493.176 207.214 L
493.685 207.779 L
494.194 208.418 L
494.703 209.261 L
495.213 209.643 L
495.722 210.213 L
496.231 210.972 L
496.74 211.837 L
497.249 212.554 L
497.758 213.175 L
498.268 214.197 L
498.777 214.869 L
499.286 215.989 L
499.795 217.047 L
500.304 218.312 L
500.813 219.412 L
501.323 220.59 L
501.832 222.136 L
502.341 223.416 L
502.85 224.442 L
503.359 225.983 L
503.868 227.346 L
504.378 228.817 L
504.887 230.135 L
505.396 231.372 L
505.905 232.691 L
506.414 233.766 L
506.923 234.835 L
507.433 236.01 L
507.942 237.282 L
508.451 238.536 L
508.96 239.643 L
509.469 240.835 L
509.978 241.93 L
510.488 242.865 L
510.997 243.816 L
511.506 245.135 L
512.015 246.257 L
512.524 247.385 L
513.033 248.804 L
513.543 250.048 L
514.052 251.289 L
514.561 252.65 L
515.07 254.19 L
515.579 255.36 L
516.088 256.835 L
516.598 258.398 L
517.107 259.867 L
517.616 261.633 L
518.125 262.849 L
518.634 264.352 L
519.143 265.881 L
519.653 267.492 L
520.162 268.736 L
520.671 270.277 L
521.18 271.826 L
521.689 273.27 L
522.198 274.626 L
522.708 276.102 L
523.217 277.481 L
523.726 279.162 L
524.235 280.556 L
524.744 281.852 L
525.253 283.06 L
525.763 284.379 L
526.272 285.607 L
526.781 286.937 L
527.29 288.372 L
527.799 289.522 L
528.309 290.476 L
528.818 290.979 L
529.327 291.686 L
529.836 291.819 L
530.345 290.81 L
530.854 288.533 L
531.364 286.267 L
531.873 284.616 L
532.382 284.236 L
532.891 284.355 L
533.4 284.799 L
533.909 284.179 L
534.419 282.379 L
534.928 280.194 L
535.437 278.4 L
535.946 276.819 L
536.455 275.746 L
536.964 275.174 L
537.474 273.619 L
537.983 271.965 L
538.492 269.509 L
539.001 268.321 L
539.51 267.534 L
540.019 266.936 L
540.529 268.205 L
541.038 269.107 L
541.547 270.812 L
542.056 272.884 L
542.565 274.455 L
543.074 275.92 L
543.584 278.073 L
544.093 281.012 L
544.602 284.548 L
545.111 288.667 L
545.62 292.484 L
546.129 296.211 L
546.639 299.532 L
547.148 302.27 L
547.657 305.502 L
548.166 308.734 L
548.675 311.481 L
549.184 314.229 L
549.694 316.392 L
550.203 317.567 L
550.712 318.158 L
551.221 318.251 L
551.73 318.836 L
552.24 318.53 L
552.749 318.23 L
553.258 317.251 L
553.767 315.377 L
554.276 313.212 L
554.785 311.343 L
555.294 309.468 L
555.804 307.592 L
556.313 305.827 L
556.822 304.05 L
557.331 301.491 L
557.84 299.024 L
558.349 297.141 L
558.859 295.854 L
559.368 294.666 L
559.877 294.068 L
560.386 293.97 L
560.895 294.266 L
561.405 294.357 L
561.914 294.449 L
562.423 295.532 L
562.932 296.615 L
563.441 297.994 L
563.95 299.267 L
564.46 301.033 L
564.969 302.806 L
565.478 304.481 L
565.987 305.952 L
566.496 307.521 L
567.005 308.697 L
567.515 309.775 L
568.024 310.447 L
568.533 310.748 L
569.042 310.649 L
569.551 310.151 L
570.06 309.363 L
570.57 307.983 L
571.079 306.499 L
571.588 304.639 L
572.097 302.465 L
572.606 300.297 L
573.115 297.918 L
573.625 295.743 L
574.134 293.567 L
574.643 291.504 L
575.152 289.146 L
575.661 287.062 L
576.17 285.076 L
576.68 283.294 L
577.189 281.61 L
577.698 280.533 L
578.207 279.843 L
578.716 279.244 L
579.225 279.326 L
579.735 279.409 L
580.244 280.182 L
580.753 281.176 L
581.262 282.655 L
581.771 284.112 L
582.28 285.288 L
582.79 286.753 L
583.299 288.331 L
583.808 289.607 L
584.317 290.791 L
584.826 291.679 L
585.336 292.066 L
585.845 292.553 L
586.354 292.842 L
586.863 292.651 L
587.372 292.249 L
587.881 291.657 L
588.391 290.663 L
588.9 289.485 L
589.409 287.998 L
589.918 286.13 L
590.427 284.748 L
590.936 283.267 L
591.445 281.498 L
591.955 280.511 L
592.464 279.623 L
592.973 278.924 L
593.482 278.126 L
593.991 278.224 L
594.501 278.117 L
595.01 278.413 L
595.519 279.408 L
596.028 280.379 L
596.537 281.548 L
597.046 282.922 L
597.556 284.502 L
598.065 286.371 L
598.574 287.845 L
599.083 289.235 L
599.592 290.907 L
600.101 292.085 L
600.611 293.369 L
601.12 293.862 L
601.629 294.66 L
602.138 295.365 L
602.647 295.266 L
603.156 294.758 L
603.666 294.667 L
604.175 293.975 L
604.684 293.382 L
605.193 292.684 L
605.702 291.992 L
606.211 291.583 L
606.721 291.478 L
607.23 291.181 L
607.739 291.174 L
608.248 291.061 L
608.757 291.266 L
609.266 291.456 L
609.776 291.852 L
610.285 292.642 L
610.794 293.34 L
611.303 294.321 L
611.812 295.112 L
612.321 295.705 L
612.831 296.482 L
613.34 297.358 L
613.849 297.852 L
614.358 298.346 L
614.867 298.741 L
615.376 298.635 L
615.886 298.134 L
616.395 297.238 L
616.904 296.441 L
617.413 295.452 L
617.922 294.174 L
618.432 293.094 L
618.941 292 L
619.45 291.11 L
619.959 290.008 L
620.468 288.928 L
620.977 287.939 L
621.487 287.233 L
621.996 286.624 L
622.505 286.236 L
623.014 286.426 L
623.523 286.517 L
624.032 287.103 L
624.542 287.499 L
625.051 288.199 L
625.56 288.997 L
626.069 289.993 L
626.578 291.188 L
627.087 292.078 L
627.597 293.059 L
628.106 293.942 L
628.615 294.536 L
629.124 295.136 L
629.633 295.532 L
630.142 295.532 L
630.652 295.433 L
631.161 295.425 L
631.67 294.832 L
632.179 294.034 L
632.688 293.341 L
633.197 292.36 L
633.707 291.166 L
634.216 290.268 L
634.725 289.081 L
635.234 287.787 L
635.743 286.296 L
636.252 285.505 L
636.762 284.516 L
637.271 283.899 L
637.78 283.511 L
638.289 283.602 L
638.798 283.495 L
639.307 283.693 L
639.817 283.883 L
640.326 284.774 L
640.835 285.382 L
641.344 286.174 L
641.853 286.958 L
642.362 287.948 L
642.872 289.037 L
643.381 290.132 L
643.89 291.115 L
644.399 291.709 L
644.908 292.112 L
645.417 292.6 L
645.927 292.89 L
646.436 292.989 L
646.945 293.18 L
647.454 293.081 L
647.963 292.785 L
648.472 292.877 L
648.982 292.397 L
649.491 292.191 L
650 291.498 L
650.056 291.464 L
S
GR
GS
[0.75 0 0 0.75 0 0] CT
0.467 0.675 0.188 RC
[8 8] 0 setdash
2 LJ
2 LW
N
305.292 445 M
305.802 444.613 L
306.311 444.218 L
306.82 443.817 L
307.329 443.408 L
307.838 442.993 L
308.347 442.571 L
308.857 442.141 L
309.366 441.704 L
309.875 441.26 L
310.384 440.808 L
310.893 440.348 L
311.402 439.88 L
311.912 439.405 L
312.421 438.923 L
312.93 438.433 L
313.439 437.936 L
313.948 437.432 L
314.457 436.921 L
314.967 436.403 L
315.476 435.878 L
315.985 435.348 L
316.494 434.812 L
317.003 434.271 L
317.512 433.724 L
318.022 433.173 L
318.531 432.618 L
319.04 432.058 L
319.549 431.494 L
320.058 430.925 L
320.567 430.351 L
321.077 429.773 L
321.586 429.19 L
322.095 428.604 L
322.604 428.013 L
323.113 427.417 L
323.622 426.816 L
324.132 426.21 L
324.641 425.599 L
325.15 424.982 L
325.659 424.36 L
326.168 423.731 L
326.677 423.095 L
327.187 422.452 L
327.696 421.803 L
328.205 421.147 L
328.714 420.483 L
329.223 419.813 L
329.732 419.135 L
330.242 418.452 L
330.751 417.762 L
331.26 417.066 L
331.769 416.364 L
332.278 415.656 L
332.787 414.943 L
333.297 414.224 L
333.806 413.502 L
334.315 412.775 L
334.824 412.044 L
335.333 411.31 L
335.842 410.572 L
336.352 409.832 L
336.861 409.087 L
337.37 408.34 L
337.879 407.589 L
338.388 406.834 L
338.898 406.076 L
339.407 405.313 L
339.916 404.545 L
340.425 403.773 L
340.934 402.995 L
341.443 402.212 L
341.953 401.423 L
342.462 400.627 L
342.971 399.826 L
343.48 399.018 L
343.989 398.203 L
344.498 397.381 L
345.008 396.553 L
345.517 395.718 L
346.026 394.877 L
346.535 394.031 L
347.044 393.179 L
347.553 392.321 L
348.063 391.457 L
348.572 390.59 L
349.081 389.719 L
349.59 388.843 L
350.099 387.963 L
350.608 387.08 L
351.118 386.193 L
351.627 385.302 L
352.136 384.409 L
352.645 383.511 L
353.154 382.611 L
353.663 381.707 L
354.173 380.798 L
354.682 379.886 L
355.191 378.969 L
355.7 378.048 L
356.209 377.121 L
356.718 376.19 L
357.228 375.254 L
357.737 374.313 L
358.246 373.367 L
358.755 372.415 L
359.264 371.459 L
359.773 370.498 L
360.283 369.533 L
360.792 368.563 L
361.301 367.591 L
361.81 366.616 L
362.319 365.638 L
362.828 364.659 L
363.338 363.677 L
363.847 362.693 L
364.356 361.707 L
364.865 360.72 L
365.374 359.731 L
365.884 358.74 L
366.393 357.749 L
366.902 356.755 L
367.411 355.76 L
367.92 354.762 L
368.429 353.761 L
368.939 352.757 L
369.448 351.75 L
369.957 350.739 L
370.466 349.725 L
370.975 348.705 L
371.484 347.681 L
371.994 346.652 L
372.503 345.619 L
373.012 344.58 L
373.521 343.537 L
374.03 342.491 L
374.539 341.44 L
375.049 340.385 L
375.558 339.327 L
376.067 338.267 L
376.576 337.204 L
377.085 336.139 L
377.594 335.072 L
378.104 334.004 L
378.613 332.934 L
379.122 331.864 L
379.631 330.794 L
380.14 329.723 L
380.649 328.652 L
381.159 327.582 L
381.668 326.511 L
382.177 325.441 L
382.686 324.369 L
383.195 323.296 L
383.704 322.222 L
384.214 321.145 L
384.723 320.065 L
385.232 318.984 L
385.741 317.899 L
386.25 316.81 L
386.759 315.717 L
387.269 314.621 L
387.778 313.522 L
388.287 312.418 L
388.796 311.31 L
389.305 310.199 L
389.814 309.083 L
390.324 307.965 L
390.833 306.843 L
391.342 305.719 L
391.851 304.592 L
392.36 303.463 L
392.869 302.332 L
393.379 301.199 L
393.888 300.064 L
394.397 298.929 L
394.906 297.792 L
395.415 296.655 L
395.924 295.516 L
396.434 294.377 L
396.943 293.237 L
397.452 292.096 L
397.961 290.954 L
398.47 289.811 L
398.98 288.665 L
399.489 287.518 L
399.998 286.369 L
400.507 285.217 L
401.016 284.064 L
401.525 282.908 L
402.035 281.751 L
402.544 280.59 L
403.053 279.427 L
403.562 278.261 L
404.071 277.093 L
404.58 275.922 L
405.09 274.75 L
405.599 273.575 L
406.108 272.399 L
406.617 271.222 L
407.126 270.042 L
407.635 268.862 L
408.145 267.682 L
408.654 266.502 L
409.163 265.321 L
409.672 264.141 L
410.181 262.961 L
410.69 261.782 L
411.2 260.605 L
411.709 259.429 L
412.218 258.254 L
412.727 257.081 L
413.236 255.91 L
413.745 254.74 L
414.255 253.572 L
414.764 252.405 L
415.273 251.241 L
415.782 250.078 L
416.291 248.916 L
416.8 247.756 L
417.31 246.597 L
417.819 245.439 L
418.328 244.283 L
418.837 243.127 L
419.346 241.971 L
419.855 240.817 L
420.365 239.663 L
420.874 238.51 L
421.383 237.358 L
421.892 236.206 L
422.401 235.054 L
422.91 233.903 L
423.42 232.752 L
423.929 231.601 L
424.438 230.45 L
424.947 229.3 L
425.456 228.151 L
425.965 227.001 L
426.475 225.851 L
426.984 224.702 L
427.493 223.553 L
428.002 222.404 L
428.511 221.254 L
429.02 220.104 L
429.53 218.953 L
430.039 217.802 L
430.548 216.651 L
431.057 215.499 L
431.566 214.347 L
432.076 213.194 L
432.585 212.042 L
433.094 210.89 L
433.603 209.739 L
434.112 208.588 L
434.621 207.437 L
435.131 206.288 L
435.64 205.14 L
436.149 203.994 L
436.658 202.849 L
437.167 201.705 L
437.676 200.563 L
438.186 199.422 L
438.695 198.282 L
439.204 197.145 L
439.713 196.009 L
440.222 194.876 L
440.731 193.744 L
441.241 192.612 L
441.75 191.481 L
442.259 190.351 L
442.768 189.221 L
443.277 188.091 L
443.786 186.961 L
444.296 185.831 L
444.805 184.7 L
445.314 183.569 L
445.823 182.437 L
446.332 181.303 L
446.841 180.17 L
447.351 179.036 L
447.86 177.902 L
448.369 176.767 L
448.878 175.632 L
449.387 174.497 L
449.896 173.362 L
450.406 172.229 L
450.915 171.097 L
451.424 169.968 L
451.933 168.84 L
452.442 167.716 L
452.951 166.595 L
453.461 165.478 L
453.97 164.364 L
454.479 163.255 L
454.988 162.149 L
455.497 161.047 L
456.006 159.947 L
456.516 158.851 L
457.025 157.758 L
457.534 156.668 L
458.043 155.582 L
458.552 154.499 L
459.061 153.418 L
459.571 152.34 L
460.08 151.264 L
460.589 150.191 L
461.098 149.12 L
461.607 148.051 L
462.117 146.984 L
462.626 145.918 L
463.135 144.854 L
463.644 143.791 L
464.153 142.73 L
464.662 141.672 L
465.172 140.617 L
465.681 139.567 L
466.19 138.52 L
466.699 137.476 L
467.208 136.438 L
467.717 135.406 L
468.227 134.378 L
468.736 133.355 L
469.245 132.338 L
469.754 131.328 L
470.263 130.324 L
470.772 129.326 L
471.282 128.333 L
471.791 127.346 L
472.3 126.365 L
472.809 125.389 L
473.318 124.418 L
473.827 123.452 L
474.337 122.49 L
474.846 121.532 L
475.355 120.576 L
475.864 119.622 L
476.373 118.669 L
476.882 117.717 L
477.392 116.767 L
477.901 115.817 L
478.41 114.868 L
478.919 113.918 L
479.428 112.97 L
479.937 112.023 L
480.447 111.077 L
480.956 110.131 L
481.465 109.187 L
481.974 108.245 L
482.483 107.306 L
482.992 106.37 L
483.502 105.437 L
484.011 104.508 L
484.52 103.582 L
485.029 102.661 L
485.538 101.745 L
486.047 100.834 L
486.557 99.927 L
487.066 99.028 L
487.575 98.134 L
488.084 97.247 L
488.593 96.365 L
489.102 95.491 L
489.612 94.621 L
490.121 93.758 L
490.63 92.899 L
491.139 92.045 L
491.648 91.195 L
492.158 90.349 L
492.667 89.506 L
493.176 88.666 L
493.685 87.83 L
494.194 86.997 L
494.703 86.166 L
495.213 85.339 L
495.722 84.514 L
496.231 83.692 L
496.74 82.874 L
497.249 82.06 L
497.758 81.248 L
498.268 80.441 L
498.777 79.638 L
499.286 78.838 L
499.795 78.044 L
500.304 77.255 L
500.813 76.472 L
501.323 75.694 L
501.832 74.922 L
502.341 74.157 L
502.85 73.397 L
503.359 72.644 L
503.868 71.897 L
504.378 71.157 L
504.887 70.423 L
505.396 69.695 L
505.905 68.973 L
506.414 68.257 L
506.923 67.546 L
507.433 66.84 L
507.942 66.139 L
508.451 65.445 L
508.96 64.756 L
509.469 64.072 L
509.978 63.394 L
510.488 62.721 L
510.997 62.052 L
511.506 61.388 L
512.015 60.73 L
512.524 60.077 L
513.033 59.43 L
513.543 58.789 L
514.052 58.154 L
514.561 57.526 L
515.07 56.904 L
515.579 56.288 L
516.088 55.678 L
516.598 55.076 L
517.107 54.48 L
517.616 53.893 L
518.125 53.312 L
518.634 52.737 L
519.143 52.17 L
519.653 51.61 L
520.162 51.056 L
520.671 50.509 L
521.18 49.969 L
521.689 49.437 L
522.198 48.91 L
522.708 48.391 L
S
GR
GS
[0.75 0 0 0.75 0 0] CT
1 GC
N
641 217 M
641 100 L
559 100 L
559 217 L
cp
f
GR
GS
[0.75 0 0 0.75 454.5 89.25] CT
/Helvetica 16.8 F
GS
[1 0 0 1 0 0] CT
0 0 moveto 
1 -1 scale
(V) t 
GR
GR
GS
[0.75 0 0 0.75 463.5 95.25] CT
/Helvetica 13.44 F
GS
[1 0 0 1 0 0] CT
0 0 moveto 
1 -1 scale
(D) t 
GR
GR
GS
[0.75 0 0 0.75 471 95.25] CT
/Helvetica 13.44 F
GS
[1 0 0 1 0 0] CT
0 0 moveto 
1 -1 scale
(S) t 
GR
GR
GS
[0.75 0 0 0.75 0 0] CT
0.851 0.325 0.098 RC
1 LJ
2 LW
N
563 115.932 M
603 115.932 L
S
GR
GS
[0.75 0 0 0.75 454.5 110.25] CT
/Helvetica 16.8 F
GS
[1 0 0 1 0 0] CT
0 0 moveto 
1 -1 scale
(I) t 
GR
GR
GS
[0.75 0 0 0.75 458.25 116.25] CT
/Helvetica 13.44 F
GS
[1 0 0 1 0 0] CT
0 0 moveto 
1 -1 scale
(D) t 
GR
GR
GS
[0.75 0 0 0.75 0 0] CT
0.929 0.694 0.125 RC
1 LJ
2 LW
N
563 144.311 M
603 144.311 L
S
GR
GS
[0.75 0 0 0.75 454.5 132] CT
/Helvetica 16.8 F
GS
[1 0 0 1 0 0] CT
0 0 moveto 
1 -1 scale
(P) t 
GR
GR
GS
[0.75 0 0 0.75 463.5 138] CT
/Helvetica 13.44 F
GS
[1 0 0 1 0 0] CT
0 0 moveto 
1 -1 scale
(s) t 
GR
GR
GS
[0.75 0 0 0.75 468.75 138] CT
/Helvetica 13.44 F
GS
[1 0 0 1 0 0] CT
0 0 moveto 
1 -1 scale
(w) t 
GR
GR
GS
[0.75 0 0 0.75 0 0] CT
0.494 0.184 0.557 RC
1 LJ
2 LW
N
563 172.689 M
603 172.689 L
S
GR
GS
[0.75 0 0 0.75 454.5 153] CT
/Helvetica 16.8 F
GS
[1 0 0 1 0 0] CT
0 0 moveto 
1 -1 scale
(E) t 
GR
GR
GS
[0.75 0 0 0.75 463.5 159] CT
/Helvetica 13.44 F
GS
[1 0 0 1 0 0] CT
0 0 moveto 
1 -1 scale
(s) t 
GR
GR
GS
[0.75 0 0 0.75 468.75 159] CT
/Helvetica 13.44 F
GS
[1 0 0 1 0 0] CT
0 0 moveto 
1 -1 scale
(w) t 
GR
GR
GS
[0.75 0 0 0.75 0 0] CT
0.467 0.675 0.188 RC
[8 8] 0 setdash
2 LJ
2 LW
N
563 201.068 M
603 201.068 L
S
GR
GS
[0.75 0 0 0.75 0 0] CT
0.149 GC
10.0 ML
0.667 LW
N
559 217 M
559 100 L
641 100 L
641 217 L
cp
S
GR
%%Trailer
%%Pages: 1
%%EOF
