%!PS-Adobe-3.0 EPSF-3.0
%%Creator: (MATLAB, The Mathworks, Inc. Version 24.1.0.2603908 \(R2024a\) Update 3. Operating System: Windows 10)
%%Title: (C:/Users/lorde/Documents/MATLAB/Master Lab Course/Exercise 3/E3_Rg30_Eoff4.eps)
%%CreationDate: 2024-06-30T10:09:42
%%Pages: (atend)
%%BoundingBox:     0     0   600   375
%%LanguageLevel: 3
%%EndComments
%%BeginProlog
%%BeginResource: procset (Apache XML Graphics Std ProcSet) 1.2 0
%%Version: 1.2 0
%%Copyright: (Copyright 2001-2003,2010 The Apache Software Foundation. License terms: http://www.apache.org/licenses/LICENSE-2.0)
/bd{bind def}bind def
/ld{load def}bd
/GR/grestore ld
/GS/gsave ld
/RM/rmoveto ld
/C/curveto ld
/t/show ld
/L/lineto ld
/ML/setmiterlimit ld
/CT/concat ld
/f/fill ld
/N/newpath ld
/S/stroke ld
/CC/setcmykcolor ld
/A/ashow ld
/cp/closepath ld
/RC/setrgbcolor ld
/LJ/setlinejoin ld
/GC/setgray ld
/LW/setlinewidth ld
/M/moveto ld
/re {4 2 roll M
1 index 0 rlineto
0 exch rlineto
neg 0 rlineto
cp } bd
/_ctm matrix def
/_tm matrix def
/BT { _ctm currentmatrix pop matrix _tm copy pop 0 0 moveto } bd
/ET { _ctm setmatrix } bd
/iTm { _ctm setmatrix _tm concat } bd
/Tm { _tm astore pop iTm 0 0 moveto } bd
/ux 0.0 def
/uy 0.0 def
/F {
  /Tp exch def
  /Tf exch def
  Tf findfont Tp scalefont setfont
  /cf Tf def  /cs Tp def
} bd
/ULS {currentpoint /uy exch def /ux exch def} bd
/ULE {
  /Tcx currentpoint pop def
  gsave
  newpath
  cf findfont cs scalefont dup
  /FontMatrix get 0 get /Ts exch def /FontInfo get dup
  /UnderlinePosition get Ts mul /To exch def
  /UnderlineThickness get Ts mul /Tt exch def
  ux uy To add moveto  Tcx uy To add lineto
  Tt setlinewidth stroke
  grestore
} bd
/OLE {
  /Tcx currentpoint pop def
  gsave
  newpath
  cf findfont cs scalefont dup
  /FontMatrix get 0 get /Ts exch def /FontInfo get dup
  /UnderlinePosition get Ts mul /To exch def
  /UnderlineThickness get Ts mul /Tt exch def
  ux uy To add cs add moveto Tcx uy To add cs add lineto
  Tt setlinewidth stroke
  grestore
} bd
/SOE {
  /Tcx currentpoint pop def
  gsave
  newpath
  cf findfont cs scalefont dup
  /FontMatrix get 0 get /Ts exch def /FontInfo get dup
  /UnderlinePosition get Ts mul /To exch def
  /UnderlineThickness get Ts mul /Tt exch def
  ux uy To add cs 10 mul 26 idiv add moveto Tcx uy To add cs 10 mul 26 idiv add lineto
  Tt setlinewidth stroke
  grestore
} bd
/QT {
/Y22 exch store
/X22 exch store
/Y21 exch store
/X21 exch store
currentpoint
/Y21 load 2 mul add 3 div exch
/X21 load 2 mul add 3 div exch
/X21 load 2 mul /X22 load add 3 div
/Y21 load 2 mul /Y22 load add 3 div
/X22 load /Y22 load curveto
} bd
/SSPD {
dup length /d exch dict def
{
/v exch def
/k exch def
currentpagedevice k known {
/cpdv currentpagedevice k get def
v cpdv ne {
/upd false def
/nullv v type /nulltype eq def
/nullcpdv cpdv type /nulltype eq def
nullv nullcpdv or
{
/upd true def
} {
/sametype v type cpdv type eq def
sametype {
v type /arraytype eq {
/vlen v length def
/cpdvlen cpdv length def
vlen cpdvlen eq {
0 1 vlen 1 sub {
/i exch def
/obj v i get def
/cpdobj cpdv i get def
obj cpdobj ne {
/upd true def
exit
} if
} for
} {
/upd true def
} ifelse
} {
v type /dicttype eq {
v {
/dv exch def
/dk exch def
/cpddv cpdv dk get def
dv cpddv ne {
/upd true def
exit
} if
} forall
} {
/upd true def
} ifelse
} ifelse
} if
} ifelse
upd true eq {
d k v put
} if
} if
} if
} forall
d length 0 gt {
d setpagedevice
} if
} bd
/RE { % /NewFontName [NewEncodingArray] /FontName RE -
  findfont dup length dict begin
  {
    1 index /FID ne
    {def} {pop pop} ifelse
  } forall
  /Encoding exch def
  /FontName 1 index def
  currentdict definefont pop
  end
} bind def
%%EndResource
%%BeginResource: procset (Apache XML Graphics EPS ProcSet) 1.0 0
%%Version: 1.0 0
%%Copyright: (Copyright 2002-2003 The Apache Software Foundation. License terms: http://www.apache.org/licenses/LICENSE-2.0)
/BeginEPSF { %def
/b4_Inc_state save def         % Save state for cleanup
/dict_count countdictstack def % Count objects on dict stack
/op_count count 1 sub def      % Count objects on operand stack
userdict begin                 % Push userdict on dict stack
/showpage { } def              % Redefine showpage, { } = null proc
0 setgray 0 setlinecap         % Prepare graphics state
1 setlinewidth 0 setlinejoin
10 setmiterlimit [ ] 0 setdash newpath
/languagelevel where           % If level not equal to 1 then
{pop languagelevel             % set strokeadjust and
1 ne                           % overprint to their defaults.
{false setstrokeadjust false setoverprint
} if
} if
} bd
/EndEPSF { %def
count op_count sub {pop} repeat            % Clean up stacks
countdictstack dict_count sub {end} repeat
b4_Inc_state restore
} bd
%%EndResource
%FOPBeginFontDict
%%IncludeResource: font Courier-Oblique
%%IncludeResource: font Courier-BoldOblique
%%IncludeResource: font Courier-Bold
%%IncludeResource: font ZapfDingbats
%%IncludeResource: font Symbol
%%IncludeResource: font Helvetica
%%IncludeResource: font Helvetica-Oblique
%%IncludeResource: font Helvetica-Bold
%%IncludeResource: font Helvetica-BoldOblique
%%IncludeResource: font Times-Roman
%%IncludeResource: font Times-Italic
%%IncludeResource: font Times-Bold
%%IncludeResource: font Times-BoldItalic
%%IncludeResource: font Courier
%FOPEndFontDict
%%BeginResource: encoding WinAnsiEncoding
/WinAnsiEncoding [
/.notdef /.notdef /.notdef /.notdef /.notdef
/.notdef /.notdef /.notdef /.notdef /.notdef
/.notdef /.notdef /.notdef /.notdef /.notdef
/.notdef /.notdef /.notdef /.notdef /.notdef
/.notdef /.notdef /.notdef /.notdef /.notdef
/.notdef /.notdef /.notdef /.notdef /.notdef
/.notdef /.notdef /space /exclam /quotedbl
/numbersign /dollar /percent /ampersand /quotesingle
/parenleft /parenright /asterisk /plus /comma
/hyphen /period /slash /zero /one
/two /three /four /five /six
/seven /eight /nine /colon /semicolon
/less /equal /greater /question /at
/A /B /C /D /E
/F /G /H /I /J
/K /L /M /N /O
/P /Q /R /S /T
/U /V /W /X /Y
/Z /bracketleft /backslash /bracketright /asciicircum
/underscore /quoteleft /a /b /c
/d /e /f /g /h
/i /j /k /l /m
/n /o /p /q /r
/s /t /u /v /w
/x /y /z /braceleft /bar
/braceright /asciitilde /bullet /Euro /bullet
/quotesinglbase /florin /quotedblbase /ellipsis /dagger
/daggerdbl /circumflex /perthousand /Scaron /guilsinglleft
/OE /bullet /Zcaron /bullet /bullet
/quoteleft /quoteright /quotedblleft /quotedblright /bullet
/endash /emdash /asciitilde /trademark /scaron
/guilsinglright /oe /bullet /zcaron /Ydieresis
/space /exclamdown /cent /sterling /currency
/yen /brokenbar /section /dieresis /copyright
/ordfeminine /guillemotleft /logicalnot /sfthyphen /registered
/macron /degree /plusminus /twosuperior /threesuperior
/acute /mu /paragraph /middot /cedilla
/onesuperior /ordmasculine /guillemotright /onequarter /onehalf
/threequarters /questiondown /Agrave /Aacute /Acircumflex
/Atilde /Adieresis /Aring /AE /Ccedilla
/Egrave /Eacute /Ecircumflex /Edieresis /Igrave
/Iacute /Icircumflex /Idieresis /Eth /Ntilde
/Ograve /Oacute /Ocircumflex /Otilde /Odieresis
/multiply /Oslash /Ugrave /Uacute /Ucircumflex
/Udieresis /Yacute /Thorn /germandbls /agrave
/aacute /acircumflex /atilde /adieresis /aring
/ae /ccedilla /egrave /eacute /ecircumflex
/edieresis /igrave /iacute /icircumflex /idieresis
/eth /ntilde /ograve /oacute /ocircumflex
/otilde /odieresis /divide /oslash /ugrave
/uacute /ucircumflex /udieresis /yacute /thorn
/ydieresis
] def
%%EndResource
%FOPBeginFontReencode
/Courier-Oblique findfont
dup length dict begin
  {1 index /FID ne {def} {pop pop} ifelse} forall
  /Encoding WinAnsiEncoding def
  currentdict
end
/Courier-Oblique exch definefont pop
/Courier-BoldOblique findfont
dup length dict begin
  {1 index /FID ne {def} {pop pop} ifelse} forall
  /Encoding WinAnsiEncoding def
  currentdict
end
/Courier-BoldOblique exch definefont pop
/Courier-Bold findfont
dup length dict begin
  {1 index /FID ne {def} {pop pop} ifelse} forall
  /Encoding WinAnsiEncoding def
  currentdict
end
/Courier-Bold exch definefont pop
/Helvetica findfont
dup length dict begin
  {1 index /FID ne {def} {pop pop} ifelse} forall
  /Encoding WinAnsiEncoding def
  currentdict
end
/Helvetica exch definefont pop
/Helvetica-Oblique findfont
dup length dict begin
  {1 index /FID ne {def} {pop pop} ifelse} forall
  /Encoding WinAnsiEncoding def
  currentdict
end
/Helvetica-Oblique exch definefont pop
/Helvetica-Bold findfont
dup length dict begin
  {1 index /FID ne {def} {pop pop} ifelse} forall
  /Encoding WinAnsiEncoding def
  currentdict
end
/Helvetica-Bold exch definefont pop
/Helvetica-BoldOblique findfont
dup length dict begin
  {1 index /FID ne {def} {pop pop} ifelse} forall
  /Encoding WinAnsiEncoding def
  currentdict
end
/Helvetica-BoldOblique exch definefont pop
/Times-Roman findfont
dup length dict begin
  {1 index /FID ne {def} {pop pop} ifelse} forall
  /Encoding WinAnsiEncoding def
  currentdict
end
/Times-Roman exch definefont pop
/Times-Italic findfont
dup length dict begin
  {1 index /FID ne {def} {pop pop} ifelse} forall
  /Encoding WinAnsiEncoding def
  currentdict
end
/Times-Italic exch definefont pop
/Times-Bold findfont
dup length dict begin
  {1 index /FID ne {def} {pop pop} ifelse} forall
  /Encoding WinAnsiEncoding def
  currentdict
end
/Times-Bold exch definefont pop
/Times-BoldItalic findfont
dup length dict begin
  {1 index /FID ne {def} {pop pop} ifelse} forall
  /Encoding WinAnsiEncoding def
  currentdict
end
/Times-BoldItalic exch definefont pop
/Courier findfont
dup length dict begin
  {1 index /FID ne {def} {pop pop} ifelse} forall
  /Encoding WinAnsiEncoding def
  currentdict
end
/Courier exch definefont pop
%FOPEndFontReencode
%%EndProlog
%%Page: 1 1
%%PageBoundingBox: 0 0 600 375
%%BeginPageSetup
[1 0 0 -1 0 375] CT
%%EndPageSetup
GS
[0.75 0 0 0.75 0 0] CT
1 GC
N
0 0 800 500 re
f
GR
GS
[0.75 0 0 0.75 0 0] CT
1 GC
N
0 0 800 500 re
f
GR
GS
[0.75 0 0 0.75 0 0] CT
0.941 GC
N
650 445 M
659 445 L
659 37 L
650 37 L
cp
f
GR
GS
[0.75 0 0 0.75 0 0] CT
0.149 GC
2 setlinecap
1 LJ
0.667 LW
N
650 445 M
659 445 L
S
GR
GS
[0.75 0 0 0.75 0 0] CT
0.929 0.694 0.125 RC
2 setlinecap
1 LJ
0.667 LW
N
659 445 M
659 37 L
S
GR
GS
[0.75 0 0 0.75 0 0] CT
0.929 0.694 0.125 RC
2 setlinecap
1 LJ
0.667 LW
N
659 445 M
654.92 445 L
S
GR
GS
[0.75 0 0 0.75 0 0] CT
0.929 0.694 0.125 RC
2 setlinecap
1 LJ
0.667 LW
N
659 377 M
654.92 377 L
S
GR
GS
[0.75 0 0 0.75 0 0] CT
0.929 0.694 0.125 RC
2 setlinecap
1 LJ
0.667 LW
N
659 309 M
654.92 309 L
S
GR
GS
[0.75 0 0 0.75 0 0] CT
0.929 0.694 0.125 RC
2 setlinecap
1 LJ
0.667 LW
N
659 241 M
654.92 241 L
S
GR
GS
[0.75 0 0 0.75 0 0] CT
0.929 0.694 0.125 RC
2 setlinecap
1 LJ
0.667 LW
N
659 173 M
654.92 173 L
S
GR
GS
[0.75 0 0 0.75 0 0] CT
0.929 0.694 0.125 RC
2 setlinecap
1 LJ
0.667 LW
N
659 105 M
654.92 105 L
S
GR
GS
[0.75 0 0 0.75 0 0] CT
0.929 0.694 0.125 RC
2 setlinecap
1 LJ
0.667 LW
N
659 37 M
654.92 37 L
S
GR
GS
[0.75 0 0 0.75 499.05002 333.75] CT
0.929 0.694 0.125 RC
/Helvetica 18.667 F
GS
[1 0 0 1 0 0] CT
0 7 moveto 
1 -1 scale
(-5) t 
GR
GR
GS
[0.75 0 0 0.75 499.05002 282.75] CT
0.929 0.694 0.125 RC
/Helvetica 18.667 F
GS
[1 0 0 1 0 0] CT
0 7 moveto 
1 -1 scale
(0) t 
GR
GR
GS
[0.75 0 0 0.75 499.05002 231.75] CT
0.929 0.694 0.125 RC
/Helvetica 18.667 F
GS
[1 0 0 1 0 0] CT
0 7 moveto 
1 -1 scale
(5) t 
GR
GR
GS
[0.75 0 0 0.75 499.05002 180.75] CT
0.929 0.694 0.125 RC
/Helvetica 18.667 F
GS
[1 0 0 1 0 0] CT
0 7 moveto 
1 -1 scale
(10) t 
GR
GR
GS
[0.75 0 0 0.75 499.05002 129.75] CT
0.929 0.694 0.125 RC
/Helvetica 18.667 F
GS
[1 0 0 1 0 0] CT
0 7 moveto 
1 -1 scale
(15) t 
GR
GR
GS
[0.75 0 0 0.75 499.05002 78.75] CT
0.929 0.694 0.125 RC
/Helvetica 18.667 F
GS
[1 0 0 1 0 0] CT
0 7 moveto 
1 -1 scale
(20) t 
GR
GR
GS
[0.75 0 0 0.75 499.05002 27.75] CT
0.929 0.694 0.125 RC
/Helvetica 18.667 F
GS
[1 0 0 1 0 0] CT
0 7 moveto 
1 -1 scale
(25) t 
GR
GR
GS
[0 -0.75 0.75 0 533.25 199.5] CT
0.929 0.694 0.125 RC
/Helvetica 20.533 F
GS
[1 0 0 1 0 0] CT
0 0 moveto 
1 -1 scale
(I) t 
GR
GR
GS
[0 -0.75 0.75 0 540.75 195] CT
0.929 0.694 0.125 RC
/Helvetica 16.427 F
GS
[1 0 0 1 0 0] CT
0 0 moveto 
1 -1 scale
(D) t 
GR
GR
GS
[0 -0.75 0.75 0 533.25 186] CT
0.929 0.694 0.125 RC
/Helvetica 20.533 F
GS
[1 0 0 1 0 0] CT
0 0 moveto 
1 -1 scale
( / A) t 
GR
GR
GS
[0.75 0 0 0.75 0 0] CT
0.941 GC
N
104 445 M
113 445 L
113 37 L
104 37 L
cp
f
GR
GS
[0.75 0 0 0.75 0 0] CT
0.149 GC
2 setlinecap
1 LJ
0.667 LW
N
104 445 M
113 445 L
S
GR
GS
[0.75 0 0 0.75 0 0] CT
0.494 0.184 0.557 RC
2 setlinecap
1 LJ
0.667 LW
N
104 445 M
104 37 L
S
GR
GS
[0.75 0 0 0.75 0 0] CT
0.494 0.184 0.557 RC
2 setlinecap
1 LJ
0.667 LW
N
104 445 M
108.08 445 L
S
GR
GS
[0.75 0 0 0.75 0 0] CT
0.494 0.184 0.557 RC
2 setlinecap
1 LJ
0.667 LW
N
104 386.714 M
108.08 386.714 L
S
GR
GS
[0.75 0 0 0.75 0 0] CT
0.494 0.184 0.557 RC
2 setlinecap
1 LJ
0.667 LW
N
104 328.429 M
108.08 328.429 L
S
GR
GS
[0.75 0 0 0.75 0 0] CT
0.494 0.184 0.557 RC
2 setlinecap
1 LJ
0.667 LW
N
104 270.143 M
108.08 270.143 L
S
GR
GS
[0.75 0 0 0.75 0 0] CT
0.494 0.184 0.557 RC
2 setlinecap
1 LJ
0.667 LW
N
104 211.857 M
108.08 211.857 L
S
GR
GS
[0.75 0 0 0.75 0 0] CT
0.494 0.184 0.557 RC
2 setlinecap
1 LJ
0.667 LW
N
104 153.571 M
108.08 153.571 L
S
GR
GS
[0.75 0 0 0.75 0 0] CT
0.494 0.184 0.557 RC
2 setlinecap
1 LJ
0.667 LW
N
104 95.286 M
108.08 95.286 L
S
GR
GS
[0.75 0 0 0.75 0 0] CT
0.494 0.184 0.557 RC
2 setlinecap
1 LJ
0.667 LW
N
104 37 M
108.08 37 L
S
GR
GS
[0.75 0 0 0.75 73.2 333.75] CT
0.494 0.184 0.557 RC
/Helvetica 18.667 F
GS
[1 0 0 1 0 0] CT
-38 7 moveto 
1 -1 scale
(-200) t 
GR
GR
GS
[0.75 0 0 0.75 73.2 290.03572] CT
0.494 0.184 0.557 RC
/Helvetica 18.667 F
GS
[1 0 0 1 0 0] CT
-11 7 moveto 
1 -1 scale
(0) t 
GR
GR
GS
[0.75 0 0 0.75 73.2 246.32142] CT
0.494 0.184 0.557 RC
/Helvetica 18.667 F
GS
[1 0 0 1 0 0] CT
-32 7 moveto 
1 -1 scale
(200) t 
GR
GR
GS
[0.75 0 0 0.75 73.2 202.60714] CT
0.494 0.184 0.557 RC
/Helvetica 18.667 F
GS
[1 0 0 1 0 0] CT
-32 7 moveto 
1 -1 scale
(400) t 
GR
GR
GS
[0.75 0 0 0.75 73.2 158.89286] CT
0.494 0.184 0.557 RC
/Helvetica 18.667 F
GS
[1 0 0 1 0 0] CT
-32 7 moveto 
1 -1 scale
(600) t 
GR
GR
GS
[0.75 0 0 0.75 73.2 115.17857] CT
0.494 0.184 0.557 RC
/Helvetica 18.667 F
GS
[1 0 0 1 0 0] CT
-32 7 moveto 
1 -1 scale
(800) t 
GR
GR
GS
[0.75 0 0 0.75 73.2 71.46428] CT
0.494 0.184 0.557 RC
/Helvetica 18.667 F
GS
[1 0 0 1 0 0] CT
-42 7 moveto 
1 -1 scale
(1000) t 
GR
GR
GS
[0.75 0 0 0.75 73.2 27.75] CT
0.494 0.184 0.557 RC
/Helvetica 18.667 F
GS
[1 0 0 1 0 0] CT
-42 7 moveto 
1 -1 scale
(1200) t 
GR
GR
GS
[0 -0.75 0.75 0 28.5 207.75] CT
0.494 0.184 0.557 RC
/Helvetica 20.533 F
GS
[1 0 0 1 0 0] CT
0 0 moveto 
1 -1 scale
(P) t 
GR
GR
GS
[0 -0.75 0.75 0 36 197.25] CT
0.494 0.184 0.557 RC
/Helvetica 16.427 F
GS
[1 0 0 1 0 0] CT
0 0 moveto 
1 -1 scale
(s) t 
GR
GR
GS
[0 -0.75 0.75 0 36 190.5] CT
0.494 0.184 0.557 RC
/Helvetica 16.427 F
GS
[1 0 0 1 0 0] CT
0 0 moveto 
1 -1 scale
(w) t 
GR
GR
GS
[0 -0.75 0.75 0 28.5 181.5] CT
0.494 0.184 0.557 RC
/Helvetica 20.533 F
GS
[1 0 0 1 0 0] CT
0 0 moveto 
1 -1 scale
( / W) t 
GR
GR
GS
[0.75 0 0 0.75 0 0] CT
0.941 GC
N
724 445 M
732 445 L
732 37 L
724 37 L
cp
f
GR
GS
[0.75 0 0 0.75 0 0] CT
0.149 GC
2 setlinecap
1 LJ
0.667 LW
N
724 445 M
732 445 L
S
GR
GS
[0.75 0 0 0.75 0 0] CT
0.467 0.675 0.188 RC
2 setlinecap
1 LJ
0.667 LW
N
732 445 M
732 37 L
S
GR
GS
[0.75 0 0 0.75 0 0] CT
0.467 0.675 0.188 RC
2 setlinecap
1 LJ
0.667 LW
N
732 445 M
727.92 445 L
S
GR
GS
[0.75 0 0 0.75 0 0] CT
0.467 0.675 0.188 RC
2 setlinecap
1 LJ
0.667 LW
N
732 363.4 M
727.92 363.4 L
S
GR
GS
[0.75 0 0 0.75 0 0] CT
0.467 0.675 0.188 RC
2 setlinecap
1 LJ
0.667 LW
N
732 281.8 M
727.92 281.8 L
S
GR
GS
[0.75 0 0 0.75 0 0] CT
0.467 0.675 0.188 RC
2 setlinecap
1 LJ
0.667 LW
N
732 200.2 M
727.92 200.2 L
S
GR
GS
[0.75 0 0 0.75 0 0] CT
0.467 0.675 0.188 RC
2 setlinecap
1 LJ
0.667 LW
N
732 118.6 M
727.92 118.6 L
S
GR
GS
[0.75 0 0 0.75 0 0] CT
0.467 0.675 0.188 RC
2 setlinecap
1 LJ
0.667 LW
N
732 37 M
727.92 37 L
S
GR
GS
[0.75 0 0 0.75 553.80002 333.75] CT
0.467 0.675 0.188 RC
/Helvetica 18.667 F
GS
[1 0 0 1 0 0] CT
0 7 moveto 
1 -1 scale
(0) t 
GR
GR
GS
[0.75 0 0 0.75 553.80002 272.55] CT
0.467 0.675 0.188 RC
/Helvetica 18.667 F
GS
[1 0 0 1 0 0] CT
0 7 moveto 
1 -1 scale
(10) t 
GR
GR
GS
[0.75 0 0 0.75 553.80002 211.34999] CT
0.467 0.675 0.188 RC
/Helvetica 18.667 F
GS
[1 0 0 1 0 0] CT
0 7 moveto 
1 -1 scale
(20) t 
GR
GR
GS
[0.75 0 0 0.75 553.80002 150.15] CT
0.467 0.675 0.188 RC
/Helvetica 18.667 F
GS
[1 0 0 1 0 0] CT
0 7 moveto 
1 -1 scale
(30) t 
GR
GR
GS
[0.75 0 0 0.75 553.80002 88.95] CT
0.467 0.675 0.188 RC
/Helvetica 18.667 F
GS
[1 0 0 1 0 0] CT
0 7 moveto 
1 -1 scale
(40) t 
GR
GR
GS
[0.75 0 0 0.75 553.80002 27.75] CT
0.467 0.675 0.188 RC
/Helvetica 18.667 F
GS
[1 0 0 1 0 0] CT
0 7 moveto 
1 -1 scale
(50) t 
GR
GR
GS
[0 -0.75 0.75 0 588 210] CT
0.467 0.675 0.188 RC
/Helvetica 20.533 F
GS
[1 0 0 1 0 0] CT
0 0 moveto 
1 -1 scale
(E) t 
GR
GR
GS
[0 -0.75 0.75 0 595.5 199.5] CT
0.467 0.675 0.188 RC
/Helvetica 16.427 F
GS
[1 0 0 1 0 0] CT
0 0 moveto 
1 -1 scale
(s) t 
GR
GR
GS
[0 -0.75 0.75 0 595.5 192.75] CT
0.467 0.675 0.188 RC
/Helvetica 16.427 F
GS
[1 0 0 1 0 0] CT
0 0 moveto 
1 -1 scale
(w) t 
GR
GR
GS
[0 -0.75 0.75 0 588 183.75] CT
0.467 0.675 0.188 RC
/Helvetica 20.533 F
GS
[1 0 0 1 0 0] CT
0 0 moveto 
1 -1 scale
( / ) t 
GR
GR
GS
[0 -0.75 0.75 0 588 170.25] CT
0.467 0.675 0.188 RC
N
0.578 3.953 M
0.578 3.828 0.609 3.781 QT
3.688 -8.609 L
3.781 -8.906 4.023 -9.094 QT
4.266 -9.281 4.578 -9.281 QT
4.844 -9.281 5.023 -9.125 QT
5.203 -8.969 5.203 -8.703 QT
5.203 -8.641 5.203 -8.602 QT
5.203 -8.563 5.188 -8.516 QT
3.953 -3.609 L
3.75 -2.734 3.75 -2.109 QT
3.75 -1.328 4.117 -0.82 QT
4.484 -0.313 5.234 -0.313 QT
6.75 -0.313 7.922 -2.219 QT
7.922 -2.25 7.93 -2.258 QT
7.938 -2.266 7.938 -2.281 QT
9.453 -8.375 L
9.531 -8.656 9.781 -8.852 QT
10.031 -9.047 10.344 -9.047 QT
10.578 -9.047 10.773 -8.883 QT
10.969 -8.719 10.969 -8.453 QT
10.969 -8.344 10.938 -8.297 QT
9.438 -2.25 L
9.281 -1.656 9.281 -1.219 QT
9.281 -0.313 9.891 -0.313 QT
10.547 -0.313 10.883 -1.125 QT
11.219 -1.938 11.469 -3.094 QT
11.5 -3.203 11.641 -3.203 QT
11.891 -3.203 L
11.969 -3.203 12.023 -3.141 QT
12.078 -3.078 12.078 -3 QT
11.703 -1.531 11.273 -0.648 QT
10.844 0.234 9.859 0.234 QT
9.156 0.234 8.617 -0.164 QT
8.078 -0.563 7.922 -1.234 QT
7.391 -0.578 6.688 -0.172 QT
5.984 0.234 5.203 0.234 QT
3.891 0.234 3.141 -0.375 QT
2.078 3.859 L
2.016 4.156 1.773 4.344 QT
1.531 4.531 1.219 4.531 QT
0.969 4.531 0.773 4.375 QT
0.578 4.219 0.578 3.953 QT
cp
f
GR
GS
[0 -0.75 0.75 0 588 160.5] CT
0.467 0.675 0.188 RC
/Helvetica 20.533 F
GS
[1 0 0 1 0 0] CT
0 0 moveto 
1 -1 scale
(J) t 
GR
GR
GS
[0.75 0 0 0.75 0 0] CT
1 GC
N
178 445 M
650 445 L
650 37 L
178 37 L
cp
f
GR
GS
[0.75 0 0 0.75 0 0] CT
0.873 GC
1 LJ
0.667 LW
N
178 445 M
178 37 L
S
GR
GS
[0.75 0 0 0.75 0 0] CT
0.873 GC
1 LJ
0.667 LW
N
310.883 445 M
310.883 37 L
S
GR
GS
[0.75 0 0 0.75 0 0] CT
0.873 GC
1 LJ
0.667 LW
N
443.766 445 M
443.766 37 L
S
GR
GS
[0.75 0 0 0.75 0 0] CT
0.873 GC
1 LJ
0.667 LW
N
576.649 445 M
576.649 37 L
S
GR
GS
[0.75 0 0 0.75 0 0] CT
0.873 GC
1 LJ
0.667 LW
N
650 445 M
178 445 L
S
GR
GS
[0.75 0 0 0.75 0 0] CT
0.873 GC
1 LJ
0.667 LW
N
650 377 M
178 377 L
S
GR
GS
[0.75 0 0 0.75 0 0] CT
0.873 GC
1 LJ
0.667 LW
N
650 309 M
178 309 L
S
GR
GS
[0.75 0 0 0.75 0 0] CT
0.873 GC
1 LJ
0.667 LW
N
650 241 M
178 241 L
S
GR
GS
[0.75 0 0 0.75 0 0] CT
0.873 GC
1 LJ
0.667 LW
N
650 173 M
178 173 L
S
GR
GS
[0.75 0 0 0.75 0 0] CT
0.873 GC
1 LJ
0.667 LW
N
650 105 M
178 105 L
S
GR
GS
[0.75 0 0 0.75 0 0] CT
0.873 GC
1 LJ
0.667 LW
N
650 37 M
178 37 L
S
GR
GS
[0.75 0 0 0.75 0 0] CT
0.149 GC
2 setlinecap
1 LJ
0.667 LW
N
178 445 M
650 445 L
S
GR
GS
[0.75 0 0 0.75 0 0] CT
0.149 GC
2 setlinecap
1 LJ
0.667 LW
N
178 445 M
178 440.28 L
S
GR
GS
[0.75 0 0 0.75 0 0] CT
0.149 GC
2 setlinecap
1 LJ
0.667 LW
N
310.883 445 M
310.883 440.28 L
S
GR
GS
[0.75 0 0 0.75 0 0] CT
0.149 GC
2 setlinecap
1 LJ
0.667 LW
N
443.766 445 M
443.766 440.28 L
S
GR
GS
[0.75 0 0 0.75 0 0] CT
0.149 GC
2 setlinecap
1 LJ
0.667 LW
N
576.649 445 M
576.649 440.28 L
S
GR
GS
[0.75 0 0 0.75 133.5 338.55] CT
0.149 GC
/Helvetica 18.667 F
GS
[1 0 0 1 0 0] CT
-5.5 19 moveto 
1 -1 scale
(0) t 
GR
GR
GS
[0.75 0 0 0.75 233.16216 338.55] CT
0.149 GC
/Helvetica 18.667 F
GS
[1 0 0 1 0 0] CT
-10.5 19 moveto 
1 -1 scale
(50) t 
GR
GR
GS
[0.75 0 0 0.75 332.82433 338.55] CT
0.149 GC
/Helvetica 18.667 F
GS
[1 0 0 1 0 0] CT
-16 19 moveto 
1 -1 scale
(100) t 
GR
GR
GS
[0.75 0 0 0.75 432.48647 338.55] CT
0.149 GC
/Helvetica 18.667 F
GS
[1 0 0 1 0 0] CT
-16 19 moveto 
1 -1 scale
(150) t 
GR
GR
GS
[0.75 0 0 0.75 310.50018 357.55] CT
0.149 GC
/Helvetica 20.533 F
GS
[1 0 0 1 0 0] CT
-42.5 21 moveto 
1 -1 scale
(Time / ns) t 
GR
GR
GS
[0.75 0 0 0.75 0 0] CT
0.149 GC
2 setlinecap
1 LJ
0.667 LW
N
178 445 M
178 37 L
S
GR
GS
[0.75 0 0 0.75 0 0] CT
0.149 GC
2 setlinecap
1 LJ
0.667 LW
N
178 445 M
182.72 445 L
S
GR
GS
[0.75 0 0 0.75 0 0] CT
0.149 GC
2 setlinecap
1 LJ
0.667 LW
N
178 377 M
182.72 377 L
S
GR
GS
[0.75 0 0 0.75 0 0] CT
0.149 GC
2 setlinecap
1 LJ
0.667 LW
N
178 309 M
182.72 309 L
S
GR
GS
[0.75 0 0 0.75 0 0] CT
0.149 GC
2 setlinecap
1 LJ
0.667 LW
N
178 241 M
182.72 241 L
S
GR
GS
[0.75 0 0 0.75 0 0] CT
0.149 GC
2 setlinecap
1 LJ
0.667 LW
N
178 173 M
182.72 173 L
S
GR
GS
[0.75 0 0 0.75 0 0] CT
0.149 GC
2 setlinecap
1 LJ
0.667 LW
N
178 105 M
182.72 105 L
S
GR
GS
[0.75 0 0 0.75 0 0] CT
0.149 GC
2 setlinecap
1 LJ
0.667 LW
N
178 37 M
182.72 37 L
S
GR
GS
[0.75 0 0 0.75 128.7 333.75] CT
0.149 GC
/Helvetica 18.667 F
GS
[1 0 0 1 0 0] CT
-11 7 moveto 
1 -1 scale
(0) t 
GR
GR
GS
[0.75 0 0 0.75 128.7 282.75] CT
0.149 GC
/Helvetica 18.667 F
GS
[1 0 0 1 0 0] CT
-21 7 moveto 
1 -1 scale
(10) t 
GR
GR
GS
[0.75 0 0 0.75 128.7 231.75] CT
0.149 GC
/Helvetica 18.667 F
GS
[1 0 0 1 0 0] CT
-21 7 moveto 
1 -1 scale
(20) t 
GR
GR
GS
[0.75 0 0 0.75 128.7 180.75] CT
0.149 GC
/Helvetica 18.667 F
GS
[1 0 0 1 0 0] CT
-21 7 moveto 
1 -1 scale
(30) t 
GR
GR
GS
[0.75 0 0 0.75 128.7 129.75] CT
0.149 GC
/Helvetica 18.667 F
GS
[1 0 0 1 0 0] CT
-21 7 moveto 
1 -1 scale
(40) t 
GR
GR
GS
[0.75 0 0 0.75 128.7 78.75] CT
0.149 GC
/Helvetica 18.667 F
GS
[1 0 0 1 0 0] CT
-21 7 moveto 
1 -1 scale
(50) t 
GR
GR
GS
[0.75 0 0 0.75 128.7 27.75] CT
0.149 GC
/Helvetica 18.667 F
GS
[1 0 0 1 0 0] CT
-21 7 moveto 
1 -1 scale
(60) t 
GR
GR
GS
[0 -0.75 0.75 0 99.75 206.25] CT
0.149 GC
/Helvetica 20.533 F
GS
[1 0 0 1 0 0] CT
0 0 moveto 
1 -1 scale
(V) t 
GR
GR
GS
[0 -0.75 0.75 0 107.25 195.75] CT
0.149 GC
/Helvetica 16.427 F
GS
[1 0 0 1 0 0] CT
0 0 moveto 
1 -1 scale
(D) t 
GR
GR
GS
[0 -0.75 0.75 0 107.25 186.75] CT
0.149 GC
/Helvetica 16.427 F
GS
[1 0 0 1 0 0] CT
0 0 moveto 
1 -1 scale
(S) t 
GR
GR
GS
[0 -0.75 0.75 0 99.75 178.5] CT
0.149 GC
/Helvetica 20.533 F
GS
[1 0 0 1 0 0] CT
0 0 moveto 
1 -1 scale
( / V) t 
GR
GR
GS
[0.75 0 0 0.75 0 0] CT
0.851 0.325 0.098 RC
1 LJ
2 LW
N
177.944 439.3 M
178 439.295 L
179.063 439.204 L
180.126 439.113 L
181.189 439.204 L
182.252 439.204 L
183.315 439.204 L
184.378 439.204 L
185.441 439.204 L
186.505 439.204 L
187.568 439.204 L
188.631 439.476 L
189.694 439.476 L
190.757 439.476 L
191.82 439.386 L
192.883 439.476 L
193.946 439.476 L
195.009 439.295 L
196.072 439.295 L
197.135 439.204 L
198.198 439.204 L
199.261 439.113 L
200.324 439.204 L
201.387 439.295 L
202.45 439.204 L
203.514 439.114 L
204.577 439.114 L
205.64 439.204 L
206.703 439.204 L
207.766 439.113 L
208.829 439.022 L
209.892 439.022 L
210.955 439.204 L
212.018 439.204 L
213.081 439.113 L
214.144 439.113 L
215.207 439.203 L
216.27 439.203 L
217.333 439.112 L
218.396 439.112 L
219.459 439.112 L
220.523 439.021 L
221.586 438.84 L
222.649 438.658 L
223.712 438.658 L
224.775 438.749 L
225.838 438.749 L
226.901 438.84 L
227.964 438.839 L
229.027 438.749 L
230.09 438.84 L
231.153 439.021 L
232.216 439.021 L
233.279 439.021 L
234.342 439.111 L
235.405 439.202 L
236.468 439.111 L
237.532 439.02 L
238.595 438.93 L
239.658 439.111 L
240.721 439.202 L
241.784 439.293 L
242.847 439.292 L
243.91 439.293 L
244.973 439.202 L
246.036 439.112 L
247.099 438.93 L
248.162 438.839 L
249.225 438.93 L
250.288 438.84 L
251.351 438.749 L
252.414 438.659 L
253.477 438.75 L
254.541 438.84 L
255.604 438.841 L
256.667 438.659 L
257.73 438.659 L
258.793 438.659 L
259.856 438.659 L
260.919 438.84 L
261.982 438.749 L
263.045 438.749 L
264.108 438.839 L
265.171 438.748 L
266.234 438.658 L
267.297 438.658 L
268.36 438.658 L
269.423 438.748 L
270.486 438.839 L
271.55 438.748 L
272.613 438.748 L
273.676 438.748 L
274.739 438.658 L
275.802 438.567 L
276.865 438.657 L
277.928 438.657 L
278.991 438.748 L
280.054 438.839 L
281.117 438.657 L
282.18 438.748 L
283.243 438.657 L
284.306 438.748 L
285.369 438.657 L
286.432 438.748 L
287.495 438.658 L
288.559 438.658 L
289.622 438.749 L
290.685 438.567 L
291.748 438.205 L
292.811 437.842 L
293.874 437.389 L
294.937 436.664 L
296 435.758 L
297.063 434.761 L
298.126 433.854 L
299.189 432.585 L
300.252 431.225 L
301.315 429.684 L
302.378 427.961 L
303.441 426.148 L
304.504 424.062 L
305.568 421.796 L
306.631 419.166 L
307.694 416.446 L
308.757 413.545 L
309.82 410.281 L
310.883 406.927 L
311.946 403.391 L
313.009 399.673 L
314.072 395.593 L
315.135 391.241 L
316.198 386.436 L
317.261 381.449 L
318.324 375.918 L
319.387 370.387 L
320.45 364.494 L
321.514 358.057 L
322.577 351.619 L
323.64 345.091 L
324.703 338.019 L
325.766 330.947 L
326.829 323.512 L
327.892 315.805 L
328.955 307.826 L
330.018 299.485 L
331.081 291.052 L
332.144 282.439 L
333.207 273.191 L
334.27 263.58 L
335.333 253.425 L
336.396 242.908 L
337.459 231.666 L
338.523 220.332 L
339.586 209.543 L
340.649 199.207 L
341.712 189.505 L
342.775 180.348 L
343.838 171.463 L
344.901 162.76 L
345.964 154.146 L
347.027 145.714 L
348.09 137.644 L
349.153 130.028 L
350.216 122.956 L
351.279 116.429 L
352.342 110.263 L
353.405 104.37 L
354.468 98.93 L
355.532 93.671 L
356.595 88.775 L
357.658 84.151 L
358.721 80.252 L
359.784 76.898 L
360.847 73.905 L
361.91 71.367 L
362.973 69.372 L
364.036 67.559 L
365.099 66.561 L
366.162 66.108 L
367.225 66.29 L
368.288 67.015 L
369.351 68.828 L
370.414 71.004 L
371.477 72.727 L
372.541 74.087 L
373.604 75.176 L
374.667 75.72 L
375.73 76.173 L
376.793 76.626 L
377.856 77.17 L
378.919 78.077 L
379.982 78.802 L
381.045 79.527 L
382.108 79.981 L
383.171 80.071 L
384.234 79.98 L
385.297 80.253 L
386.36 80.162 L
387.423 80.162 L
388.486 80.434 L
389.55 80.615 L
390.613 80.706 L
391.676 80.797 L
392.739 80.797 L
393.802 80.706 L
394.865 80.615 L
395.928 80.616 L
396.991 80.616 L
398.054 80.525 L
399.117 80.525 L
400.18 80.525 L
401.243 80.344 L
402.306 80.254 L
403.369 80.163 L
404.432 80.162 L
405.495 80.162 L
406.559 80.162 L
407.622 80.162 L
408.685 80.252 L
409.748 80.433 L
410.811 80.434 L
411.874 80.615 L
412.937 80.434 L
414 80.524 L
415.063 80.615 L
416.126 80.706 L
417.189 80.797 L
418.252 80.888 L
419.315 81.069 L
420.378 81.069 L
421.441 81.069 L
422.505 80.978 L
423.568 80.797 L
424.631 80.706 L
425.694 80.887 L
426.757 80.796 L
427.82 80.706 L
428.883 80.615 L
429.946 80.524 L
431.009 80.434 L
432.072 80.434 L
433.135 80.343 L
434.198 80.253 L
435.261 80.162 L
436.324 80.071 L
437.387 80.162 L
438.45 80.163 L
439.514 80.163 L
440.577 80.253 L
441.64 80.254 L
442.703 80.344 L
443.766 80.344 L
444.829 80.526 L
445.892 80.617 L
446.955 80.526 L
448.018 80.616 L
449.081 80.616 L
450.144 80.707 L
451.207 80.707 L
452.27 80.707 L
453.333 80.798 L
454.396 80.798 L
455.459 80.889 L
456.523 81.07 L
457.586 80.889 L
458.649 80.798 L
459.712 80.798 L
460.775 80.798 L
461.838 80.708 L
462.901 80.708 L
463.964 80.616 L
465.027 80.707 L
466.09 80.707 L
467.153 80.798 L
468.216 80.798 L
469.279 80.616 L
470.342 80.616 L
471.405 80.526 L
472.468 80.526 L
473.532 80.344 L
474.595 80.253 L
475.658 80.253 L
476.721 80.253 L
477.784 80.162 L
478.847 80.253 L
479.91 80.344 L
480.973 80.343 L
482.036 80.252 L
483.099 80.252 L
484.162 80.162 L
485.225 79.98 L
486.288 79.98 L
487.351 79.799 L
488.414 79.799 L
489.477 79.799 L
490.541 79.799 L
491.604 79.799 L
492.667 79.799 L
493.73 79.89 L
494.793 79.708 L
495.856 79.709 L
496.919 79.618 L
497.982 79.527 L
499.045 79.527 L
500.108 79.527 L
501.171 79.618 L
502.234 79.527 L
503.297 79.527 L
504.36 79.346 L
505.423 79.527 L
506.486 79.527 L
507.55 79.437 L
508.613 79.437 L
509.676 79.436 L
510.739 79.527 L
511.802 79.527 L
512.865 79.256 L
513.928 79.256 L
514.991 79.256 L
516.054 79.256 L
517.117 79.347 L
518.18 79.347 L
519.243 79.438 L
520.306 79.348 L
521.369 79.348 L
522.432 79.257 L
523.495 79.166 L
524.559 78.985 L
525.622 78.894 L
526.685 78.894 L
527.748 78.803 L
528.811 78.713 L
529.874 78.804 L
530.937 78.713 L
532 78.713 L
533.063 78.532 L
534.126 78.532 L
535.189 78.441 L
536.252 78.532 L
537.315 78.351 L
538.378 78.26 L
539.441 78.26 L
540.505 78.169 L
541.568 78.26 L
542.631 77.988 L
543.694 77.897 L
544.757 78.078 L
545.82 78.078 L
546.883 78.078 L
547.946 78.078 L
549.009 77.987 L
550.072 77.896 L
551.135 77.896 L
552.198 77.715 L
553.261 77.624 L
554.324 77.715 L
555.387 77.806 L
556.45 77.896 L
557.514 77.897 L
558.577 77.987 L
559.64 77.987 L
560.703 78.078 L
561.766 78.078 L
562.829 77.987 L
563.892 77.896 L
564.955 77.987 L
566.018 77.987 L
567.081 77.987 L
568.144 77.896 L
569.207 77.986 L
570.27 78.077 L
571.333 78.077 L
572.396 78.077 L
573.459 77.987 L
574.523 78.168 L
575.586 78.259 L
576.649 78.35 L
577.712 78.44 L
578.775 78.259 L
579.838 78.259 L
580.901 78.169 L
581.964 78.26 L
583.027 78.169 L
584.09 78.35 L
585.153 78.44 L
586.216 78.35 L
587.279 78.35 L
588.342 78.35 L
589.405 78.259 L
590.468 78.168 L
591.532 78.259 L
592.595 78.168 L
593.658 77.896 L
594.721 78.078 L
595.784 78.078 L
596.847 78.077 L
597.91 77.896 L
598.973 77.896 L
600.036 77.897 L
601.099 77.807 L
602.162 77.716 L
603.225 77.626 L
604.288 77.626 L
605.351 77.626 L
606.414 77.626 L
607.477 77.444 L
608.541 77.263 L
609.604 77.262 L
610.667 77.263 L
611.73 77.262 L
612.793 77.443 L
613.856 77.443 L
614.919 77.443 L
615.982 77.443 L
617.045 77.261 L
618.108 77.351 L
619.171 77.442 L
620.234 77.351 L
621.297 77.442 L
622.36 77.442 L
623.423 77.442 L
624.487 77.442 L
625.55 77.623 L
626.613 77.442 L
627.676 77.442 L
628.739 77.442 L
629.802 77.624 L
630.865 77.533 L
631.928 77.533 L
632.991 77.533 L
634.054 77.442 L
635.117 77.532 L
636.18 77.26 L
637.243 77.169 L
638.306 76.988 L
639.369 77.17 L
640.432 77.261 L
641.495 76.989 L
642.559 77.17 L
643.622 77.17 L
644.685 76.989 L
645.748 76.898 L
646.811 76.898 L
647.874 76.898 L
648.937 76.898 L
650 76.899 L
650.056 76.884 L
S
GR
GS
[0.75 0 0 0.75 0 0] CT
0.929 0.694 0.125 RC
1 LJ
2 LW
N
177.944 87.893 M
178 87.888 L
179.063 87.833 L
180.126 87.887 L
181.189 87.942 L
182.252 87.997 L
183.315 88.105 L
184.378 88.051 L
185.441 88.105 L
186.505 88.051 L
187.568 87.833 L
188.631 87.888 L
189.694 87.67 L
190.757 87.725 L
191.82 87.725 L
192.883 87.67 L
193.946 87.616 L
195.009 87.453 L
196.072 87.562 L
197.135 87.453 L
198.198 87.399 L
199.261 87.562 L
200.324 87.562 L
201.387 87.671 L
202.45 87.617 L
203.514 87.508 L
204.577 87.508 L
205.64 87.562 L
206.703 87.344 L
207.766 87.344 L
208.829 87.29 L
209.892 87.181 L
210.955 87.236 L
212.018 87.181 L
213.081 87.289 L
214.144 87.235 L
215.207 87.126 L
216.27 87.181 L
217.333 87.126 L
218.396 87.072 L
219.459 87.072 L
220.523 87.181 L
221.586 87.235 L
222.649 87.289 L
223.712 87.072 L
224.775 87.181 L
225.838 87.126 L
226.901 87.072 L
227.964 87.126 L
229.027 87.018 L
230.09 87.072 L
231.153 87.018 L
232.216 87.073 L
233.279 87.018 L
234.342 87.073 L
235.405 87.018 L
236.468 87.072 L
237.532 87.072 L
238.595 87.073 L
239.658 87.018 L
240.721 87.072 L
241.784 87.29 L
242.847 87.29 L
243.91 87.344 L
244.973 87.344 L
246.036 87.399 L
247.099 87.236 L
248.162 87.235 L
249.225 87.399 L
250.288 87.453 L
251.351 87.453 L
252.414 87.344 L
253.477 87.235 L
254.541 87.289 L
255.604 87.561 L
256.667 87.453 L
257.73 87.452 L
258.793 87.344 L
259.856 87.344 L
260.919 87.289 L
261.982 87.289 L
263.045 87.398 L
264.108 87.289 L
265.171 87.343 L
266.234 87.18 L
267.297 87.234 L
268.36 87.289 L
269.423 87.288 L
270.486 87.18 L
271.55 87.288 L
272.613 87.234 L
273.676 87.234 L
274.739 87.071 L
275.802 87.234 L
276.865 87.07 L
277.928 87.016 L
278.991 86.961 L
280.054 86.961 L
281.117 87.016 L
282.18 86.961 L
283.243 86.907 L
284.306 86.907 L
285.369 87.179 L
286.432 87.179 L
287.495 87.288 L
288.559 87.125 L
289.622 87.234 L
290.685 87.125 L
291.748 87.343 L
292.811 87.506 L
293.874 87.723 L
294.937 88.05 L
296 88.213 L
297.063 88.376 L
298.126 88.539 L
299.189 88.703 L
300.252 89.029 L
301.315 89.356 L
302.378 89.519 L
303.441 89.9 L
304.504 90.335 L
305.568 90.607 L
306.631 91.151 L
307.694 91.26 L
308.757 91.423 L
309.82 91.913 L
310.883 92.348 L
311.946 92.674 L
313.009 93.055 L
314.072 93.545 L
315.135 93.871 L
316.198 94.197 L
317.261 94.578 L
318.324 94.85 L
319.387 94.959 L
320.45 95.121 L
321.514 95.611 L
322.577 95.72 L
323.64 95.993 L
324.703 96.156 L
325.766 96.319 L
326.829 96.536 L
327.892 96.917 L
328.955 97.08 L
330.018 97.352 L
331.081 97.624 L
332.144 97.841 L
333.207 98.005 L
334.27 98.494 L
335.333 99.092 L
336.396 99.854 L
337.459 100.452 L
338.523 101.214 L
339.586 102.03 L
340.649 103.172 L
341.712 104.804 L
342.775 106.056 L
343.838 107.253 L
344.901 108.232 L
345.964 109.157 L
347.027 109.864 L
348.09 110.571 L
349.153 111.332 L
350.216 112.04 L
351.279 112.747 L
352.342 113.454 L
353.405 113.944 L
354.468 114.324 L
355.532 114.488 L
356.595 114.869 L
357.658 114.868 L
358.721 114.977 L
359.784 115.195 L
360.847 115.412 L
361.91 115.739 L
362.973 116.228 L
364.036 116.609 L
365.099 117.261 L
366.162 118.023 L
367.225 118.893 L
368.288 119.927 L
369.351 121.015 L
370.414 122.212 L
371.477 123.517 L
372.541 124.66 L
373.604 126.129 L
374.667 127.706 L
375.73 129.501 L
376.793 131.405 L
377.856 133.364 L
378.919 135.267 L
379.982 137.226 L
381.045 139.456 L
382.108 141.578 L
383.171 143.645 L
384.234 145.712 L
385.297 147.779 L
386.36 149.629 L
387.423 151.478 L
388.486 153.436 L
389.55 154.96 L
390.613 156.483 L
391.676 158.06 L
392.739 159.42 L
393.802 160.944 L
394.865 162.249 L
395.928 163.663 L
396.991 164.806 L
398.054 165.785 L
399.117 166.764 L
400.18 167.689 L
401.243 168.505 L
402.306 169.43 L
403.369 170.3 L
404.432 171.279 L
405.495 172.367 L
406.559 173.455 L
407.622 174.706 L
408.685 175.957 L
409.748 177.48 L
410.811 178.949 L
411.874 180.418 L
412.937 182.05 L
414 183.736 L
415.063 185.531 L
416.126 187.381 L
417.189 189.285 L
418.252 191.08 L
419.315 193.039 L
420.378 195.051 L
421.441 196.846 L
422.505 198.696 L
423.568 200.273 L
424.631 202.014 L
425.694 203.537 L
426.757 205.006 L
427.82 206.366 L
428.883 207.563 L
429.946 208.706 L
431.009 209.794 L
432.072 210.719 L
433.135 211.535 L
434.198 212.351 L
435.261 213.167 L
436.324 213.929 L
437.387 214.473 L
438.45 215.126 L
439.514 215.724 L
440.577 216.322 L
441.64 216.921 L
442.703 217.628 L
443.766 218.281 L
444.829 219.097 L
445.892 219.913 L
446.955 220.783 L
448.018 221.817 L
449.081 222.905 L
450.144 224.102 L
451.207 225.298 L
452.27 226.658 L
453.333 227.855 L
454.396 229.161 L
455.459 230.521 L
456.523 231.609 L
457.586 233.023 L
458.649 234.22 L
459.712 235.525 L
460.775 236.885 L
461.838 238.137 L
462.901 239.17 L
463.964 240.041 L
465.027 241.183 L
466.09 242.162 L
467.153 243.087 L
468.216 243.74 L
469.279 244.556 L
470.342 245.317 L
471.405 246.079 L
472.468 246.841 L
473.532 247.602 L
474.595 248.364 L
475.658 249.017 L
476.721 249.887 L
477.784 250.758 L
478.847 251.9 L
479.91 253.097 L
480.973 254.185 L
482.036 255.599 L
483.099 256.687 L
484.162 258.101 L
485.225 259.516 L
486.288 260.985 L
487.351 262.453 L
488.414 263.868 L
489.477 265.445 L
490.541 266.969 L
491.604 268.655 L
492.667 270.287 L
493.73 271.647 L
494.793 273.116 L
495.856 274.694 L
496.919 276.108 L
497.982 277.25 L
499.045 278.61 L
500.108 279.916 L
501.171 281.493 L
502.234 282.744 L
503.297 284.104 L
504.36 285.301 L
505.423 286.498 L
506.486 287.695 L
507.55 288.892 L
508.613 290.143 L
509.676 291.502 L
510.739 292.59 L
511.802 293.624 L
512.865 294.603 L
513.928 295.746 L
514.991 296.779 L
516.054 297.867 L
517.117 298.629 L
518.18 299.717 L
519.243 300.587 L
520.306 301.567 L
521.369 302.437 L
522.432 303.308 L
523.495 303.852 L
524.559 304.722 L
525.622 305.538 L
526.685 306.191 L
527.748 306.844 L
528.811 307.66 L
529.874 308.476 L
530.937 309.02 L
532 309.836 L
533.063 310.598 L
534.126 311.359 L
535.189 312.229 L
536.252 313.1 L
537.315 313.97 L
538.378 314.895 L
539.441 315.766 L
540.505 316.799 L
541.568 317.833 L
542.631 318.921 L
543.694 319.846 L
544.757 320.771 L
545.82 322.076 L
546.883 322.892 L
547.946 323.545 L
549.009 324.144 L
550.072 324.524 L
551.135 324.905 L
552.198 325.177 L
553.261 325.232 L
554.324 324.634 L
555.387 324.361 L
556.45 324.144 L
557.514 324.035 L
558.577 324.198 L
559.64 324.361 L
560.703 324.579 L
561.766 324.634 L
562.829 324.797 L
563.892 324.96 L
564.955 325.069 L
566.018 325.558 L
567.081 325.885 L
568.144 326.864 L
569.207 327.625 L
570.27 328.55 L
571.333 329.421 L
572.396 330.237 L
573.459 331.216 L
574.523 332.032 L
575.586 332.794 L
576.649 333.501 L
577.712 334.1 L
578.775 334.535 L
579.838 334.916 L
580.901 335.188 L
581.964 335.405 L
583.027 335.677 L
584.09 335.84 L
585.153 336.004 L
586.216 335.895 L
587.279 335.568 L
588.342 335.079 L
589.405 334.48 L
590.468 333.882 L
591.532 333.283 L
592.595 332.576 L
593.658 331.815 L
594.721 330.945 L
595.784 330.074 L
596.847 329.149 L
597.91 328.388 L
598.973 327.735 L
600.036 327.191 L
601.099 326.538 L
602.162 326.212 L
603.225 326.158 L
604.288 325.886 L
605.351 325.886 L
606.414 325.614 L
607.477 325.614 L
608.541 325.559 L
609.604 325.94 L
610.667 326.267 L
611.73 326.756 L
612.793 327.246 L
613.856 327.572 L
614.919 328.224 L
615.982 328.714 L
617.045 329.149 L
618.108 329.421 L
619.171 329.639 L
620.234 329.639 L
621.297 329.639 L
622.36 329.53 L
623.423 329.258 L
624.487 328.823 L
625.55 328.225 L
626.613 327.681 L
627.676 327.028 L
628.739 326.212 L
629.802 325.45 L
630.865 324.526 L
631.928 323.601 L
632.991 322.513 L
634.054 321.697 L
635.117 320.772 L
636.18 320.01 L
637.243 319.303 L
638.306 318.596 L
639.369 318.053 L
640.432 317.835 L
641.495 317.454 L
642.559 317.073 L
643.622 317.019 L
644.685 317.073 L
645.748 316.964 L
646.811 317.29 L
647.874 317.453 L
648.937 317.671 L
650 318.215 L
650.056 318.232 L
S
GR
GS
[0.75 0 0 0.75 0 0] CT
0.494 0.184 0.557 RC
1 LJ
2 LW
N
177.944 381.521 M
178 381.516 L
179.063 381.433 L
180.126 381.351 L
181.189 381.435 L
182.252 381.436 L
183.315 381.438 L
184.378 381.437 L
185.441 381.438 L
186.505 381.436 L
187.568 381.433 L
188.631 381.682 L
189.694 381.678 L
190.757 381.679 L
191.82 381.596 L
192.883 381.678 L
193.946 381.677 L
195.009 381.509 L
196.072 381.511 L
197.135 381.426 L
198.198 381.425 L
199.261 381.345 L
200.324 381.428 L
201.387 381.513 L
202.45 381.429 L
203.514 381.344 L
204.577 381.345 L
205.64 381.428 L
206.703 381.424 L
207.766 381.341 L
208.829 381.257 L
209.892 381.255 L
210.955 381.422 L
212.018 381.421 L
213.081 381.34 L
214.144 381.338 L
215.207 381.419 L
216.27 381.42 L
217.333 381.336 L
218.396 381.335 L
219.459 381.335 L
220.523 381.254 L
221.586 381.089 L
222.649 380.925 L
223.712 380.92 L
224.775 381.005 L
225.838 381.004 L
226.901 381.086 L
227.964 381.087 L
229.027 381.002 L
230.09 381.086 L
231.153 381.251 L
232.216 381.252 L
233.279 381.251 L
234.342 381.334 L
235.405 381.416 L
236.468 381.333 L
237.532 381.251 L
238.595 381.168 L
239.658 381.333 L
240.721 381.417 L
241.784 381.504 L
242.847 381.503 L
243.91 381.505 L
244.973 381.422 L
246.036 381.34 L
247.099 381.172 L
248.162 381.089 L
249.225 381.175 L
250.288 381.093 L
251.351 381.011 L
252.414 380.926 L
253.477 381.007 L
254.541 381.091 L
255.604 381.096 L
256.667 380.928 L
257.73 380.928 L
258.793 380.926 L
259.856 380.927 L
260.919 381.091 L
261.982 381.008 L
263.045 381.01 L
264.108 381.09 L
265.171 381.008 L
266.234 380.922 L
267.297 380.923 L
268.36 380.924 L
269.423 381.007 L
270.486 381.087 L
271.55 381.007 L
272.613 381.006 L
273.676 381.006 L
274.739 380.92 L
275.802 380.84 L
276.865 380.919 L
277.928 380.918 L
278.991 381 L
280.054 381.083 L
281.117 380.918 L
282.18 381 L
283.243 380.916 L
284.306 380.999 L
285.369 380.921 L
286.432 381.005 L
287.495 380.924 L
288.559 380.921 L
289.622 381.006 L
290.685 380.838 L
291.748 380.512 L
292.811 380.185 L
293.874 379.776 L
294.937 379.124 L
296 378.303 L
297.063 377.401 L
298.126 376.583 L
299.189 375.435 L
300.252 374.214 L
301.315 372.831 L
302.378 371.279 L
303.441 369.658 L
304.504 367.8 L
305.568 365.772 L
306.631 363.444 L
307.694 361.003 L
308.757 358.407 L
309.82 355.524 L
310.883 352.562 L
311.946 349.433 L
313.009 346.156 L
314.072 342.582 L
315.135 338.75 L
316.198 334.523 L
317.261 330.155 L
318.324 325.292 L
319.387 320.4 L
320.45 315.203 L
321.514 309.619 L
322.577 303.943 L
323.64 298.242 L
324.703 292.035 L
325.766 285.834 L
326.829 279.342 L
327.892 272.685 L
328.955 265.713 L
330.018 258.48 L
331.081 251.181 L
332.144 243.709 L
333.207 235.662 L
334.27 227.492 L
335.333 218.941 L
336.396 210.215 L
337.459 200.799 L
338.523 191.462 L
339.586 182.69 L
340.649 174.619 L
341.712 167.561 L
342.775 160.751 L
343.838 154.196 L
344.901 147.669 L
345.964 141.221 L
347.027 134.771 L
348.09 128.662 L
349.153 123.024 L
350.216 117.821 L
351.279 113.103 L
352.342 108.715 L
353.405 104.346 L
354.468 100.251 L
355.532 96.079 L
356.595 92.457 L
357.658 88.637 L
358.721 85.541 L
359.784 83.024 L
360.847 80.809 L
361.91 79.101 L
362.973 78.039 L
364.036 77.001 L
365.099 76.961 L
366.162 77.499 L
367.225 78.686 L
368.288 80.507 L
369.351 83.266 L
370.414 86.431 L
371.477 89.346 L
372.541 91.768 L
373.604 94.346 L
374.667 96.612 L
375.73 99.054 L
376.793 101.618 L
377.856 104.309 L
378.919 107.206 L
379.982 110.019 L
381.045 113.135 L
382.108 115.915 L
383.171 118.359 L
384.234 120.67 L
385.297 123.245 L
386.36 125.305 L
387.423 127.432 L
388.486 129.875 L
389.55 131.752 L
390.613 133.564 L
391.676 135.437 L
392.739 136.998 L
393.802 138.685 L
394.865 140.122 L
395.928 141.746 L
396.991 143.058 L
398.054 144.122 L
399.117 145.247 L
400.18 146.309 L
401.243 147.127 L
402.306 148.131 L
403.369 149.072 L
404.432 150.197 L
405.495 151.448 L
406.559 152.698 L
407.622 154.137 L
408.685 155.633 L
409.748 157.497 L
410.811 159.185 L
411.874 160.985 L
412.937 162.747 L
414 164.74 L
415.063 166.856 L
416.126 169.034 L
417.189 171.273 L
418.252 173.387 L
419.315 175.74 L
420.378 178.048 L
421.441 180.107 L
422.505 182.177 L
423.568 183.885 L
424.631 185.833 L
425.694 187.681 L
426.757 189.317 L
427.82 190.829 L
428.883 192.155 L
429.946 193.419 L
431.009 194.621 L
432.072 195.683 L
433.135 196.574 L
434.198 197.465 L
435.261 198.356 L
436.324 199.185 L
437.387 199.857 L
438.45 200.608 L
439.514 201.296 L
440.577 202.03 L
441.64 202.718 L
442.703 203.576 L
443.766 204.326 L
444.829 205.354 L
445.892 206.336 L
446.955 207.291 L
448.018 208.522 L
449.081 209.772 L
450.144 211.19 L
451.207 212.563 L
452.27 214.125 L
453.333 215.541 L
454.396 217.04 L
455.459 218.643 L
456.523 219.974 L
457.586 221.514 L
458.649 222.846 L
459.712 224.345 L
460.775 225.905 L
461.838 227.302 L
462.901 228.489 L
463.964 229.448 L
465.027 230.799 L
466.09 231.923 L
467.153 233.023 L
468.216 233.772 L
469.279 234.633 L
470.342 235.507 L
471.405 236.345 L
472.468 237.219 L
473.532 238.02 L
474.595 238.858 L
475.658 239.609 L
476.721 240.609 L
477.784 241.574 L
478.847 242.923 L
479.91 244.334 L
480.973 245.584 L
482.036 247.174 L
483.099 248.425 L
484.162 250.016 L
485.225 251.575 L
486.288 253.265 L
487.351 254.889 L
488.414 256.516 L
489.477 258.332 L
490.541 260.086 L
491.604 262.027 L
492.667 263.905 L
493.73 265.5 L
494.793 267.131 L
495.856 268.947 L
496.919 270.546 L
497.982 271.833 L
499.045 273.399 L
500.108 274.902 L
501.171 276.746 L
502.234 278.16 L
503.297 279.726 L
504.36 281.052 L
505.423 282.483 L
506.486 283.861 L
507.55 285.215 L
508.613 286.656 L
509.676 288.222 L
510.739 289.5 L
511.802 290.69 L
512.865 291.747 L
513.928 293.064 L
514.991 294.255 L
516.054 295.509 L
517.117 296.41 L
518.18 297.664 L
519.243 298.688 L
520.306 299.795 L
521.369 300.798 L
522.432 301.78 L
523.495 302.386 L
524.559 303.348 L
525.622 304.269 L
526.685 305.022 L
527.748 305.755 L
528.811 306.677 L
529.874 307.639 L
530.937 308.247 L
532 309.189 L
533.063 310.031 L
534.126 310.91 L
535.189 311.896 L
536.252 312.92 L
537.315 313.889 L
538.378 314.94 L
539.441 315.946 L
540.505 317.124 L
541.568 318.335 L
542.631 319.543 L
543.694 320.596 L
544.757 321.698 L
545.82 323.208 L
546.883 324.151 L
547.946 324.906 L
549.009 325.583 L
550.072 326.008 L
551.135 326.449 L
552.198 326.734 L
553.261 326.782 L
554.324 326.105 L
555.387 325.805 L
556.45 325.568 L
557.514 325.442 L
558.577 325.646 L
559.64 325.835 L
560.703 326.102 L
561.766 326.165 L
562.829 326.339 L
563.892 326.512 L
564.955 326.653 L
566.018 327.219 L
567.081 327.597 L
568.144 328.715 L
569.207 329.61 L
570.27 330.693 L
571.333 331.7 L
572.396 332.643 L
573.459 333.763 L
574.523 334.732 L
575.586 335.625 L
576.649 336.455 L
577.712 337.159 L
578.775 337.637 L
579.838 338.078 L
580.901 338.38 L
581.964 338.644 L
583.027 338.946 L
584.09 339.158 L
585.153 339.358 L
586.216 339.221 L
587.279 338.844 L
588.342 338.278 L
589.405 337.574 L
590.468 336.87 L
591.532 336.191 L
592.595 335.361 L
593.658 334.443 L
594.721 333.462 L
595.784 332.456 L
596.847 331.386 L
597.91 330.478 L
598.973 329.723 L
600.036 329.093 L
601.099 328.324 L
602.162 327.932 L
603.225 327.855 L
604.288 327.54 L
605.351 327.54 L
606.414 327.225 L
607.477 327.196 L
608.541 327.103 L
609.604 327.544 L
610.667 327.923 L
611.73 328.49 L
612.793 329.085 L
613.856 329.463 L
614.919 330.219 L
615.982 330.786 L
617.045 331.263 L
618.108 331.592 L
619.171 331.857 L
620.234 331.844 L
621.297 331.857 L
622.36 331.731 L
623.423 331.416 L
624.487 330.912 L
625.55 330.247 L
626.613 329.589 L
627.676 328.833 L
628.739 327.888 L
629.802 327.036 L
630.865 325.95 L
631.928 324.879 L
632.991 323.619 L
634.054 322.658 L
635.117 321.603 L
636.18 320.672 L
637.243 319.836 L
638.306 318.984 L
639.369 318.387 L
640.432 318.152 L
641.495 317.659 L
642.559 317.252 L
643.622 317.188 L
644.685 317.217 L
645.748 317.073 L
646.811 317.452 L
647.874 317.641 L
648.937 317.894 L
650 318.525 L
650.056 318.542 L
S
GR
GS
[0.75 0 0 0.75 0 0] CT
0.467 0.675 0.188 RC
[8 8] 0 setdash
2 LJ
2 LW
N
310.883 445 M
311.946 444.6 L
313.009 444.164 L
314.072 443.69 L
315.135 443.174 L
316.198 442.613 L
317.261 442.004 L
318.324 441.344 L
319.387 440.628 L
320.45 439.856 L
321.514 439.024 L
322.577 438.129 L
323.64 437.17 L
324.703 436.144 L
325.766 435.049 L
326.829 433.883 L
327.892 432.643 L
328.955 431.327 L
330.018 429.931 L
331.081 428.454 L
332.144 426.894 L
333.207 425.248 L
334.27 423.51 L
335.333 421.679 L
336.396 419.751 L
337.459 417.721 L
338.523 415.587 L
339.586 413.351 L
340.649 411.021 L
341.712 408.606 L
342.775 406.113 L
343.838 403.546 L
344.901 400.905 L
345.964 398.191 L
347.027 395.406 L
348.09 392.55 L
349.153 389.628 L
350.216 386.646 L
351.279 383.607 L
352.342 380.518 L
353.405 377.38 L
354.468 374.195 L
355.532 370.963 L
356.595 367.688 L
357.658 364.371 L
358.721 361.015 L
359.784 357.628 L
360.847 354.214 L
361.91 350.778 L
362.973 347.327 L
364.036 343.864 L
365.099 340.395 L
366.162 336.929 L
367.225 333.472 L
368.288 330.033 L
369.351 326.618 L
370.414 323.238 L
371.477 319.891 L
372.541 316.574 L
373.604 313.285 L
374.667 310.023 L
375.73 306.787 L
376.793 303.58 L
377.856 300.402 L
378.919 297.255 L
379.982 294.141 L
381.045 291.059 L
382.108 288.01 L
383.171 284.991 L
384.234 281.999 L
385.297 279.033 L
386.36 276.094 L
387.423 273.178 L
388.486 270.288 L
389.55 267.422 L
390.613 264.576 L
391.676 261.752 L
392.739 258.946 L
393.802 256.159 L
394.865 253.389 L
395.928 250.636 L
396.991 247.9 L
398.054 245.177 L
399.117 242.466 L
400.18 239.767 L
401.243 237.079 L
402.306 234.402 L
403.369 231.735 L
404.432 229.08 L
405.495 226.438 L
406.559 223.81 L
407.622 221.197 L
408.685 218.6 L
409.748 216.023 L
410.811 213.465 L
411.874 210.926 L
412.937 208.408 L
414 205.911 L
415.063 203.437 L
416.126 200.986 L
417.189 198.561 L
418.252 196.16 L
419.315 193.784 L
420.378 191.434 L
421.441 189.108 L
422.505 186.806 L
423.568 184.525 L
424.631 182.264 L
425.694 180.024 L
426.757 177.804 L
427.82 175.602 L
428.883 173.415 L
429.946 171.243 L
431.009 169.085 L
432.072 166.94 L
433.135 164.805 L
434.198 162.681 L
435.261 160.566 L
436.324 158.461 L
437.387 156.364 L
438.45 154.276 L
439.514 152.195 L
440.577 150.123 L
441.64 148.058 L
442.703 146.002 L
443.766 143.955 L
444.829 141.918 L
445.892 139.892 L
446.955 137.878 L
448.018 135.875 L
449.081 133.886 L
450.144 131.912 L
451.207 129.954 L
452.27 128.012 L
453.333 126.087 L
454.396 124.179 L
455.459 122.287 L
456.523 120.412 L
457.586 118.553 L
458.649 116.711 L
459.712 114.884 L
460.775 113.074 L
461.838 111.281 L
462.901 109.502 L
463.964 107.735 L
465.027 105.981 L
466.09 104.241 L
467.153 102.514 L
468.216 100.797 L
469.279 99.089 L
470.342 97.39 L
471.405 95.701 L
472.468 94.022 L
473.532 92.352 L
474.595 90.692 L
475.658 89.04 L
476.721 87.398 L
477.784 85.767 L
478.847 84.149 L
479.91 82.546 L
480.973 80.959 L
482.036 79.387 L
483.099 77.831 L
484.162 76.291 L
485.225 74.769 L
486.288 73.265 L
487.351 71.779 L
488.414 70.312 L
489.477 68.864 L
490.541 67.436 L
491.604 66.028 L
492.667 64.642 L
493.73 63.276 L
494.793 61.927 L
495.856 60.598 L
496.919 59.288 L
497.982 57.994 L
499.045 56.716 L
500.108 55.456 L
501.171 54.214 L
502.234 52.99 L
503.297 51.783 L
504.36 50.592 L
505.423 49.417 L
506.486 48.257 L
507.55 47.113 L
508.613 45.984 L
509.676 44.872 L
510.739 43.776 L
511.802 42.694 L
512.865 41.624 L
513.928 40.568 L
514.991 39.526 L
516.054 38.497 L
517.117 37.481 L
S
GR
GS
[0.75 0 0 0.75 0 0] CT
1 GC
N
644 214 M
644 97 L
562 97 L
562 214 L
cp
f
GR
GS
[0.75 0 0 0.75 456.75 87] CT
/Helvetica 16.8 F
GS
[1 0 0 1 0 0] CT
0 0 moveto 
1 -1 scale
(V) t 
GR
GR
GS
[0.75 0 0 0.75 465.75 93] CT
/Helvetica 13.44 F
GS
[1 0 0 1 0 0] CT
0 0 moveto 
1 -1 scale
(D) t 
GR
GR
GS
[0.75 0 0 0.75 473.25 93] CT
/Helvetica 13.44 F
GS
[1 0 0 1 0 0] CT
0 0 moveto 
1 -1 scale
(S) t 
GR
GR
GS
[0.75 0 0 0.75 0 0] CT
0.851 0.325 0.098 RC
1 LJ
2 LW
N
566 112.932 M
606 112.932 L
S
GR
GS
[0.75 0 0 0.75 456.75 108] CT
/Helvetica 16.8 F
GS
[1 0 0 1 0 0] CT
0 0 moveto 
1 -1 scale
(I) t 
GR
GR
GS
[0.75 0 0 0.75 460.5 114] CT
/Helvetica 13.44 F
GS
[1 0 0 1 0 0] CT
0 0 moveto 
1 -1 scale
(D) t 
GR
GR
GS
[0.75 0 0 0.75 0 0] CT
0.929 0.694 0.125 RC
1 LJ
2 LW
N
566 141.311 M
606 141.311 L
S
GR
GS
[0.75 0 0 0.75 456.75 129.75] CT
/Helvetica 16.8 F
GS
[1 0 0 1 0 0] CT
0 0 moveto 
1 -1 scale
(P) t 
GR
GR
GS
[0.75 0 0 0.75 465.75 135.75] CT
/Helvetica 13.44 F
GS
[1 0 0 1 0 0] CT
0 0 moveto 
1 -1 scale
(s) t 
GR
GR
GS
[0.75 0 0 0.75 471 135.75] CT
/Helvetica 13.44 F
GS
[1 0 0 1 0 0] CT
0 0 moveto 
1 -1 scale
(w) t 
GR
GR
GS
[0.75 0 0 0.75 0 0] CT
0.494 0.184 0.557 RC
1 LJ
2 LW
N
566 169.689 M
606 169.689 L
S
GR
GS
[0.75 0 0 0.75 456.75 150.75] CT
/Helvetica 16.8 F
GS
[1 0 0 1 0 0] CT
0 0 moveto 
1 -1 scale
(E) t 
GR
GR
GS
[0.75 0 0 0.75 465.75 156.75] CT
/Helvetica 13.44 F
GS
[1 0 0 1 0 0] CT
0 0 moveto 
1 -1 scale
(s) t 
GR
GR
GS
[0.75 0 0 0.75 471 156.75] CT
/Helvetica 13.44 F
GS
[1 0 0 1 0 0] CT
0 0 moveto 
1 -1 scale
(w) t 
GR
GR
GS
[0.75 0 0 0.75 0 0] CT
0.467 0.675 0.188 RC
[8 8] 0 setdash
2 LJ
2 LW
N
566 198.068 M
606 198.068 L
S
GR
GS
[0.75 0 0 0.75 0 0] CT
0.149 GC
10.0 ML
0.667 LW
N
562 214 M
562 97 L
644 97 L
644 214 L
cp
S
GR
%%Trailer
%%Pages: 1
%%EOF
