%!PS-Adobe-3.0 EPSF-3.0
%%Creator: (MATLAB, The Mathworks, Inc. Version 24.1.0.2603908 \(R2024a\) Update 3. Operating System: Windows 10)
%%Title: (C:/Users/lorde/Documents/MATLAB/Master Lab Course/Exercise 3/E3_Rg10_Eoff2.eps)
%%CreationDate: 2024-06-30T10:04:25
%%Pages: (atend)
%%BoundingBox:     0     0   600   375
%%LanguageLevel: 3
%%EndComments
%%BeginProlog
%%BeginResource: procset (Apache XML Graphics Std ProcSet) 1.2 0
%%Version: 1.2 0
%%Copyright: (Copyright 2001-2003,2010 The Apache Software Foundation. License terms: http://www.apache.org/licenses/LICENSE-2.0)
/bd{bind def}bind def
/ld{load def}bd
/GR/grestore ld
/GS/gsave ld
/RM/rmoveto ld
/C/curveto ld
/t/show ld
/L/lineto ld
/ML/setmiterlimit ld
/CT/concat ld
/f/fill ld
/N/newpath ld
/S/stroke ld
/CC/setcmykcolor ld
/A/ashow ld
/cp/closepath ld
/RC/setrgbcolor ld
/LJ/setlinejoin ld
/GC/setgray ld
/LW/setlinewidth ld
/M/moveto ld
/re {4 2 roll M
1 index 0 rlineto
0 exch rlineto
neg 0 rlineto
cp } bd
/_ctm matrix def
/_tm matrix def
/BT { _ctm currentmatrix pop matrix _tm copy pop 0 0 moveto } bd
/ET { _ctm setmatrix } bd
/iTm { _ctm setmatrix _tm concat } bd
/Tm { _tm astore pop iTm 0 0 moveto } bd
/ux 0.0 def
/uy 0.0 def
/F {
  /Tp exch def
  /Tf exch def
  Tf findfont Tp scalefont setfont
  /cf Tf def  /cs Tp def
} bd
/ULS {currentpoint /uy exch def /ux exch def} bd
/ULE {
  /Tcx currentpoint pop def
  gsave
  newpath
  cf findfont cs scalefont dup
  /FontMatrix get 0 get /Ts exch def /FontInfo get dup
  /UnderlinePosition get Ts mul /To exch def
  /UnderlineThickness get Ts mul /Tt exch def
  ux uy To add moveto  Tcx uy To add lineto
  Tt setlinewidth stroke
  grestore
} bd
/OLE {
  /Tcx currentpoint pop def
  gsave
  newpath
  cf findfont cs scalefont dup
  /FontMatrix get 0 get /Ts exch def /FontInfo get dup
  /UnderlinePosition get Ts mul /To exch def
  /UnderlineThickness get Ts mul /Tt exch def
  ux uy To add cs add moveto Tcx uy To add cs add lineto
  Tt setlinewidth stroke
  grestore
} bd
/SOE {
  /Tcx currentpoint pop def
  gsave
  newpath
  cf findfont cs scalefont dup
  /FontMatrix get 0 get /Ts exch def /FontInfo get dup
  /UnderlinePosition get Ts mul /To exch def
  /UnderlineThickness get Ts mul /Tt exch def
  ux uy To add cs 10 mul 26 idiv add moveto Tcx uy To add cs 10 mul 26 idiv add lineto
  Tt setlinewidth stroke
  grestore
} bd
/QT {
/Y22 exch store
/X22 exch store
/Y21 exch store
/X21 exch store
currentpoint
/Y21 load 2 mul add 3 div exch
/X21 load 2 mul add 3 div exch
/X21 load 2 mul /X22 load add 3 div
/Y21 load 2 mul /Y22 load add 3 div
/X22 load /Y22 load curveto
} bd
/SSPD {
dup length /d exch dict def
{
/v exch def
/k exch def
currentpagedevice k known {
/cpdv currentpagedevice k get def
v cpdv ne {
/upd false def
/nullv v type /nulltype eq def
/nullcpdv cpdv type /nulltype eq def
nullv nullcpdv or
{
/upd true def
} {
/sametype v type cpdv type eq def
sametype {
v type /arraytype eq {
/vlen v length def
/cpdvlen cpdv length def
vlen cpdvlen eq {
0 1 vlen 1 sub {
/i exch def
/obj v i get def
/cpdobj cpdv i get def
obj cpdobj ne {
/upd true def
exit
} if
} for
} {
/upd true def
} ifelse
} {
v type /dicttype eq {
v {
/dv exch def
/dk exch def
/cpddv cpdv dk get def
dv cpddv ne {
/upd true def
exit
} if
} forall
} {
/upd true def
} ifelse
} ifelse
} if
} ifelse
upd true eq {
d k v put
} if
} if
} if
} forall
d length 0 gt {
d setpagedevice
} if
} bd
/RE { % /NewFontName [NewEncodingArray] /FontName RE -
  findfont dup length dict begin
  {
    1 index /FID ne
    {def} {pop pop} ifelse
  } forall
  /Encoding exch def
  /FontName 1 index def
  currentdict definefont pop
  end
} bind def
%%EndResource
%%BeginResource: procset (Apache XML Graphics EPS ProcSet) 1.0 0
%%Version: 1.0 0
%%Copyright: (Copyright 2002-2003 The Apache Software Foundation. License terms: http://www.apache.org/licenses/LICENSE-2.0)
/BeginEPSF { %def
/b4_Inc_state save def         % Save state for cleanup
/dict_count countdictstack def % Count objects on dict stack
/op_count count 1 sub def      % Count objects on operand stack
userdict begin                 % Push userdict on dict stack
/showpage { } def              % Redefine showpage, { } = null proc
0 setgray 0 setlinecap         % Prepare graphics state
1 setlinewidth 0 setlinejoin
10 setmiterlimit [ ] 0 setdash newpath
/languagelevel where           % If level not equal to 1 then
{pop languagelevel             % set strokeadjust and
1 ne                           % overprint to their defaults.
{false setstrokeadjust false setoverprint
} if
} if
} bd
/EndEPSF { %def
count op_count sub {pop} repeat            % Clean up stacks
countdictstack dict_count sub {end} repeat
b4_Inc_state restore
} bd
%%EndResource
%FOPBeginFontDict
%%IncludeResource: font Courier-Oblique
%%IncludeResource: font Courier-BoldOblique
%%IncludeResource: font Courier-Bold
%%IncludeResource: font ZapfDingbats
%%IncludeResource: font Symbol
%%IncludeResource: font Helvetica
%%IncludeResource: font Helvetica-Oblique
%%IncludeResource: font Helvetica-Bold
%%IncludeResource: font Helvetica-BoldOblique
%%IncludeResource: font Times-Roman
%%IncludeResource: font Times-Italic
%%IncludeResource: font Times-Bold
%%IncludeResource: font Times-BoldItalic
%%IncludeResource: font Courier
%FOPEndFontDict
%%BeginResource: encoding WinAnsiEncoding
/WinAnsiEncoding [
/.notdef /.notdef /.notdef /.notdef /.notdef
/.notdef /.notdef /.notdef /.notdef /.notdef
/.notdef /.notdef /.notdef /.notdef /.notdef
/.notdef /.notdef /.notdef /.notdef /.notdef
/.notdef /.notdef /.notdef /.notdef /.notdef
/.notdef /.notdef /.notdef /.notdef /.notdef
/.notdef /.notdef /space /exclam /quotedbl
/numbersign /dollar /percent /ampersand /quotesingle
/parenleft /parenright /asterisk /plus /comma
/hyphen /period /slash /zero /one
/two /three /four /five /six
/seven /eight /nine /colon /semicolon
/less /equal /greater /question /at
/A /B /C /D /E
/F /G /H /I /J
/K /L /M /N /O
/P /Q /R /S /T
/U /V /W /X /Y
/Z /bracketleft /backslash /bracketright /asciicircum
/underscore /quoteleft /a /b /c
/d /e /f /g /h
/i /j /k /l /m
/n /o /p /q /r
/s /t /u /v /w
/x /y /z /braceleft /bar
/braceright /asciitilde /bullet /Euro /bullet
/quotesinglbase /florin /quotedblbase /ellipsis /dagger
/daggerdbl /circumflex /perthousand /Scaron /guilsinglleft
/OE /bullet /Zcaron /bullet /bullet
/quoteleft /quoteright /quotedblleft /quotedblright /bullet
/endash /emdash /asciitilde /trademark /scaron
/guilsinglright /oe /bullet /zcaron /Ydieresis
/space /exclamdown /cent /sterling /currency
/yen /brokenbar /section /dieresis /copyright
/ordfeminine /guillemotleft /logicalnot /sfthyphen /registered
/macron /degree /plusminus /twosuperior /threesuperior
/acute /mu /paragraph /middot /cedilla
/onesuperior /ordmasculine /guillemotright /onequarter /onehalf
/threequarters /questiondown /Agrave /Aacute /Acircumflex
/Atilde /Adieresis /Aring /AE /Ccedilla
/Egrave /Eacute /Ecircumflex /Edieresis /Igrave
/Iacute /Icircumflex /Idieresis /Eth /Ntilde
/Ograve /Oacute /Ocircumflex /Otilde /Odieresis
/multiply /Oslash /Ugrave /Uacute /Ucircumflex
/Udieresis /Yacute /Thorn /germandbls /agrave
/aacute /acircumflex /atilde /adieresis /aring
/ae /ccedilla /egrave /eacute /ecircumflex
/edieresis /igrave /iacute /icircumflex /idieresis
/eth /ntilde /ograve /oacute /ocircumflex
/otilde /odieresis /divide /oslash /ugrave
/uacute /ucircumflex /udieresis /yacute /thorn
/ydieresis
] def
%%EndResource
%FOPBeginFontReencode
/Courier-Oblique findfont
dup length dict begin
  {1 index /FID ne {def} {pop pop} ifelse} forall
  /Encoding WinAnsiEncoding def
  currentdict
end
/Courier-Oblique exch definefont pop
/Courier-BoldOblique findfont
dup length dict begin
  {1 index /FID ne {def} {pop pop} ifelse} forall
  /Encoding WinAnsiEncoding def
  currentdict
end
/Courier-BoldOblique exch definefont pop
/Courier-Bold findfont
dup length dict begin
  {1 index /FID ne {def} {pop pop} ifelse} forall
  /Encoding WinAnsiEncoding def
  currentdict
end
/Courier-Bold exch definefont pop
/Helvetica findfont
dup length dict begin
  {1 index /FID ne {def} {pop pop} ifelse} forall
  /Encoding WinAnsiEncoding def
  currentdict
end
/Helvetica exch definefont pop
/Helvetica-Oblique findfont
dup length dict begin
  {1 index /FID ne {def} {pop pop} ifelse} forall
  /Encoding WinAnsiEncoding def
  currentdict
end
/Helvetica-Oblique exch definefont pop
/Helvetica-Bold findfont
dup length dict begin
  {1 index /FID ne {def} {pop pop} ifelse} forall
  /Encoding WinAnsiEncoding def
  currentdict
end
/Helvetica-Bold exch definefont pop
/Helvetica-BoldOblique findfont
dup length dict begin
  {1 index /FID ne {def} {pop pop} ifelse} forall
  /Encoding WinAnsiEncoding def
  currentdict
end
/Helvetica-BoldOblique exch definefont pop
/Times-Roman findfont
dup length dict begin
  {1 index /FID ne {def} {pop pop} ifelse} forall
  /Encoding WinAnsiEncoding def
  currentdict
end
/Times-Roman exch definefont pop
/Times-Italic findfont
dup length dict begin
  {1 index /FID ne {def} {pop pop} ifelse} forall
  /Encoding WinAnsiEncoding def
  currentdict
end
/Times-Italic exch definefont pop
/Times-Bold findfont
dup length dict begin
  {1 index /FID ne {def} {pop pop} ifelse} forall
  /Encoding WinAnsiEncoding def
  currentdict
end
/Times-Bold exch definefont pop
/Times-BoldItalic findfont
dup length dict begin
  {1 index /FID ne {def} {pop pop} ifelse} forall
  /Encoding WinAnsiEncoding def
  currentdict
end
/Times-BoldItalic exch definefont pop
/Courier findfont
dup length dict begin
  {1 index /FID ne {def} {pop pop} ifelse} forall
  /Encoding WinAnsiEncoding def
  currentdict
end
/Courier exch definefont pop
%FOPEndFontReencode
%%EndProlog
%%Page: 1 1
%%PageBoundingBox: 0 0 600 375
%%BeginPageSetup
[1 0 0 -1 0 375] CT
%%EndPageSetup
GS
[0.75 0 0 0.75 0 0] CT
1 GC
N
0 0 800 500 re
f
GR
GS
[0.75 0 0 0.75 0 0] CT
1 GC
N
0 0 800 500 re
f
GR
GS
[0.75 0 0 0.75 0 0] CT
0.941 GC
N
650 445 M
659 445 L
659 37 L
650 37 L
cp
f
GR
GS
[0.75 0 0 0.75 0 0] CT
0.149 GC
2 setlinecap
1 LJ
0.667 LW
N
650 445 M
659 445 L
S
GR
GS
[0.75 0 0 0.75 0 0] CT
0.929 0.694 0.125 RC
2 setlinecap
1 LJ
0.667 LW
N
659 445 M
659 37 L
S
GR
GS
[0.75 0 0 0.75 0 0] CT
0.929 0.694 0.125 RC
2 setlinecap
1 LJ
0.667 LW
N
659 445 M
654.92 445 L
S
GR
GS
[0.75 0 0 0.75 0 0] CT
0.929 0.694 0.125 RC
2 setlinecap
1 LJ
0.667 LW
N
659 363.4 M
654.92 363.4 L
S
GR
GS
[0.75 0 0 0.75 0 0] CT
0.929 0.694 0.125 RC
2 setlinecap
1 LJ
0.667 LW
N
659 281.8 M
654.92 281.8 L
S
GR
GS
[0.75 0 0 0.75 0 0] CT
0.929 0.694 0.125 RC
2 setlinecap
1 LJ
0.667 LW
N
659 200.2 M
654.92 200.2 L
S
GR
GS
[0.75 0 0 0.75 0 0] CT
0.929 0.694 0.125 RC
2 setlinecap
1 LJ
0.667 LW
N
659 118.6 M
654.92 118.6 L
S
GR
GS
[0.75 0 0 0.75 0 0] CT
0.929 0.694 0.125 RC
2 setlinecap
1 LJ
0.667 LW
N
659 37 M
654.92 37 L
S
GR
GS
[0.75 0 0 0.75 499.05002 333.75] CT
0.929 0.694 0.125 RC
/Helvetica 18.667 F
GS
[1 0 0 1 0 0] CT
0 7 moveto 
1 -1 scale
(-5) t 
GR
GR
GS
[0.75 0 0 0.75 499.05002 272.55] CT
0.929 0.694 0.125 RC
/Helvetica 18.667 F
GS
[1 0 0 1 0 0] CT
0 7 moveto 
1 -1 scale
(0) t 
GR
GR
GS
[0.75 0 0 0.75 499.05002 211.34999] CT
0.929 0.694 0.125 RC
/Helvetica 18.667 F
GS
[1 0 0 1 0 0] CT
0 7 moveto 
1 -1 scale
(5) t 
GR
GR
GS
[0.75 0 0 0.75 499.05002 150.15] CT
0.929 0.694 0.125 RC
/Helvetica 18.667 F
GS
[1 0 0 1 0 0] CT
0 7 moveto 
1 -1 scale
(10) t 
GR
GR
GS
[0.75 0 0 0.75 499.05002 88.95] CT
0.929 0.694 0.125 RC
/Helvetica 18.667 F
GS
[1 0 0 1 0 0] CT
0 7 moveto 
1 -1 scale
(15) t 
GR
GR
GS
[0.75 0 0 0.75 499.05002 27.75] CT
0.929 0.694 0.125 RC
/Helvetica 18.667 F
GS
[1 0 0 1 0 0] CT
0 7 moveto 
1 -1 scale
(20) t 
GR
GR
GS
[0 -0.75 0.75 0 533.25 199.5] CT
0.929 0.694 0.125 RC
/Helvetica 20.533 F
GS
[1 0 0 1 0 0] CT
0 0 moveto 
1 -1 scale
(I) t 
GR
GR
GS
[0 -0.75 0.75 0 540.75 195] CT
0.929 0.694 0.125 RC
/Helvetica 16.427 F
GS
[1 0 0 1 0 0] CT
0 0 moveto 
1 -1 scale
(D) t 
GR
GR
GS
[0 -0.75 0.75 0 533.25 186] CT
0.929 0.694 0.125 RC
/Helvetica 20.533 F
GS
[1 0 0 1 0 0] CT
0 0 moveto 
1 -1 scale
( / A) t 
GR
GR
GS
[0.75 0 0 0.75 0 0] CT
0.941 GC
N
104 445 M
113 445 L
113 37 L
104 37 L
cp
f
GR
GS
[0.75 0 0 0.75 0 0] CT
0.149 GC
2 setlinecap
1 LJ
0.667 LW
N
104 445 M
113 445 L
S
GR
GS
[0.75 0 0 0.75 0 0] CT
0.494 0.184 0.557 RC
2 setlinecap
1 LJ
0.667 LW
N
104 445 M
104 37 L
S
GR
GS
[0.75 0 0 0.75 0 0] CT
0.494 0.184 0.557 RC
2 setlinecap
1 LJ
0.667 LW
N
104 445 M
108.08 445 L
S
GR
GS
[0.75 0 0 0.75 0 0] CT
0.494 0.184 0.557 RC
2 setlinecap
1 LJ
0.667 LW
N
104 386.714 M
108.08 386.714 L
S
GR
GS
[0.75 0 0 0.75 0 0] CT
0.494 0.184 0.557 RC
2 setlinecap
1 LJ
0.667 LW
N
104 328.429 M
108.08 328.429 L
S
GR
GS
[0.75 0 0 0.75 0 0] CT
0.494 0.184 0.557 RC
2 setlinecap
1 LJ
0.667 LW
N
104 270.143 M
108.08 270.143 L
S
GR
GS
[0.75 0 0 0.75 0 0] CT
0.494 0.184 0.557 RC
2 setlinecap
1 LJ
0.667 LW
N
104 211.857 M
108.08 211.857 L
S
GR
GS
[0.75 0 0 0.75 0 0] CT
0.494 0.184 0.557 RC
2 setlinecap
1 LJ
0.667 LW
N
104 153.571 M
108.08 153.571 L
S
GR
GS
[0.75 0 0 0.75 0 0] CT
0.494 0.184 0.557 RC
2 setlinecap
1 LJ
0.667 LW
N
104 95.286 M
108.08 95.286 L
S
GR
GS
[0.75 0 0 0.75 0 0] CT
0.494 0.184 0.557 RC
2 setlinecap
1 LJ
0.667 LW
N
104 37 M
108.08 37 L
S
GR
GS
[0.75 0 0 0.75 73.2 333.75] CT
0.494 0.184 0.557 RC
/Helvetica 18.667 F
GS
[1 0 0 1 0 0] CT
-27 7 moveto 
1 -1 scale
(-50) t 
GR
GR
GS
[0.75 0 0 0.75 73.2 290.03572] CT
0.494 0.184 0.557 RC
/Helvetica 18.667 F
GS
[1 0 0 1 0 0] CT
-11 7 moveto 
1 -1 scale
(0) t 
GR
GR
GS
[0.75 0 0 0.75 73.2 246.32142] CT
0.494 0.184 0.557 RC
/Helvetica 18.667 F
GS
[1 0 0 1 0 0] CT
-21 7 moveto 
1 -1 scale
(50) t 
GR
GR
GS
[0.75 0 0 0.75 73.2 202.60714] CT
0.494 0.184 0.557 RC
/Helvetica 18.667 F
GS
[1 0 0 1 0 0] CT
-32 7 moveto 
1 -1 scale
(100) t 
GR
GR
GS
[0.75 0 0 0.75 73.2 158.89286] CT
0.494 0.184 0.557 RC
/Helvetica 18.667 F
GS
[1 0 0 1 0 0] CT
-32 7 moveto 
1 -1 scale
(150) t 
GR
GR
GS
[0.75 0 0 0.75 73.2 115.17857] CT
0.494 0.184 0.557 RC
/Helvetica 18.667 F
GS
[1 0 0 1 0 0] CT
-32 7 moveto 
1 -1 scale
(200) t 
GR
GR
GS
[0.75 0 0 0.75 73.2 71.46428] CT
0.494 0.184 0.557 RC
/Helvetica 18.667 F
GS
[1 0 0 1 0 0] CT
-32 7 moveto 
1 -1 scale
(250) t 
GR
GR
GS
[0.75 0 0 0.75 73.2 27.75] CT
0.494 0.184 0.557 RC
/Helvetica 18.667 F
GS
[1 0 0 1 0 0] CT
-32 7 moveto 
1 -1 scale
(300) t 
GR
GR
GS
[0 -0.75 0.75 0 36 207.75] CT
0.494 0.184 0.557 RC
/Helvetica 20.533 F
GS
[1 0 0 1 0 0] CT
0 0 moveto 
1 -1 scale
(P) t 
GR
GR
GS
[0 -0.75 0.75 0 43.5 197.25] CT
0.494 0.184 0.557 RC
/Helvetica 16.427 F
GS
[1 0 0 1 0 0] CT
0 0 moveto 
1 -1 scale
(s) t 
GR
GR
GS
[0 -0.75 0.75 0 43.5 190.5] CT
0.494 0.184 0.557 RC
/Helvetica 16.427 F
GS
[1 0 0 1 0 0] CT
0 0 moveto 
1 -1 scale
(w) t 
GR
GR
GS
[0 -0.75 0.75 0 36 181.5] CT
0.494 0.184 0.557 RC
/Helvetica 20.533 F
GS
[1 0 0 1 0 0] CT
0 0 moveto 
1 -1 scale
( / W) t 
GR
GR
GS
[0.75 0 0 0.75 0 0] CT
0.941 GC
N
724 445 M
732 445 L
732 37 L
724 37 L
cp
f
GR
GS
[0.75 0 0 0.75 0 0] CT
0.149 GC
2 setlinecap
1 LJ
0.667 LW
N
724 445 M
732 445 L
S
GR
GS
[0.75 0 0 0.75 0 0] CT
0.467 0.675 0.188 RC
2 setlinecap
1 LJ
0.667 LW
N
732 445 M
732 37 L
S
GR
GS
[0.75 0 0 0.75 0 0] CT
0.467 0.675 0.188 RC
2 setlinecap
1 LJ
0.667 LW
N
732 445 M
727.92 445 L
S
GR
GS
[0.75 0 0 0.75 0 0] CT
0.467 0.675 0.188 RC
2 setlinecap
1 LJ
0.667 LW
N
732 343 M
727.92 343 L
S
GR
GS
[0.75 0 0 0.75 0 0] CT
0.467 0.675 0.188 RC
2 setlinecap
1 LJ
0.667 LW
N
732 241 M
727.92 241 L
S
GR
GS
[0.75 0 0 0.75 0 0] CT
0.467 0.675 0.188 RC
2 setlinecap
1 LJ
0.667 LW
N
732 139 M
727.92 139 L
S
GR
GS
[0.75 0 0 0.75 0 0] CT
0.467 0.675 0.188 RC
2 setlinecap
1 LJ
0.667 LW
N
732 37 M
727.92 37 L
S
GR
GS
[0.75 0 0 0.75 553.80002 333.75] CT
0.467 0.675 0.188 RC
/Helvetica 18.667 F
GS
[1 0 0 1 0 0] CT
0 7 moveto 
1 -1 scale
(0) t 
GR
GR
GS
[0.75 0 0 0.75 553.80002 257.25] CT
0.467 0.675 0.188 RC
/Helvetica 18.667 F
GS
[1 0 0 1 0 0] CT
0 7 moveto 
1 -1 scale
(5) t 
GR
GR
GS
[0.75 0 0 0.75 553.80002 180.75] CT
0.467 0.675 0.188 RC
/Helvetica 18.667 F
GS
[1 0 0 1 0 0] CT
0 7 moveto 
1 -1 scale
(10) t 
GR
GR
GS
[0.75 0 0 0.75 553.80002 104.25] CT
0.467 0.675 0.188 RC
/Helvetica 18.667 F
GS
[1 0 0 1 0 0] CT
0 7 moveto 
1 -1 scale
(15) t 
GR
GR
GS
[0.75 0 0 0.75 553.80002 27.75] CT
0.467 0.675 0.188 RC
/Helvetica 18.667 F
GS
[1 0 0 1 0 0] CT
0 7 moveto 
1 -1 scale
(20) t 
GR
GR
GS
[0 -0.75 0.75 0 588 210] CT
0.467 0.675 0.188 RC
/Helvetica 20.533 F
GS
[1 0 0 1 0 0] CT
0 0 moveto 
1 -1 scale
(E) t 
GR
GR
GS
[0 -0.75 0.75 0 595.5 199.5] CT
0.467 0.675 0.188 RC
/Helvetica 16.427 F
GS
[1 0 0 1 0 0] CT
0 0 moveto 
1 -1 scale
(s) t 
GR
GR
GS
[0 -0.75 0.75 0 595.5 192.75] CT
0.467 0.675 0.188 RC
/Helvetica 16.427 F
GS
[1 0 0 1 0 0] CT
0 0 moveto 
1 -1 scale
(w) t 
GR
GR
GS
[0 -0.75 0.75 0 588 183.75] CT
0.467 0.675 0.188 RC
/Helvetica 20.533 F
GS
[1 0 0 1 0 0] CT
0 0 moveto 
1 -1 scale
( / ) t 
GR
GR
GS
[0 -0.75 0.75 0 588 170.25] CT
0.467 0.675 0.188 RC
N
0.578 3.953 M
0.578 3.828 0.609 3.781 QT
3.688 -8.609 L
3.781 -8.906 4.023 -9.094 QT
4.266 -9.281 4.578 -9.281 QT
4.844 -9.281 5.023 -9.125 QT
5.203 -8.969 5.203 -8.703 QT
5.203 -8.641 5.203 -8.602 QT
5.203 -8.563 5.188 -8.516 QT
3.953 -3.609 L
3.75 -2.734 3.75 -2.109 QT
3.75 -1.328 4.117 -0.82 QT
4.484 -0.313 5.234 -0.313 QT
6.75 -0.313 7.922 -2.219 QT
7.922 -2.25 7.93 -2.258 QT
7.938 -2.266 7.938 -2.281 QT
9.453 -8.375 L
9.531 -8.656 9.781 -8.852 QT
10.031 -9.047 10.344 -9.047 QT
10.578 -9.047 10.773 -8.883 QT
10.969 -8.719 10.969 -8.453 QT
10.969 -8.344 10.938 -8.297 QT
9.438 -2.25 L
9.281 -1.656 9.281 -1.219 QT
9.281 -0.313 9.891 -0.313 QT
10.547 -0.313 10.883 -1.125 QT
11.219 -1.938 11.469 -3.094 QT
11.5 -3.203 11.641 -3.203 QT
11.891 -3.203 L
11.969 -3.203 12.023 -3.141 QT
12.078 -3.078 12.078 -3 QT
11.703 -1.531 11.273 -0.648 QT
10.844 0.234 9.859 0.234 QT
9.156 0.234 8.617 -0.164 QT
8.078 -0.563 7.922 -1.234 QT
7.391 -0.578 6.688 -0.172 QT
5.984 0.234 5.203 0.234 QT
3.891 0.234 3.141 -0.375 QT
2.078 3.859 L
2.016 4.156 1.773 4.344 QT
1.531 4.531 1.219 4.531 QT
0.969 4.531 0.773 4.375 QT
0.578 4.219 0.578 3.953 QT
cp
f
GR
GS
[0 -0.75 0.75 0 588 160.5] CT
0.467 0.675 0.188 RC
/Helvetica 20.533 F
GS
[1 0 0 1 0 0] CT
0 0 moveto 
1 -1 scale
(J) t 
GR
GR
GS
[0.75 0 0 0.75 0 0] CT
1 GC
N
178 445 M
650 445 L
650 37 L
178 37 L
cp
f
GR
GS
[0.75 0 0 0.75 0 0] CT
0.873 GC
1 LJ
0.667 LW
N
178 445 M
178 37 L
S
GR
GS
[0.75 0 0 0.75 0 0] CT
0.873 GC
1 LJ
0.667 LW
N
244.143 445 M
244.143 37 L
S
GR
GS
[0.75 0 0 0.75 0 0] CT
0.873 GC
1 LJ
0.667 LW
N
310.287 445 M
310.287 37 L
S
GR
GS
[0.75 0 0 0.75 0 0] CT
0.873 GC
1 LJ
0.667 LW
N
376.43 445 M
376.43 37 L
S
GR
GS
[0.75 0 0 0.75 0 0] CT
0.873 GC
1 LJ
0.667 LW
N
442.574 445 M
442.574 37 L
S
GR
GS
[0.75 0 0 0.75 0 0] CT
0.873 GC
1 LJ
0.667 LW
N
508.717 445 M
508.717 37 L
S
GR
GS
[0.75 0 0 0.75 0 0] CT
0.873 GC
1 LJ
0.667 LW
N
574.861 445 M
574.861 37 L
S
GR
GS
[0.75 0 0 0.75 0 0] CT
0.873 GC
1 LJ
0.667 LW
N
641.004 445 M
641.004 37 L
S
GR
GS
[0.75 0 0 0.75 0 0] CT
0.873 GC
1 LJ
0.667 LW
N
650 445 M
178 445 L
S
GR
GS
[0.75 0 0 0.75 0 0] CT
0.873 GC
1 LJ
0.667 LW
N
650 386.714 M
178 386.714 L
S
GR
GS
[0.75 0 0 0.75 0 0] CT
0.873 GC
1 LJ
0.667 LW
N
650 328.429 M
178 328.429 L
S
GR
GS
[0.75 0 0 0.75 0 0] CT
0.873 GC
1 LJ
0.667 LW
N
650 270.143 M
178 270.143 L
S
GR
GS
[0.75 0 0 0.75 0 0] CT
0.873 GC
1 LJ
0.667 LW
N
650 211.857 M
178 211.857 L
S
GR
GS
[0.75 0 0 0.75 0 0] CT
0.873 GC
1 LJ
0.667 LW
N
650 153.571 M
178 153.571 L
S
GR
GS
[0.75 0 0 0.75 0 0] CT
0.873 GC
1 LJ
0.667 LW
N
650 95.286 M
178 95.286 L
S
GR
GS
[0.75 0 0 0.75 0 0] CT
0.873 GC
1 LJ
0.667 LW
N
650 37 M
178 37 L
S
GR
GS
[0.75 0 0 0.75 0 0] CT
0.149 GC
2 setlinecap
1 LJ
0.667 LW
N
178 445 M
650 445 L
S
GR
GS
[0.75 0 0 0.75 0 0] CT
0.149 GC
2 setlinecap
1 LJ
0.667 LW
N
178 445 M
178 440.28 L
S
GR
GS
[0.75 0 0 0.75 0 0] CT
0.149 GC
2 setlinecap
1 LJ
0.667 LW
N
244.143 445 M
244.143 440.28 L
S
GR
GS
[0.75 0 0 0.75 0 0] CT
0.149 GC
2 setlinecap
1 LJ
0.667 LW
N
310.287 445 M
310.287 440.28 L
S
GR
GS
[0.75 0 0 0.75 0 0] CT
0.149 GC
2 setlinecap
1 LJ
0.667 LW
N
376.43 445 M
376.43 440.28 L
S
GR
GS
[0.75 0 0 0.75 0 0] CT
0.149 GC
2 setlinecap
1 LJ
0.667 LW
N
442.574 445 M
442.574 440.28 L
S
GR
GS
[0.75 0 0 0.75 0 0] CT
0.149 GC
2 setlinecap
1 LJ
0.667 LW
N
508.717 445 M
508.717 440.28 L
S
GR
GS
[0.75 0 0 0.75 0 0] CT
0.149 GC
2 setlinecap
1 LJ
0.667 LW
N
574.861 445 M
574.861 440.28 L
S
GR
GS
[0.75 0 0 0.75 0 0] CT
0.149 GC
2 setlinecap
1 LJ
0.667 LW
N
641.004 445 M
641.004 440.28 L
S
GR
GS
[0.75 0 0 0.75 133.5 338.55] CT
0.149 GC
/Helvetica 18.667 F
GS
[1 0 0 1 0 0] CT
-5.5 19 moveto 
1 -1 scale
(0) t 
GR
GR
GS
[0.75 0 0 0.75 183.10762 338.55] CT
0.149 GC
/Helvetica 18.667 F
GS
[1 0 0 1 0 0] CT
-10.5 19 moveto 
1 -1 scale
(50) t 
GR
GR
GS
[0.75 0 0 0.75 232.71524 338.55] CT
0.149 GC
/Helvetica 18.667 F
GS
[1 0 0 1 0 0] CT
-16 19 moveto 
1 -1 scale
(100) t 
GR
GR
GS
[0.75 0 0 0.75 282.32286 338.55] CT
0.149 GC
/Helvetica 18.667 F
GS
[1 0 0 1 0 0] CT
-16 19 moveto 
1 -1 scale
(150) t 
GR
GR
GS
[0.75 0 0 0.75 331.9305 338.55] CT
0.149 GC
/Helvetica 18.667 F
GS
[1 0 0 1 0 0] CT
-16 19 moveto 
1 -1 scale
(200) t 
GR
GR
GS
[0.75 0 0 0.75 381.53812 338.55] CT
0.149 GC
/Helvetica 18.667 F
GS
[1 0 0 1 0 0] CT
-16 19 moveto 
1 -1 scale
(250) t 
GR
GR
GS
[0.75 0 0 0.75 431.14572 338.55] CT
0.149 GC
/Helvetica 18.667 F
GS
[1 0 0 1 0 0] CT
-16 19 moveto 
1 -1 scale
(300) t 
GR
GR
GS
[0.75 0 0 0.75 480.75334 338.55] CT
0.149 GC
/Helvetica 18.667 F
GS
[1 0 0 1 0 0] CT
-16 19 moveto 
1 -1 scale
(350) t 
GR
GR
GS
[0.75 0 0 0.75 310.50016 357.55] CT
0.149 GC
/Helvetica 20.533 F
GS
[1 0 0 1 0 0] CT
-42.5 21 moveto 
1 -1 scale
(Time / ns) t 
GR
GR
GS
[0.75 0 0 0.75 0 0] CT
0.149 GC
2 setlinecap
1 LJ
0.667 LW
N
178 445 M
178 37 L
S
GR
GS
[0.75 0 0 0.75 0 0] CT
0.149 GC
2 setlinecap
1 LJ
0.667 LW
N
178 445 M
182.72 445 L
S
GR
GS
[0.75 0 0 0.75 0 0] CT
0.149 GC
2 setlinecap
1 LJ
0.667 LW
N
178 386.714 M
182.72 386.714 L
S
GR
GS
[0.75 0 0 0.75 0 0] CT
0.149 GC
2 setlinecap
1 LJ
0.667 LW
N
178 328.429 M
182.72 328.429 L
S
GR
GS
[0.75 0 0 0.75 0 0] CT
0.149 GC
2 setlinecap
1 LJ
0.667 LW
N
178 270.143 M
182.72 270.143 L
S
GR
GS
[0.75 0 0 0.75 0 0] CT
0.149 GC
2 setlinecap
1 LJ
0.667 LW
N
178 211.857 M
182.72 211.857 L
S
GR
GS
[0.75 0 0 0.75 0 0] CT
0.149 GC
2 setlinecap
1 LJ
0.667 LW
N
178 153.571 M
182.72 153.571 L
S
GR
GS
[0.75 0 0 0.75 0 0] CT
0.149 GC
2 setlinecap
1 LJ
0.667 LW
N
178 95.286 M
182.72 95.286 L
S
GR
GS
[0.75 0 0 0.75 0 0] CT
0.149 GC
2 setlinecap
1 LJ
0.667 LW
N
178 37 M
182.72 37 L
S
GR
GS
[0.75 0 0 0.75 128.7 333.75] CT
0.149 GC
/Helvetica 18.667 F
GS
[1 0 0 1 0 0] CT
-27 7 moveto 
1 -1 scale
(-10) t 
GR
GR
GS
[0.75 0 0 0.75 128.7 290.03572] CT
0.149 GC
/Helvetica 18.667 F
GS
[1 0 0 1 0 0] CT
-11 7 moveto 
1 -1 scale
(0) t 
GR
GR
GS
[0.75 0 0 0.75 128.7 246.32142] CT
0.149 GC
/Helvetica 18.667 F
GS
[1 0 0 1 0 0] CT
-21 7 moveto 
1 -1 scale
(10) t 
GR
GR
GS
[0.75 0 0 0.75 128.7 202.60714] CT
0.149 GC
/Helvetica 18.667 F
GS
[1 0 0 1 0 0] CT
-21 7 moveto 
1 -1 scale
(20) t 
GR
GR
GS
[0.75 0 0 0.75 128.7 158.89286] CT
0.149 GC
/Helvetica 18.667 F
GS
[1 0 0 1 0 0] CT
-21 7 moveto 
1 -1 scale
(30) t 
GR
GR
GS
[0.75 0 0 0.75 128.7 115.17857] CT
0.149 GC
/Helvetica 18.667 F
GS
[1 0 0 1 0 0] CT
-21 7 moveto 
1 -1 scale
(40) t 
GR
GR
GS
[0.75 0 0 0.75 128.7 71.46428] CT
0.149 GC
/Helvetica 18.667 F
GS
[1 0 0 1 0 0] CT
-21 7 moveto 
1 -1 scale
(50) t 
GR
GR
GS
[0.75 0 0 0.75 128.7 27.75] CT
0.149 GC
/Helvetica 18.667 F
GS
[1 0 0 1 0 0] CT
-21 7 moveto 
1 -1 scale
(60) t 
GR
GR
GS
[0 -0.75 0.75 0 95.25 206.25] CT
0.149 GC
/Helvetica 20.533 F
GS
[1 0 0 1 0 0] CT
0 0 moveto 
1 -1 scale
(V) t 
GR
GR
GS
[0 -0.75 0.75 0 102.75 195.75] CT
0.149 GC
/Helvetica 16.427 F
GS
[1 0 0 1 0 0] CT
0 0 moveto 
1 -1 scale
(D) t 
GR
GR
GS
[0 -0.75 0.75 0 102.75 186.75] CT
0.149 GC
/Helvetica 16.427 F
GS
[1 0 0 1 0 0] CT
0 0 moveto 
1 -1 scale
(S) t 
GR
GR
GS
[0 -0.75 0.75 0 95.25 178.5] CT
0.149 GC
/Helvetica 20.533 F
GS
[1 0 0 1 0 0] CT
0 0 moveto 
1 -1 scale
( / V) t 
GR
GR
GS
[0.75 0 0 0.75 0 0] CT
0.851 0.325 0.098 RC
1 LJ
2 LW
N
177.944 391.889 M
178 391.889 L
178.529 391.913 L
179.058 391.913 L
179.587 391.889 L
180.117 391.889 L
180.646 391.913 L
181.175 391.913 L
181.704 391.913 L
182.233 391.936 L
182.762 391.936 L
183.291 391.959 L
183.821 391.983 L
184.35 392.006 L
184.879 392.029 L
185.408 392.03 L
185.937 392.03 L
186.466 392.03 L
186.996 392.006 L
187.525 392.006 L
188.054 392.006 L
188.583 391.983 L
189.112 391.983 L
189.641 391.96 L
190.17 391.936 L
190.7 391.936 L
191.229 391.913 L
191.758 391.936 L
192.287 391.936 L
192.816 391.959 L
193.345 391.936 L
193.874 391.936 L
194.404 391.913 L
194.933 391.913 L
195.462 391.913 L
195.991 391.913 L
196.52 391.936 L
197.049 391.936 L
197.578 391.936 L
198.108 391.913 L
198.637 391.913 L
199.166 391.89 L
199.695 391.913 L
200.224 391.867 L
200.753 391.89 L
201.283 391.89 L
201.812 391.936 L
202.341 391.936 L
202.87 391.936 L
203.399 391.96 L
203.928 391.936 L
204.457 391.89 L
204.987 391.866 L
205.516 391.82 L
206.045 391.82 L
206.574 391.797 L
207.103 391.796 L
207.632 391.773 L
208.161 391.75 L
208.691 391.75 L
209.22 391.773 L
209.749 391.726 L
210.278 391.75 L
210.807 391.75 L
211.336 391.75 L
211.865 391.726 L
212.395 391.726 L
212.924 391.726 L
213.453 391.726 L
213.982 391.726 L
214.511 391.75 L
215.04 391.773 L
215.57 391.796 L
216.099 391.796 L
216.628 391.75 L
217.157 391.75 L
217.686 391.703 L
218.215 391.703 L
218.744 391.703 L
219.274 391.726 L
219.803 391.703 L
220.332 391.68 L
220.861 391.68 L
221.39 391.68 L
221.919 391.703 L
222.448 391.726 L
222.978 391.703 L
223.507 391.703 L
224.036 391.703 L
224.565 391.703 L
225.094 391.703 L
225.623 391.656 L
226.152 391.656 L
226.682 391.633 L
227.211 391.656 L
227.74 391.656 L
228.269 391.656 L
228.798 391.703 L
229.327 391.679 L
229.857 391.656 L
230.386 391.656 L
230.915 391.633 L
231.444 391.633 L
231.973 391.656 L
232.502 391.656 L
233.031 391.656 L
233.561 391.633 L
234.09 391.61 L
234.619 391.61 L
235.148 391.61 L
235.677 391.656 L
236.206 391.633 L
236.735 391.61 L
237.265 391.633 L
237.794 391.633 L
238.323 391.656 L
238.852 391.61 L
239.381 391.633 L
239.91 391.61 L
240.439 391.563 L
240.969 391.586 L
241.498 391.563 L
242.027 391.563 L
242.556 391.563 L
243.085 391.586 L
243.614 391.633 L
244.143 391.633 L
244.673 391.656 L
245.202 391.656 L
245.731 391.633 L
246.26 391.633 L
246.789 391.656 L
247.318 391.633 L
247.848 391.633 L
248.377 391.633 L
248.906 391.586 L
249.435 391.609 L
249.964 391.633 L
250.493 391.679 L
251.022 391.726 L
251.552 391.749 L
252.081 391.749 L
252.61 391.749 L
253.139 391.749 L
253.668 391.749 L
254.197 391.749 L
254.726 391.702 L
255.256 391.726 L
255.785 391.726 L
256.314 391.726 L
256.843 391.702 L
257.372 391.726 L
257.901 391.726 L
258.43 391.726 L
258.96 391.726 L
259.489 391.726 L
260.018 391.726 L
260.547 391.702 L
261.076 391.679 L
261.605 391.679 L
262.135 391.679 L
262.664 391.702 L
263.193 391.702 L
263.722 391.726 L
264.251 391.749 L
264.78 391.749 L
265.309 391.726 L
265.839 391.772 L
266.368 391.772 L
266.897 391.819 L
267.426 391.819 L
267.955 391.819 L
268.484 391.796 L
269.013 391.772 L
269.543 391.725 L
270.072 391.725 L
270.601 391.725 L
271.13 391.749 L
271.659 391.725 L
272.188 391.725 L
272.717 391.725 L
273.247 391.725 L
273.776 391.702 L
274.305 391.725 L
274.834 391.749 L
275.363 391.749 L
275.892 391.702 L
276.422 391.632 L
276.951 391.492 L
277.48 391.352 L
278.009 391.166 L
278.538 390.909 L
279.067 390.676 L
279.596 390.443 L
280.126 390.14 L
280.655 389.767 L
281.184 389.417 L
281.713 389.114 L
282.242 388.741 L
282.771 388.322 L
283.3 387.925 L
283.83 387.506 L
284.359 386.993 L
284.888 386.433 L
285.417 385.92 L
285.946 385.384 L
286.475 384.778 L
287.004 384.172 L
287.534 383.519 L
288.063 382.82 L
288.592 382.144 L
289.121 381.514 L
289.65 380.885 L
290.179 380.349 L
290.709 379.789 L
291.238 379.206 L
291.767 378.6 L
292.296 377.947 L
292.825 377.271 L
293.354 376.642 L
293.883 375.989 L
294.413 375.383 L
294.942 374.777 L
295.471 374.124 L
296 373.541 L
296.529 372.935 L
297.058 372.329 L
297.587 371.699 L
298.117 371.093 L
298.646 370.487 L
299.175 369.951 L
299.704 369.368 L
300.233 368.762 L
300.762 368.109 L
301.291 367.526 L
301.821 366.896 L
302.35 366.337 L
302.879 365.731 L
303.408 365.078 L
303.937 364.472 L
304.466 363.866 L
304.996 363.26 L
305.525 362.653 L
306.054 362.024 L
306.583 361.395 L
307.112 360.812 L
307.641 360.159 L
308.17 359.553 L
308.7 358.923 L
309.229 358.271 L
309.758 357.688 L
310.287 357.105 L
310.816 356.522 L
311.345 355.893 L
311.874 355.263 L
312.404 354.657 L
312.933 354.051 L
313.462 353.421 L
313.991 352.815 L
314.52 352.209 L
315.049 351.58 L
315.578 350.973 L
316.108 350.367 L
316.637 349.738 L
317.166 349.131 L
317.695 348.525 L
318.224 347.919 L
318.753 347.266 L
319.283 346.66 L
319.812 346.03 L
320.341 345.401 L
320.87 344.771 L
321.399 344.142 L
321.928 343.466 L
322.457 342.859 L
322.987 342.207 L
323.516 341.577 L
324.045 340.948 L
324.574 340.318 L
325.103 339.665 L
325.632 339.059 L
326.161 338.406 L
326.691 337.777 L
327.22 337.147 L
327.749 336.541 L
328.278 335.958 L
328.807 335.352 L
329.336 334.746 L
329.865 334.163 L
330.395 333.534 L
330.924 332.928 L
331.453 332.322 L
331.982 331.715 L
332.511 331.133 L
333.04 330.526 L
333.57 329.897 L
334.099 329.291 L
334.628 328.685 L
335.157 328.078 L
335.686 327.472 L
336.215 326.82 L
336.744 326.19 L
337.274 325.537 L
337.803 324.884 L
338.332 324.255 L
338.861 323.602 L
339.39 322.996 L
339.919 322.39 L
340.448 321.807 L
340.978 321.177 L
341.507 320.524 L
342.036 319.918 L
342.565 319.242 L
343.094 318.613 L
343.623 318.007 L
344.152 317.354 L
344.682 316.748 L
345.211 316.141 L
345.74 315.535 L
346.269 314.952 L
346.798 314.346 L
347.327 313.717 L
347.857 313.087 L
348.386 312.481 L
348.915 311.875 L
349.444 311.245 L
349.973 310.639 L
350.502 310.01 L
351.031 309.38 L
351.561 308.774 L
352.09 308.145 L
352.619 307.492 L
353.148 306.886 L
353.677 306.233 L
354.206 305.604 L
354.735 304.974 L
355.265 304.368 L
355.794 303.785 L
356.323 303.179 L
356.852 302.573 L
357.381 301.966 L
357.91 301.314 L
358.439 300.707 L
358.969 300.078 L
359.498 299.472 L
360.027 298.912 L
360.556 298.283 L
361.085 297.677 L
361.614 297.047 L
362.143 296.464 L
362.673 295.881 L
363.202 295.252 L
363.731 294.599 L
364.26 293.993 L
364.789 293.387 L
365.318 292.781 L
365.848 292.151 L
366.377 291.522 L
366.906 290.892 L
367.435 290.286 L
367.964 289.657 L
368.493 289.027 L
369.022 288.398 L
369.552 287.768 L
370.081 287.139 L
370.61 286.509 L
371.139 285.88 L
371.668 285.274 L
372.197 284.691 L
372.726 284.061 L
373.256 283.455 L
373.785 282.826 L
374.314 282.196 L
374.843 281.567 L
375.372 280.937 L
375.901 280.308 L
376.43 279.678 L
376.96 279.072 L
377.489 278.442 L
378.018 277.836 L
378.547 277.23 L
379.076 276.624 L
379.605 276.018 L
380.135 275.388 L
380.664 274.759 L
381.193 274.129 L
381.722 273.523 L
382.251 272.94 L
382.78 272.334 L
383.309 271.704 L
383.839 271.121 L
384.368 270.515 L
384.897 269.909 L
385.426 269.28 L
385.955 268.65 L
386.484 268.067 L
387.013 267.461 L
387.543 266.855 L
388.072 266.179 L
388.601 265.526 L
389.13 264.943 L
389.659 264.314 L
390.188 263.684 L
390.717 263.055 L
391.247 262.472 L
391.776 261.842 L
392.305 261.213 L
392.834 260.56 L
393.363 259.908 L
393.892 259.301 L
394.422 258.672 L
394.951 258.042 L
395.48 257.436 L
396.009 256.807 L
396.538 256.201 L
397.067 255.571 L
397.596 254.942 L
398.126 254.312 L
398.655 253.706 L
399.184 253.077 L
399.713 252.447 L
400.242 251.864 L
400.771 251.235 L
401.3 250.629 L
401.83 250.022 L
402.359 249.37 L
402.888 248.787 L
403.417 248.134 L
403.946 247.504 L
404.475 246.875 L
405.004 246.269 L
405.534 245.639 L
406.063 245.033 L
406.592 244.403 L
407.121 243.774 L
407.65 243.075 L
408.179 242.445 L
408.709 241.839 L
409.238 241.233 L
409.767 240.603 L
410.296 239.927 L
410.825 239.297 L
411.354 238.691 L
411.883 238.062 L
412.413 237.432 L
412.942 236.826 L
413.471 236.174 L
414 235.544 L
414.529 234.915 L
415.058 234.309 L
415.587 233.702 L
416.117 233.119 L
416.646 232.513 L
417.175 231.907 L
417.704 231.277 L
418.233 230.671 L
418.762 230.018 L
419.291 229.366 L
419.821 228.736 L
420.35 228.13 L
420.879 227.524 L
421.408 226.918 L
421.937 226.311 L
422.466 225.682 L
422.996 225.076 L
423.525 224.423 L
424.054 223.793 L
424.583 223.211 L
425.112 222.581 L
425.641 221.928 L
426.17 221.322 L
426.7 220.692 L
427.229 220.086 L
427.758 219.457 L
428.287 218.827 L
428.816 218.174 L
429.345 217.521 L
429.874 216.869 L
430.404 216.239 L
430.933 215.586 L
431.462 214.98 L
431.991 214.328 L
432.52 213.698 L
433.049 213.022 L
433.578 212.416 L
434.108 211.833 L
434.637 211.227 L
435.166 210.621 L
435.695 210.038 L
436.224 209.408 L
436.753 208.779 L
437.283 208.126 L
437.812 207.496 L
438.341 206.913 L
438.87 206.307 L
439.399 205.701 L
439.928 205.048 L
440.457 204.442 L
440.987 203.836 L
441.516 203.183 L
442.045 202.6 L
442.574 201.994 L
443.103 201.364 L
443.632 200.758 L
444.161 200.175 L
444.691 199.523 L
445.22 198.893 L
445.749 198.287 L
446.278 197.657 L
446.807 196.981 L
447.336 196.375 L
447.865 195.722 L
448.395 195.093 L
448.924 194.463 L
449.453 193.81 L
449.982 193.181 L
450.511 192.551 L
451.04 191.898 L
451.57 191.292 L
452.099 190.663 L
452.628 190.057 L
453.157 189.427 L
453.686 188.798 L
454.215 188.191 L
454.744 187.562 L
455.274 186.932 L
455.803 186.326 L
456.332 185.673 L
456.861 185.067 L
457.39 184.414 L
457.919 183.832 L
458.448 183.202 L
458.978 182.572 L
459.507 181.966 L
460.036 181.337 L
460.565 180.707 L
461.094 180.101 L
461.623 179.472 L
462.152 178.819 L
462.682 178.213 L
463.211 177.583 L
463.74 176.93 L
464.269 176.277 L
464.798 175.695 L
465.327 175.042 L
465.857 174.366 L
466.386 173.69 L
466.915 173.107 L
467.444 172.478 L
467.973 171.871 L
468.502 171.242 L
469.031 170.636 L
469.561 170.053 L
470.09 169.447 L
470.619 168.817 L
471.148 168.188 L
471.677 167.558 L
472.206 166.905 L
472.735 166.253 L
473.265 165.6 L
473.794 164.97 L
474.323 164.364 L
474.852 163.735 L
475.381 163.129 L
475.91 162.499 L
476.439 161.893 L
476.969 161.264 L
477.498 160.634 L
478.027 160.028 L
478.556 159.422 L
479.085 158.792 L
479.614 158.116 L
480.143 157.487 L
480.673 156.857 L
481.202 156.274 L
481.731 155.622 L
482.26 155.015 L
482.789 154.409 L
483.318 153.803 L
483.848 153.174 L
484.377 152.567 L
484.906 151.961 L
485.435 151.285 L
485.964 150.655 L
486.493 150.003 L
487.022 149.326 L
487.552 148.697 L
488.081 148.091 L
488.61 147.461 L
489.139 146.855 L
489.668 146.226 L
490.197 145.619 L
490.726 144.967 L
491.256 144.36 L
491.785 143.731 L
492.314 143.078 L
492.843 142.449 L
493.372 141.796 L
493.901 141.166 L
494.43 140.584 L
494.96 139.954 L
495.489 139.324 L
496.018 138.672 L
496.547 137.995 L
497.076 137.343 L
497.605 136.76 L
498.135 136.154 L
498.664 135.571 L
499.193 134.941 L
499.722 134.288 L
500.251 133.682 L
500.78 133.076 L
501.309 132.447 L
501.839 131.817 L
502.368 131.211 L
502.897 130.582 L
503.426 129.999 L
503.955 129.346 L
504.484 128.74 L
505.013 128.133 L
505.543 127.504 L
506.072 126.898 L
506.601 126.245 L
507.13 125.615 L
507.659 124.986 L
508.188 124.31 L
508.717 123.657 L
509.247 123.004 L
509.776 122.375 L
510.305 121.769 L
510.834 121.163 L
511.363 120.51 L
511.892 119.88 L
512.422 119.228 L
512.951 118.598 L
513.48 117.969 L
514.009 117.339 L
514.538 116.686 L
515.067 116.01 L
515.596 115.381 L
516.126 114.728 L
516.655 114.075 L
517.184 113.446 L
517.713 112.816 L
518.242 112.21 L
518.771 111.581 L
519.3 110.975 L
519.83 110.345 L
520.359 109.716 L
520.888 109.086 L
521.417 108.457 L
521.946 107.804 L
522.475 107.151 L
523.004 106.498 L
523.534 105.892 L
524.063 105.216 L
524.592 104.563 L
525.121 104.004 L
525.65 103.351 L
526.179 102.721 L
526.709 102.092 L
527.238 101.463 L
527.767 100.856 L
528.296 100.227 L
528.825 99.597 L
529.354 98.991 L
529.883 98.385 L
530.413 97.756 L
530.942 97.149 L
531.471 96.473 L
532 95.844 L
532.529 95.214 L
533.058 94.632 L
533.587 93.979 L
534.117 93.373 L
534.646 92.72 L
535.175 92.09 L
535.704 91.438 L
536.233 90.832 L
536.762 90.202 L
537.292 89.596 L
537.821 88.966 L
538.35 88.337 L
538.879 87.708 L
539.408 87.101 L
539.937 86.472 L
540.466 85.866 L
540.995 85.306 L
541.525 84.84 L
542.054 84.374 L
542.583 83.931 L
543.112 83.511 L
543.641 83.115 L
544.17 82.718 L
544.7 82.392 L
545.229 82.112 L
545.758 81.856 L
546.287 81.553 L
546.816 81.273 L
547.345 81.063 L
547.874 80.83 L
548.404 80.643 L
548.933 80.503 L
549.462 80.433 L
549.991 80.294 L
550.52 80.2 L
551.049 80.2 L
551.578 80.177 L
552.108 80.223 L
552.637 80.34 L
553.166 80.387 L
553.695 80.41 L
554.224 80.41 L
554.753 80.317 L
555.283 80.223 L
555.812 80.177 L
556.341 80.153 L
556.87 80.177 L
557.399 80.223 L
557.928 80.223 L
558.457 80.224 L
558.987 80.2 L
559.516 80.154 L
560.045 80.13 L
560.574 80.084 L
561.103 80.06 L
561.632 80.037 L
562.161 80.037 L
562.691 80.037 L
563.22 80.014 L
563.749 79.967 L
564.278 79.944 L
564.807 79.944 L
565.336 79.967 L
565.865 79.944 L
566.395 79.944 L
566.924 79.874 L
567.453 79.85 L
567.982 79.873 L
568.511 79.827 L
569.04 79.827 L
569.57 79.804 L
570.099 79.804 L
570.628 79.78 L
571.157 79.803 L
571.686 79.78 L
572.215 79.78 L
572.744 79.757 L
573.273 79.733 L
573.803 79.733 L
574.332 79.687 L
574.861 79.64 L
575.39 79.594 L
575.919 79.57 L
576.448 79.57 L
576.978 79.524 L
577.507 79.5 L
578.036 79.454 L
578.565 79.454 L
579.094 79.407 L
579.623 79.407 L
580.152 79.384 L
580.682 79.361 L
581.211 79.361 L
581.74 79.337 L
582.269 79.314 L
582.798 79.314 L
583.327 79.314 L
583.857 79.291 L
584.386 79.267 L
584.915 79.244 L
585.444 79.221 L
585.973 79.174 L
586.502 79.197 L
587.031 79.197 L
587.561 79.221 L
588.09 79.221 L
588.619 79.244 L
589.148 79.221 L
589.677 79.244 L
590.206 79.221 L
590.735 79.244 L
591.265 79.244 L
591.794 79.244 L
592.323 79.197 L
592.852 79.197 L
593.381 79.174 L
593.91 79.174 L
594.439 79.151 L
594.969 79.127 L
595.498 79.127 L
596.027 79.081 L
596.556 79.081 L
597.085 79.057 L
597.614 79.011 L
598.143 78.988 L
598.673 78.964 L
599.202 78.941 L
599.731 78.941 L
600.26 78.941 L
600.789 78.918 L
601.318 78.918 L
601.848 78.941 L
602.377 78.964 L
602.906 78.941 L
603.435 78.964 L
603.964 78.964 L
604.493 78.988 L
605.022 78.964 L
605.552 78.941 L
606.081 78.964 L
606.61 78.941 L
607.139 78.964 L
607.668 79.058 L
608.197 79.034 L
608.726 79.011 L
609.256 78.988 L
609.785 78.988 L
610.314 78.988 L
610.843 78.941 L
611.372 78.895 L
611.901 78.918 L
612.43 78.941 L
612.96 78.918 L
613.489 78.895 L
614.018 78.895 L
614.547 78.895 L
615.076 78.871 L
615.605 78.825 L
616.135 78.825 L
616.664 78.825 L
617.193 78.825 L
617.722 78.825 L
618.251 78.848 L
618.78 78.848 L
619.309 78.801 L
619.839 78.778 L
620.368 78.755 L
620.897 78.778 L
621.426 78.778 L
621.955 78.731 L
622.484 78.755 L
623.013 78.685 L
623.543 78.685 L
624.072 78.662 L
624.601 78.638 L
625.13 78.615 L
625.659 78.591 L
626.188 78.591 L
626.718 78.591 L
627.247 78.545 L
627.776 78.545 L
628.305 78.522 L
628.834 78.522 L
629.363 78.452 L
629.892 78.452 L
630.422 78.405 L
630.951 78.405 L
631.48 78.405 L
632.009 78.382 L
632.538 78.382 L
633.067 78.382 L
633.596 78.359 L
634.126 78.359 L
634.655 78.335 L
635.184 78.359 L
635.713 78.359 L
636.242 78.359 L
636.771 78.335 L
637.3 78.289 L
637.83 78.265 L
638.359 78.289 L
638.888 78.289 L
639.417 78.265 L
639.946 78.242 L
640.475 78.242 L
641.004 78.219 L
641.534 78.196 L
642.063 78.196 L
642.592 78.196 L
643.121 78.196 L
643.65 78.195 L
644.179 78.172 L
644.708 78.172 L
645.238 78.172 L
645.767 78.172 L
646.296 78.126 L
646.825 78.102 L
647.354 78.056 L
647.883 78.032 L
648.413 78.009 L
648.942 78.009 L
649.471 77.985 L
650 77.962 L
650.056 77.96 L
S
GR
GS
[0.75 0 0 0.75 0 0] CT
0.929 0.694 0.125 RC
1 LJ
2 LW
N
177.944 198.87 M
178 198.868 L
178.529 198.789 L
179.058 198.789 L
179.587 198.763 L
180.117 198.841 L
180.646 198.868 L
181.175 198.841 L
181.704 198.737 L
182.233 198.737 L
182.762 198.789 L
183.291 198.789 L
183.821 198.789 L
184.35 198.763 L
184.879 198.816 L
185.408 198.894 L
185.937 198.894 L
186.466 198.92 L
186.996 198.946 L
187.525 198.868 L
188.054 198.842 L
188.583 198.763 L
189.112 198.763 L
189.641 198.763 L
190.17 198.868 L
190.7 198.998 L
191.229 198.998 L
191.758 198.998 L
192.287 198.972 L
192.816 198.972 L
193.345 198.972 L
193.874 198.92 L
194.404 198.868 L
194.933 198.894 L
195.462 198.868 L
195.991 198.868 L
196.52 198.842 L
197.049 198.868 L
197.578 198.842 L
198.108 198.738 L
198.637 198.764 L
199.166 198.816 L
199.695 198.79 L
200.224 198.816 L
200.753 198.816 L
201.283 198.816 L
201.812 198.79 L
202.341 198.737 L
202.87 198.764 L
203.399 198.737 L
203.928 198.711 L
204.457 198.711 L
204.987 198.685 L
205.516 198.685 L
206.045 198.685 L
206.574 198.685 L
207.103 198.685 L
207.632 198.763 L
208.161 198.711 L
208.691 198.737 L
209.22 198.685 L
209.749 198.685 L
210.278 198.711 L
210.807 198.633 L
211.336 198.58 L
211.865 198.607 L
212.395 198.502 L
212.924 198.554 L
213.453 198.502 L
213.982 198.58 L
214.511 198.58 L
215.04 198.58 L
215.57 198.528 L
216.099 198.476 L
216.628 198.45 L
217.157 198.424 L
217.686 198.398 L
218.215 198.424 L
218.744 198.45 L
219.274 198.319 L
219.803 198.267 L
220.332 198.293 L
220.861 198.215 L
221.39 198.215 L
221.919 198.136 L
222.448 198.189 L
222.978 198.162 L
223.507 198.215 L
224.036 198.188 L
224.565 198.162 L
225.094 198.084 L
225.623 198.084 L
226.152 198.162 L
226.682 198.084 L
227.211 198.084 L
227.74 198.11 L
228.269 198.136 L
228.798 198.058 L
229.327 198.032 L
229.857 197.954 L
230.386 198.006 L
230.915 197.98 L
231.444 198.006 L
231.973 197.875 L
232.502 197.875 L
233.031 197.823 L
233.561 197.771 L
234.09 197.849 L
234.619 197.771 L
235.148 197.771 L
235.677 197.771 L
236.206 197.901 L
236.735 197.849 L
237.265 197.849 L
237.794 197.797 L
238.323 197.745 L
238.852 197.797 L
239.381 197.797 L
239.91 197.849 L
240.439 197.797 L
240.969 197.797 L
241.498 197.823 L
242.027 197.797 L
242.556 197.875 L
243.085 197.797 L
243.614 197.745 L
244.143 197.823 L
244.673 197.797 L
245.202 197.823 L
245.731 197.797 L
246.26 197.797 L
246.789 197.797 L
247.318 197.718 L
247.848 197.718 L
248.377 197.797 L
248.906 197.745 L
249.435 197.771 L
249.964 197.797 L
250.493 197.745 L
251.022 197.692 L
251.552 197.718 L
252.081 197.744 L
252.61 197.614 L
253.139 197.614 L
253.668 197.64 L
254.197 197.64 L
254.726 197.64 L
255.256 197.483 L
255.785 197.483 L
256.314 197.483 L
256.843 197.431 L
257.372 197.405 L
257.901 197.353 L
258.43 197.3 L
258.96 197.353 L
259.489 197.326 L
260.018 197.3 L
260.547 197.405 L
261.076 197.353 L
261.605 197.326 L
262.135 197.353 L
262.664 197.326 L
263.193 197.431 L
263.722 197.509 L
264.251 197.509 L
264.78 197.431 L
265.309 197.483 L
265.839 197.509 L
266.368 197.483 L
266.897 197.457 L
267.426 197.457 L
267.955 197.509 L
268.484 197.352 L
269.013 197.352 L
269.543 197.378 L
270.072 197.43 L
270.601 197.456 L
271.13 197.404 L
271.659 197.457 L
272.188 197.378 L
272.717 197.378 L
273.247 197.352 L
273.776 197.3 L
274.305 197.248 L
274.834 197.222 L
275.363 197.3 L
275.892 197.43 L
276.422 197.509 L
276.951 197.796 L
277.48 198.318 L
278.009 199.128 L
278.538 199.781 L
279.067 200.172 L
279.596 200.355 L
280.126 200.407 L
280.655 200.668 L
281.184 201.112 L
281.713 201.791 L
282.242 202.418 L
282.771 202.94 L
283.3 203.358 L
283.83 203.698 L
284.359 204.115 L
284.888 204.585 L
285.417 205.16 L
285.946 205.708 L
286.475 206.231 L
287.004 206.727 L
287.534 207.04 L
288.063 207.301 L
288.592 207.432 L
289.121 207.719 L
289.65 208.163 L
290.179 208.529 L
290.709 208.607 L
291.238 208.529 L
291.767 208.241 L
292.296 207.85 L
292.825 207.589 L
293.354 207.223 L
293.883 207.093 L
294.413 207.093 L
294.942 206.962 L
295.471 206.727 L
296 206.257 L
296.529 205.709 L
297.058 205.239 L
297.587 204.769 L
298.117 204.455 L
298.646 204.377 L
299.175 204.351 L
299.704 204.273 L
300.233 204.377 L
300.762 204.377 L
301.291 204.638 L
301.821 205.082 L
302.35 205.422 L
302.879 205.787 L
303.408 206.127 L
303.937 206.466 L
304.466 206.78 L
304.996 207.328 L
305.525 207.902 L
306.054 208.686 L
306.583 209.339 L
307.112 210.044 L
307.641 210.618 L
308.17 211.245 L
308.7 211.846 L
309.229 212.446 L
309.758 213.047 L
310.287 213.569 L
310.816 213.961 L
311.345 214.248 L
311.874 214.457 L
312.404 214.587 L
312.933 214.718 L
313.462 214.823 L
313.991 215.031 L
314.52 215.162 L
315.049 215.319 L
315.578 215.475 L
316.108 215.736 L
316.637 215.971 L
317.166 216.102 L
317.695 216.154 L
318.224 216.363 L
318.753 216.572 L
319.283 216.755 L
319.812 217.12 L
320.341 217.616 L
320.87 218.086 L
321.399 218.687 L
321.928 219.313 L
322.457 219.966 L
322.987 220.671 L
323.516 221.454 L
324.045 222.185 L
324.574 222.943 L
325.103 223.726 L
325.632 224.457 L
326.161 225.084 L
326.691 225.789 L
327.22 226.389 L
327.749 226.964 L
328.278 227.512 L
328.807 227.956 L
329.336 228.348 L
329.865 228.635 L
330.395 228.975 L
330.924 229.184 L
331.453 229.393 L
331.982 229.654 L
332.511 229.81 L
333.04 229.941 L
333.57 230.072 L
334.099 230.281 L
334.628 230.568 L
335.157 230.698 L
335.686 230.907 L
336.215 231.064 L
336.744 231.299 L
337.274 231.586 L
337.803 231.847 L
338.332 232.187 L
338.861 232.604 L
339.39 232.97 L
339.919 233.414 L
340.448 233.858 L
340.978 234.275 L
341.507 234.745 L
342.036 235.216 L
342.565 235.686 L
343.094 236.103 L
343.623 236.495 L
344.152 236.73 L
344.682 237.122 L
345.211 237.331 L
345.74 237.644 L
346.269 237.853 L
346.798 238.062 L
347.327 238.245 L
347.857 238.48 L
348.386 238.662 L
348.915 238.741 L
349.444 238.976 L
349.973 239.132 L
350.502 239.185 L
351.031 239.341 L
351.561 239.394 L
352.09 239.55 L
352.619 239.655 L
353.148 239.733 L
353.677 239.916 L
354.206 240.047 L
354.735 240.255 L
355.265 240.491 L
355.794 240.699 L
356.323 241.013 L
356.852 241.169 L
357.381 241.404 L
357.91 241.639 L
358.439 241.874 L
358.969 242.109 L
359.498 242.37 L
360.027 242.684 L
360.556 242.971 L
361.085 243.206 L
361.614 243.493 L
362.143 243.806 L
362.673 244.015 L
363.202 244.224 L
363.731 244.564 L
364.26 244.825 L
364.789 245.138 L
365.318 245.452 L
365.848 245.739 L
366.377 246.026 L
366.906 246.34 L
367.435 246.757 L
367.964 247.071 L
368.493 247.488 L
369.022 247.88 L
369.552 248.324 L
370.081 248.742 L
370.61 249.212 L
371.139 249.578 L
371.668 250.048 L
372.197 250.491 L
372.726 250.857 L
373.256 251.275 L
373.785 251.614 L
374.314 251.98 L
374.843 252.293 L
375.372 252.633 L
375.901 252.972 L
376.43 253.337 L
376.96 253.599 L
377.489 253.781 L
378.018 254.016 L
378.547 254.199 L
379.076 254.356 L
379.605 254.643 L
380.135 254.878 L
380.664 255.087 L
381.193 255.4 L
381.722 255.661 L
382.251 255.922 L
382.78 256.288 L
383.309 256.706 L
383.839 257.071 L
384.368 257.515 L
384.897 257.881 L
385.426 258.299 L
385.955 258.716 L
386.484 259.056 L
387.013 259.5 L
387.543 259.996 L
388.072 260.544 L
388.601 260.962 L
389.13 261.301 L
389.659 261.693 L
390.188 262.032 L
390.717 262.45 L
391.247 262.738 L
391.776 263.025 L
392.305 263.364 L
392.834 263.547 L
393.363 263.861 L
393.892 264.07 L
394.422 264.2 L
394.951 264.409 L
395.48 264.67 L
396.009 264.853 L
396.538 265.036 L
397.067 265.245 L
397.596 265.375 L
398.126 265.61 L
398.655 265.767 L
399.184 265.95 L
399.713 266.107 L
400.242 266.315 L
400.771 266.524 L
401.3 266.733 L
401.83 266.968 L
402.359 267.125 L
402.888 267.464 L
403.417 267.751 L
403.946 268.091 L
404.475 268.404 L
405.004 268.691 L
405.534 268.952 L
406.063 269.292 L
406.592 269.475 L
407.121 269.788 L
407.65 269.971 L
408.179 270.206 L
408.709 270.441 L
409.238 270.597 L
409.767 270.832 L
410.296 271.093 L
410.825 271.172 L
411.354 271.381 L
411.883 271.642 L
412.413 271.877 L
412.942 272.19 L
413.471 272.321 L
414 272.634 L
414.529 272.843 L
415.058 273.13 L
415.587 273.444 L
416.117 273.809 L
416.646 274.149 L
417.175 274.54 L
417.704 274.932 L
418.233 275.245 L
418.762 275.689 L
419.291 276.159 L
419.821 276.525 L
420.35 276.943 L
420.879 277.413 L
421.408 277.882 L
421.937 278.405 L
422.466 278.875 L
422.996 279.371 L
423.525 279.711 L
424.054 280.076 L
424.583 280.624 L
425.112 280.99 L
425.641 281.434 L
426.17 281.851 L
426.7 282.295 L
427.229 282.661 L
427.758 283.026 L
428.287 283.444 L
428.816 283.757 L
429.345 284.149 L
429.874 284.488 L
430.404 284.88 L
430.933 285.167 L
431.462 285.455 L
431.991 285.768 L
432.52 286.081 L
433.049 286.395 L
433.578 286.656 L
434.108 286.995 L
434.637 287.283 L
435.166 287.491 L
435.695 287.753 L
436.224 287.935 L
436.753 288.249 L
437.283 288.536 L
437.812 288.745 L
438.341 288.901 L
438.87 289.058 L
439.399 289.319 L
439.928 289.397 L
440.457 289.632 L
440.987 289.841 L
441.516 290.102 L
442.045 290.363 L
442.574 290.546 L
443.103 290.833 L
443.632 291.095 L
444.161 291.408 L
444.691 291.669 L
445.22 291.852 L
445.749 292.139 L
446.278 292.478 L
446.807 292.792 L
447.336 293.027 L
447.865 293.262 L
448.395 293.575 L
448.924 293.862 L
449.453 294.097 L
449.982 294.358 L
450.511 294.619 L
451.04 294.802 L
451.57 295.037 L
452.099 295.324 L
452.628 295.507 L
453.157 295.716 L
453.686 295.872 L
454.215 296.055 L
454.744 296.186 L
455.274 296.238 L
455.803 296.473 L
456.332 296.682 L
456.861 296.786 L
457.39 296.969 L
457.919 297.204 L
458.448 297.439 L
458.978 297.674 L
459.507 297.831 L
460.036 298.144 L
460.565 298.431 L
461.094 298.692 L
461.623 298.98 L
462.152 299.293 L
462.682 299.632 L
463.211 299.946 L
463.74 300.207 L
464.269 300.572 L
464.798 300.859 L
465.327 301.225 L
465.857 301.565 L
466.386 301.878 L
466.915 302.27 L
467.444 302.635 L
467.973 303.001 L
468.502 303.393 L
469.031 303.758 L
469.561 304.072 L
470.09 304.359 L
470.619 304.646 L
471.148 304.933 L
471.677 305.273 L
472.206 305.508 L
472.735 305.847 L
473.265 306.161 L
473.794 306.448 L
474.323 306.709 L
474.852 307.048 L
475.381 307.44 L
475.91 307.753 L
476.439 308.067 L
476.969 308.485 L
477.498 308.772 L
478.027 309.216 L
478.556 309.556 L
479.085 309.947 L
479.614 310.339 L
480.143 310.809 L
480.673 311.279 L
481.202 311.775 L
481.731 312.245 L
482.26 312.637 L
482.789 312.95 L
483.318 313.316 L
483.848 313.838 L
484.377 314.203 L
484.906 314.543 L
485.435 314.882 L
485.964 315.143 L
486.493 315.483 L
487.022 315.639 L
487.552 315.848 L
488.081 316.005 L
488.61 316.24 L
489.139 316.448 L
489.668 316.684 L
490.197 316.892 L
490.726 316.997 L
491.256 317.258 L
491.785 317.362 L
492.314 317.519 L
492.843 317.702 L
493.372 317.911 L
493.901 318.224 L
494.43 318.485 L
494.96 318.642 L
495.489 318.903 L
496.018 319.242 L
496.547 319.634 L
497.076 319.895 L
497.605 320.287 L
498.135 320.705 L
498.664 320.914 L
499.193 321.305 L
499.722 321.592 L
500.251 321.984 L
500.78 322.219 L
501.309 322.611 L
501.839 322.872 L
502.368 323.237 L
502.897 323.603 L
503.426 323.89 L
503.955 324.23 L
504.484 324.413 L
505.013 324.752 L
505.543 325.039 L
506.072 325.352 L
506.601 325.535 L
507.13 325.744 L
507.659 326.031 L
508.188 326.345 L
508.717 326.554 L
509.247 326.867 L
509.776 327.154 L
510.305 327.494 L
510.834 327.729 L
511.363 328.016 L
511.892 328.382 L
512.422 328.669 L
512.951 328.982 L
513.48 329.348 L
514.009 329.687 L
514.538 330.001 L
515.067 330.393 L
515.596 330.758 L
516.126 331.045 L
516.655 331.333 L
517.184 331.698 L
517.713 331.959 L
518.242 332.299 L
518.771 332.586 L
519.3 332.952 L
519.83 333.395 L
520.359 333.657 L
520.888 334.022 L
521.417 334.362 L
521.946 334.623 L
522.475 334.988 L
523.004 335.328 L
523.534 335.615 L
524.063 335.902 L
524.592 336.32 L
525.121 336.529 L
525.65 336.894 L
526.179 337.208 L
526.709 337.521 L
527.238 337.756 L
527.767 338.07 L
528.296 338.357 L
528.825 338.592 L
529.354 338.958 L
529.883 339.245 L
530.413 339.61 L
530.942 339.95 L
531.471 340.211 L
532 340.524 L
532.529 340.759 L
533.058 341.151 L
533.587 341.386 L
534.117 341.726 L
534.646 342.065 L
535.175 342.379 L
535.704 342.692 L
536.233 343.005 L
536.762 343.345 L
537.292 343.658 L
537.821 344.024 L
538.35 344.337 L
538.879 344.65 L
539.408 344.938 L
539.937 345.146 L
540.466 345.277 L
540.995 345.408 L
541.525 345.434 L
542.054 345.147 L
542.583 344.624 L
543.112 344.233 L
543.641 344.05 L
544.17 344.102 L
544.7 344.285 L
545.229 344.337 L
545.758 344.102 L
546.287 343.684 L
546.816 343.293 L
547.345 343.031 L
547.874 342.875 L
548.404 342.823 L
548.933 342.718 L
549.462 342.483 L
549.991 342.196 L
550.52 341.935 L
551.049 341.7 L
551.578 341.595 L
552.108 341.595 L
552.637 341.647 L
553.166 341.83 L
553.695 341.935 L
554.224 341.804 L
554.753 341.725 L
555.283 341.961 L
555.812 342.352 L
556.341 342.927 L
556.87 343.632 L
557.399 344.285 L
557.928 344.964 L
558.457 345.329 L
558.987 345.721 L
559.516 346.165 L
560.045 346.739 L
560.574 347.549 L
561.103 348.437 L
561.632 349.246 L
562.161 350.029 L
562.691 350.656 L
563.22 351.074 L
563.749 351.387 L
564.278 351.753 L
564.807 351.909 L
565.336 352.144 L
565.865 352.118 L
566.395 351.961 L
566.924 351.805 L
567.453 351.7 L
567.982 351.596 L
568.511 351.517 L
569.04 351.491 L
569.57 351.204 L
570.099 350.891 L
570.628 350.421 L
571.157 350.081 L
571.686 349.689 L
572.215 349.324 L
572.744 349.115 L
573.273 348.828 L
573.803 348.567 L
574.332 348.279 L
574.861 348.044 L
575.39 347.966 L
575.919 347.94 L
576.448 348.097 L
576.978 348.332 L
577.507 348.462 L
578.036 348.671 L
578.565 348.697 L
579.094 348.88 L
579.623 348.984 L
580.152 349.115 L
580.682 349.063 L
581.211 349.167 L
581.74 349.298 L
582.269 349.481 L
582.798 349.481 L
583.327 349.455 L
583.857 349.455 L
584.386 349.402 L
584.915 349.167 L
585.444 348.985 L
585.973 348.697 L
586.502 348.436 L
587.031 348.018 L
587.561 347.627 L
588.09 347.157 L
588.619 346.634 L
589.148 346.217 L
589.677 345.825 L
590.206 345.355 L
590.735 345.016 L
591.265 344.702 L
591.794 344.415 L
592.323 344.075 L
592.852 343.866 L
593.381 343.736 L
593.91 343.684 L
594.439 343.736 L
594.969 343.657 L
595.498 343.736 L
596.027 343.84 L
596.556 343.919 L
597.085 344.049 L
597.614 344.18 L
598.143 344.284 L
598.673 344.337 L
599.202 344.441 L
599.731 344.493 L
600.26 344.546 L
600.789 344.598 L
601.318 344.676 L
601.848 344.676 L
602.377 344.65 L
602.906 344.572 L
603.435 344.389 L
603.964 344.258 L
604.493 344.102 L
605.022 343.919 L
605.552 343.71 L
606.081 343.58 L
606.61 343.397 L
607.139 343.24 L
607.668 343.11 L
608.197 343.057 L
608.726 343.031 L
609.256 343.031 L
609.785 343.084 L
610.314 343.11 L
610.843 343.188 L
611.372 343.188 L
611.901 343.267 L
612.43 343.397 L
612.96 343.502 L
613.489 343.632 L
614.018 343.736 L
614.547 343.867 L
615.076 344.128 L
615.605 344.311 L
616.135 344.572 L
616.664 344.729 L
617.193 344.937 L
617.722 345.172 L
618.251 345.251 L
618.78 345.381 L
619.309 345.434 L
619.839 345.512 L
620.368 345.59 L
620.897 345.59 L
621.426 345.721 L
621.955 345.799 L
622.484 345.825 L
623.013 345.825 L
623.543 345.956 L
624.072 345.982 L
624.601 345.982 L
625.13 346.034 L
625.659 346.191 L
626.188 346.243 L
626.718 346.243 L
627.247 346.321 L
627.776 346.4 L
628.305 346.4 L
628.834 346.426 L
629.363 346.452 L
629.892 346.478 L
630.422 346.557 L
630.951 346.505 L
631.48 346.505 L
632.009 346.4 L
632.538 346.4 L
633.067 346.296 L
633.596 346.165 L
634.126 346.034 L
634.655 345.878 L
635.184 345.747 L
635.713 345.669 L
636.242 345.564 L
636.771 345.434 L
637.3 345.303 L
637.83 345.121 L
638.359 345.068 L
638.888 345.016 L
639.417 344.99 L
639.946 345.042 L
640.475 345.016 L
641.004 345.042 L
641.534 345.095 L
642.063 345.173 L
642.592 345.277 L
643.121 345.382 L
643.65 345.538 L
644.179 345.591 L
644.708 345.721 L
645.238 345.8 L
645.767 345.826 L
646.296 345.826 L
646.825 345.878 L
647.354 345.8 L
647.883 345.669 L
648.413 345.617 L
648.942 345.46 L
649.471 345.434 L
650 345.277 L
650.056 345.269 L
S
GR
GS
[0.75 0 0 0.75 0 0] CT
0.494 0.184 0.557 RC
1 LJ
2 LW
N
177.944 397.149 M
178 397.149 L
178.529 397.201 L
179.058 397.201 L
179.587 397.156 L
180.117 397.151 L
180.646 397.196 L
181.175 397.198 L
181.704 397.204 L
182.233 397.252 L
182.762 397.248 L
183.291 397.295 L
183.821 397.342 L
184.35 397.391 L
184.879 397.435 L
185.408 397.43 L
185.937 397.43 L
186.466 397.428 L
186.996 397.38 L
187.525 397.385 L
188.054 397.387 L
188.583 397.344 L
189.112 397.344 L
189.641 397.297 L
190.17 397.243 L
190.7 397.235 L
191.229 397.188 L
191.758 397.235 L
192.287 397.237 L
192.816 397.284 L
193.345 397.237 L
193.874 397.24 L
194.404 397.197 L
194.933 397.195 L
195.462 397.197 L
195.991 397.197 L
196.52 397.245 L
197.049 397.244 L
197.578 397.246 L
198.108 397.205 L
198.637 397.204 L
199.166 397.154 L
199.695 397.202 L
200.224 397.106 L
200.753 397.153 L
201.283 397.153 L
201.812 397.249 L
202.341 397.252 L
202.87 397.251 L
203.399 397.299 L
203.928 397.254 L
204.457 397.16 L
204.987 397.114 L
205.516 397.02 L
206.045 397.02 L
206.574 396.973 L
207.103 396.973 L
207.632 396.921 L
208.161 396.877 L
208.691 396.875 L
209.22 396.926 L
209.749 396.832 L
210.278 396.877 L
210.807 396.882 L
211.336 396.885 L
211.865 396.836 L
212.395 396.843 L
212.924 396.839 L
213.453 396.843 L
213.982 396.838 L
214.511 396.885 L
215.04 396.932 L
215.57 396.982 L
216.099 396.985 L
216.628 396.893 L
217.157 396.894 L
217.686 396.802 L
218.215 396.8 L
218.744 396.798 L
219.274 396.854 L
219.803 396.81 L
220.332 396.761 L
220.861 396.766 L
221.39 396.766 L
221.919 396.818 L
222.448 396.862 L
222.978 396.816 L
223.507 396.813 L
224.036 396.814 L
224.565 396.816 L
225.094 396.821 L
225.623 396.726 L
226.152 396.721 L
226.682 396.679 L
227.211 396.726 L
227.74 396.725 L
228.269 396.723 L
228.798 396.822 L
229.327 396.776 L
229.857 396.734 L
230.386 396.731 L
230.915 396.685 L
231.444 396.684 L
231.973 396.739 L
232.502 396.739 L
233.031 396.742 L
233.561 396.698 L
234.09 396.646 L
234.619 396.651 L
235.148 396.651 L
235.677 396.745 L
236.206 396.69 L
236.735 396.646 L
237.265 396.693 L
237.794 396.696 L
238.323 396.747 L
238.852 396.649 L
239.381 396.696 L
239.91 396.646 L
240.439 396.555 L
240.969 396.602 L
241.498 396.553 L
242.027 396.555 L
242.556 396.55 L
243.085 396.602 L
243.614 396.7 L
244.143 396.695 L
244.673 396.744 L
245.202 396.742 L
245.731 396.696 L
246.26 396.696 L
246.789 396.743 L
247.318 396.701 L
247.848 396.701 L
248.377 396.696 L
248.906 396.605 L
249.435 396.65 L
249.964 396.696 L
250.493 396.794 L
251.022 396.892 L
251.552 396.937 L
252.081 396.936 L
252.61 396.944 L
253.139 396.944 L
253.668 396.942 L
254.197 396.942 L
254.726 396.847 L
255.256 396.904 L
255.785 396.904 L
256.314 396.904 L
256.843 396.86 L
257.372 396.909 L
257.901 396.912 L
258.43 396.915 L
258.96 396.912 L
259.489 396.914 L
260.018 396.915 L
260.547 396.861 L
261.076 396.817 L
261.605 396.819 L
262.135 396.817 L
262.664 396.866 L
263.193 396.86 L
263.722 396.903 L
264.251 396.95 L
264.78 396.955 L
265.309 396.904 L
265.839 396.997 L
266.368 396.999 L
266.897 397.096 L
267.426 397.095 L
267.955 397.092 L
268.484 397.054 L
269.013 397.006 L
269.543 396.91 L
270.072 396.907 L
270.601 396.905 L
271.13 396.955 L
271.659 396.905 L
272.188 396.91 L
272.717 396.91 L
273.247 396.911 L
273.776 396.867 L
274.305 396.918 L
274.834 396.967 L
275.363 396.962 L
275.892 396.859 L
276.422 396.712 L
276.951 396.411 L
277.48 396.097 L
278.009 395.676 L
278.538 395.126 L
279.067 394.64 L
279.596 394.165 L
280.126 393.557 L
280.655 392.802 L
281.184 392.09 L
281.713 391.468 L
282.242 390.714 L
282.771 389.875 L
283.3 389.09 L
283.83 388.263 L
284.359 387.258 L
284.888 386.167 L
285.417 385.175 L
285.946 384.144 L
286.475 382.985 L
287.004 381.833 L
287.534 380.592 L
288.063 379.264 L
288.592 377.978 L
289.121 376.793 L
289.65 375.624 L
290.179 374.633 L
290.709 373.577 L
291.238 372.464 L
291.767 371.285 L
292.296 370.002 L
292.825 368.683 L
293.354 367.436 L
293.883 366.169 L
294.413 365.008 L
294.942 363.828 L
295.471 362.54 L
296 361.345 L
296.529 360.085 L
297.058 358.831 L
297.587 357.525 L
298.117 356.286 L
298.646 355.09 L
299.175 354.039 L
299.704 352.887 L
300.233 351.728 L
300.762 350.456 L
301.291 349.381 L
301.821 348.264 L
302.35 347.263 L
302.879 346.184 L
303.408 345.013 L
303.937 343.938 L
304.466 342.859 L
304.996 341.854 L
305.525 340.864 L
306.054 339.902 L
306.583 338.911 L
307.112 338.034 L
307.641 336.994 L
308.17 336.068 L
308.7 335.099 L
309.229 334.096 L
309.758 333.231 L
310.287 332.347 L
310.816 331.421 L
311.345 330.377 L
311.874 329.307 L
312.404 328.252 L
312.933 327.199 L
313.462 326.095 L
313.991 325.077 L
314.52 324.03 L
315.049 322.955 L
315.578 321.923 L
316.108 320.94 L
316.637 319.908 L
317.166 318.872 L
317.695 317.803 L
318.224 316.808 L
318.753 315.733 L
319.283 314.732 L
319.812 313.782 L
320.341 312.905 L
320.87 312.022 L
321.399 311.214 L
321.928 310.347 L
322.457 309.628 L
322.987 308.865 L
323.516 308.197 L
324.045 307.512 L
324.574 306.853 L
325.103 306.181 L
325.632 305.57 L
326.161 304.829 L
326.691 304.185 L
327.22 303.489 L
327.749 302.824 L
328.278 302.191 L
328.807 301.461 L
329.336 300.705 L
329.865 299.925 L
330.395 299.107 L
330.924 298.246 L
331.453 297.388 L
331.982 296.569 L
332.511 295.72 L
333.04 294.818 L
333.57 293.879 L
334.099 293.036 L
334.628 292.251 L
335.157 291.358 L
335.686 290.524 L
336.215 289.579 L
336.744 288.733 L
337.274 287.891 L
337.803 287.034 L
338.332 286.279 L
338.861 285.553 L
339.39 284.866 L
339.919 284.247 L
340.448 283.672 L
340.978 283.008 L
341.507 282.356 L
342.036 281.785 L
342.565 281.112 L
343.094 280.475 L
343.623 279.86 L
344.152 279.044 L
344.682 278.439 L
345.211 277.682 L
345.74 277.018 L
346.269 276.304 L
346.798 275.556 L
347.327 274.753 L
347.857 274 L
348.386 273.238 L
348.915 272.383 L
349.444 271.639 L
349.973 270.861 L
350.502 269.951 L
351.031 269.142 L
351.561 268.27 L
352.09 267.464 L
352.619 266.575 L
353.148 265.732 L
353.677 264.923 L
354.206 264.101 L
354.735 263.358 L
355.265 262.681 L
355.794 262.015 L
356.323 261.424 L
356.852 260.676 L
357.381 260.012 L
357.91 259.282 L
358.439 258.625 L
358.969 257.937 L
359.498 257.315 L
360.027 256.823 L
360.556 256.203 L
361.085 255.565 L
361.614 254.953 L
362.143 254.443 L
362.673 253.821 L
363.202 253.135 L
363.731 252.565 L
364.26 251.979 L
364.789 251.456 L
365.318 250.938 L
365.848 250.361 L
366.377 249.789 L
366.906 249.251 L
367.435 248.875 L
367.964 248.348 L
368.493 247.951 L
369.022 247.529 L
369.552 247.176 L
370.081 246.798 L
370.61 246.491 L
371.139 246.062 L
371.668 245.801 L
372.197 245.546 L
372.726 245.135 L
373.256 244.828 L
373.785 244.395 L
374.314 244.001 L
374.843 243.545 L
375.372 243.128 L
375.901 242.716 L
376.43 242.343 L
376.96 241.87 L
377.489 241.265 L
378.018 240.765 L
378.547 240.197 L
379.076 239.597 L
379.605 239.177 L
380.135 238.659 L
380.664 238.108 L
381.193 237.705 L
381.722 237.265 L
382.251 236.859 L
382.78 236.573 L
383.309 236.336 L
383.839 236.091 L
384.368 235.934 L
384.897 235.671 L
385.426 235.458 L
385.955 235.252 L
386.484 234.997 L
387.013 234.871 L
387.543 234.828 L
388.072 234.781 L
388.601 234.579 L
389.13 234.353 L
389.659 234.153 L
390.188 233.88 L
390.717 233.731 L
391.247 233.448 L
391.776 233.111 L
392.305 232.859 L
392.834 232.342 L
393.363 232.03 L
393.892 231.616 L
394.422 231.055 L
394.951 230.619 L
395.48 230.298 L
396.009 229.827 L
396.538 229.388 L
397.067 228.965 L
397.596 228.418 L
398.126 228.044 L
398.655 227.573 L
399.184 227.119 L
399.713 226.625 L
400.242 226.275 L
400.771 225.872 L
401.3 225.501 L
401.83 225.177 L
402.359 224.669 L
402.888 224.555 L
403.417 224.275 L
403.946 224.116 L
404.475 223.918 L
405.004 223.707 L
405.534 223.428 L
406.063 223.315 L
406.592 222.908 L
407.121 222.732 L
407.65 222.252 L
408.179 221.946 L
408.709 221.671 L
409.238 221.26 L
409.767 220.965 L
410.296 220.667 L
410.825 220.097 L
411.354 219.791 L
411.883 219.557 L
412.413 219.279 L
412.942 219.174 L
413.471 218.686 L
414 218.564 L
414.529 218.252 L
415.058 218.116 L
415.587 218.033 L
416.117 218.078 L
416.646 218.054 L
417.175 218.134 L
417.704 218.195 L
418.233 218.137 L
418.762 218.284 L
419.291 218.488 L
419.821 218.523 L
420.35 218.69 L
420.879 218.964 L
421.408 219.246 L
421.937 219.637 L
422.466 219.909 L
422.996 220.264 L
423.525 220.267 L
424.054 220.351 L
424.583 220.855 L
425.112 220.951 L
425.641 221.188 L
426.17 221.426 L
426.7 221.7 L
427.229 221.844 L
427.758 221.97 L
428.287 222.21 L
428.816 222.217 L
429.345 222.392 L
429.874 222.464 L
430.404 222.674 L
430.933 222.648 L
431.462 222.672 L
431.991 222.71 L
432.52 222.776 L
433.049 222.802 L
433.578 222.788 L
434.108 222.967 L
434.637 223.018 L
435.166 222.903 L
435.695 222.926 L
436.224 222.739 L
436.753 222.84 L
437.283 222.868 L
437.812 222.749 L
438.341 222.561 L
438.87 222.353 L
439.399 222.381 L
439.928 221.962 L
440.457 221.937 L
440.987 221.858 L
441.516 221.856 L
442.045 221.921 L
442.574 221.792 L
443.103 221.883 L
443.632 221.939 L
444.161 222.139 L
444.691 222.162 L
445.22 222.029 L
445.749 222.161 L
446.278 222.398 L
446.807 222.538 L
447.336 222.562 L
447.865 222.549 L
448.395 222.744 L
448.924 222.881 L
449.453 222.881 L
449.982 222.965 L
450.511 223.054 L
451.04 222.94 L
451.57 222.992 L
452.099 223.155 L
452.628 223.09 L
453.157 223.072 L
453.686 222.929 L
454.215 222.873 L
454.744 222.671 L
455.274 222.281 L
455.803 222.359 L
456.332 222.338 L
456.861 222.101 L
457.39 222.021 L
457.919 222.131 L
458.448 222.206 L
458.978 222.285 L
459.507 222.189 L
460.036 222.473 L
460.565 222.694 L
461.094 222.873 L
461.623 223.103 L
462.152 223.386 L
462.682 223.777 L
463.211 224.088 L
463.74 224.252 L
464.269 224.689 L
464.798 224.983 L
465.327 225.431 L
465.857 225.8 L
466.386 226.106 L
466.915 226.692 L
467.444 227.18 L
467.973 227.691 L
468.502 228.259 L
469.031 228.782 L
469.561 229.188 L
470.09 229.512 L
470.619 229.823 L
471.148 230.139 L
471.677 230.599 L
472.206 230.768 L
472.735 231.222 L
473.265 231.61 L
473.794 231.949 L
474.323 232.238 L
474.852 232.728 L
475.381 233.383 L
475.91 233.812 L
476.439 234.262 L
476.969 234.99 L
477.498 235.363 L
478.027 236.19 L
478.556 236.733 L
479.085 237.412 L
479.614 238.066 L
480.143 238.977 L
480.673 239.896 L
481.202 240.924 L
481.731 241.842 L
482.26 242.574 L
482.789 243.089 L
483.318 243.758 L
483.848 244.866 L
484.377 245.547 L
484.906 246.158 L
485.435 246.732 L
485.964 247.113 L
486.493 247.712 L
487.022 247.77 L
487.552 248.011 L
488.081 248.116 L
488.61 248.439 L
489.139 248.702 L
489.668 249.033 L
490.197 249.303 L
490.726 249.241 L
491.256 249.672 L
491.785 249.626 L
492.314 249.726 L
492.843 249.919 L
493.372 250.18 L
493.901 250.773 L
494.43 251.238 L
494.96 251.365 L
495.489 251.811 L
496.018 252.487 L
496.547 253.315 L
497.076 253.762 L
497.605 254.651 L
498.135 255.614 L
498.664 255.952 L
499.193 256.832 L
499.722 257.384 L
500.251 258.288 L
500.78 258.711 L
501.309 259.614 L
501.839 260.115 L
502.368 260.959 L
502.897 261.797 L
503.426 262.416 L
503.955 263.17 L
504.484 263.457 L
505.013 264.243 L
505.543 264.858 L
506.072 265.57 L
506.601 265.849 L
507.13 266.225 L
507.659 266.856 L
508.188 267.554 L
508.717 267.931 L
509.247 268.649 L
509.776 269.298 L
510.305 270.131 L
510.834 270.63 L
511.363 271.281 L
511.892 272.204 L
512.422 272.865 L
512.951 273.627 L
513.48 274.565 L
514.009 275.423 L
514.538 276.191 L
515.067 277.214 L
515.596 278.174 L
516.126 278.871 L
516.655 279.572 L
517.184 280.548 L
517.713 281.18 L
518.242 282.089 L
518.771 282.818 L
519.3 283.824 L
519.83 285.093 L
520.359 285.748 L
520.888 286.762 L
521.417 287.694 L
521.946 288.353 L
522.475 289.375 L
523.004 290.314 L
523.534 291.094 L
524.063 291.855 L
524.592 293.079 L
525.121 293.617 L
525.65 294.671 L
526.179 295.557 L
526.709 296.449 L
527.238 297.071 L
527.767 297.978 L
528.296 298.791 L
528.825 299.425 L
529.354 300.53 L
529.883 301.363 L
530.413 302.472 L
530.942 303.499 L
531.471 304.234 L
532 305.172 L
532.529 305.835 L
533.058 307.076 L
533.587 307.741 L
534.117 308.798 L
534.646 309.847 L
535.175 310.814 L
535.704 311.78 L
536.233 312.763 L
536.762 313.839 L
537.292 314.831 L
537.821 316.013 L
538.35 317.009 L
538.879 318.01 L
539.408 318.925 L
539.937 319.551 L
540.466 319.898 L
540.995 320.256 L
541.525 320.249 L
542.054 319.083 L
542.583 317.046 L
543.112 315.493 L
543.641 314.721 L
544.17 314.821 L
544.7 315.426 L
545.229 315.555 L
545.758 314.617 L
546.287 312.983 L
546.816 311.449 L
547.345 310.419 L
547.874 309.774 L
548.404 309.531 L
548.933 309.104 L
549.462 308.204 L
549.991 307.09 L
550.52 306.084 L
551.049 305.201 L
551.578 304.802 L
552.108 304.815 L
552.637 305.042 L
553.166 305.74 L
553.695 306.139 L
554.224 305.648 L
554.753 305.329 L
555.283 306.188 L
555.812 307.647 L
556.341 309.799 L
556.87 312.454 L
557.399 314.917 L
557.928 317.467 L
558.457 318.84 L
558.987 320.306 L
559.516 321.964 L
560.045 324.118 L
560.574 327.15 L
561.103 330.482 L
561.632 333.52 L
562.161 336.464 L
562.691 338.819 L
563.22 340.386 L
563.749 341.556 L
564.278 342.927 L
564.807 343.516 L
565.336 344.402 L
565.865 344.3 L
566.395 343.711 L
566.924 343.113 L
567.453 342.716 L
567.982 342.327 L
568.511 342.025 L
569.04 341.927 L
569.57 340.843 L
570.099 339.665 L
570.628 337.893 L
571.157 336.619 L
571.686 335.142 L
572.215 333.767 L
572.744 332.977 L
573.273 331.893 L
573.803 330.91 L
574.332 329.821 L
574.861 328.928 L
575.39 328.625 L
575.919 328.522 L
576.448 329.112 L
576.978 329.988 L
577.507 330.475 L
578.036 331.253 L
578.565 331.352 L
579.094 332.032 L
579.623 332.425 L
580.152 332.913 L
580.682 332.712 L
581.211 333.106 L
581.74 333.593 L
582.269 334.278 L
582.798 334.278 L
583.327 334.18 L
583.857 334.176 L
584.386 333.975 L
584.915 333.085 L
585.444 332.392 L
585.973 331.302 L
586.502 330.322 L
587.031 328.747 L
587.561 327.276 L
588.09 325.504 L
588.619 323.541 L
589.148 321.962 L
589.677 320.491 L
590.206 318.716 L
590.735 317.442 L
591.265 316.26 L
591.794 315.178 L
592.323 313.888 L
592.852 313.1 L
593.381 312.602 L
593.91 312.406 L
594.439 312.597 L
594.969 312.296 L
595.498 312.592 L
596.027 312.974 L
596.556 313.269 L
597.085 313.757 L
597.614 314.237 L
598.143 314.626 L
598.673 314.818 L
599.202 315.207 L
599.731 315.404 L
600.26 315.601 L
600.789 315.793 L
601.318 316.088 L
601.848 316.094 L
602.377 316.001 L
602.906 315.7 L
603.435 315.016 L
603.964 314.523 L
604.493 313.938 L
605.022 313.243 L
605.552 312.449 L
606.081 311.963 L
606.61 311.267 L
607.139 310.682 L
607.668 310.213 L
608.197 310.01 L
608.726 309.907 L
609.256 309.901 L
609.785 310.098 L
610.314 310.197 L
610.843 310.48 L
611.372 310.469 L
611.901 310.771 L
612.43 311.269 L
612.96 311.657 L
613.489 312.143 L
614.018 312.537 L
614.547 313.03 L
615.076 314.009 L
615.605 314.688 L
616.135 315.673 L
616.664 316.264 L
617.193 317.052 L
617.722 317.939 L
618.251 318.24 L
618.78 318.732 L
619.309 318.919 L
619.839 319.21 L
620.368 319.501 L
620.897 319.506 L
621.426 319.998 L
621.955 320.284 L
622.484 320.387 L
623.013 320.372 L
623.543 320.865 L
624.072 320.959 L
624.601 320.953 L
625.13 321.146 L
625.659 321.732 L
626.188 321.93 L
626.718 321.93 L
627.247 322.216 L
627.776 322.511 L
628.305 322.507 L
628.834 322.606 L
629.363 322.69 L
629.892 322.789 L
630.422 323.076 L
630.951 322.878 L
631.48 322.878 L
632.009 322.479 L
632.538 322.478 L
633.067 322.084 L
633.596 321.585 L
634.126 321.092 L
634.655 320.495 L
635.184 320.007 L
635.713 319.71 L
636.242 319.316 L
636.771 318.818 L
637.3 318.314 L
637.83 317.618 L
638.359 317.426 L
638.888 317.228 L
639.417 317.124 L
639.946 317.316 L
640.475 317.218 L
641.004 317.312 L
641.534 317.504 L
642.063 317.8 L
642.592 318.195 L
643.121 318.59 L
643.65 319.182 L
644.179 319.375 L
644.708 319.869 L
645.238 320.164 L
645.767 320.264 L
646.296 320.253 L
646.825 320.446 L
647.354 320.14 L
647.883 319.64 L
648.413 319.437 L
648.942 318.844 L
649.471 318.74 L
650 318.143 L
650.056 318.111 L
S
GR
GS
[0.75 0 0 0.75 0 0] CT
0.467 0.675 0.188 RC
[8 8] 0 setdash
2 LJ
2 LW
N
310.287 445 M
310.816 444.616 L
311.345 444.225 L
311.874 443.827 L
312.404 443.422 L
312.933 443.009 L
313.462 442.588 L
313.991 442.161 L
314.52 441.725 L
315.049 441.283 L
315.578 440.833 L
316.108 440.376 L
316.637 439.912 L
317.166 439.441 L
317.695 438.962 L
318.224 438.476 L
318.753 437.983 L
319.283 437.483 L
319.812 436.975 L
320.341 436.462 L
320.87 435.942 L
321.399 435.416 L
321.928 434.885 L
322.457 434.348 L
322.987 433.806 L
323.516 433.258 L
324.045 432.706 L
324.574 432.15 L
325.103 431.588 L
325.632 431.022 L
326.161 430.452 L
326.691 429.876 L
327.22 429.296 L
327.749 428.711 L
328.278 428.122 L
328.807 427.527 L
329.336 426.928 L
329.865 426.323 L
330.395 425.713 L
330.924 425.097 L
331.453 424.474 L
331.982 423.846 L
332.511 423.212 L
333.04 422.572 L
333.57 421.926 L
334.099 421.273 L
334.628 420.614 L
335.157 419.95 L
335.686 419.279 L
336.215 418.603 L
336.744 417.92 L
337.274 417.231 L
337.803 416.536 L
338.332 415.836 L
338.861 415.13 L
339.39 414.42 L
339.919 413.705 L
340.448 412.985 L
340.978 412.262 L
341.507 411.534 L
342.036 410.801 L
342.565 410.064 L
343.094 409.323 L
343.623 408.577 L
344.152 407.826 L
344.682 407.07 L
345.211 406.31 L
345.74 405.544 L
346.269 404.774 L
346.798 403.998 L
347.327 403.217 L
347.857 402.431 L
348.386 401.639 L
348.915 400.842 L
349.444 400.039 L
349.973 399.231 L
350.502 398.417 L
351.031 397.597 L
351.561 396.77 L
352.09 395.939 L
352.619 395.101 L
353.148 394.257 L
353.677 393.407 L
354.206 392.552 L
354.735 391.691 L
355.265 390.825 L
355.794 389.954 L
356.323 389.079 L
356.852 388.2 L
357.381 387.315 L
357.91 386.426 L
358.439 385.531 L
358.969 384.632 L
359.498 383.729 L
360.027 382.821 L
360.556 381.91 L
361.085 380.994 L
361.614 380.074 L
362.143 379.15 L
362.673 378.222 L
363.202 377.289 L
363.731 376.352 L
364.26 375.411 L
364.789 374.466 L
365.318 373.517 L
365.848 372.565 L
366.377 371.608 L
366.906 370.648 L
367.435 369.684 L
367.964 368.718 L
368.493 367.748 L
369.022 366.775 L
369.552 365.799 L
370.081 364.821 L
370.61 363.841 L
371.139 362.858 L
371.668 361.872 L
372.197 360.885 L
372.726 359.895 L
373.256 358.903 L
373.785 357.908 L
374.314 356.911 L
374.843 355.91 L
375.372 354.907 L
375.901 353.9 L
376.43 352.891 L
376.96 351.878 L
377.489 350.862 L
378.018 349.843 L
378.547 348.819 L
379.076 347.791 L
379.605 346.76 L
380.135 345.725 L
380.664 344.687 L
381.193 343.645 L
381.722 342.601 L
382.251 341.553 L
382.78 340.503 L
383.309 339.451 L
383.839 338.398 L
384.368 337.343 L
384.897 336.287 L
385.426 335.229 L
385.955 334.169 L
386.484 333.108 L
387.013 332.045 L
387.543 330.982 L
388.072 329.919 L
388.601 328.855 L
389.13 327.789 L
389.659 326.722 L
390.188 325.653 L
390.717 324.583 L
391.247 323.511 L
391.776 322.437 L
392.305 321.361 L
392.834 320.282 L
393.363 319.2 L
393.892 318.116 L
394.422 317.028 L
394.951 315.937 L
395.48 314.843 L
396.009 313.747 L
396.538 312.647 L
397.067 311.544 L
397.596 310.438 L
398.126 309.329 L
398.655 308.216 L
399.184 307.101 L
399.713 305.982 L
400.242 304.86 L
400.771 303.735 L
401.3 302.608 L
401.83 301.479 L
402.359 300.346 L
402.888 299.211 L
403.417 298.075 L
403.946 296.938 L
404.475 295.799 L
405.004 294.658 L
405.534 293.516 L
406.063 292.373 L
406.592 291.228 L
407.121 290.081 L
407.65 288.931 L
408.179 287.779 L
408.709 286.624 L
409.238 285.468 L
409.767 284.308 L
410.296 283.147 L
410.825 281.983 L
411.354 280.815 L
411.883 279.646 L
412.413 278.475 L
412.942 277.303 L
413.471 276.128 L
414 274.951 L
414.529 273.773 L
415.058 272.594 L
415.587 271.413 L
416.117 270.233 L
416.646 269.052 L
417.175 267.872 L
417.704 266.692 L
418.233 265.512 L
418.762 264.332 L
419.291 263.154 L
419.821 261.977 L
420.35 260.8 L
420.879 259.625 L
421.408 258.451 L
421.937 257.281 L
422.466 256.112 L
422.996 254.946 L
423.525 253.78 L
424.054 252.616 L
424.583 251.453 L
425.112 250.292 L
425.641 249.133 L
426.17 247.975 L
426.7 246.819 L
427.229 245.664 L
427.758 244.51 L
428.287 243.358 L
428.816 242.207 L
429.345 241.056 L
429.874 239.906 L
430.404 238.757 L
430.933 237.608 L
431.462 236.46 L
431.991 235.312 L
432.52 234.164 L
433.049 233.016 L
433.578 231.869 L
434.108 230.722 L
434.637 229.576 L
435.166 228.43 L
435.695 227.283 L
436.224 226.136 L
436.753 224.989 L
437.283 223.842 L
437.812 222.694 L
438.341 221.546 L
438.87 220.396 L
439.399 219.246 L
439.928 218.094 L
440.457 216.94 L
440.987 215.787 L
441.516 214.633 L
442.045 213.479 L
442.574 212.325 L
443.103 211.171 L
443.632 210.017 L
444.161 208.864 L
444.691 207.713 L
445.22 206.56 L
445.749 205.408 L
446.278 204.257 L
446.807 203.107 L
447.336 201.958 L
447.865 200.809 L
448.395 199.66 L
448.924 198.513 L
449.453 197.366 L
449.982 196.22 L
450.511 195.074 L
451.04 193.928 L
451.57 192.781 L
452.099 191.636 L
452.628 190.491 L
453.157 189.345 L
453.686 188.199 L
454.215 187.053 L
454.744 185.905 L
455.274 184.755 L
455.803 183.605 L
456.332 182.454 L
456.861 181.303 L
457.39 180.15 L
457.919 178.998 L
458.448 177.846 L
458.978 176.695 L
459.507 175.543 L
460.036 174.393 L
460.565 173.244 L
461.094 172.096 L
461.623 170.95 L
462.152 169.806 L
462.682 168.664 L
463.211 167.524 L
463.74 166.387 L
464.269 165.251 L
464.798 164.118 L
465.327 162.987 L
465.857 161.859 L
466.386 160.734 L
466.915 159.612 L
467.444 158.493 L
467.973 157.378 L
468.502 156.267 L
469.031 155.16 L
469.561 154.056 L
470.09 152.954 L
470.619 151.855 L
471.148 150.758 L
471.677 149.663 L
472.206 148.571 L
472.735 147.481 L
473.265 146.394 L
473.794 145.31 L
474.323 144.227 L
474.852 143.148 L
475.381 142.072 L
475.91 141 L
476.439 139.931 L
476.969 138.867 L
477.498 137.806 L
478.027 136.749 L
478.556 135.698 L
479.085 134.65 L
479.614 133.607 L
480.143 132.57 L
480.673 131.539 L
481.202 130.515 L
481.731 129.498 L
482.26 128.486 L
482.789 127.479 L
483.318 126.476 L
483.848 125.479 L
484.377 124.489 L
484.906 123.502 L
485.435 122.521 L
485.964 121.542 L
486.493 120.567 L
487.022 119.594 L
487.552 118.622 L
488.081 117.652 L
488.61 116.683 L
489.139 115.716 L
489.668 114.751 L
490.197 113.788 L
490.726 112.826 L
491.256 111.865 L
491.785 110.906 L
492.314 109.946 L
492.843 108.988 L
493.372 108.031 L
493.901 107.078 L
494.43 106.128 L
494.96 105.18 L
495.489 104.234 L
496.018 103.292 L
496.547 102.355 L
497.076 101.423 L
497.605 100.496 L
498.135 99.575 L
498.664 98.658 L
499.193 97.746 L
499.722 96.839 L
500.251 95.936 L
500.78 95.039 L
501.309 94.146 L
501.839 93.258 L
502.368 92.375 L
502.897 91.497 L
503.426 90.625 L
503.955 89.758 L
504.484 88.894 L
505.013 88.034 L
505.543 87.179 L
506.072 86.328 L
506.601 85.481 L
507.13 84.636 L
507.659 83.795 L
508.188 82.959 L
508.717 82.126 L
509.247 81.297 L
509.776 80.473 L
510.305 79.654 L
510.834 78.839 L
511.363 78.029 L
511.892 77.224 L
512.422 76.425 L
512.951 75.631 L
513.48 74.842 L
514.009 74.06 L
514.538 73.284 L
515.067 72.514 L
515.596 71.751 L
516.126 70.993 L
516.655 70.241 L
517.184 69.494 L
517.713 68.753 L
S
GR
GS
[0.75 0 0 0.75 0 0] CT
1 GC
N
276 169 M
276 52 L
194 52 L
194 169 L
cp
f
GR
GS
[0.75 0 0 0.75 180.75 53.25] CT
/Helvetica 16.8 F
GS
[1 0 0 1 0 0] CT
0 0 moveto 
1 -1 scale
(V) t 
GR
GR
GS
[0.75 0 0 0.75 189.75 59.25] CT
/Helvetica 13.44 F
GS
[1 0 0 1 0 0] CT
0 0 moveto 
1 -1 scale
(D) t 
GR
GR
GS
[0.75 0 0 0.75 197.25 59.25] CT
/Helvetica 13.44 F
GS
[1 0 0 1 0 0] CT
0 0 moveto 
1 -1 scale
(S) t 
GR
GR
GS
[0.75 0 0 0.75 0 0] CT
0.851 0.325 0.098 RC
1 LJ
2 LW
N
198 67.932 M
238 67.932 L
S
GR
GS
[0.75 0 0 0.75 180.75 74.25] CT
/Helvetica 16.8 F
GS
[1 0 0 1 0 0] CT
0 0 moveto 
1 -1 scale
(I) t 
GR
GR
GS
[0.75 0 0 0.75 184.5 80.25] CT
/Helvetica 13.44 F
GS
[1 0 0 1 0 0] CT
0 0 moveto 
1 -1 scale
(D) t 
GR
GR
GS
[0.75 0 0 0.75 0 0] CT
0.929 0.694 0.125 RC
1 LJ
2 LW
N
198 96.311 M
238 96.311 L
S
GR
GS
[0.75 0 0 0.75 180.75 96] CT
/Helvetica 16.8 F
GS
[1 0 0 1 0 0] CT
0 0 moveto 
1 -1 scale
(P) t 
GR
GR
GS
[0.75 0 0 0.75 189.75 102] CT
/Helvetica 13.44 F
GS
[1 0 0 1 0 0] CT
0 0 moveto 
1 -1 scale
(s) t 
GR
GR
GS
[0.75 0 0 0.75 195 102] CT
/Helvetica 13.44 F
GS
[1 0 0 1 0 0] CT
0 0 moveto 
1 -1 scale
(w) t 
GR
GR
GS
[0.75 0 0 0.75 0 0] CT
0.494 0.184 0.557 RC
1 LJ
2 LW
N
198 124.689 M
238 124.689 L
S
GR
GS
[0.75 0 0 0.75 180.75 117] CT
/Helvetica 16.8 F
GS
[1 0 0 1 0 0] CT
0 0 moveto 
1 -1 scale
(E) t 
GR
GR
GS
[0.75 0 0 0.75 189.75 123] CT
/Helvetica 13.44 F
GS
[1 0 0 1 0 0] CT
0 0 moveto 
1 -1 scale
(s) t 
GR
GR
GS
[0.75 0 0 0.75 195 123] CT
/Helvetica 13.44 F
GS
[1 0 0 1 0 0] CT
0 0 moveto 
1 -1 scale
(w) t 
GR
GR
GS
[0.75 0 0 0.75 0 0] CT
0.467 0.675 0.188 RC
[8 8] 0 setdash
2 LJ
2 LW
N
198 153.068 M
238 153.068 L
S
GR
GS
[0.75 0 0 0.75 0 0] CT
0.149 GC
10.0 ML
0.667 LW
N
194 169 M
194 52 L
276 52 L
276 169 L
cp
S
GR
%%Trailer
%%Pages: 1
%%EOF
