%!PS-Adobe-3.0 EPSF-3.0
%%Creator: (MATLAB, The Mathworks, Inc. Version 24.1.0.2603908 \(R2024a\) Update 3. Operating System: Windows 10)
%%Title: (C:/Users/lorde/Documents/MATLAB/Master Lab Course/Exercise 3/E3_Rg10_all_Eon.eps)
%%CreationDate: 2024-06-29T11:56:02
%%Pages: (atend)
%%BoundingBox:     0     0   420   315
%%LanguageLevel: 3
%%EndComments
%%BeginProlog
%%BeginResource: procset (Apache XML Graphics Std ProcSet) 1.2 0
%%Version: 1.2 0
%%Copyright: (Copyright 2001-2003,2010 The Apache Software Foundation. License terms: http://www.apache.org/licenses/LICENSE-2.0)
/bd{bind def}bind def
/ld{load def}bd
/GR/grestore ld
/GS/gsave ld
/RM/rmoveto ld
/C/curveto ld
/t/show ld
/L/lineto ld
/ML/setmiterlimit ld
/CT/concat ld
/f/fill ld
/N/newpath ld
/S/stroke ld
/CC/setcmykcolor ld
/A/ashow ld
/cp/closepath ld
/RC/setrgbcolor ld
/LJ/setlinejoin ld
/GC/setgray ld
/LW/setlinewidth ld
/M/moveto ld
/re {4 2 roll M
1 index 0 rlineto
0 exch rlineto
neg 0 rlineto
cp } bd
/_ctm matrix def
/_tm matrix def
/BT { _ctm currentmatrix pop matrix _tm copy pop 0 0 moveto } bd
/ET { _ctm setmatrix } bd
/iTm { _ctm setmatrix _tm concat } bd
/Tm { _tm astore pop iTm 0 0 moveto } bd
/ux 0.0 def
/uy 0.0 def
/F {
  /Tp exch def
  /Tf exch def
  Tf findfont Tp scalefont setfont
  /cf Tf def  /cs Tp def
} bd
/ULS {currentpoint /uy exch def /ux exch def} bd
/ULE {
  /Tcx currentpoint pop def
  gsave
  newpath
  cf findfont cs scalefont dup
  /FontMatrix get 0 get /Ts exch def /FontInfo get dup
  /UnderlinePosition get Ts mul /To exch def
  /UnderlineThickness get Ts mul /Tt exch def
  ux uy To add moveto  Tcx uy To add lineto
  Tt setlinewidth stroke
  grestore
} bd
/OLE {
  /Tcx currentpoint pop def
  gsave
  newpath
  cf findfont cs scalefont dup
  /FontMatrix get 0 get /Ts exch def /FontInfo get dup
  /UnderlinePosition get Ts mul /To exch def
  /UnderlineThickness get Ts mul /Tt exch def
  ux uy To add cs add moveto Tcx uy To add cs add lineto
  Tt setlinewidth stroke
  grestore
} bd
/SOE {
  /Tcx currentpoint pop def
  gsave
  newpath
  cf findfont cs scalefont dup
  /FontMatrix get 0 get /Ts exch def /FontInfo get dup
  /UnderlinePosition get Ts mul /To exch def
  /UnderlineThickness get Ts mul /Tt exch def
  ux uy To add cs 10 mul 26 idiv add moveto Tcx uy To add cs 10 mul 26 idiv add lineto
  Tt setlinewidth stroke
  grestore
} bd
/QT {
/Y22 exch store
/X22 exch store
/Y21 exch store
/X21 exch store
currentpoint
/Y21 load 2 mul add 3 div exch
/X21 load 2 mul add 3 div exch
/X21 load 2 mul /X22 load add 3 div
/Y21 load 2 mul /Y22 load add 3 div
/X22 load /Y22 load curveto
} bd
/SSPD {
dup length /d exch dict def
{
/v exch def
/k exch def
currentpagedevice k known {
/cpdv currentpagedevice k get def
v cpdv ne {
/upd false def
/nullv v type /nulltype eq def
/nullcpdv cpdv type /nulltype eq def
nullv nullcpdv or
{
/upd true def
} {
/sametype v type cpdv type eq def
sametype {
v type /arraytype eq {
/vlen v length def
/cpdvlen cpdv length def
vlen cpdvlen eq {
0 1 vlen 1 sub {
/i exch def
/obj v i get def
/cpdobj cpdv i get def
obj cpdobj ne {
/upd true def
exit
} if
} for
} {
/upd true def
} ifelse
} {
v type /dicttype eq {
v {
/dv exch def
/dk exch def
/cpddv cpdv dk get def
dv cpddv ne {
/upd true def
exit
} if
} forall
} {
/upd true def
} ifelse
} ifelse
} if
} ifelse
upd true eq {
d k v put
} if
} if
} if
} forall
d length 0 gt {
d setpagedevice
} if
} bd
/RE { % /NewFontName [NewEncodingArray] /FontName RE -
  findfont dup length dict begin
  {
    1 index /FID ne
    {def} {pop pop} ifelse
  } forall
  /Encoding exch def
  /FontName 1 index def
  currentdict definefont pop
  end
} bind def
%%EndResource
%%BeginResource: procset (Apache XML Graphics EPS ProcSet) 1.0 0
%%Version: 1.0 0
%%Copyright: (Copyright 2002-2003 The Apache Software Foundation. License terms: http://www.apache.org/licenses/LICENSE-2.0)
/BeginEPSF { %def
/b4_Inc_state save def         % Save state for cleanup
/dict_count countdictstack def % Count objects on dict stack
/op_count count 1 sub def      % Count objects on operand stack
userdict begin                 % Push userdict on dict stack
/showpage { } def              % Redefine showpage, { } = null proc
0 setgray 0 setlinecap         % Prepare graphics state
1 setlinewidth 0 setlinejoin
10 setmiterlimit [ ] 0 setdash newpath
/languagelevel where           % If level not equal to 1 then
{pop languagelevel             % set strokeadjust and
1 ne                           % overprint to their defaults.
{false setstrokeadjust false setoverprint
} if
} if
} bd
/EndEPSF { %def
count op_count sub {pop} repeat            % Clean up stacks
countdictstack dict_count sub {end} repeat
b4_Inc_state restore
} bd
%%EndResource
%FOPBeginFontDict
%%IncludeResource: font Courier-Oblique
%%IncludeResource: font Courier-BoldOblique
%%IncludeResource: font Courier-Bold
%%IncludeResource: font ZapfDingbats
%%IncludeResource: font Symbol
%%IncludeResource: font Helvetica
%%IncludeResource: font Helvetica-Oblique
%%IncludeResource: font Helvetica-Bold
%%IncludeResource: font Helvetica-BoldOblique
%%IncludeResource: font Times-Roman
%%IncludeResource: font Times-Italic
%%IncludeResource: font Times-Bold
%%IncludeResource: font Times-BoldItalic
%%IncludeResource: font Courier
%FOPEndFontDict
%%BeginResource: encoding WinAnsiEncoding
/WinAnsiEncoding [
/.notdef /.notdef /.notdef /.notdef /.notdef
/.notdef /.notdef /.notdef /.notdef /.notdef
/.notdef /.notdef /.notdef /.notdef /.notdef
/.notdef /.notdef /.notdef /.notdef /.notdef
/.notdef /.notdef /.notdef /.notdef /.notdef
/.notdef /.notdef /.notdef /.notdef /.notdef
/.notdef /.notdef /space /exclam /quotedbl
/numbersign /dollar /percent /ampersand /quotesingle
/parenleft /parenright /asterisk /plus /comma
/hyphen /period /slash /zero /one
/two /three /four /five /six
/seven /eight /nine /colon /semicolon
/less /equal /greater /question /at
/A /B /C /D /E
/F /G /H /I /J
/K /L /M /N /O
/P /Q /R /S /T
/U /V /W /X /Y
/Z /bracketleft /backslash /bracketright /asciicircum
/underscore /quoteleft /a /b /c
/d /e /f /g /h
/i /j /k /l /m
/n /o /p /q /r
/s /t /u /v /w
/x /y /z /braceleft /bar
/braceright /asciitilde /bullet /Euro /bullet
/quotesinglbase /florin /quotedblbase /ellipsis /dagger
/daggerdbl /circumflex /perthousand /Scaron /guilsinglleft
/OE /bullet /Zcaron /bullet /bullet
/quoteleft /quoteright /quotedblleft /quotedblright /bullet
/endash /emdash /asciitilde /trademark /scaron
/guilsinglright /oe /bullet /zcaron /Ydieresis
/space /exclamdown /cent /sterling /currency
/yen /brokenbar /section /dieresis /copyright
/ordfeminine /guillemotleft /logicalnot /sfthyphen /registered
/macron /degree /plusminus /twosuperior /threesuperior
/acute /mu /paragraph /middot /cedilla
/onesuperior /ordmasculine /guillemotright /onequarter /onehalf
/threequarters /questiondown /Agrave /Aacute /Acircumflex
/Atilde /Adieresis /Aring /AE /Ccedilla
/Egrave /Eacute /Ecircumflex /Edieresis /Igrave
/Iacute /Icircumflex /Idieresis /Eth /Ntilde
/Ograve /Oacute /Ocircumflex /Otilde /Odieresis
/multiply /Oslash /Ugrave /Uacute /Ucircumflex
/Udieresis /Yacute /Thorn /germandbls /agrave
/aacute /acircumflex /atilde /adieresis /aring
/ae /ccedilla /egrave /eacute /ecircumflex
/edieresis /igrave /iacute /icircumflex /idieresis
/eth /ntilde /ograve /oacute /ocircumflex
/otilde /odieresis /divide /oslash /ugrave
/uacute /ucircumflex /udieresis /yacute /thorn
/ydieresis
] def
%%EndResource
%FOPBeginFontReencode
/Courier-Oblique findfont
dup length dict begin
  {1 index /FID ne {def} {pop pop} ifelse} forall
  /Encoding WinAnsiEncoding def
  currentdict
end
/Courier-Oblique exch definefont pop
/Courier-BoldOblique findfont
dup length dict begin
  {1 index /FID ne {def} {pop pop} ifelse} forall
  /Encoding WinAnsiEncoding def
  currentdict
end
/Courier-BoldOblique exch definefont pop
/Courier-Bold findfont
dup length dict begin
  {1 index /FID ne {def} {pop pop} ifelse} forall
  /Encoding WinAnsiEncoding def
  currentdict
end
/Courier-Bold exch definefont pop
/Helvetica findfont
dup length dict begin
  {1 index /FID ne {def} {pop pop} ifelse} forall
  /Encoding WinAnsiEncoding def
  currentdict
end
/Helvetica exch definefont pop
/Helvetica-Oblique findfont
dup length dict begin
  {1 index /FID ne {def} {pop pop} ifelse} forall
  /Encoding WinAnsiEncoding def
  currentdict
end
/Helvetica-Oblique exch definefont pop
/Helvetica-Bold findfont
dup length dict begin
  {1 index /FID ne {def} {pop pop} ifelse} forall
  /Encoding WinAnsiEncoding def
  currentdict
end
/Helvetica-Bold exch definefont pop
/Helvetica-BoldOblique findfont
dup length dict begin
  {1 index /FID ne {def} {pop pop} ifelse} forall
  /Encoding WinAnsiEncoding def
  currentdict
end
/Helvetica-BoldOblique exch definefont pop
/Times-Roman findfont
dup length dict begin
  {1 index /FID ne {def} {pop pop} ifelse} forall
  /Encoding WinAnsiEncoding def
  currentdict
end
/Times-Roman exch definefont pop
/Times-Italic findfont
dup length dict begin
  {1 index /FID ne {def} {pop pop} ifelse} forall
  /Encoding WinAnsiEncoding def
  currentdict
end
/Times-Italic exch definefont pop
/Times-Bold findfont
dup length dict begin
  {1 index /FID ne {def} {pop pop} ifelse} forall
  /Encoding WinAnsiEncoding def
  currentdict
end
/Times-Bold exch definefont pop
/Times-BoldItalic findfont
dup length dict begin
  {1 index /FID ne {def} {pop pop} ifelse} forall
  /Encoding WinAnsiEncoding def
  currentdict
end
/Times-BoldItalic exch definefont pop
/Courier findfont
dup length dict begin
  {1 index /FID ne {def} {pop pop} ifelse} forall
  /Encoding WinAnsiEncoding def
  currentdict
end
/Courier exch definefont pop
%FOPEndFontReencode
%%EndProlog
%%Page: 1 1
%%PageBoundingBox: 0 0 420 315
%%BeginPageSetup
[1 0 0 -1 0 315] CT
%%EndPageSetup
GS
[0.75 0 0 0.75 0 0] CT
1 GC
N
0 0 560 420 re
f
GR
GS
[0.75 0 0 0.75 0 0] CT
1 GC
N
0 0 560 420 re
f
GR
GS
[0.75 0 0 0.75 0 0] CT
1 GC
N
73 372 M
507 372 L
507 31 L
73 31 L
cp
f
GR
GS
[0.75 0 0 0.75 0 0] CT
0.873 GC
1 LJ
0.667 LW
N
73 372 M
73 31 L
S
GR
GS
[0.75 0 0 0.75 0 0] CT
0.873 GC
1 LJ
0.667 LW
N
121.222 372 M
121.222 31 L
S
GR
GS
[0.75 0 0 0.75 0 0] CT
0.873 GC
1 LJ
0.667 LW
N
169.444 372 M
169.444 31 L
S
GR
GS
[0.75 0 0 0.75 0 0] CT
0.873 GC
1 LJ
0.667 LW
N
217.667 372 M
217.667 31 L
S
GR
GS
[0.75 0 0 0.75 0 0] CT
0.873 GC
1 LJ
0.667 LW
N
265.889 372 M
265.889 31 L
S
GR
GS
[0.75 0 0 0.75 0 0] CT
0.873 GC
1 LJ
0.667 LW
N
314.111 372 M
314.111 31 L
S
GR
GS
[0.75 0 0 0.75 0 0] CT
0.873 GC
1 LJ
0.667 LW
N
362.333 372 M
362.333 31 L
S
GR
GS
[0.75 0 0 0.75 0 0] CT
0.873 GC
1 LJ
0.667 LW
N
410.556 372 M
410.556 31 L
S
GR
GS
[0.75 0 0 0.75 0 0] CT
0.873 GC
1 LJ
0.667 LW
N
458.778 372 M
458.778 31 L
S
GR
GS
[0.75 0 0 0.75 0 0] CT
0.873 GC
1 LJ
0.667 LW
N
507 372 M
507 31 L
S
GR
GS
[0.75 0 0 0.75 0 0] CT
0.873 GC
1 LJ
0.667 LW
N
507 372 M
73 372 L
S
GR
GS
[0.75 0 0 0.75 0 0] CT
0.873 GC
1 LJ
0.667 LW
N
507 323.286 M
73 323.286 L
S
GR
GS
[0.75 0 0 0.75 0 0] CT
0.873 GC
1 LJ
0.667 LW
N
507 274.571 M
73 274.571 L
S
GR
GS
[0.75 0 0 0.75 0 0] CT
0.873 GC
1 LJ
0.667 LW
N
507 225.857 M
73 225.857 L
S
GR
GS
[0.75 0 0 0.75 0 0] CT
0.873 GC
1 LJ
0.667 LW
N
507 177.143 M
73 177.143 L
S
GR
GS
[0.75 0 0 0.75 0 0] CT
0.873 GC
1 LJ
0.667 LW
N
507 128.429 M
73 128.429 L
S
GR
GS
[0.75 0 0 0.75 0 0] CT
0.873 GC
1 LJ
0.667 LW
N
507 79.714 M
73 79.714 L
S
GR
GS
[0.75 0 0 0.75 0 0] CT
0.873 GC
1 LJ
0.667 LW
N
507 31 M
73 31 L
S
GR
GS
[0.75 0 0 0.75 0 0] CT
0.149 GC
2 setlinecap
1 LJ
0.667 LW
N
73 372 M
507 372 L
S
GR
GS
[0.75 0 0 0.75 0 0] CT
0.149 GC
2 setlinecap
1 LJ
0.667 LW
N
73 31 M
507 31 L
S
GR
GS
[0.75 0 0 0.75 0 0] CT
0.149 GC
2 setlinecap
1 LJ
0.667 LW
N
73 372 M
73 367.66 L
S
GR
GS
[0.75 0 0 0.75 0 0] CT
0.149 GC
2 setlinecap
1 LJ
0.667 LW
N
121.222 372 M
121.222 367.66 L
S
GR
GS
[0.75 0 0 0.75 0 0] CT
0.149 GC
2 setlinecap
1 LJ
0.667 LW
N
169.444 372 M
169.444 367.66 L
S
GR
GS
[0.75 0 0 0.75 0 0] CT
0.149 GC
2 setlinecap
1 LJ
0.667 LW
N
217.667 372 M
217.667 367.66 L
S
GR
GS
[0.75 0 0 0.75 0 0] CT
0.149 GC
2 setlinecap
1 LJ
0.667 LW
N
265.889 372 M
265.889 367.66 L
S
GR
GS
[0.75 0 0 0.75 0 0] CT
0.149 GC
2 setlinecap
1 LJ
0.667 LW
N
314.111 372 M
314.111 367.66 L
S
GR
GS
[0.75 0 0 0.75 0 0] CT
0.149 GC
2 setlinecap
1 LJ
0.667 LW
N
362.333 372 M
362.333 367.66 L
S
GR
GS
[0.75 0 0 0.75 0 0] CT
0.149 GC
2 setlinecap
1 LJ
0.667 LW
N
410.556 372 M
410.556 367.66 L
S
GR
GS
[0.75 0 0 0.75 0 0] CT
0.149 GC
2 setlinecap
1 LJ
0.667 LW
N
458.778 372 M
458.778 367.66 L
S
GR
GS
[0.75 0 0 0.75 0 0] CT
0.149 GC
2 setlinecap
1 LJ
0.667 LW
N
507 372 M
507 367.66 L
S
GR
GS
[0.75 0 0 0.75 0 0] CT
0.149 GC
2 setlinecap
1 LJ
0.667 LW
N
73 31 M
73 35.34 L
S
GR
GS
[0.75 0 0 0.75 0 0] CT
0.149 GC
2 setlinecap
1 LJ
0.667 LW
N
121.222 31 M
121.222 35.34 L
S
GR
GS
[0.75 0 0 0.75 0 0] CT
0.149 GC
2 setlinecap
1 LJ
0.667 LW
N
169.444 31 M
169.444 35.34 L
S
GR
GS
[0.75 0 0 0.75 0 0] CT
0.149 GC
2 setlinecap
1 LJ
0.667 LW
N
217.667 31 M
217.667 35.34 L
S
GR
GS
[0.75 0 0 0.75 0 0] CT
0.149 GC
2 setlinecap
1 LJ
0.667 LW
N
265.889 31 M
265.889 35.34 L
S
GR
GS
[0.75 0 0 0.75 0 0] CT
0.149 GC
2 setlinecap
1 LJ
0.667 LW
N
314.111 31 M
314.111 35.34 L
S
GR
GS
[0.75 0 0 0.75 0 0] CT
0.149 GC
2 setlinecap
1 LJ
0.667 LW
N
362.333 31 M
362.333 35.34 L
S
GR
GS
[0.75 0 0 0.75 0 0] CT
0.149 GC
2 setlinecap
1 LJ
0.667 LW
N
410.556 31 M
410.556 35.34 L
S
GR
GS
[0.75 0 0 0.75 0 0] CT
0.149 GC
2 setlinecap
1 LJ
0.667 LW
N
458.778 31 M
458.778 35.34 L
S
GR
GS
[0.75 0 0 0.75 0 0] CT
0.149 GC
2 setlinecap
1 LJ
0.667 LW
N
507 31 M
507 35.34 L
S
GR
GS
[0.75 0 0 0.75 54.75 283.00001] CT
0.149 GC
/Helvetica 13.333 F
GS
[1 0 0 1 0 0] CT
-4 14 moveto 
1 -1 scale
(0) t 
GR
GR
GS
[0.75 0 0 0.75 90.91667 283.00001] CT
0.149 GC
/Helvetica 13.333 F
GS
[1 0 0 1 0 0] CT
-7.5 14 moveto 
1 -1 scale
(20) t 
GR
GR
GS
[0.75 0 0 0.75 127.08333 283.00001] CT
0.149 GC
/Helvetica 13.333 F
GS
[1 0 0 1 0 0] CT
-7.5 14 moveto 
1 -1 scale
(40) t 
GR
GR
GS
[0.75 0 0 0.75 163.25 283.00001] CT
0.149 GC
/Helvetica 13.333 F
GS
[1 0 0 1 0 0] CT
-7.5 14 moveto 
1 -1 scale
(60) t 
GR
GR
GS
[0.75 0 0 0.75 199.41666 283.00001] CT
0.149 GC
/Helvetica 13.333 F
GS
[1 0 0 1 0 0] CT
-7.5 14 moveto 
1 -1 scale
(80) t 
GR
GR
GS
[0.75 0 0 0.75 235.58334 283.00001] CT
0.149 GC
/Helvetica 13.333 F
GS
[1 0 0 1 0 0] CT
-11.5 14 moveto 
1 -1 scale
(100) t 
GR
GR
GS
[0.75 0 0 0.75 271.75001 283.00001] CT
0.149 GC
/Helvetica 13.333 F
GS
[1 0 0 1 0 0] CT
-11.5 14 moveto 
1 -1 scale
(120) t 
GR
GR
GS
[0.75 0 0 0.75 307.91666 283.00001] CT
0.149 GC
/Helvetica 13.333 F
GS
[1 0 0 1 0 0] CT
-11.5 14 moveto 
1 -1 scale
(140) t 
GR
GR
GS
[0.75 0 0 0.75 344.08333 283.00001] CT
0.149 GC
/Helvetica 13.333 F
GS
[1 0 0 1 0 0] CT
-11.5 14 moveto 
1 -1 scale
(160) t 
GR
GR
GS
[0.75 0 0 0.75 380.25 283.00001] CT
0.149 GC
/Helvetica 13.333 F
GS
[1 0 0 1 0 0] CT
-11.5 14 moveto 
1 -1 scale
(180) t 
GR
GR
GS
[0.75 0 0 0.75 217.50016 297] CT
0.149 GC
/Helvetica 18.667 F
GS
[1 0 0 1 0 0] CT
-35.5 19 moveto 
1 -1 scale
(time / ns) t 
GR
GR
GS
[0.75 0 0 0.75 0 0] CT
0.149 GC
2 setlinecap
1 LJ
0.667 LW
N
73 372 M
73 31 L
S
GR
GS
[0.75 0 0 0.75 0 0] CT
0.149 GC
2 setlinecap
1 LJ
0.667 LW
N
507 372 M
507 31 L
S
GR
GS
[0.75 0 0 0.75 0 0] CT
0.149 GC
2 setlinecap
1 LJ
0.667 LW
N
73 372 M
77.34 372 L
S
GR
GS
[0.75 0 0 0.75 0 0] CT
0.149 GC
2 setlinecap
1 LJ
0.667 LW
N
73 323.286 M
77.34 323.286 L
S
GR
GS
[0.75 0 0 0.75 0 0] CT
0.149 GC
2 setlinecap
1 LJ
0.667 LW
N
73 274.571 M
77.34 274.571 L
S
GR
GS
[0.75 0 0 0.75 0 0] CT
0.149 GC
2 setlinecap
1 LJ
0.667 LW
N
73 225.857 M
77.34 225.857 L
S
GR
GS
[0.75 0 0 0.75 0 0] CT
0.149 GC
2 setlinecap
1 LJ
0.667 LW
N
73 177.143 M
77.34 177.143 L
S
GR
GS
[0.75 0 0 0.75 0 0] CT
0.149 GC
2 setlinecap
1 LJ
0.667 LW
N
73 128.429 M
77.34 128.429 L
S
GR
GS
[0.75 0 0 0.75 0 0] CT
0.149 GC
2 setlinecap
1 LJ
0.667 LW
N
73 79.714 M
77.34 79.714 L
S
GR
GS
[0.75 0 0 0.75 0 0] CT
0.149 GC
2 setlinecap
1 LJ
0.667 LW
N
73 31 M
77.34 31 L
S
GR
GS
[0.75 0 0 0.75 0 0] CT
0.149 GC
2 setlinecap
1 LJ
0.667 LW
N
507 372 M
502.66 372 L
S
GR
GS
[0.75 0 0 0.75 0 0] CT
0.149 GC
2 setlinecap
1 LJ
0.667 LW
N
507 323.286 M
502.66 323.286 L
S
GR
GS
[0.75 0 0 0.75 0 0] CT
0.149 GC
2 setlinecap
1 LJ
0.667 LW
N
507 274.571 M
502.66 274.571 L
S
GR
GS
[0.75 0 0 0.75 0 0] CT
0.149 GC
2 setlinecap
1 LJ
0.667 LW
N
507 225.857 M
502.66 225.857 L
S
GR
GS
[0.75 0 0 0.75 0 0] CT
0.149 GC
2 setlinecap
1 LJ
0.667 LW
N
507 177.143 M
502.66 177.143 L
S
GR
GS
[0.75 0 0 0.75 0 0] CT
0.149 GC
2 setlinecap
1 LJ
0.667 LW
N
507 128.429 M
502.66 128.429 L
S
GR
GS
[0.75 0 0 0.75 0 0] CT
0.149 GC
2 setlinecap
1 LJ
0.667 LW
N
507 79.714 M
502.66 79.714 L
S
GR
GS
[0.75 0 0 0.75 0 0] CT
0.149 GC
2 setlinecap
1 LJ
0.667 LW
N
507 31 M
502.66 31 L
S
GR
GS
[0.75 0 0 0.75 50.75 279] CT
0.149 GC
/Helvetica 13.333 F
GS
[1 0 0 1 0 0] CT
-8 5.5 moveto 
1 -1 scale
(0) t 
GR
GR
GS
[0.75 0 0 0.75 50.75 242.46428] CT
0.149 GC
/Helvetica 13.333 F
GS
[1 0 0 1 0 0] CT
-8 5.5 moveto 
1 -1 scale
(5) t 
GR
GR
GS
[0.75 0 0 0.75 50.75 205.92858] CT
0.149 GC
/Helvetica 13.333 F
GS
[1 0 0 1 0 0] CT
-15 5.5 moveto 
1 -1 scale
(10) t 
GR
GR
GS
[0.75 0 0 0.75 50.75 169.39286] CT
0.149 GC
/Helvetica 13.333 F
GS
[1 0 0 1 0 0] CT
-15 5.5 moveto 
1 -1 scale
(15) t 
GR
GR
GS
[0.75 0 0 0.75 50.75 132.85714] CT
0.149 GC
/Helvetica 13.333 F
GS
[1 0 0 1 0 0] CT
-15 5.5 moveto 
1 -1 scale
(20) t 
GR
GR
GS
[0.75 0 0 0.75 50.75 96.32143] CT
0.149 GC
/Helvetica 13.333 F
GS
[1 0 0 1 0 0] CT
-15 5.5 moveto 
1 -1 scale
(25) t 
GR
GR
GS
[0.75 0 0 0.75 50.75 59.78572] CT
0.149 GC
/Helvetica 13.333 F
GS
[1 0 0 1 0 0] CT
-15 5.5 moveto 
1 -1 scale
(30) t 
GR
GR
GS
[0.75 0 0 0.75 50.75 23.25] CT
0.149 GC
/Helvetica 13.333 F
GS
[1 0 0 1 0 0] CT
-15 5.5 moveto 
1 -1 scale
(35) t 
GR
GR
GS
[0 -0.75 0.75 0 33 187.5] CT
0.149 GC
/Helvetica 18.667 F
GS
[1 0 0 1 0 0] CT
0 0 moveto 
1 -1 scale
(Energy / ) t 
GR
GR
GS
[0 -0.75 0.75 0 33 131.25] CT
0.149 GC
N
0.531 3.578 M
0.531 3.453 0.547 3.422 QT
3.344 -7.797 L
3.422 -8.063 3.641 -8.227 QT
3.859 -8.391 4.141 -8.391 QT
4.375 -8.391 4.547 -8.25 QT
4.719 -8.109 4.719 -7.875 QT
4.719 -7.813 4.711 -7.781 QT
4.703 -7.75 4.688 -7.703 QT
3.578 -3.266 L
3.391 -2.484 3.391 -1.906 QT
3.391 -1.203 3.719 -0.742 QT
4.047 -0.281 4.734 -0.281 QT
6.109 -0.281 7.156 -2.016 QT
7.172 -2.031 7.18 -2.039 QT
7.188 -2.047 7.188 -2.063 QT
8.547 -7.578 L
8.625 -7.828 8.852 -8.008 QT
9.078 -8.188 9.359 -8.188 QT
9.578 -8.188 9.75 -8.039 QT
9.922 -7.891 9.922 -7.656 QT
9.922 -7.547 9.906 -7.5 QT
8.531 -2.031 L
8.391 -1.5 8.391 -1.109 QT
8.391 -0.281 8.953 -0.281 QT
9.547 -0.281 9.852 -1.016 QT
10.156 -1.75 10.375 -2.797 QT
10.406 -2.906 10.531 -2.906 QT
10.75 -2.906 L
10.828 -2.906 10.875 -2.844 QT
10.922 -2.781 10.922 -2.719 QT
10.594 -1.391 10.203 -0.586 QT
9.813 0.219 8.922 0.219 QT
8.281 0.219 7.797 -0.148 QT
7.313 -0.516 7.156 -1.125 QT
6.688 -0.531 6.055 -0.156 QT
5.422 0.219 4.719 0.219 QT
3.531 0.219 2.844 -0.344 QT
1.891 3.5 L
1.828 3.766 1.602 3.93 QT
1.375 4.094 1.109 4.094 QT
0.875 4.094 0.703 3.953 QT
0.531 3.813 0.531 3.578 QT
cp
f
GR
GS
[0 -0.75 0.75 0 33 122.25] CT
0.149 GC
/Helvetica 18.667 F
GS
[1 0 0 1 0 0] CT
0 0 moveto 
1 -1 scale
(J) t 
GR
GR
GS
[0.75 0 0 0.75 0 0] CT
0 0.447 0.741 RC
1 LJ
2 LW
N
73 372 M
73.964 371.753 L
74.929 371.501 L
75.893 371.242 L
76.858 370.976 L
77.822 370.702 L
78.787 370.42 L
79.751 370.128 L
80.716 369.828 L
81.68 369.519 L
82.644 369.202 L
83.609 368.879 L
84.573 368.551 L
85.538 368.218 L
86.502 367.88 L
87.467 367.54 L
88.431 367.2 L
89.396 366.859 L
90.36 366.521 L
91.324 366.187 L
92.289 365.859 L
93.253 365.536 L
94.218 365.22 L
95.182 364.912 L
96.147 364.61 L
97.111 364.316 L
98.076 364.028 L
99.04 363.748 L
100.004 363.475 L
100.969 363.209 L
101.933 362.95 L
102.898 362.699 L
103.862 362.455 L
104.827 362.215 L
105.791 361.98 L
106.756 361.748 L
107.72 361.516 L
108.684 361.286 L
109.649 361.057 L
110.613 360.828 L
111.578 360.598 L
112.542 360.366 L
113.507 360.132 L
114.471 359.894 L
115.436 359.653 L
116.4 359.407 L
117.364 359.158 L
118.329 358.904 L
119.293 358.646 L
120.258 358.383 L
121.222 358.116 L
122.187 357.846 L
123.151 357.573 L
124.116 357.297 L
125.08 357.018 L
126.044 356.736 L
127.009 356.452 L
127.973 356.167 L
128.938 355.88 L
129.902 355.593 L
130.867 355.305 L
131.831 355.017 L
132.796 354.729 L
133.76 354.441 L
134.724 354.153 L
135.689 353.866 L
136.653 353.579 L
137.618 353.294 L
138.582 353.008 L
139.547 352.723 L
140.511 352.437 L
141.476 352.151 L
142.44 351.865 L
143.404 351.577 L
144.369 351.288 L
145.333 350.998 L
146.298 350.706 L
147.262 350.411 L
148.227 350.113 L
149.191 349.81 L
150.156 349.503 L
151.12 349.192 L
152.084 348.876 L
153.049 348.557 L
154.013 348.231 L
154.978 347.9 L
155.942 347.564 L
156.907 347.222 L
157.871 346.876 L
158.836 346.525 L
159.8 346.17 L
160.764 345.811 L
161.729 345.449 L
162.693 345.084 L
163.658 344.716 L
164.622 344.349 L
165.587 343.981 L
166.551 343.613 L
167.516 343.245 L
168.48 342.877 L
169.444 342.511 L
170.409 342.145 L
171.373 341.78 L
172.338 341.418 L
173.302 341.057 L
174.267 340.697 L
175.231 340.338 L
176.196 339.98 L
177.16 339.621 L
178.124 339.262 L
179.089 338.903 L
180.053 338.543 L
181.018 338.183 L
181.982 337.821 L
182.947 337.456 L
183.911 337.089 L
184.876 336.719 L
185.84 336.346 L
186.804 335.97 L
187.769 335.592 L
188.733 335.212 L
189.698 334.829 L
190.662 334.445 L
191.627 334.06 L
192.591 333.674 L
193.556 333.288 L
194.52 332.903 L
195.484 332.518 L
196.449 332.133 L
197.413 331.75 L
198.378 331.368 L
199.342 330.988 L
200.307 330.61 L
201.271 330.233 L
202.236 329.858 L
203.2 329.485 L
204.164 329.113 L
205.129 328.744 L
206.093 328.376 L
207.058 328.01 L
208.022 327.645 L
208.987 327.28 L
209.951 326.915 L
210.916 326.55 L
211.88 326.185 L
212.844 325.82 L
213.809 325.455 L
214.773 325.089 L
215.738 324.722 L
216.702 324.355 L
217.667 323.988 L
218.631 323.621 L
219.596 323.253 L
220.56 322.885 L
221.524 322.516 L
222.489 322.147 L
223.453 321.779 L
224.418 321.411 L
225.382 321.043 L
226.347 320.676 L
227.311 320.31 L
228.276 319.944 L
229.24 319.578 L
230.204 319.212 L
231.169 318.846 L
232.133 318.479 L
233.098 318.111 L
234.062 317.742 L
235.027 317.372 L
235.991 317.002 L
236.956 316.63 L
237.92 316.256 L
238.884 315.881 L
239.849 315.504 L
240.813 315.125 L
241.778 314.745 L
242.742 314.363 L
243.707 313.981 L
244.671 313.598 L
245.636 313.213 L
246.6 312.828 L
247.564 312.443 L
248.529 312.058 L
249.493 311.674 L
250.458 311.29 L
251.422 310.906 L
252.387 310.523 L
253.351 310.14 L
254.316 309.758 L
255.28 309.377 L
256.244 308.996 L
257.209 308.616 L
258.173 308.236 L
259.138 307.857 L
260.102 307.478 L
261.067 307.099 L
262.031 306.721 L
262.996 306.342 L
263.96 305.962 L
264.924 305.583 L
265.889 305.202 L
266.853 304.821 L
267.818 304.439 L
268.782 304.056 L
269.747 303.67 L
270.711 303.284 L
271.676 302.897 L
272.64 302.51 L
273.604 302.121 L
274.569 301.731 L
275.533 301.341 L
276.498 300.951 L
277.462 300.561 L
278.427 300.171 L
279.391 299.782 L
280.356 299.392 L
281.32 299.003 L
282.284 298.615 L
283.249 298.228 L
284.213 297.843 L
285.178 297.458 L
286.142 297.074 L
287.107 296.692 L
288.071 296.311 L
289.036 295.932 L
290 295.554 L
290.964 295.177 L
291.929 294.8 L
292.893 294.425 L
293.858 294.051 L
294.822 293.677 L
295.787 293.305 L
296.751 292.933 L
297.716 292.562 L
298.68 292.192 L
299.644 291.822 L
300.609 291.452 L
301.573 291.083 L
302.538 290.715 L
303.502 290.347 L
304.467 289.979 L
305.431 289.612 L
306.396 289.246 L
307.36 288.881 L
308.324 288.517 L
309.289 288.153 L
310.253 287.791 L
311.218 287.429 L
312.182 287.069 L
313.147 286.709 L
314.111 286.351 L
315.076 285.993 L
316.04 285.637 L
317.004 285.281 L
317.969 284.927 L
318.933 284.574 L
319.898 284.222 L
320.862 283.871 L
321.827 283.521 L
322.791 283.172 L
323.756 282.823 L
324.72 282.474 L
325.684 282.126 L
326.649 281.779 L
327.613 281.43 L
328.578 281.082 L
329.542 280.733 L
330.507 280.384 L
331.471 280.035 L
332.436 279.685 L
333.4 279.335 L
334.364 278.984 L
335.329 278.632 L
336.293 278.28 L
337.258 277.928 L
338.222 277.576 L
339.187 277.222 L
340.151 276.869 L
341.116 276.515 L
342.08 276.161 L
343.044 275.808 L
344.009 275.454 L
344.973 275.101 L
345.938 274.748 L
346.902 274.395 L
347.867 274.043 L
348.831 273.692 L
349.796 273.343 L
350.76 272.994 L
351.724 272.646 L
352.689 272.299 L
353.653 271.954 L
354.618 271.61 L
355.582 271.267 L
356.547 270.925 L
357.511 270.585 L
358.476 270.246 L
359.44 269.909 L
360.404 269.573 L
361.369 269.238 L
362.333 268.904 L
363.298 268.571 L
364.262 268.239 L
365.227 267.908 L
366.191 267.578 L
367.156 267.249 L
368.12 266.921 L
369.084 266.595 L
370.049 266.27 L
371.013 265.945 L
371.978 265.621 L
372.942 265.298 L
373.907 264.976 L
374.871 264.655 L
375.836 264.336 L
376.8 264.017 L
377.764 263.699 L
378.729 263.383 L
379.693 263.067 L
380.658 262.753 L
381.622 262.44 L
382.587 262.129 L
383.551 261.819 L
384.516 261.51 L
385.48 261.204 L
386.444 260.898 L
387.409 260.595 L
388.373 260.293 L
389.338 259.993 L
390.302 259.695 L
391.267 259.399 L
392.231 259.104 L
393.196 258.812 L
394.16 258.521 L
395.124 258.232 L
396.089 257.944 L
397.053 257.657 L
398.018 257.373 L
398.982 257.089 L
399.947 256.808 L
400.911 256.527 L
401.876 256.248 L
402.84 255.971 L
403.804 255.695 L
404.769 255.42 L
405.733 255.146 L
406.698 254.873 L
407.662 254.602 L
408.627 254.331 L
409.591 254.062 L
410.556 253.794 L
411.52 253.527 L
412.484 253.261 L
413.449 252.997 L
414.413 252.733 L
415.378 252.471 L
416.342 252.21 L
417.307 251.95 L
418.271 251.691 L
419.236 251.434 L
420.2 251.177 L
421.164 250.922 L
422.129 250.669 L
423.093 250.416 L
424.058 250.165 L
425.022 249.916 L
425.987 249.667 L
426.951 249.42 L
427.916 249.174 L
428.88 248.929 L
429.844 248.686 L
430.809 248.444 L
431.773 248.203 L
432.738 247.964 L
433.702 247.725 L
434.667 247.488 L
435.631 247.253 L
436.596 247.018 L
437.56 246.784 L
438.524 246.552 L
439.489 246.321 L
440.453 246.091 L
441.418 245.863 L
442.382 245.635 L
443.347 245.409 L
444.311 245.184 L
445.276 244.961 L
446.24 244.739 L
447.204 244.519 L
448.169 244.3 L
449.133 244.084 L
450.098 243.869 L
451.062 243.656 L
452.027 243.444 L
452.991 243.235 L
453.956 243.028 L
454.92 242.823 L
455.884 242.62 L
456.849 242.419 L
457.813 242.22 L
458.778 242.023 L
459.742 241.829 L
460.707 241.636 L
461.671 241.446 L
462.636 241.257 L
463.6 241.071 L
464.564 240.886 L
465.529 240.704 L
466.493 240.523 L
467.458 240.344 L
468.422 240.167 L
469.387 239.991 L
470.351 239.818 L
471.316 239.646 L
472.28 239.476 L
473.244 239.307 L
474.209 239.14 L
475.173 238.975 L
476.138 238.811 L
477.102 238.649 L
478.067 238.489 L
479.031 238.33 L
479.996 238.174 L
480.96 238.019 L
481.924 237.866 L
482.889 237.716 L
483.853 237.567 L
484.818 237.42 L
485.782 237.275 L
486.747 237.133 L
487.711 236.993 L
S
GR
GS
[0.75 0 0 0.75 0 0] CT
0.851 0.325 0.098 RC
1 LJ
2 LW
N
73 372 M
73.964 371.624 L
74.929 371.238 L
75.893 370.841 L
76.858 370.433 L
77.822 370.016 L
78.787 369.591 L
79.751 369.157 L
80.716 368.717 L
81.68 368.271 L
82.644 367.82 L
83.609 367.363 L
84.573 366.903 L
85.538 366.441 L
86.502 365.978 L
87.467 365.517 L
88.431 365.06 L
89.396 364.607 L
90.36 364.158 L
91.324 363.715 L
92.289 363.279 L
93.253 362.848 L
94.218 362.424 L
95.182 362.004 L
96.147 361.589 L
97.111 361.18 L
98.076 360.775 L
99.04 360.376 L
100.004 359.982 L
100.969 359.592 L
101.933 359.204 L
102.898 358.818 L
103.862 358.433 L
104.827 358.049 L
105.791 357.664 L
106.756 357.279 L
107.72 356.892 L
108.684 356.504 L
109.649 356.113 L
110.613 355.718 L
111.578 355.318 L
112.542 354.914 L
113.507 354.504 L
114.471 354.09 L
115.436 353.669 L
116.4 353.243 L
117.364 352.811 L
118.329 352.374 L
119.293 351.931 L
120.258 351.485 L
121.222 351.034 L
122.187 350.578 L
123.151 350.119 L
124.116 349.656 L
125.08 349.191 L
126.044 348.722 L
127.009 348.25 L
127.973 347.778 L
128.938 347.303 L
129.902 346.827 L
130.867 346.351 L
131.831 345.875 L
132.796 345.398 L
133.76 344.92 L
134.724 344.44 L
135.689 343.96 L
136.653 343.479 L
137.618 342.997 L
138.582 342.515 L
139.547 342.031 L
140.511 341.544 L
141.476 341.055 L
142.44 340.563 L
143.404 340.067 L
144.369 339.567 L
145.333 339.062 L
146.298 338.553 L
147.262 338.039 L
148.227 337.52 L
149.191 336.995 L
150.156 336.464 L
151.12 335.927 L
152.084 335.384 L
153.049 334.835 L
154.013 334.281 L
154.978 333.722 L
155.942 333.157 L
156.907 332.588 L
157.871 332.014 L
158.836 331.437 L
159.8 330.858 L
160.764 330.276 L
161.729 329.693 L
162.693 329.109 L
163.658 328.524 L
164.622 327.938 L
165.587 327.351 L
166.551 326.765 L
167.516 326.179 L
168.48 325.594 L
169.444 325.01 L
170.409 324.426 L
171.373 323.842 L
172.338 323.257 L
173.302 322.671 L
174.267 322.085 L
175.231 321.496 L
176.196 320.907 L
177.16 320.316 L
178.124 319.723 L
179.089 319.127 L
180.053 318.529 L
181.018 317.927 L
181.982 317.322 L
182.947 316.715 L
183.911 316.104 L
184.876 315.491 L
185.84 314.875 L
186.804 314.256 L
187.769 313.636 L
188.733 313.014 L
189.698 312.391 L
190.662 311.766 L
191.627 311.142 L
192.591 310.519 L
193.556 309.896 L
194.52 309.273 L
195.484 308.652 L
196.449 308.031 L
197.413 307.411 L
198.378 306.793 L
199.342 306.175 L
200.307 305.559 L
201.271 304.944 L
202.236 304.329 L
203.2 303.715 L
204.164 303.102 L
205.129 302.489 L
206.093 301.876 L
207.058 301.263 L
208.022 300.65 L
208.987 300.037 L
209.951 299.423 L
210.916 298.809 L
211.88 298.194 L
212.844 297.579 L
213.809 296.963 L
214.773 296.347 L
215.738 295.73 L
216.702 295.112 L
217.667 294.495 L
218.631 293.877 L
219.596 293.26 L
220.56 292.642 L
221.524 292.025 L
222.489 291.408 L
223.453 290.791 L
224.418 290.173 L
225.382 289.555 L
226.347 288.936 L
227.311 288.316 L
228.276 287.696 L
229.24 287.075 L
230.204 286.453 L
231.169 285.83 L
232.133 285.205 L
233.098 284.58 L
234.062 283.954 L
235.027 283.325 L
235.991 282.696 L
236.956 282.065 L
237.92 281.432 L
238.884 280.797 L
239.849 280.162 L
240.813 279.525 L
241.778 278.887 L
242.742 278.248 L
243.707 277.608 L
244.671 276.968 L
245.636 276.328 L
246.6 275.687 L
247.564 275.047 L
248.529 274.406 L
249.493 273.766 L
250.458 273.126 L
251.422 272.486 L
252.387 271.846 L
253.351 271.207 L
254.316 270.568 L
255.28 269.929 L
256.244 269.29 L
257.209 268.65 L
258.173 268.011 L
259.138 267.371 L
260.102 266.73 L
261.067 266.09 L
262.031 265.448 L
262.996 264.806 L
263.96 264.163 L
264.924 263.519 L
265.889 262.873 L
266.853 262.225 L
267.818 261.577 L
268.782 260.928 L
269.747 260.278 L
270.711 259.629 L
271.676 258.979 L
272.64 258.329 L
273.604 257.678 L
274.569 257.029 L
275.533 256.379 L
276.498 255.731 L
277.462 255.083 L
278.427 254.437 L
279.391 253.792 L
280.356 253.148 L
281.32 252.505 L
282.284 251.863 L
283.249 251.223 L
284.213 250.584 L
285.178 249.946 L
286.142 249.31 L
287.107 248.675 L
288.071 248.041 L
289.036 247.408 L
290 246.776 L
290.964 246.144 L
291.929 245.513 L
292.893 244.883 L
293.858 244.254 L
294.822 243.625 L
295.787 242.996 L
296.751 242.368 L
297.716 241.74 L
298.68 241.112 L
299.644 240.485 L
300.609 239.86 L
301.573 239.234 L
302.538 238.609 L
303.502 237.984 L
304.467 237.361 L
305.431 236.738 L
306.396 236.116 L
307.36 235.496 L
308.324 234.876 L
309.289 234.258 L
310.253 233.641 L
311.218 233.025 L
312.182 232.411 L
313.147 231.797 L
314.111 231.185 L
315.076 230.574 L
316.04 229.964 L
317.004 229.355 L
317.969 228.747 L
318.933 228.14 L
319.898 227.533 L
320.862 226.927 L
321.827 226.322 L
322.791 225.717 L
323.756 225.112 L
324.72 224.507 L
325.684 223.903 L
326.649 223.299 L
327.613 222.694 L
328.578 222.089 L
329.542 221.485 L
330.507 220.88 L
331.471 220.275 L
332.436 219.67 L
333.4 219.065 L
334.364 218.459 L
335.329 217.854 L
336.293 217.249 L
337.258 216.644 L
338.222 216.04 L
339.187 215.437 L
340.151 214.834 L
341.116 214.231 L
342.08 213.63 L
343.044 213.03 L
344.009 212.431 L
344.973 211.834 L
345.938 211.238 L
346.902 210.643 L
347.867 210.05 L
348.831 209.458 L
349.796 208.868 L
350.76 208.281 L
351.724 207.695 L
352.689 207.111 L
353.653 206.529 L
354.618 205.949 L
355.582 205.37 L
356.547 204.793 L
357.511 204.218 L
358.476 203.646 L
359.44 203.074 L
360.404 202.506 L
361.369 201.938 L
362.333 201.373 L
363.298 200.809 L
364.262 200.247 L
365.227 199.687 L
366.191 199.129 L
367.156 198.572 L
368.12 198.016 L
369.084 197.462 L
370.049 196.909 L
371.013 196.357 L
371.978 195.808 L
372.942 195.26 L
373.907 194.714 L
374.871 194.169 L
375.836 193.626 L
376.8 193.085 L
377.764 192.547 L
378.729 192.01 L
379.693 191.474 L
380.658 190.942 L
381.622 190.411 L
382.587 189.883 L
383.551 189.357 L
384.516 188.833 L
385.48 188.312 L
386.444 187.793 L
387.409 187.277 L
388.373 186.763 L
389.338 186.251 L
390.302 185.742 L
391.267 185.235 L
392.231 184.73 L
393.196 184.228 L
394.16 183.728 L
395.124 183.231 L
396.089 182.736 L
397.053 182.242 L
398.018 181.751 L
398.982 181.262 L
399.947 180.775 L
400.911 180.29 L
401.876 179.806 L
402.84 179.325 L
403.804 178.845 L
404.769 178.368 L
405.733 177.892 L
406.698 177.418 L
407.662 176.946 L
408.627 176.476 L
409.591 176.008 L
410.556 175.542 L
411.52 175.078 L
412.484 174.617 L
413.449 174.157 L
414.413 173.7 L
415.378 173.246 L
416.342 172.793 L
417.307 172.343 L
418.271 171.894 L
419.236 171.449 L
420.2 171.005 L
421.164 170.565 L
422.129 170.126 L
423.093 169.69 L
424.058 169.257 L
425.022 168.826 L
425.987 168.397 L
426.951 167.97 L
427.916 167.547 L
428.88 167.125 L
429.844 166.707 L
430.809 166.291 L
431.773 165.877 L
432.738 165.466 L
433.702 165.057 L
434.667 164.65 L
435.631 164.247 L
436.596 163.845 L
437.56 163.446 L
438.524 163.05 L
439.489 162.655 L
440.453 162.264 L
441.418 161.874 L
442.382 161.488 L
443.347 161.105 L
444.311 160.724 L
445.276 160.346 L
446.24 159.972 L
447.204 159.6 L
448.169 159.232 L
449.133 158.866 L
450.098 158.504 L
451.062 158.146 L
452.027 157.79 L
452.991 157.438 L
453.956 157.089 L
454.92 156.743 L
455.884 156.401 L
456.849 156.062 L
457.813 155.726 L
458.778 155.394 L
459.742 155.066 L
460.707 154.74 L
461.671 154.418 L
462.636 154.1 L
463.6 153.784 L
464.564 153.472 L
465.529 153.163 L
466.493 152.857 L
467.458 152.555 L
468.422 152.255 L
469.387 151.958 L
470.351 151.665 L
471.316 151.375 L
472.28 151.087 L
473.244 150.804 L
474.209 150.523 L
475.173 150.246 L
476.138 149.972 L
477.102 149.701 L
478.067 149.434 L
479.031 149.17 L
479.996 148.909 L
480.96 148.652 L
481.924 148.398 L
482.889 148.147 L
S
GR
GS
[0.75 0 0 0.75 0 0] CT
0.929 0.694 0.125 RC
1 LJ
2 LW
N
73 372 M
73.964 371.596 L
74.929 371.179 L
75.893 370.75 L
76.858 370.312 L
77.822 369.864 L
78.787 369.408 L
79.751 368.941 L
80.716 368.464 L
81.68 367.975 L
82.644 367.475 L
83.609 366.964 L
84.573 366.442 L
85.538 365.913 L
86.502 365.377 L
87.467 364.832 L
88.431 364.282 L
89.396 363.725 L
90.36 363.163 L
91.324 362.597 L
92.289 362.028 L
93.253 361.457 L
94.218 360.887 L
95.182 360.317 L
96.147 359.75 L
97.111 359.186 L
98.076 358.627 L
99.04 358.073 L
100.004 357.523 L
100.969 356.977 L
101.933 356.434 L
102.898 355.894 L
103.862 355.358 L
104.827 354.825 L
105.791 354.296 L
106.756 353.769 L
107.72 353.243 L
108.684 352.719 L
109.649 352.193 L
110.613 351.667 L
111.578 351.139 L
112.542 350.608 L
113.507 350.074 L
114.471 349.537 L
115.436 348.996 L
116.4 348.45 L
117.364 347.899 L
118.329 347.341 L
119.293 346.777 L
120.258 346.206 L
121.222 345.627 L
122.187 345.042 L
123.151 344.45 L
124.116 343.852 L
125.08 343.248 L
126.044 342.638 L
127.009 342.024 L
127.973 341.404 L
128.938 340.78 L
129.902 340.152 L
130.867 339.52 L
131.831 338.883 L
132.796 338.243 L
133.76 337.599 L
134.724 336.953 L
135.689 336.304 L
136.653 335.653 L
137.618 334.999 L
138.582 334.344 L
139.547 333.685 L
140.511 333.024 L
141.476 332.362 L
142.44 331.697 L
143.404 331.03 L
144.369 330.361 L
145.333 329.69 L
146.298 329.016 L
147.262 328.338 L
148.227 327.656 L
149.191 326.97 L
150.156 326.278 L
151.12 325.58 L
152.084 324.877 L
153.049 324.168 L
154.013 323.453 L
154.978 322.731 L
155.942 322.002 L
156.907 321.268 L
157.871 320.527 L
158.836 319.779 L
159.8 319.026 L
160.764 318.266 L
161.729 317.501 L
162.693 316.731 L
163.658 315.956 L
164.622 315.177 L
165.587 314.394 L
166.551 313.606 L
167.516 312.816 L
168.48 312.023 L
169.444 311.227 L
170.409 310.43 L
171.373 309.631 L
172.338 308.831 L
173.302 308.03 L
174.267 307.229 L
175.231 306.427 L
176.196 305.624 L
177.16 304.82 L
178.124 304.015 L
179.089 303.207 L
180.053 302.396 L
181.018 301.584 L
181.982 300.768 L
182.947 299.95 L
183.911 299.128 L
184.876 298.302 L
185.84 297.473 L
186.804 296.639 L
187.769 295.802 L
188.733 294.96 L
189.698 294.113 L
190.662 293.263 L
191.627 292.41 L
192.591 291.554 L
193.556 290.696 L
194.52 289.835 L
195.484 288.971 L
196.449 288.106 L
197.413 287.239 L
198.378 286.372 L
199.342 285.504 L
200.307 284.635 L
201.271 283.767 L
202.236 282.898 L
203.2 282.03 L
204.164 281.162 L
205.129 280.294 L
206.093 279.428 L
207.058 278.562 L
208.022 277.696 L
208.987 276.83 L
209.951 275.964 L
210.916 275.098 L
211.88 274.232 L
212.844 273.365 L
213.809 272.498 L
214.773 271.63 L
215.738 270.76 L
216.702 269.89 L
217.667 269.018 L
218.631 268.145 L
219.596 267.271 L
220.56 266.396 L
221.524 265.521 L
222.489 264.644 L
223.453 263.766 L
224.418 262.887 L
225.382 262.006 L
226.347 261.125 L
227.311 260.243 L
228.276 259.359 L
229.24 258.476 L
230.204 257.591 L
231.169 256.706 L
232.133 255.82 L
233.098 254.932 L
234.062 254.043 L
235.027 253.152 L
235.991 252.261 L
236.956 251.368 L
237.92 250.474 L
238.884 249.577 L
239.849 248.679 L
240.813 247.778 L
241.778 246.875 L
242.742 245.969 L
243.707 245.062 L
244.671 244.153 L
245.636 243.242 L
246.6 242.331 L
247.564 241.418 L
248.529 240.503 L
249.493 239.587 L
250.458 238.67 L
251.422 237.752 L
252.387 236.835 L
253.351 235.918 L
254.316 235 L
255.28 234.083 L
256.244 233.165 L
257.209 232.248 L
258.173 231.33 L
259.138 230.413 L
260.102 229.496 L
261.067 228.578 L
262.031 227.661 L
262.996 226.743 L
263.96 225.825 L
264.924 224.906 L
265.889 223.986 L
266.853 223.065 L
267.818 222.143 L
268.782 221.221 L
269.747 220.297 L
270.711 219.373 L
271.676 218.448 L
272.64 217.522 L
273.604 216.595 L
274.569 215.667 L
275.533 214.739 L
276.498 213.811 L
277.462 212.882 L
278.427 211.952 L
279.391 211.023 L
280.356 210.094 L
281.32 209.164 L
282.284 208.236 L
283.249 207.308 L
284.213 206.38 L
285.178 205.454 L
286.142 204.529 L
287.107 203.605 L
288.071 202.682 L
289.036 201.76 L
290 200.84 L
290.964 199.92 L
291.929 199.002 L
292.893 198.085 L
293.858 197.169 L
294.822 196.254 L
295.787 195.34 L
296.751 194.428 L
297.716 193.516 L
298.68 192.605 L
299.644 191.694 L
300.609 190.784 L
301.573 189.874 L
302.538 188.966 L
303.502 188.057 L
304.467 187.15 L
305.431 186.244 L
306.396 185.338 L
307.36 184.433 L
308.324 183.529 L
309.289 182.627 L
310.253 181.725 L
311.218 180.825 L
312.182 179.926 L
313.147 179.028 L
314.111 178.132 L
315.076 177.238 L
316.04 176.346 L
317.004 175.455 L
317.969 174.565 L
318.933 173.678 L
319.898 172.792 L
320.862 171.907 L
321.827 171.024 L
322.791 170.142 L
323.756 169.262 L
324.72 168.383 L
325.684 167.505 L
326.649 166.628 L
327.613 165.752 L
328.578 164.876 L
329.542 164.001 L
330.507 163.127 L
331.471 162.252 L
332.436 161.378 L
333.4 160.505 L
334.364 159.633 L
335.329 158.761 L
336.293 157.889 L
337.258 157.017 L
338.222 156.145 L
339.187 155.274 L
340.151 154.403 L
341.116 153.532 L
342.08 152.662 L
343.044 151.792 L
344.009 150.923 L
344.973 150.055 L
345.938 149.188 L
346.902 148.321 L
347.867 147.456 L
348.831 146.592 L
349.796 145.729 L
350.76 144.868 L
351.724 144.009 L
352.689 143.151 L
353.653 142.295 L
354.618 141.442 L
355.582 140.591 L
356.547 139.742 L
357.511 138.896 L
358.476 138.051 L
359.44 137.209 L
360.404 136.369 L
361.369 135.532 L
362.333 134.696 L
363.298 133.863 L
364.262 133.033 L
365.227 132.204 L
366.191 131.378 L
367.156 130.554 L
368.12 129.733 L
369.084 128.913 L
370.049 128.096 L
371.013 127.281 L
371.978 126.469 L
372.942 125.659 L
373.907 124.851 L
374.871 124.045 L
375.836 123.241 L
376.8 122.439 L
377.764 121.64 L
378.729 120.844 L
379.693 120.05 L
380.658 119.259 L
381.622 118.47 L
382.587 117.684 L
383.551 116.901 L
384.516 116.121 L
385.48 115.343 L
386.444 114.569 L
387.409 113.797 L
388.373 113.028 L
389.338 112.263 L
390.302 111.5 L
391.267 110.741 L
392.231 109.984 L
393.196 109.232 L
394.16 108.482 L
395.124 107.736 L
396.089 106.993 L
397.053 106.254 L
398.018 105.518 L
398.982 104.785 L
399.947 104.055 L
400.911 103.329 L
401.876 102.606 L
402.84 101.887 L
403.804 101.17 L
404.769 100.456 L
405.733 99.746 L
406.698 99.039 L
407.662 98.334 L
408.627 97.632 L
409.591 96.933 L
410.556 96.238 L
411.52 95.545 L
412.484 94.855 L
413.449 94.168 L
414.413 93.485 L
415.378 92.804 L
416.342 92.127 L
417.307 91.453 L
418.271 90.782 L
419.236 90.115 L
420.2 89.451 L
421.164 88.789 L
422.129 88.132 L
423.093 87.477 L
424.058 86.826 L
425.022 86.178 L
425.987 85.534 L
426.951 84.893 L
427.916 84.256 L
428.88 83.622 L
429.844 82.992 L
430.809 82.365 L
431.773 81.742 L
432.738 81.122 L
433.702 80.505 L
434.667 79.891 L
435.631 79.282 L
436.596 78.675 L
437.56 78.073 L
438.524 77.474 L
439.489 76.878 L
440.453 76.286 L
441.418 75.697 L
442.382 75.112 L
443.347 74.531 L
444.311 73.953 L
445.276 73.378 L
446.24 72.807 L
447.204 72.241 L
448.169 71.677 L
449.133 71.118 L
450.098 70.563 L
451.062 70.012 L
452.027 69.465 L
452.991 68.922 L
453.956 68.384 L
454.92 67.85 L
455.884 67.32 L
456.849 66.794 L
457.813 66.273 L
458.778 65.756 L
459.742 65.244 L
460.707 64.736 L
461.671 64.232 L
462.636 63.733 L
463.6 63.239 L
464.564 62.749 L
465.529 62.263 L
466.493 61.783 L
467.458 61.307 L
468.422 60.835 L
469.387 60.368 L
470.351 59.905 L
471.316 59.447 L
472.28 58.993 L
473.244 58.544 L
474.209 58.1 L
475.173 57.661 L
476.138 57.225 L
477.102 56.795 L
478.067 56.368 L
479.031 55.947 L
479.996 55.53 L
480.96 55.117 L
481.924 54.71 L
482.889 54.307 L
483.853 53.908 L
484.818 53.514 L
485.782 53.125 L
486.747 52.741 L
487.711 52.362 L
488.676 51.987 L
489.64 51.618 L
490.604 51.255 L
491.569 50.896 L
492.533 50.543 L
493.498 50.194 L
494.462 49.851 L
495.427 49.512 L
496.391 49.179 L
497.356 48.85 L
498.32 48.526 L
499.284 48.208 L
500.249 47.895 L
501.213 47.586 L
502.178 47.283 L
503.142 46.984 L
504.107 46.691 L
S
GR
GS
[0.75 0 0 0.75 0 0] CT
1 GC
N
186 101 M
186 48 L
103 48 L
103 101 L
cp
f
GR
GS
[0.75 0 0 0.75 112.5 43.5] CT
/Helvetica 12 F
GS
[1 0 0 1 0 0] CT
0 5 moveto 
1 -1 scale
(7.2A) t 
GR
GR
GS
[0.75 0 0 0.75 0 0] CT
0 0.447 0.741 RC
1 LJ
2 LW
N
107 58 M
147 58 L
S
GR
GS
[0.75 0 0 0.75 112.5 55.875] CT
/Helvetica 12 F
GS
[1 0 0 1 0 0] CT
0 5 moveto 
1 -1 scale
(12.4A) t 
GR
GR
GS
[0.75 0 0 0.75 0 0] CT
0.851 0.325 0.098 RC
1 LJ
2 LW
N
107 74.5 M
147 74.5 L
S
GR
GS
[0.75 0 0 0.75 112.5 68.25] CT
/Helvetica 12 F
GS
[1 0 0 1 0 0] CT
0 5 moveto 
1 -1 scale
(16.8A) t 
GR
GR
GS
[0.75 0 0 0.75 0 0] CT
0.929 0.694 0.125 RC
1 LJ
2 LW
N
107 91 M
147 91 L
S
GR
GS
[0.75 0 0 0.75 0 0] CT
0.149 GC
10.0 ML
0.667 LW
N
103 101 M
103 48 L
186 48 L
186 101 L
cp
S
GR
%%Trailer
%%Pages: 1
%%EOF
