%!PS-Adobe-3.0 EPSF-3.0
%%Creator: (MATLAB, The Mathworks, Inc. Version 24.1.0.2603908 \(R2024a\) Update 3. Operating System: Windows 10)
%%Title: (C:/Users/lorde/Documents/MATLAB/Master Lab Course/Exercise 3/E3_Rg10_all_Eoff.eps)
%%CreationDate: 2024-06-29T11:56:09
%%Pages: (atend)
%%BoundingBox:     0     0   420   315
%%LanguageLevel: 3
%%EndComments
%%BeginProlog
%%BeginResource: procset (Apache XML Graphics Std ProcSet) 1.2 0
%%Version: 1.2 0
%%Copyright: (Copyright 2001-2003,2010 The Apache Software Foundation. License terms: http://www.apache.org/licenses/LICENSE-2.0)
/bd{bind def}bind def
/ld{load def}bd
/GR/grestore ld
/GS/gsave ld
/RM/rmoveto ld
/C/curveto ld
/t/show ld
/L/lineto ld
/ML/setmiterlimit ld
/CT/concat ld
/f/fill ld
/N/newpath ld
/S/stroke ld
/CC/setcmykcolor ld
/A/ashow ld
/cp/closepath ld
/RC/setrgbcolor ld
/LJ/setlinejoin ld
/GC/setgray ld
/LW/setlinewidth ld
/M/moveto ld
/re {4 2 roll M
1 index 0 rlineto
0 exch rlineto
neg 0 rlineto
cp } bd
/_ctm matrix def
/_tm matrix def
/BT { _ctm currentmatrix pop matrix _tm copy pop 0 0 moveto } bd
/ET { _ctm setmatrix } bd
/iTm { _ctm setmatrix _tm concat } bd
/Tm { _tm astore pop iTm 0 0 moveto } bd
/ux 0.0 def
/uy 0.0 def
/F {
  /Tp exch def
  /Tf exch def
  Tf findfont Tp scalefont setfont
  /cf Tf def  /cs Tp def
} bd
/ULS {currentpoint /uy exch def /ux exch def} bd
/ULE {
  /Tcx currentpoint pop def
  gsave
  newpath
  cf findfont cs scalefont dup
  /FontMatrix get 0 get /Ts exch def /FontInfo get dup
  /UnderlinePosition get Ts mul /To exch def
  /UnderlineThickness get Ts mul /Tt exch def
  ux uy To add moveto  Tcx uy To add lineto
  Tt setlinewidth stroke
  grestore
} bd
/OLE {
  /Tcx currentpoint pop def
  gsave
  newpath
  cf findfont cs scalefont dup
  /FontMatrix get 0 get /Ts exch def /FontInfo get dup
  /UnderlinePosition get Ts mul /To exch def
  /UnderlineThickness get Ts mul /Tt exch def
  ux uy To add cs add moveto Tcx uy To add cs add lineto
  Tt setlinewidth stroke
  grestore
} bd
/SOE {
  /Tcx currentpoint pop def
  gsave
  newpath
  cf findfont cs scalefont dup
  /FontMatrix get 0 get /Ts exch def /FontInfo get dup
  /UnderlinePosition get Ts mul /To exch def
  /UnderlineThickness get Ts mul /Tt exch def
  ux uy To add cs 10 mul 26 idiv add moveto Tcx uy To add cs 10 mul 26 idiv add lineto
  Tt setlinewidth stroke
  grestore
} bd
/QT {
/Y22 exch store
/X22 exch store
/Y21 exch store
/X21 exch store
currentpoint
/Y21 load 2 mul add 3 div exch
/X21 load 2 mul add 3 div exch
/X21 load 2 mul /X22 load add 3 div
/Y21 load 2 mul /Y22 load add 3 div
/X22 load /Y22 load curveto
} bd
/SSPD {
dup length /d exch dict def
{
/v exch def
/k exch def
currentpagedevice k known {
/cpdv currentpagedevice k get def
v cpdv ne {
/upd false def
/nullv v type /nulltype eq def
/nullcpdv cpdv type /nulltype eq def
nullv nullcpdv or
{
/upd true def
} {
/sametype v type cpdv type eq def
sametype {
v type /arraytype eq {
/vlen v length def
/cpdvlen cpdv length def
vlen cpdvlen eq {
0 1 vlen 1 sub {
/i exch def
/obj v i get def
/cpdobj cpdv i get def
obj cpdobj ne {
/upd true def
exit
} if
} for
} {
/upd true def
} ifelse
} {
v type /dicttype eq {
v {
/dv exch def
/dk exch def
/cpddv cpdv dk get def
dv cpddv ne {
/upd true def
exit
} if
} forall
} {
/upd true def
} ifelse
} ifelse
} if
} ifelse
upd true eq {
d k v put
} if
} if
} if
} forall
d length 0 gt {
d setpagedevice
} if
} bd
/RE { % /NewFontName [NewEncodingArray] /FontName RE -
  findfont dup length dict begin
  {
    1 index /FID ne
    {def} {pop pop} ifelse
  } forall
  /Encoding exch def
  /FontName 1 index def
  currentdict definefont pop
  end
} bind def
%%EndResource
%%BeginResource: procset (Apache XML Graphics EPS ProcSet) 1.0 0
%%Version: 1.0 0
%%Copyright: (Copyright 2002-2003 The Apache Software Foundation. License terms: http://www.apache.org/licenses/LICENSE-2.0)
/BeginEPSF { %def
/b4_Inc_state save def         % Save state for cleanup
/dict_count countdictstack def % Count objects on dict stack
/op_count count 1 sub def      % Count objects on operand stack
userdict begin                 % Push userdict on dict stack
/showpage { } def              % Redefine showpage, { } = null proc
0 setgray 0 setlinecap         % Prepare graphics state
1 setlinewidth 0 setlinejoin
10 setmiterlimit [ ] 0 setdash newpath
/languagelevel where           % If level not equal to 1 then
{pop languagelevel             % set strokeadjust and
1 ne                           % overprint to their defaults.
{false setstrokeadjust false setoverprint
} if
} if
} bd
/EndEPSF { %def
count op_count sub {pop} repeat            % Clean up stacks
countdictstack dict_count sub {end} repeat
b4_Inc_state restore
} bd
%%EndResource
%FOPBeginFontDict
%%IncludeResource: font Courier-Oblique
%%IncludeResource: font Courier-BoldOblique
%%IncludeResource: font Courier-Bold
%%IncludeResource: font ZapfDingbats
%%IncludeResource: font Symbol
%%IncludeResource: font Helvetica
%%IncludeResource: font Helvetica-Oblique
%%IncludeResource: font Helvetica-Bold
%%IncludeResource: font Helvetica-BoldOblique
%%IncludeResource: font Times-Roman
%%IncludeResource: font Times-Italic
%%IncludeResource: font Times-Bold
%%IncludeResource: font Times-BoldItalic
%%IncludeResource: font Courier
%FOPEndFontDict
%%BeginResource: encoding WinAnsiEncoding
/WinAnsiEncoding [
/.notdef /.notdef /.notdef /.notdef /.notdef
/.notdef /.notdef /.notdef /.notdef /.notdef
/.notdef /.notdef /.notdef /.notdef /.notdef
/.notdef /.notdef /.notdef /.notdef /.notdef
/.notdef /.notdef /.notdef /.notdef /.notdef
/.notdef /.notdef /.notdef /.notdef /.notdef
/.notdef /.notdef /space /exclam /quotedbl
/numbersign /dollar /percent /ampersand /quotesingle
/parenleft /parenright /asterisk /plus /comma
/hyphen /period /slash /zero /one
/two /three /four /five /six
/seven /eight /nine /colon /semicolon
/less /equal /greater /question /at
/A /B /C /D /E
/F /G /H /I /J
/K /L /M /N /O
/P /Q /R /S /T
/U /V /W /X /Y
/Z /bracketleft /backslash /bracketright /asciicircum
/underscore /quoteleft /a /b /c
/d /e /f /g /h
/i /j /k /l /m
/n /o /p /q /r
/s /t /u /v /w
/x /y /z /braceleft /bar
/braceright /asciitilde /bullet /Euro /bullet
/quotesinglbase /florin /quotedblbase /ellipsis /dagger
/daggerdbl /circumflex /perthousand /Scaron /guilsinglleft
/OE /bullet /Zcaron /bullet /bullet
/quoteleft /quoteright /quotedblleft /quotedblright /bullet
/endash /emdash /asciitilde /trademark /scaron
/guilsinglright /oe /bullet /zcaron /Ydieresis
/space /exclamdown /cent /sterling /currency
/yen /brokenbar /section /dieresis /copyright
/ordfeminine /guillemotleft /logicalnot /sfthyphen /registered
/macron /degree /plusminus /twosuperior /threesuperior
/acute /mu /paragraph /middot /cedilla
/onesuperior /ordmasculine /guillemotright /onequarter /onehalf
/threequarters /questiondown /Agrave /Aacute /Acircumflex
/Atilde /Adieresis /Aring /AE /Ccedilla
/Egrave /Eacute /Ecircumflex /Edieresis /Igrave
/Iacute /Icircumflex /Idieresis /Eth /Ntilde
/Ograve /Oacute /Ocircumflex /Otilde /Odieresis
/multiply /Oslash /Ugrave /Uacute /Ucircumflex
/Udieresis /Yacute /Thorn /germandbls /agrave
/aacute /acircumflex /atilde /adieresis /aring
/ae /ccedilla /egrave /eacute /ecircumflex
/edieresis /igrave /iacute /icircumflex /idieresis
/eth /ntilde /ograve /oacute /ocircumflex
/otilde /odieresis /divide /oslash /ugrave
/uacute /ucircumflex /udieresis /yacute /thorn
/ydieresis
] def
%%EndResource
%FOPBeginFontReencode
/Courier-Oblique findfont
dup length dict begin
  {1 index /FID ne {def} {pop pop} ifelse} forall
  /Encoding WinAnsiEncoding def
  currentdict
end
/Courier-Oblique exch definefont pop
/Courier-BoldOblique findfont
dup length dict begin
  {1 index /FID ne {def} {pop pop} ifelse} forall
  /Encoding WinAnsiEncoding def
  currentdict
end
/Courier-BoldOblique exch definefont pop
/Courier-Bold findfont
dup length dict begin
  {1 index /FID ne {def} {pop pop} ifelse} forall
  /Encoding WinAnsiEncoding def
  currentdict
end
/Courier-Bold exch definefont pop
/Helvetica findfont
dup length dict begin
  {1 index /FID ne {def} {pop pop} ifelse} forall
  /Encoding WinAnsiEncoding def
  currentdict
end
/Helvetica exch definefont pop
/Helvetica-Oblique findfont
dup length dict begin
  {1 index /FID ne {def} {pop pop} ifelse} forall
  /Encoding WinAnsiEncoding def
  currentdict
end
/Helvetica-Oblique exch definefont pop
/Helvetica-Bold findfont
dup length dict begin
  {1 index /FID ne {def} {pop pop} ifelse} forall
  /Encoding WinAnsiEncoding def
  currentdict
end
/Helvetica-Bold exch definefont pop
/Helvetica-BoldOblique findfont
dup length dict begin
  {1 index /FID ne {def} {pop pop} ifelse} forall
  /Encoding WinAnsiEncoding def
  currentdict
end
/Helvetica-BoldOblique exch definefont pop
/Times-Roman findfont
dup length dict begin
  {1 index /FID ne {def} {pop pop} ifelse} forall
  /Encoding WinAnsiEncoding def
  currentdict
end
/Times-Roman exch definefont pop
/Times-Italic findfont
dup length dict begin
  {1 index /FID ne {def} {pop pop} ifelse} forall
  /Encoding WinAnsiEncoding def
  currentdict
end
/Times-Italic exch definefont pop
/Times-Bold findfont
dup length dict begin
  {1 index /FID ne {def} {pop pop} ifelse} forall
  /Encoding WinAnsiEncoding def
  currentdict
end
/Times-Bold exch definefont pop
/Times-BoldItalic findfont
dup length dict begin
  {1 index /FID ne {def} {pop pop} ifelse} forall
  /Encoding WinAnsiEncoding def
  currentdict
end
/Times-BoldItalic exch definefont pop
/Courier findfont
dup length dict begin
  {1 index /FID ne {def} {pop pop} ifelse} forall
  /Encoding WinAnsiEncoding def
  currentdict
end
/Courier exch definefont pop
%FOPEndFontReencode
%%EndProlog
%%Page: 1 1
%%PageBoundingBox: 0 0 420 315
%%BeginPageSetup
[1 0 0 -1 0 315] CT
%%EndPageSetup
GS
[0.75 0 0 0.75 0 0] CT
1 GC
N
0 0 560 420 re
f
GR
GS
[0.75 0 0 0.75 0 0] CT
1 GC
N
0 0 560 420 re
f
GR
GS
[0.75 0 0 0.75 0 0] CT
1 GC
N
73 372 M
507 372 L
507 31 L
73 31 L
cp
f
GR
GS
[0.75 0 0 0.75 0 0] CT
0.873 GC
1 LJ
0.667 LW
N
73 372 M
73 31 L
S
GR
GS
[0.75 0 0 0.75 0 0] CT
0.873 GC
1 LJ
0.667 LW
N
121.222 372 M
121.222 31 L
S
GR
GS
[0.75 0 0 0.75 0 0] CT
0.873 GC
1 LJ
0.667 LW
N
169.444 372 M
169.444 31 L
S
GR
GS
[0.75 0 0 0.75 0 0] CT
0.873 GC
1 LJ
0.667 LW
N
217.667 372 M
217.667 31 L
S
GR
GS
[0.75 0 0 0.75 0 0] CT
0.873 GC
1 LJ
0.667 LW
N
265.889 372 M
265.889 31 L
S
GR
GS
[0.75 0 0 0.75 0 0] CT
0.873 GC
1 LJ
0.667 LW
N
314.111 372 M
314.111 31 L
S
GR
GS
[0.75 0 0 0.75 0 0] CT
0.873 GC
1 LJ
0.667 LW
N
362.333 372 M
362.333 31 L
S
GR
GS
[0.75 0 0 0.75 0 0] CT
0.873 GC
1 LJ
0.667 LW
N
410.556 372 M
410.556 31 L
S
GR
GS
[0.75 0 0 0.75 0 0] CT
0.873 GC
1 LJ
0.667 LW
N
458.778 372 M
458.778 31 L
S
GR
GS
[0.75 0 0 0.75 0 0] CT
0.873 GC
1 LJ
0.667 LW
N
507 372 M
507 31 L
S
GR
GS
[0.75 0 0 0.75 0 0] CT
0.873 GC
1 LJ
0.667 LW
N
507 372 M
73 372 L
S
GR
GS
[0.75 0 0 0.75 0 0] CT
0.873 GC
1 LJ
0.667 LW
N
507 323.286 M
73 323.286 L
S
GR
GS
[0.75 0 0 0.75 0 0] CT
0.873 GC
1 LJ
0.667 LW
N
507 274.571 M
73 274.571 L
S
GR
GS
[0.75 0 0 0.75 0 0] CT
0.873 GC
1 LJ
0.667 LW
N
507 225.857 M
73 225.857 L
S
GR
GS
[0.75 0 0 0.75 0 0] CT
0.873 GC
1 LJ
0.667 LW
N
507 177.143 M
73 177.143 L
S
GR
GS
[0.75 0 0 0.75 0 0] CT
0.873 GC
1 LJ
0.667 LW
N
507 128.429 M
73 128.429 L
S
GR
GS
[0.75 0 0 0.75 0 0] CT
0.873 GC
1 LJ
0.667 LW
N
507 79.714 M
73 79.714 L
S
GR
GS
[0.75 0 0 0.75 0 0] CT
0.873 GC
1 LJ
0.667 LW
N
507 31 M
73 31 L
S
GR
GS
[0.75 0 0 0.75 0 0] CT
0.149 GC
2 setlinecap
1 LJ
0.667 LW
N
73 372 M
507 372 L
S
GR
GS
[0.75 0 0 0.75 0 0] CT
0.149 GC
2 setlinecap
1 LJ
0.667 LW
N
73 372 M
73 367.66 L
S
GR
GS
[0.75 0 0 0.75 0 0] CT
0.149 GC
2 setlinecap
1 LJ
0.667 LW
N
121.222 372 M
121.222 367.66 L
S
GR
GS
[0.75 0 0 0.75 0 0] CT
0.149 GC
2 setlinecap
1 LJ
0.667 LW
N
169.444 372 M
169.444 367.66 L
S
GR
GS
[0.75 0 0 0.75 0 0] CT
0.149 GC
2 setlinecap
1 LJ
0.667 LW
N
217.667 372 M
217.667 367.66 L
S
GR
GS
[0.75 0 0 0.75 0 0] CT
0.149 GC
2 setlinecap
1 LJ
0.667 LW
N
265.889 372 M
265.889 367.66 L
S
GR
GS
[0.75 0 0 0.75 0 0] CT
0.149 GC
2 setlinecap
1 LJ
0.667 LW
N
314.111 372 M
314.111 367.66 L
S
GR
GS
[0.75 0 0 0.75 0 0] CT
0.149 GC
2 setlinecap
1 LJ
0.667 LW
N
362.333 372 M
362.333 367.66 L
S
GR
GS
[0.75 0 0 0.75 0 0] CT
0.149 GC
2 setlinecap
1 LJ
0.667 LW
N
410.556 372 M
410.556 367.66 L
S
GR
GS
[0.75 0 0 0.75 0 0] CT
0.149 GC
2 setlinecap
1 LJ
0.667 LW
N
458.778 372 M
458.778 367.66 L
S
GR
GS
[0.75 0 0 0.75 0 0] CT
0.149 GC
2 setlinecap
1 LJ
0.667 LW
N
507 372 M
507 367.66 L
S
GR
GS
[0.75 0 0 0.75 54.75 283.00001] CT
0.149 GC
/Helvetica 13.333 F
GS
[1 0 0 1 0 0] CT
-4 14 moveto 
1 -1 scale
(0) t 
GR
GR
GS
[0.75 0 0 0.75 90.91667 283.00001] CT
0.149 GC
/Helvetica 13.333 F
GS
[1 0 0 1 0 0] CT
-7.5 14 moveto 
1 -1 scale
(20) t 
GR
GR
GS
[0.75 0 0 0.75 127.08333 283.00001] CT
0.149 GC
/Helvetica 13.333 F
GS
[1 0 0 1 0 0] CT
-7.5 14 moveto 
1 -1 scale
(40) t 
GR
GR
GS
[0.75 0 0 0.75 163.25 283.00001] CT
0.149 GC
/Helvetica 13.333 F
GS
[1 0 0 1 0 0] CT
-7.5 14 moveto 
1 -1 scale
(60) t 
GR
GR
GS
[0.75 0 0 0.75 199.41666 283.00001] CT
0.149 GC
/Helvetica 13.333 F
GS
[1 0 0 1 0 0] CT
-7.5 14 moveto 
1 -1 scale
(80) t 
GR
GR
GS
[0.75 0 0 0.75 235.58334 283.00001] CT
0.149 GC
/Helvetica 13.333 F
GS
[1 0 0 1 0 0] CT
-11.5 14 moveto 
1 -1 scale
(100) t 
GR
GR
GS
[0.75 0 0 0.75 271.75001 283.00001] CT
0.149 GC
/Helvetica 13.333 F
GS
[1 0 0 1 0 0] CT
-11.5 14 moveto 
1 -1 scale
(120) t 
GR
GR
GS
[0.75 0 0 0.75 307.91666 283.00001] CT
0.149 GC
/Helvetica 13.333 F
GS
[1 0 0 1 0 0] CT
-11.5 14 moveto 
1 -1 scale
(140) t 
GR
GR
GS
[0.75 0 0 0.75 344.08333 283.00001] CT
0.149 GC
/Helvetica 13.333 F
GS
[1 0 0 1 0 0] CT
-11.5 14 moveto 
1 -1 scale
(160) t 
GR
GR
GS
[0.75 0 0 0.75 380.25 283.00001] CT
0.149 GC
/Helvetica 13.333 F
GS
[1 0 0 1 0 0] CT
-11.5 14 moveto 
1 -1 scale
(180) t 
GR
GR
GS
[0.75 0 0 0.75 217.50016 297] CT
0.149 GC
/Helvetica 18.667 F
GS
[1 0 0 1 0 0] CT
-35.5 19 moveto 
1 -1 scale
(time / ns) t 
GR
GR
GS
[0.75 0 0 0.75 0 0] CT
0.149 GC
2 setlinecap
1 LJ
0.667 LW
N
73 372 M
73 31 L
S
GR
GS
[0.75 0 0 0.75 0 0] CT
0.149 GC
2 setlinecap
1 LJ
0.667 LW
N
73 372 M
77.34 372 L
S
GR
GS
[0.75 0 0 0.75 0 0] CT
0.149 GC
2 setlinecap
1 LJ
0.667 LW
N
73 323.286 M
77.34 323.286 L
S
GR
GS
[0.75 0 0 0.75 0 0] CT
0.149 GC
2 setlinecap
1 LJ
0.667 LW
N
73 274.571 M
77.34 274.571 L
S
GR
GS
[0.75 0 0 0.75 0 0] CT
0.149 GC
2 setlinecap
1 LJ
0.667 LW
N
73 225.857 M
77.34 225.857 L
S
GR
GS
[0.75 0 0 0.75 0 0] CT
0.149 GC
2 setlinecap
1 LJ
0.667 LW
N
73 177.143 M
77.34 177.143 L
S
GR
GS
[0.75 0 0 0.75 0 0] CT
0.149 GC
2 setlinecap
1 LJ
0.667 LW
N
73 128.429 M
77.34 128.429 L
S
GR
GS
[0.75 0 0 0.75 0 0] CT
0.149 GC
2 setlinecap
1 LJ
0.667 LW
N
73 79.714 M
77.34 79.714 L
S
GR
GS
[0.75 0 0 0.75 0 0] CT
0.149 GC
2 setlinecap
1 LJ
0.667 LW
N
73 31 M
77.34 31 L
S
GR
GS
[0.75 0 0 0.75 50.75 279] CT
0.149 GC
/Helvetica 13.333 F
GS
[1 0 0 1 0 0] CT
-8 5.5 moveto 
1 -1 scale
(0) t 
GR
GR
GS
[0.75 0 0 0.75 50.75 242.46428] CT
0.149 GC
/Helvetica 13.333 F
GS
[1 0 0 1 0 0] CT
-8 5.5 moveto 
1 -1 scale
(5) t 
GR
GR
GS
[0.75 0 0 0.75 50.75 205.92858] CT
0.149 GC
/Helvetica 13.333 F
GS
[1 0 0 1 0 0] CT
-15 5.5 moveto 
1 -1 scale
(10) t 
GR
GR
GS
[0.75 0 0 0.75 50.75 169.39286] CT
0.149 GC
/Helvetica 13.333 F
GS
[1 0 0 1 0 0] CT
-15 5.5 moveto 
1 -1 scale
(15) t 
GR
GR
GS
[0.75 0 0 0.75 50.75 132.85714] CT
0.149 GC
/Helvetica 13.333 F
GS
[1 0 0 1 0 0] CT
-15 5.5 moveto 
1 -1 scale
(20) t 
GR
GR
GS
[0.75 0 0 0.75 50.75 96.32143] CT
0.149 GC
/Helvetica 13.333 F
GS
[1 0 0 1 0 0] CT
-15 5.5 moveto 
1 -1 scale
(25) t 
GR
GR
GS
[0.75 0 0 0.75 50.75 59.78572] CT
0.149 GC
/Helvetica 13.333 F
GS
[1 0 0 1 0 0] CT
-15 5.5 moveto 
1 -1 scale
(30) t 
GR
GR
GS
[0.75 0 0 0.75 50.75 23.25] CT
0.149 GC
/Helvetica 13.333 F
GS
[1 0 0 1 0 0] CT
-15 5.5 moveto 
1 -1 scale
(35) t 
GR
GR
GS
[0 -0.75 0.75 0 33 187.5] CT
0.149 GC
/Helvetica 18.667 F
GS
[1 0 0 1 0 0] CT
0 0 moveto 
1 -1 scale
(Energy / ) t 
GR
GR
GS
[0 -0.75 0.75 0 33 131.25] CT
0.149 GC
N
0.531 3.578 M
0.531 3.453 0.547 3.422 QT
3.344 -7.797 L
3.422 -8.063 3.641 -8.227 QT
3.859 -8.391 4.141 -8.391 QT
4.375 -8.391 4.547 -8.25 QT
4.719 -8.109 4.719 -7.875 QT
4.719 -7.813 4.711 -7.781 QT
4.703 -7.75 4.688 -7.703 QT
3.578 -3.266 L
3.391 -2.484 3.391 -1.906 QT
3.391 -1.203 3.719 -0.742 QT
4.047 -0.281 4.734 -0.281 QT
6.109 -0.281 7.156 -2.016 QT
7.172 -2.031 7.18 -2.039 QT
7.188 -2.047 7.188 -2.063 QT
8.547 -7.578 L
8.625 -7.828 8.852 -8.008 QT
9.078 -8.188 9.359 -8.188 QT
9.578 -8.188 9.75 -8.039 QT
9.922 -7.891 9.922 -7.656 QT
9.922 -7.547 9.906 -7.5 QT
8.531 -2.031 L
8.391 -1.5 8.391 -1.109 QT
8.391 -0.281 8.953 -0.281 QT
9.547 -0.281 9.852 -1.016 QT
10.156 -1.75 10.375 -2.797 QT
10.406 -2.906 10.531 -2.906 QT
10.75 -2.906 L
10.828 -2.906 10.875 -2.844 QT
10.922 -2.781 10.922 -2.719 QT
10.594 -1.391 10.203 -0.586 QT
9.813 0.219 8.922 0.219 QT
8.281 0.219 7.797 -0.148 QT
7.313 -0.516 7.156 -1.125 QT
6.688 -0.531 6.055 -0.156 QT
5.422 0.219 4.719 0.219 QT
3.531 0.219 2.844 -0.344 QT
1.891 3.5 L
1.828 3.766 1.602 3.93 QT
1.375 4.094 1.109 4.094 QT
0.875 4.094 0.703 3.953 QT
0.531 3.813 0.531 3.578 QT
cp
f
GR
GS
[0 -0.75 0.75 0 33 122.25] CT
0.149 GC
/Helvetica 18.667 F
GS
[1 0 0 1 0 0] CT
0 0 moveto 
1 -1 scale
(J) t 
GR
GR
GS
[0.75 0 0 0.75 0 0] CT
0 0.447 0.741 RC
1 LJ
2 LW
N
73 372 M
73.964 371.895 L
74.929 371.789 L
75.893 371.681 L
76.858 371.572 L
77.822 371.46 L
78.787 371.347 L
79.751 371.233 L
80.716 371.117 L
81.68 370.999 L
82.644 370.88 L
83.609 370.76 L
84.573 370.638 L
85.538 370.514 L
86.502 370.389 L
87.467 370.262 L
88.431 370.133 L
89.396 370.003 L
90.36 369.871 L
91.324 369.738 L
92.289 369.603 L
93.253 369.466 L
94.218 369.328 L
95.182 369.187 L
96.147 369.045 L
97.111 368.902 L
98.076 368.756 L
99.04 368.609 L
100.004 368.46 L
100.969 368.31 L
101.933 368.158 L
102.898 368.005 L
103.862 367.85 L
104.827 367.695 L
105.791 367.538 L
106.756 367.38 L
107.72 367.221 L
108.684 367.061 L
109.649 366.9 L
110.613 366.737 L
111.578 366.574 L
112.542 366.41 L
113.507 366.245 L
114.471 366.079 L
115.436 365.912 L
116.4 365.744 L
117.364 365.575 L
118.329 365.405 L
119.293 365.234 L
120.258 365.061 L
121.222 364.887 L
122.187 364.711 L
123.151 364.534 L
124.116 364.355 L
125.08 364.174 L
126.044 363.992 L
127.009 363.807 L
127.973 363.621 L
128.938 363.433 L
129.902 363.244 L
130.867 363.052 L
131.831 362.859 L
132.796 362.664 L
133.76 362.468 L
134.724 362.271 L
135.689 362.073 L
136.653 361.873 L
137.618 361.672 L
138.582 361.47 L
139.547 361.267 L
140.511 361.062 L
141.476 360.857 L
142.44 360.65 L
143.404 360.442 L
144.369 360.233 L
145.333 360.023 L
146.298 359.811 L
147.262 359.599 L
148.227 359.384 L
149.191 359.168 L
150.156 358.951 L
151.12 358.732 L
152.084 358.511 L
153.049 358.288 L
154.013 358.064 L
154.978 357.838 L
155.942 357.609 L
156.907 357.379 L
157.871 357.147 L
158.836 356.913 L
159.8 356.678 L
160.764 356.441 L
161.729 356.202 L
162.693 355.962 L
163.658 355.721 L
164.622 355.478 L
165.587 355.235 L
166.551 354.991 L
167.516 354.746 L
168.48 354.5 L
169.444 354.253 L
170.409 354.006 L
171.373 353.758 L
172.338 353.509 L
173.302 353.259 L
174.267 353.009 L
175.231 352.757 L
176.196 352.505 L
177.16 352.252 L
178.124 351.998 L
179.089 351.743 L
180.053 351.487 L
181.018 351.23 L
181.982 350.971 L
182.947 350.711 L
183.911 350.451 L
184.876 350.189 L
185.84 349.926 L
186.804 349.662 L
187.769 349.397 L
188.733 349.132 L
189.698 348.866 L
190.662 348.6 L
191.627 348.333 L
192.591 348.066 L
193.556 347.799 L
194.52 347.532 L
195.484 347.264 L
196.449 346.997 L
197.413 346.729 L
198.378 346.461 L
199.342 346.192 L
200.307 345.923 L
201.271 345.654 L
202.236 345.384 L
203.2 345.113 L
204.164 344.841 L
205.129 344.568 L
206.093 344.294 L
207.058 344.019 L
208.022 343.743 L
208.987 343.467 L
209.951 343.19 L
210.916 342.911 L
211.88 342.632 L
212.844 342.352 L
213.809 342.071 L
214.773 341.789 L
215.738 341.506 L
216.702 341.222 L
217.667 340.938 L
218.631 340.653 L
219.596 340.368 L
220.56 340.082 L
221.524 339.797 L
222.489 339.511 L
223.453 339.224 L
224.418 338.937 L
225.382 338.65 L
226.347 338.362 L
227.311 338.075 L
228.276 337.786 L
229.24 337.497 L
230.204 337.207 L
231.169 336.917 L
232.133 336.626 L
233.098 336.334 L
234.062 336.042 L
235.027 335.749 L
235.991 335.454 L
236.956 335.158 L
237.92 334.862 L
238.884 334.564 L
239.849 334.266 L
240.813 333.967 L
241.778 333.666 L
242.742 333.365 L
243.707 333.063 L
244.671 332.76 L
245.636 332.455 L
246.6 332.15 L
247.564 331.845 L
248.529 331.539 L
249.493 331.233 L
250.458 330.926 L
251.422 330.619 L
252.387 330.311 L
253.351 330.003 L
254.316 329.694 L
255.28 329.386 L
256.244 329.077 L
257.209 328.768 L
258.173 328.458 L
259.138 328.149 L
260.102 327.84 L
261.067 327.53 L
262.031 327.22 L
262.996 326.909 L
263.96 326.598 L
264.924 326.287 L
265.889 325.976 L
266.853 325.664 L
267.818 325.352 L
268.782 325.041 L
269.747 324.729 L
270.711 324.417 L
271.676 324.104 L
272.64 323.792 L
273.604 323.48 L
274.569 323.168 L
275.533 322.856 L
276.498 322.543 L
277.462 322.231 L
278.427 321.92 L
279.391 321.608 L
280.356 321.297 L
281.32 320.986 L
282.284 320.676 L
283.249 320.367 L
284.213 320.058 L
285.178 319.75 L
286.142 319.442 L
287.107 319.135 L
288.071 318.828 L
289.036 318.522 L
290 318.216 L
290.964 317.911 L
291.929 317.606 L
292.893 317.301 L
293.858 316.995 L
294.822 316.69 L
295.787 316.386 L
296.751 316.081 L
297.716 315.777 L
298.68 315.472 L
299.644 315.168 L
300.609 314.863 L
301.573 314.558 L
302.538 314.253 L
303.502 313.947 L
304.467 313.641 L
305.431 313.335 L
306.396 313.03 L
307.36 312.724 L
308.324 312.418 L
309.289 312.113 L
310.253 311.808 L
311.218 311.503 L
312.182 311.198 L
313.147 310.892 L
314.111 310.586 L
315.076 310.28 L
316.04 309.974 L
317.004 309.668 L
317.969 309.361 L
318.933 309.053 L
319.898 308.744 L
320.862 308.434 L
321.827 308.125 L
322.791 307.814 L
323.756 307.504 L
324.72 307.193 L
325.684 306.883 L
326.649 306.572 L
327.613 306.26 L
328.578 305.949 L
329.542 305.638 L
330.507 305.328 L
331.471 305.017 L
332.436 304.706 L
333.4 304.395 L
334.364 304.084 L
335.329 303.773 L
336.293 303.462 L
337.258 303.15 L
338.222 302.839 L
339.187 302.528 L
340.151 302.217 L
341.116 301.907 L
342.08 301.596 L
343.044 301.286 L
344.009 300.976 L
344.973 300.665 L
345.938 300.354 L
346.902 300.043 L
347.867 299.732 L
348.831 299.42 L
349.796 299.108 L
350.76 298.796 L
351.724 298.485 L
352.689 298.174 L
353.653 297.863 L
354.618 297.552 L
355.582 297.242 L
356.547 296.933 L
357.511 296.623 L
358.476 296.315 L
359.44 296.008 L
360.404 295.701 L
361.369 295.396 L
362.333 295.091 L
363.298 294.788 L
364.262 294.485 L
365.227 294.185 L
366.191 293.886 L
367.156 293.589 L
368.12 293.293 L
369.084 292.998 L
370.049 292.705 L
371.013 292.414 L
371.978 292.123 L
372.942 291.834 L
373.907 291.546 L
374.871 291.26 L
375.836 290.975 L
376.8 290.692 L
377.764 290.41 L
378.729 290.128 L
379.693 289.847 L
380.658 289.567 L
381.622 289.288 L
382.587 289.01 L
383.551 288.733 L
384.516 288.458 L
385.48 288.184 L
386.444 287.911 L
387.409 287.638 L
388.373 287.368 L
389.338 287.099 L
390.302 286.831 L
391.267 286.564 L
392.231 286.299 L
393.196 286.035 L
394.16 285.772 L
395.124 285.51 L
396.089 285.249 L
397.053 284.989 L
398.018 284.731 L
398.982 284.475 L
399.947 284.22 L
400.911 283.966 L
401.876 283.714 L
402.84 283.461 L
403.804 283.21 L
404.769 282.959 L
405.733 282.709 L
406.698 282.458 L
407.662 282.208 L
408.627 281.958 L
409.591 281.709 L
410.556 281.46 L
411.52 281.211 L
412.484 280.962 L
413.449 280.713 L
414.413 280.466 L
415.378 280.219 L
416.342 279.973 L
417.307 279.728 L
418.271 279.483 L
419.236 279.24 L
420.2 278.998 L
421.164 278.757 L
422.129 278.517 L
423.093 278.278 L
424.058 278.04 L
425.022 277.803 L
425.987 277.568 L
426.951 277.333 L
427.916 277.099 L
428.88 276.868 L
429.844 276.638 L
430.809 276.41 L
431.773 276.183 L
432.738 275.957 L
433.702 275.734 L
434.667 275.51 L
435.631 275.288 L
436.596 275.066 L
437.56 274.846 L
438.524 274.627 L
439.489 274.409 L
440.453 274.192 L
441.418 273.976 L
442.382 273.761 L
S
GR
GS
[0.75 0 0 0.75 0 0] CT
0.851 0.325 0.098 RC
1 LJ
2 LW
N
73 372 M
73.964 371.817 L
74.929 371.63 L
75.893 371.44 L
76.858 371.246 L
77.822 371.049 L
78.787 370.848 L
79.751 370.644 L
80.716 370.436 L
81.68 370.225 L
82.644 370.01 L
83.609 369.792 L
84.573 369.57 L
85.538 369.345 L
86.502 369.116 L
87.467 368.884 L
88.431 368.649 L
89.396 368.41 L
90.36 368.168 L
91.324 367.922 L
92.289 367.674 L
93.253 367.423 L
94.218 367.169 L
95.182 366.913 L
96.147 366.654 L
97.111 366.392 L
98.076 366.129 L
99.04 365.863 L
100.004 365.595 L
100.969 365.324 L
101.933 365.052 L
102.898 364.777 L
103.862 364.5 L
104.827 364.221 L
105.791 363.939 L
106.756 363.655 L
107.72 363.369 L
108.684 363.08 L
109.649 362.789 L
110.613 362.494 L
111.578 362.197 L
112.542 361.897 L
113.507 361.594 L
114.471 361.289 L
115.436 360.98 L
116.4 360.668 L
117.364 360.354 L
118.329 360.036 L
119.293 359.716 L
120.258 359.393 L
121.222 359.067 L
122.187 358.738 L
123.151 358.406 L
124.116 358.072 L
125.08 357.735 L
126.044 357.395 L
127.009 357.054 L
127.973 356.71 L
128.938 356.365 L
129.902 356.017 L
130.867 355.667 L
131.831 355.315 L
132.796 354.961 L
133.76 354.605 L
134.724 354.246 L
135.689 353.885 L
136.653 353.522 L
137.618 353.156 L
138.582 352.788 L
139.547 352.418 L
140.511 352.045 L
141.476 351.669 L
142.44 351.291 L
143.404 350.911 L
144.369 350.527 L
145.333 350.141 L
146.298 349.752 L
147.262 349.361 L
148.227 348.966 L
149.191 348.569 L
150.156 348.169 L
151.12 347.765 L
152.084 347.36 L
153.049 346.951 L
154.013 346.54 L
154.978 346.126 L
155.942 345.711 L
156.907 345.293 L
157.871 344.873 L
158.836 344.45 L
159.8 344.025 L
160.764 343.598 L
161.729 343.169 L
162.693 342.737 L
163.658 342.304 L
164.622 341.869 L
165.587 341.431 L
166.551 340.992 L
167.516 340.55 L
168.48 340.107 L
169.444 339.662 L
170.409 339.214 L
171.373 338.765 L
172.338 338.313 L
173.302 337.86 L
174.267 337.406 L
175.231 336.949 L
176.196 336.49 L
177.16 336.03 L
178.124 335.568 L
179.089 335.105 L
180.053 334.64 L
181.018 334.174 L
181.982 333.707 L
182.947 333.239 L
183.911 332.77 L
184.876 332.299 L
185.84 331.827 L
186.804 331.355 L
187.769 330.881 L
188.733 330.406 L
189.698 329.929 L
190.662 329.452 L
191.627 328.972 L
192.591 328.491 L
193.556 328.009 L
194.52 327.526 L
195.484 327.041 L
196.449 326.554 L
197.413 326.065 L
198.378 325.574 L
199.342 325.081 L
200.307 324.587 L
201.271 324.091 L
202.236 323.594 L
203.2 323.095 L
204.164 322.595 L
205.129 322.093 L
206.093 321.591 L
207.058 321.088 L
208.022 320.584 L
208.987 320.079 L
209.951 319.574 L
210.916 319.068 L
211.88 318.561 L
212.844 318.054 L
213.809 317.546 L
214.773 317.038 L
215.738 316.53 L
216.702 316.021 L
217.667 315.511 L
218.631 315.001 L
219.596 314.49 L
220.56 313.978 L
221.524 313.465 L
222.489 312.951 L
223.453 312.436 L
224.418 311.919 L
225.382 311.401 L
226.347 310.882 L
227.311 310.361 L
228.276 309.838 L
229.24 309.315 L
230.204 308.789 L
231.169 308.263 L
232.133 307.734 L
233.098 307.205 L
234.062 306.673 L
235.027 306.141 L
235.991 305.606 L
236.956 305.07 L
237.92 304.533 L
238.884 303.995 L
239.849 303.455 L
240.813 302.915 L
241.778 302.373 L
242.742 301.83 L
243.707 301.287 L
244.671 300.743 L
245.636 300.198 L
246.6 299.653 L
247.564 299.107 L
248.529 298.56 L
249.493 298.012 L
250.458 297.463 L
251.422 296.912 L
252.387 296.361 L
253.351 295.809 L
254.316 295.255 L
255.28 294.701 L
256.244 294.144 L
257.209 293.587 L
258.173 293.028 L
259.138 292.469 L
260.102 291.909 L
261.067 291.348 L
262.031 290.786 L
262.996 290.224 L
263.96 289.66 L
264.924 289.096 L
265.889 288.533 L
266.853 287.969 L
267.818 287.405 L
268.782 286.842 L
269.747 286.278 L
270.711 285.715 L
271.676 285.152 L
272.64 284.59 L
273.604 284.028 L
274.569 283.466 L
275.533 282.906 L
276.498 282.347 L
277.462 281.789 L
278.427 281.232 L
279.391 280.675 L
280.356 280.119 L
281.32 279.564 L
282.284 279.009 L
283.249 278.455 L
284.213 277.902 L
285.178 277.35 L
286.142 276.799 L
287.107 276.248 L
288.071 275.698 L
289.036 275.148 L
290 274.598 L
290.964 274.049 L
291.929 273.5 L
292.893 272.952 L
293.858 272.403 L
294.822 271.855 L
295.787 271.307 L
296.751 270.759 L
297.716 270.211 L
298.68 269.663 L
299.644 269.116 L
300.609 268.568 L
301.573 268.02 L
302.538 267.473 L
303.502 266.925 L
304.467 266.377 L
305.431 265.829 L
306.396 265.28 L
307.36 264.731 L
308.324 264.182 L
309.289 263.632 L
310.253 263.081 L
311.218 262.53 L
312.182 261.979 L
313.147 261.428 L
314.111 260.876 L
315.076 260.325 L
316.04 259.774 L
317.004 259.224 L
317.969 258.674 L
318.933 258.123 L
319.898 257.573 L
320.862 257.023 L
321.827 256.474 L
322.791 255.925 L
323.756 255.376 L
324.72 254.828 L
325.684 254.28 L
326.649 253.732 L
327.613 253.185 L
328.578 252.637 L
329.542 252.09 L
330.507 251.543 L
331.471 250.996 L
332.436 250.449 L
333.4 249.902 L
334.364 249.354 L
335.329 248.807 L
336.293 248.259 L
337.258 247.71 L
338.222 247.16 L
339.187 246.61 L
340.151 246.061 L
341.116 245.51 L
342.08 244.96 L
343.044 244.41 L
344.009 243.86 L
344.973 243.31 L
345.938 242.76 L
346.902 242.212 L
347.867 241.664 L
348.831 241.116 L
349.796 240.57 L
350.76 240.024 L
351.724 239.48 L
352.689 238.937 L
353.653 238.394 L
354.618 237.853 L
355.582 237.313 L
356.547 236.775 L
357.511 236.237 L
358.476 235.701 L
359.44 235.167 L
360.404 234.635 L
361.369 234.104 L
362.333 233.575 L
363.298 233.048 L
364.262 232.522 L
365.227 231.997 L
366.191 231.473 L
367.156 230.95 L
368.12 230.428 L
369.084 229.908 L
370.049 229.388 L
371.013 228.871 L
371.978 228.354 L
372.942 227.838 L
373.907 227.324 L
374.871 226.812 L
375.836 226.302 L
376.8 225.794 L
377.764 225.287 L
378.729 224.782 L
379.693 224.28 L
380.658 223.78 L
381.622 223.282 L
382.587 222.786 L
383.551 222.294 L
384.516 221.805 L
385.48 221.319 L
386.444 220.836 L
387.409 220.355 L
388.373 219.876 L
389.338 219.4 L
390.302 218.927 L
391.267 218.456 L
392.231 217.987 L
393.196 217.519 L
394.16 217.054 L
395.124 216.589 L
396.089 216.125 L
397.053 215.661 L
398.018 215.199 L
398.982 214.737 L
399.947 214.276 L
400.911 213.816 L
401.876 213.357 L
402.84 212.898 L
403.804 212.44 L
404.769 211.981 L
405.733 211.524 L
406.698 211.067 L
407.662 210.611 L
408.627 210.158 L
409.591 209.705 L
410.556 209.253 L
411.52 208.803 L
412.484 208.356 L
413.449 207.911 L
414.413 207.468 L
415.378 207.028 L
416.342 206.59 L
417.307 206.154 L
418.271 205.721 L
419.236 205.29 L
420.2 204.862 L
421.164 204.435 L
422.129 204.011 L
423.093 203.589 L
424.058 203.17 L
425.022 202.754 L
425.987 202.339 L
426.951 201.927 L
427.916 201.516 L
428.88 201.108 L
429.844 200.702 L
430.809 200.297 L
431.773 199.894 L
432.738 199.492 L
433.702 199.092 L
434.667 198.695 L
435.631 198.299 L
436.596 197.905 L
437.56 197.514 L
438.524 197.125 L
439.489 196.738 L
440.453 196.354 L
441.418 195.972 L
442.382 195.593 L
443.347 195.216 L
444.311 194.843 L
445.276 194.472 L
446.24 194.104 L
447.204 193.74 L
448.169 193.378 L
449.133 193.018 L
450.098 192.662 L
451.062 192.308 L
S
GR
GS
[0.75 0 0 0.75 0 0] CT
0.929 0.694 0.125 RC
1 LJ
2 LW
N
73 372 M
73.964 371.722 L
74.929 371.44 L
75.893 371.152 L
76.858 370.86 L
77.822 370.562 L
78.787 370.26 L
79.751 369.952 L
80.716 369.639 L
81.68 369.32 L
82.644 368.997 L
83.609 368.667 L
84.573 368.332 L
85.538 367.992 L
86.502 367.646 L
87.467 367.295 L
88.431 366.939 L
89.396 366.578 L
90.36 366.212 L
91.324 365.841 L
92.289 365.465 L
93.253 365.085 L
94.218 364.701 L
95.182 364.314 L
96.147 363.922 L
97.111 363.527 L
98.076 363.129 L
99.04 362.728 L
100.004 362.324 L
100.969 361.917 L
101.933 361.506 L
102.898 361.091 L
103.862 360.674 L
104.827 360.254 L
105.791 359.831 L
106.756 359.404 L
107.72 358.973 L
108.684 358.539 L
109.649 358.101 L
110.613 357.659 L
111.578 357.214 L
112.542 356.763 L
113.507 356.308 L
114.471 355.847 L
115.436 355.382 L
116.4 354.912 L
117.364 354.436 L
118.329 353.956 L
119.293 353.471 L
120.258 352.981 L
121.222 352.487 L
122.187 351.989 L
123.151 351.486 L
124.116 350.979 L
125.08 350.468 L
126.044 349.953 L
127.009 349.435 L
127.973 348.914 L
128.938 348.391 L
129.902 347.865 L
130.867 347.337 L
131.831 346.806 L
132.796 346.273 L
133.76 345.737 L
134.724 345.199 L
135.689 344.658 L
136.653 344.115 L
137.618 343.569 L
138.582 343.019 L
139.547 342.465 L
140.511 341.908 L
141.476 341.347 L
142.44 340.782 L
143.404 340.212 L
144.369 339.638 L
145.333 339.059 L
146.298 338.475 L
147.262 337.887 L
148.227 337.293 L
149.191 336.695 L
150.156 336.093 L
151.12 335.486 L
152.084 334.876 L
153.049 334.261 L
154.013 333.643 L
154.978 333.022 L
155.942 332.397 L
156.907 331.77 L
157.871 331.14 L
158.836 330.507 L
159.8 329.871 L
160.764 329.233 L
161.729 328.593 L
162.693 327.95 L
163.658 327.305 L
164.622 326.658 L
165.587 326.007 L
166.551 325.353 L
167.516 324.696 L
168.48 324.036 L
169.444 323.373 L
170.409 322.706 L
171.373 322.035 L
172.338 321.361 L
173.302 320.683 L
174.267 320.001 L
175.231 319.316 L
176.196 318.628 L
177.16 317.936 L
178.124 317.242 L
179.089 316.545 L
180.053 315.847 L
181.018 315.146 L
181.982 314.445 L
182.947 313.741 L
183.911 313.036 L
184.876 312.33 L
185.84 311.623 L
186.804 310.914 L
187.769 310.205 L
188.733 309.494 L
189.698 308.783 L
190.662 308.07 L
191.627 307.354 L
192.591 306.637 L
193.556 305.918 L
194.52 305.197 L
195.484 304.473 L
196.449 303.746 L
197.413 303.016 L
198.378 302.282 L
199.342 301.545 L
200.307 300.804 L
201.271 300.061 L
202.236 299.314 L
203.2 298.564 L
204.164 297.811 L
205.129 297.055 L
206.093 296.298 L
207.058 295.538 L
208.022 294.776 L
208.987 294.013 L
209.951 293.249 L
210.916 292.484 L
211.88 291.718 L
212.844 290.951 L
213.809 290.184 L
214.773 289.417 L
215.738 288.65 L
216.702 287.883 L
217.667 287.116 L
218.631 286.349 L
219.596 285.582 L
220.56 284.813 L
221.524 284.043 L
222.489 283.272 L
223.453 282.499 L
224.418 281.724 L
225.382 280.946 L
226.347 280.166 L
227.311 279.384 L
228.276 278.598 L
229.24 277.811 L
230.204 277.02 L
231.169 276.227 L
232.133 275.43 L
233.098 274.631 L
234.062 273.83 L
235.027 273.026 L
235.991 272.221 L
236.956 271.414 L
237.92 270.605 L
238.884 269.794 L
239.849 268.983 L
240.813 268.17 L
241.778 267.357 L
242.742 266.542 L
243.707 265.728 L
244.671 264.912 L
245.636 264.096 L
246.6 263.279 L
247.564 262.462 L
248.529 261.644 L
249.493 260.825 L
250.458 260.004 L
251.422 259.182 L
252.387 258.359 L
253.351 257.534 L
254.316 256.707 L
255.28 255.88 L
256.244 255.05 L
257.209 254.219 L
258.173 253.386 L
259.138 252.55 L
260.102 251.714 L
261.067 250.875 L
262.031 250.035 L
262.996 249.194 L
263.96 248.351 L
264.924 247.507 L
265.889 246.663 L
266.853 245.817 L
267.818 244.972 L
268.782 244.126 L
269.747 243.28 L
270.711 242.435 L
271.676 241.589 L
272.64 240.745 L
273.604 239.902 L
274.569 239.059 L
275.533 238.218 L
276.498 237.378 L
277.462 236.538 L
278.427 235.701 L
279.391 234.864 L
280.356 234.028 L
281.32 233.193 L
282.284 232.36 L
283.249 231.528 L
284.213 230.697 L
285.178 229.867 L
286.142 229.037 L
287.107 228.209 L
288.071 227.381 L
289.036 226.553 L
290 225.726 L
290.964 224.9 L
291.929 224.074 L
292.893 223.248 L
293.858 222.423 L
294.822 221.598 L
295.787 220.773 L
296.751 219.948 L
297.716 219.124 L
298.68 218.299 L
299.644 217.476 L
300.609 216.652 L
301.573 215.829 L
302.538 215.005 L
303.502 214.181 L
304.467 213.358 L
305.431 212.535 L
306.396 211.711 L
307.36 210.888 L
308.324 210.063 L
309.289 209.239 L
310.253 208.414 L
311.218 207.588 L
312.182 206.763 L
313.147 205.938 L
314.111 205.112 L
315.076 204.287 L
316.04 203.462 L
317.004 202.637 L
317.969 201.813 L
318.933 200.99 L
319.898 200.168 L
320.862 199.346 L
321.827 198.526 L
322.791 197.707 L
323.756 196.888 L
324.72 196.071 L
325.684 195.255 L
326.649 194.44 L
327.613 193.626 L
328.578 192.814 L
329.542 192.003 L
330.507 191.193 L
331.471 190.383 L
332.436 189.573 L
333.4 188.763 L
334.364 187.954 L
335.329 187.145 L
336.293 186.335 L
337.258 185.525 L
338.222 184.714 L
339.187 183.903 L
340.151 183.091 L
341.116 182.279 L
342.08 181.467 L
343.044 180.655 L
344.009 179.842 L
344.973 179.028 L
345.938 178.215 L
346.902 177.402 L
347.867 176.59 L
348.831 175.78 L
349.796 174.971 L
350.76 174.163 L
351.724 173.358 L
352.689 172.555 L
353.653 171.754 L
354.618 170.956 L
355.582 170.162 L
356.547 169.369 L
357.511 168.58 L
358.476 167.792 L
359.44 167.007 L
360.404 166.223 L
361.369 165.443 L
362.333 164.665 L
363.298 163.889 L
364.262 163.115 L
365.227 162.342 L
366.191 161.572 L
367.156 160.803 L
368.12 160.035 L
369.084 159.27 L
370.049 158.505 L
371.013 157.742 L
371.978 156.98 L
372.942 156.218 L
373.907 155.458 L
374.871 154.7 L
375.836 153.944 L
376.8 153.192 L
377.764 152.442 L
378.729 151.694 L
379.693 150.951 L
380.658 150.211 L
381.622 149.474 L
382.587 148.742 L
383.551 148.014 L
384.516 147.29 L
385.48 146.571 L
386.444 145.855 L
387.409 145.144 L
388.373 144.437 L
389.338 143.734 L
390.302 143.035 L
391.267 142.339 L
392.231 141.647 L
393.196 140.958 L
394.16 140.272 L
395.124 139.587 L
396.089 138.903 L
397.053 138.221 L
398.018 137.539 L
398.982 136.858 L
399.947 136.178 L
400.911 135.498 L
401.876 134.818 L
402.84 134.138 L
403.804 133.46 L
404.769 132.782 L
405.733 132.104 L
406.698 131.428 L
407.662 130.753 L
408.627 130.081 L
409.591 129.41 L
410.556 128.742 L
411.52 128.076 L
412.484 127.413 L
413.449 126.753 L
414.413 126.097 L
415.378 125.444 L
416.342 124.795 L
417.307 124.15 L
418.271 123.51 L
419.236 122.874 L
420.2 122.243 L
421.164 121.616 L
422.129 120.993 L
423.093 120.375 L
424.058 119.76 L
425.022 119.148 L
425.987 118.539 L
426.951 117.933 L
427.916 117.329 L
428.88 116.727 L
429.844 116.128 L
430.809 115.531 L
431.773 114.936 L
432.738 114.344 L
433.702 113.753 L
434.667 113.164 L
435.631 112.578 L
436.596 111.995 L
437.56 111.413 L
438.524 110.835 L
439.489 110.259 L
440.453 109.687 L
441.418 109.118 L
442.382 108.552 L
443.347 107.991 L
444.311 107.434 L
445.276 106.881 L
446.24 106.333 L
447.204 105.789 L
448.169 105.249 L
449.133 104.714 L
450.098 104.184 L
451.062 103.658 L
452.027 103.137 L
452.991 102.619 L
453.956 102.106 L
454.92 101.597 L
455.884 101.091 L
456.849 100.589 L
457.813 100.092 L
458.778 99.598 L
459.742 99.109 L
460.707 98.623 L
461.671 98.14 L
462.636 97.661 L
463.6 97.185 L
464.564 96.714 L
465.529 96.246 L
466.493 95.783 L
467.458 95.324 L
468.422 94.869 L
469.387 94.419 L
470.351 93.973 L
471.316 93.532 L
472.28 93.095 L
473.244 92.664 L
474.209 92.237 L
475.173 91.816 L
476.138 91.4 L
477.102 90.988 L
478.067 90.582 L
479.031 90.18 L
479.996 89.784 L
480.96 89.392 L
481.924 89.005 L
482.889 88.624 L
483.853 88.247 L
484.818 87.875 L
S
GR
GS
[0.75 0 0 0.75 0 0] CT
0.494 0.184 0.557 RC
1 LJ
2 LW
N
73 372 M
73.964 371.765 L
74.929 371.522 L
75.893 371.273 L
76.858 371.016 L
77.822 370.754 L
78.787 370.484 L
79.751 370.208 L
80.716 369.925 L
81.68 369.636 L
82.644 369.341 L
83.609 369.04 L
84.573 368.733 L
85.538 368.42 L
86.502 368.101 L
87.467 367.776 L
88.431 367.445 L
89.396 367.107 L
90.36 366.764 L
91.324 366.415 L
92.289 366.06 L
93.253 365.699 L
94.218 365.333 L
95.182 364.96 L
96.147 364.581 L
97.111 364.196 L
98.076 363.805 L
99.04 363.408 L
100.004 363.004 L
100.969 362.593 L
101.933 362.176 L
102.898 361.751 L
103.862 361.321 L
104.827 360.884 L
105.791 360.441 L
106.756 359.991 L
107.72 359.536 L
108.684 359.074 L
109.649 358.607 L
110.613 358.135 L
111.578 357.657 L
112.542 357.174 L
113.507 356.686 L
114.471 356.193 L
115.436 355.696 L
116.4 355.194 L
117.364 354.687 L
118.329 354.176 L
119.293 353.661 L
120.258 353.142 L
121.222 352.619 L
122.187 352.092 L
123.151 351.56 L
124.116 351.025 L
125.08 350.485 L
126.044 349.941 L
127.009 349.392 L
127.973 348.839 L
128.938 348.281 L
129.902 347.718 L
130.867 347.149 L
131.831 346.575 L
132.796 345.994 L
133.76 345.408 L
134.724 344.816 L
135.689 344.217 L
136.653 343.612 L
137.618 343.001 L
138.582 342.385 L
139.547 341.762 L
140.511 341.135 L
141.476 340.502 L
142.44 339.866 L
143.404 339.224 L
144.369 338.578 L
145.333 337.929 L
146.298 337.276 L
147.262 336.619 L
148.227 335.96 L
149.191 335.297 L
150.156 334.631 L
151.12 333.963 L
152.084 333.291 L
153.049 332.616 L
154.013 331.938 L
154.978 331.257 L
155.942 330.572 L
156.907 329.883 L
157.871 329.189 L
158.836 328.49 L
159.8 327.786 L
160.764 327.077 L
161.729 326.363 L
162.693 325.642 L
163.658 324.915 L
164.622 324.183 L
165.587 323.445 L
166.551 322.701 L
167.516 321.952 L
168.48 321.198 L
169.444 320.438 L
170.409 319.673 L
171.373 318.904 L
172.338 318.131 L
173.302 317.353 L
174.267 316.572 L
175.231 315.787 L
176.196 315 L
177.16 314.209 L
178.124 313.415 L
179.089 312.618 L
180.053 311.819 L
181.018 311.016 L
181.982 310.21 L
182.947 309.4 L
183.911 308.588 L
184.876 307.771 L
185.84 306.951 L
186.804 306.126 L
187.769 305.297 L
188.733 304.463 L
189.698 303.625 L
190.662 302.782 L
191.627 301.935 L
192.591 301.083 L
193.556 300.228 L
194.52 299.369 L
195.484 298.506 L
196.449 297.64 L
197.413 296.77 L
198.378 295.898 L
199.342 295.024 L
200.307 294.147 L
201.271 293.269 L
202.236 292.389 L
203.2 291.507 L
204.164 290.624 L
205.129 289.74 L
206.093 288.854 L
207.058 287.966 L
208.022 287.077 L
208.987 286.186 L
209.951 285.293 L
210.916 284.397 L
211.88 283.498 L
212.844 282.597 L
213.809 281.692 L
214.773 280.784 L
215.738 279.872 L
216.702 278.957 L
217.667 278.037 L
218.631 277.113 L
219.596 276.186 L
220.56 275.254 L
221.524 274.319 L
222.489 273.381 L
223.453 272.439 L
224.418 271.494 L
225.382 270.547 L
226.347 269.597 L
227.311 268.647 L
228.276 267.694 L
229.24 266.741 L
230.204 265.788 L
231.169 264.834 L
232.133 263.879 L
233.098 262.925 L
234.062 261.969 L
235.027 261.013 L
235.991 260.056 L
236.956 259.098 L
237.92 258.14 L
238.884 257.18 L
239.849 256.219 L
240.813 255.256 L
241.778 254.291 L
242.742 253.324 L
243.707 252.354 L
244.671 251.381 L
245.636 250.406 L
246.6 249.426 L
247.564 248.444 L
248.529 247.458 L
249.493 246.468 L
250.458 245.475 L
251.422 244.479 L
252.387 243.48 L
253.351 242.479 L
254.316 241.475 L
255.28 240.469 L
256.244 239.462 L
257.209 238.452 L
258.173 237.442 L
259.138 236.43 L
260.102 235.417 L
261.067 234.404 L
262.031 233.39 L
262.996 232.376 L
263.96 231.361 L
264.924 230.345 L
265.889 229.329 L
266.853 228.312 L
267.818 227.294 L
268.782 226.274 L
269.747 225.254 L
270.711 224.232 L
271.676 223.209 L
272.64 222.185 L
273.604 221.16 L
274.569 220.133 L
275.533 219.103 L
276.498 218.072 L
277.462 217.038 L
278.427 216.002 L
279.391 214.964 L
280.356 213.923 L
281.32 212.881 L
282.284 211.837 L
283.249 210.792 L
284.213 209.747 L
285.178 208.701 L
286.142 207.654 L
287.107 206.608 L
288.071 205.562 L
289.036 204.517 L
290 203.472 L
290.964 202.429 L
291.929 201.386 L
292.893 200.343 L
293.858 199.302 L
294.822 198.263 L
295.787 197.225 L
296.751 196.187 L
297.716 195.151 L
298.68 194.117 L
299.644 193.083 L
300.609 192.052 L
301.573 191.021 L
302.538 189.992 L
303.502 188.964 L
304.467 187.937 L
305.431 186.911 L
306.396 185.885 L
307.36 184.86 L
308.324 183.836 L
309.289 182.813 L
310.253 181.791 L
311.218 180.769 L
312.182 179.748 L
313.147 178.728 L
314.111 177.708 L
315.076 176.688 L
316.04 175.669 L
317.004 174.651 L
317.969 173.633 L
318.933 172.615 L
319.898 171.597 L
320.862 170.579 L
321.827 169.562 L
322.791 168.544 L
323.756 167.526 L
324.72 166.508 L
325.684 165.489 L
326.649 164.47 L
327.613 163.452 L
328.578 162.433 L
329.542 161.414 L
330.507 160.395 L
331.471 159.377 L
332.436 158.358 L
333.4 157.34 L
334.364 156.321 L
335.329 155.303 L
336.293 154.285 L
337.258 153.268 L
338.222 152.252 L
339.187 151.238 L
340.151 150.226 L
341.116 149.215 L
342.08 148.205 L
343.044 147.197 L
344.009 146.19 L
344.973 145.184 L
345.938 144.18 L
346.902 143.178 L
347.867 142.177 L
348.831 141.177 L
349.796 140.178 L
350.76 139.179 L
351.724 138.181 L
352.689 137.184 L
353.653 136.187 L
354.618 135.191 L
355.582 134.194 L
356.547 133.197 L
357.511 132.2 L
358.476 131.202 L
359.44 130.204 L
360.404 129.205 L
361.369 128.207 L
362.333 127.209 L
363.298 126.213 L
364.262 125.216 L
365.227 124.221 L
366.191 123.227 L
367.156 122.234 L
368.12 121.243 L
369.084 120.255 L
370.049 119.269 L
371.013 118.286 L
371.978 117.306 L
372.942 116.33 L
373.907 115.356 L
374.871 114.386 L
375.836 113.42 L
376.8 112.457 L
377.764 111.497 L
378.729 110.541 L
379.693 109.587 L
380.658 108.636 L
381.622 107.688 L
382.587 106.742 L
383.551 105.798 L
384.516 104.856 L
385.48 103.915 L
386.444 102.976 L
387.409 102.039 L
388.373 101.104 L
389.338 100.17 L
390.302 99.239 L
391.267 98.309 L
392.231 97.381 L
393.196 96.456 L
394.16 95.534 L
395.124 94.614 L
396.089 93.698 L
397.053 92.786 L
398.018 91.878 L
398.982 90.975 L
399.947 90.076 L
400.911 89.182 L
401.876 88.293 L
402.84 87.41 L
403.804 86.531 L
404.769 85.657 L
405.733 84.789 L
406.698 83.926 L
407.662 83.068 L
408.627 82.214 L
409.591 81.365 L
410.556 80.519 L
411.52 79.677 L
412.484 78.838 L
413.449 78.002 L
414.413 77.169 L
415.378 76.337 L
416.342 75.507 L
417.307 74.679 L
418.271 73.852 L
419.236 73.027 L
420.2 72.203 L
421.164 71.38 L
422.129 70.558 L
423.093 69.738 L
424.058 68.919 L
425.022 68.103 L
425.987 67.289 L
426.951 66.477 L
427.916 65.668 L
428.88 64.863 L
429.844 64.061 L
430.809 63.263 L
431.773 62.47 L
432.738 61.681 L
433.702 60.898 L
434.667 60.12 L
435.631 59.347 L
436.596 58.58 L
437.56 57.818 L
438.524 57.061 L
439.489 56.309 L
440.453 55.562 L
441.418 54.819 L
442.382 54.08 L
443.347 53.345 L
444.311 52.615 L
445.276 51.889 L
446.24 51.167 L
447.204 50.448 L
448.169 49.733 L
449.133 49.02 L
450.098 48.311 L
451.062 47.603 L
452.027 46.898 L
452.991 46.198 L
453.956 45.5 L
454.92 44.806 L
455.884 44.116 L
456.849 43.429 L
457.813 42.746 L
458.778 42.068 L
S
GR
GS
[0.75 0 0 0.75 0 0] CT
1 GC
N
176 113 M
176 44 L
93 44 L
93 113 L
cp
f
GR
GS
[0.75 0 0 0.75 105 40.44604] CT
/Helvetica 12 F
GS
[1 0 0 1 0 0] CT
0 5 moveto 
1 -1 scale
(7.5A) t 
GR
GR
GS
[0.75 0 0 0.75 0 0] CT
0 0.447 0.741 RC
1 LJ
2 LW
N
97 53.928 M
137 53.928 L
S
GR
GS
[0.75 0 0 0.75 105 52.73201] CT
/Helvetica 12 F
GS
[1 0 0 1 0 0] CT
0 5 moveto 
1 -1 scale
(12.8A) t 
GR
GR
GS
[0.75 0 0 0.75 0 0] CT
0.851 0.325 0.098 RC
1 LJ
2 LW
N
97 70.309 M
137 70.309 L
S
GR
GS
[0.75 0 0 0.75 105 65.01799] CT
/Helvetica 12 F
GS
[1 0 0 1 0 0] CT
0 5 moveto 
1 -1 scale
(17.0A) t 
GR
GR
GS
[0.75 0 0 0.75 0 0] CT
0.929 0.694 0.125 RC
1 LJ
2 LW
N
97 86.691 M
137 86.691 L
S
GR
GS
[0.75 0 0 0.75 105 77.30396] CT
/Helvetica 12 F
GS
[1 0 0 1 0 0] CT
0 5 moveto 
1 -1 scale
(21.2A) t 
GR
GR
GS
[0.75 0 0 0.75 0 0] CT
0.494 0.184 0.557 RC
1 LJ
2 LW
N
97 103.072 M
137 103.072 L
S
GR
GS
[0.75 0 0 0.75 0 0] CT
0.149 GC
10.0 ML
0.667 LW
N
93 113 M
93 44 L
176 44 L
176 113 L
cp
S
GR
%%Trailer
%%Pages: 1
%%EOF
