%!PS-Adobe-3.0 EPSF-3.0
%%Creator: (MATLAB, The Mathworks, Inc. Version 24.1.0.2603908 \(R2024a\) Update 3. Operating System: Windows 10)
%%Title: (C:/Users/lorde/Documents/MATLAB/Master Lab Course/Exercise 4/E4_1_Rogowski_droop.eps)
%%CreationDate: 2024-06-29T11:25:36
%%Pages: (atend)
%%BoundingBox:     0     0   420   315
%%LanguageLevel: 3
%%EndComments
%%BeginProlog
%%BeginResource: procset (Apache XML Graphics Std ProcSet) 1.2 0
%%Version: 1.2 0
%%Copyright: (Copyright 2001-2003,2010 The Apache Software Foundation. License terms: http://www.apache.org/licenses/LICENSE-2.0)
/bd{bind def}bind def
/ld{load def}bd
/GR/grestore ld
/GS/gsave ld
/RM/rmoveto ld
/C/curveto ld
/t/show ld
/L/lineto ld
/ML/setmiterlimit ld
/CT/concat ld
/f/fill ld
/N/newpath ld
/S/stroke ld
/CC/setcmykcolor ld
/A/ashow ld
/cp/closepath ld
/RC/setrgbcolor ld
/LJ/setlinejoin ld
/GC/setgray ld
/LW/setlinewidth ld
/M/moveto ld
/re {4 2 roll M
1 index 0 rlineto
0 exch rlineto
neg 0 rlineto
cp } bd
/_ctm matrix def
/_tm matrix def
/BT { _ctm currentmatrix pop matrix _tm copy pop 0 0 moveto } bd
/ET { _ctm setmatrix } bd
/iTm { _ctm setmatrix _tm concat } bd
/Tm { _tm astore pop iTm 0 0 moveto } bd
/ux 0.0 def
/uy 0.0 def
/F {
  /Tp exch def
  /Tf exch def
  Tf findfont Tp scalefont setfont
  /cf Tf def  /cs Tp def
} bd
/ULS {currentpoint /uy exch def /ux exch def} bd
/ULE {
  /Tcx currentpoint pop def
  gsave
  newpath
  cf findfont cs scalefont dup
  /FontMatrix get 0 get /Ts exch def /FontInfo get dup
  /UnderlinePosition get Ts mul /To exch def
  /UnderlineThickness get Ts mul /Tt exch def
  ux uy To add moveto  Tcx uy To add lineto
  Tt setlinewidth stroke
  grestore
} bd
/OLE {
  /Tcx currentpoint pop def
  gsave
  newpath
  cf findfont cs scalefont dup
  /FontMatrix get 0 get /Ts exch def /FontInfo get dup
  /UnderlinePosition get Ts mul /To exch def
  /UnderlineThickness get Ts mul /Tt exch def
  ux uy To add cs add moveto Tcx uy To add cs add lineto
  Tt setlinewidth stroke
  grestore
} bd
/SOE {
  /Tcx currentpoint pop def
  gsave
  newpath
  cf findfont cs scalefont dup
  /FontMatrix get 0 get /Ts exch def /FontInfo get dup
  /UnderlinePosition get Ts mul /To exch def
  /UnderlineThickness get Ts mul /Tt exch def
  ux uy To add cs 10 mul 26 idiv add moveto Tcx uy To add cs 10 mul 26 idiv add lineto
  Tt setlinewidth stroke
  grestore
} bd
/QT {
/Y22 exch store
/X22 exch store
/Y21 exch store
/X21 exch store
currentpoint
/Y21 load 2 mul add 3 div exch
/X21 load 2 mul add 3 div exch
/X21 load 2 mul /X22 load add 3 div
/Y21 load 2 mul /Y22 load add 3 div
/X22 load /Y22 load curveto
} bd
/SSPD {
dup length /d exch dict def
{
/v exch def
/k exch def
currentpagedevice k known {
/cpdv currentpagedevice k get def
v cpdv ne {
/upd false def
/nullv v type /nulltype eq def
/nullcpdv cpdv type /nulltype eq def
nullv nullcpdv or
{
/upd true def
} {
/sametype v type cpdv type eq def
sametype {
v type /arraytype eq {
/vlen v length def
/cpdvlen cpdv length def
vlen cpdvlen eq {
0 1 vlen 1 sub {
/i exch def
/obj v i get def
/cpdobj cpdv i get def
obj cpdobj ne {
/upd true def
exit
} if
} for
} {
/upd true def
} ifelse
} {
v type /dicttype eq {
v {
/dv exch def
/dk exch def
/cpddv cpdv dk get def
dv cpddv ne {
/upd true def
exit
} if
} forall
} {
/upd true def
} ifelse
} ifelse
} if
} ifelse
upd true eq {
d k v put
} if
} if
} if
} forall
d length 0 gt {
d setpagedevice
} if
} bd
/RE { % /NewFontName [NewEncodingArray] /FontName RE -
  findfont dup length dict begin
  {
    1 index /FID ne
    {def} {pop pop} ifelse
  } forall
  /Encoding exch def
  /FontName 1 index def
  currentdict definefont pop
  end
} bind def
%%EndResource
%%BeginResource: procset (Apache XML Graphics EPS ProcSet) 1.0 0
%%Version: 1.0 0
%%Copyright: (Copyright 2002-2003 The Apache Software Foundation. License terms: http://www.apache.org/licenses/LICENSE-2.0)
/BeginEPSF { %def
/b4_Inc_state save def         % Save state for cleanup
/dict_count countdictstack def % Count objects on dict stack
/op_count count 1 sub def      % Count objects on operand stack
userdict begin                 % Push userdict on dict stack
/showpage { } def              % Redefine showpage, { } = null proc
0 setgray 0 setlinecap         % Prepare graphics state
1 setlinewidth 0 setlinejoin
10 setmiterlimit [ ] 0 setdash newpath
/languagelevel where           % If level not equal to 1 then
{pop languagelevel             % set strokeadjust and
1 ne                           % overprint to their defaults.
{false setstrokeadjust false setoverprint
} if
} if
} bd
/EndEPSF { %def
count op_count sub {pop} repeat            % Clean up stacks
countdictstack dict_count sub {end} repeat
b4_Inc_state restore
} bd
%%EndResource
%FOPBeginFontDict
%%IncludeResource: font Courier-Oblique
%%IncludeResource: font Courier-BoldOblique
%%IncludeResource: font Courier-Bold
%%IncludeResource: font ZapfDingbats
%%IncludeResource: font Symbol
%%IncludeResource: font Helvetica
%%IncludeResource: font Helvetica-Oblique
%%IncludeResource: font Helvetica-Bold
%%IncludeResource: font Helvetica-BoldOblique
%%IncludeResource: font Times-Roman
%%IncludeResource: font Times-Italic
%%IncludeResource: font Times-Bold
%%IncludeResource: font Times-BoldItalic
%%IncludeResource: font Courier
%FOPEndFontDict
%%BeginResource: encoding WinAnsiEncoding
/WinAnsiEncoding [
/.notdef /.notdef /.notdef /.notdef /.notdef
/.notdef /.notdef /.notdef /.notdef /.notdef
/.notdef /.notdef /.notdef /.notdef /.notdef
/.notdef /.notdef /.notdef /.notdef /.notdef
/.notdef /.notdef /.notdef /.notdef /.notdef
/.notdef /.notdef /.notdef /.notdef /.notdef
/.notdef /.notdef /space /exclam /quotedbl
/numbersign /dollar /percent /ampersand /quotesingle
/parenleft /parenright /asterisk /plus /comma
/hyphen /period /slash /zero /one
/two /three /four /five /six
/seven /eight /nine /colon /semicolon
/less /equal /greater /question /at
/A /B /C /D /E
/F /G /H /I /J
/K /L /M /N /O
/P /Q /R /S /T
/U /V /W /X /Y
/Z /bracketleft /backslash /bracketright /asciicircum
/underscore /quoteleft /a /b /c
/d /e /f /g /h
/i /j /k /l /m
/n /o /p /q /r
/s /t /u /v /w
/x /y /z /braceleft /bar
/braceright /asciitilde /bullet /Euro /bullet
/quotesinglbase /florin /quotedblbase /ellipsis /dagger
/daggerdbl /circumflex /perthousand /Scaron /guilsinglleft
/OE /bullet /Zcaron /bullet /bullet
/quoteleft /quoteright /quotedblleft /quotedblright /bullet
/endash /emdash /asciitilde /trademark /scaron
/guilsinglright /oe /bullet /zcaron /Ydieresis
/space /exclamdown /cent /sterling /currency
/yen /brokenbar /section /dieresis /copyright
/ordfeminine /guillemotleft /logicalnot /sfthyphen /registered
/macron /degree /plusminus /twosuperior /threesuperior
/acute /mu /paragraph /middot /cedilla
/onesuperior /ordmasculine /guillemotright /onequarter /onehalf
/threequarters /questiondown /Agrave /Aacute /Acircumflex
/Atilde /Adieresis /Aring /AE /Ccedilla
/Egrave /Eacute /Ecircumflex /Edieresis /Igrave
/Iacute /Icircumflex /Idieresis /Eth /Ntilde
/Ograve /Oacute /Ocircumflex /Otilde /Odieresis
/multiply /Oslash /Ugrave /Uacute /Ucircumflex
/Udieresis /Yacute /Thorn /germandbls /agrave
/aacute /acircumflex /atilde /adieresis /aring
/ae /ccedilla /egrave /eacute /ecircumflex
/edieresis /igrave /iacute /icircumflex /idieresis
/eth /ntilde /ograve /oacute /ocircumflex
/otilde /odieresis /divide /oslash /ugrave
/uacute /ucircumflex /udieresis /yacute /thorn
/ydieresis
] def
%%EndResource
%FOPBeginFontReencode
/Courier-Oblique findfont
dup length dict begin
  {1 index /FID ne {def} {pop pop} ifelse} forall
  /Encoding WinAnsiEncoding def
  currentdict
end
/Courier-Oblique exch definefont pop
/Courier-BoldOblique findfont
dup length dict begin
  {1 index /FID ne {def} {pop pop} ifelse} forall
  /Encoding WinAnsiEncoding def
  currentdict
end
/Courier-BoldOblique exch definefont pop
/Courier-Bold findfont
dup length dict begin
  {1 index /FID ne {def} {pop pop} ifelse} forall
  /Encoding WinAnsiEncoding def
  currentdict
end
/Courier-Bold exch definefont pop
/Helvetica findfont
dup length dict begin
  {1 index /FID ne {def} {pop pop} ifelse} forall
  /Encoding WinAnsiEncoding def
  currentdict
end
/Helvetica exch definefont pop
/Helvetica-Oblique findfont
dup length dict begin
  {1 index /FID ne {def} {pop pop} ifelse} forall
  /Encoding WinAnsiEncoding def
  currentdict
end
/Helvetica-Oblique exch definefont pop
/Helvetica-Bold findfont
dup length dict begin
  {1 index /FID ne {def} {pop pop} ifelse} forall
  /Encoding WinAnsiEncoding def
  currentdict
end
/Helvetica-Bold exch definefont pop
/Helvetica-BoldOblique findfont
dup length dict begin
  {1 index /FID ne {def} {pop pop} ifelse} forall
  /Encoding WinAnsiEncoding def
  currentdict
end
/Helvetica-BoldOblique exch definefont pop
/Times-Roman findfont
dup length dict begin
  {1 index /FID ne {def} {pop pop} ifelse} forall
  /Encoding WinAnsiEncoding def
  currentdict
end
/Times-Roman exch definefont pop
/Times-Italic findfont
dup length dict begin
  {1 index /FID ne {def} {pop pop} ifelse} forall
  /Encoding WinAnsiEncoding def
  currentdict
end
/Times-Italic exch definefont pop
/Times-Bold findfont
dup length dict begin
  {1 index /FID ne {def} {pop pop} ifelse} forall
  /Encoding WinAnsiEncoding def
  currentdict
end
/Times-Bold exch definefont pop
/Times-BoldItalic findfont
dup length dict begin
  {1 index /FID ne {def} {pop pop} ifelse} forall
  /Encoding WinAnsiEncoding def
  currentdict
end
/Times-BoldItalic exch definefont pop
/Courier findfont
dup length dict begin
  {1 index /FID ne {def} {pop pop} ifelse} forall
  /Encoding WinAnsiEncoding def
  currentdict
end
/Courier exch definefont pop
%FOPEndFontReencode
%%EndProlog
%%Page: 1 1
%%PageBoundingBox: 0 0 420 315
%%BeginPageSetup
[1 0 0 -1 0 315] CT
%%EndPageSetup
GS
[0.75 0 0 0.75 0 0] CT
1 GC
N
0 0 560 420 re
f
GR
GS
[0.75 0 0 0.75 0 0] CT
1 GC
N
0 0 560 420 re
f
GR
GS
[0.75 0 0 0.75 0 0] CT
1 GC
N
73 372 M
507 372 L
507 31 L
73 31 L
cp
f
GR
GS
[0.75 0 0 0.75 0 0] CT
0.873 GC
1 LJ
0.667 LW
N
73 372 M
73 31 L
S
GR
GS
[0.75 0 0 0.75 0 0] CT
0.873 GC
1 LJ
0.667 LW
N
116.4 372 M
116.4 31 L
S
GR
GS
[0.75 0 0 0.75 0 0] CT
0.873 GC
1 LJ
0.667 LW
N
159.8 372 M
159.8 31 L
S
GR
GS
[0.75 0 0 0.75 0 0] CT
0.873 GC
1 LJ
0.667 LW
N
203.2 372 M
203.2 31 L
S
GR
GS
[0.75 0 0 0.75 0 0] CT
0.873 GC
1 LJ
0.667 LW
N
246.6 372 M
246.6 31 L
S
GR
GS
[0.75 0 0 0.75 0 0] CT
0.873 GC
1 LJ
0.667 LW
N
290 372 M
290 31 L
S
GR
GS
[0.75 0 0 0.75 0 0] CT
0.873 GC
1 LJ
0.667 LW
N
333.4 372 M
333.4 31 L
S
GR
GS
[0.75 0 0 0.75 0 0] CT
0.873 GC
1 LJ
0.667 LW
N
376.8 372 M
376.8 31 L
S
GR
GS
[0.75 0 0 0.75 0 0] CT
0.873 GC
1 LJ
0.667 LW
N
420.2 372 M
420.2 31 L
S
GR
GS
[0.75 0 0 0.75 0 0] CT
0.873 GC
1 LJ
0.667 LW
N
463.6 372 M
463.6 31 L
S
GR
GS
[0.75 0 0 0.75 0 0] CT
0.873 GC
1 LJ
0.667 LW
N
507 372 M
507 31 L
S
GR
GS
[0.75 0 0 0.75 0 0] CT
0.873 GC
1 LJ
0.667 LW
N
507 372 M
73 372 L
S
GR
GS
[0.75 0 0 0.75 0 0] CT
0.873 GC
1 LJ
0.667 LW
N
507 323.286 M
73 323.286 L
S
GR
GS
[0.75 0 0 0.75 0 0] CT
0.873 GC
1 LJ
0.667 LW
N
507 274.571 M
73 274.571 L
S
GR
GS
[0.75 0 0 0.75 0 0] CT
0.873 GC
1 LJ
0.667 LW
N
507 225.857 M
73 225.857 L
S
GR
GS
[0.75 0 0 0.75 0 0] CT
0.873 GC
1 LJ
0.667 LW
N
507 177.143 M
73 177.143 L
S
GR
GS
[0.75 0 0 0.75 0 0] CT
0.873 GC
1 LJ
0.667 LW
N
507 128.429 M
73 128.429 L
S
GR
GS
[0.75 0 0 0.75 0 0] CT
0.873 GC
1 LJ
0.667 LW
N
507 79.714 M
73 79.714 L
S
GR
GS
[0.75 0 0 0.75 0 0] CT
0.873 GC
1 LJ
0.667 LW
N
507 31 M
73 31 L
S
GR
GS
[0.75 0 0 0.75 0 0] CT
0.149 GC
2 setlinecap
1 LJ
0.667 LW
N
73 372 M
507 372 L
S
GR
GS
[0.75 0 0 0.75 0 0] CT
0.149 GC
2 setlinecap
1 LJ
0.667 LW
N
73 372 M
73 367.66 L
S
GR
GS
[0.75 0 0 0.75 0 0] CT
0.149 GC
2 setlinecap
1 LJ
0.667 LW
N
116.4 372 M
116.4 367.66 L
S
GR
GS
[0.75 0 0 0.75 0 0] CT
0.149 GC
2 setlinecap
1 LJ
0.667 LW
N
159.8 372 M
159.8 367.66 L
S
GR
GS
[0.75 0 0 0.75 0 0] CT
0.149 GC
2 setlinecap
1 LJ
0.667 LW
N
203.2 372 M
203.2 367.66 L
S
GR
GS
[0.75 0 0 0.75 0 0] CT
0.149 GC
2 setlinecap
1 LJ
0.667 LW
N
246.6 372 M
246.6 367.66 L
S
GR
GS
[0.75 0 0 0.75 0 0] CT
0.149 GC
2 setlinecap
1 LJ
0.667 LW
N
290 372 M
290 367.66 L
S
GR
GS
[0.75 0 0 0.75 0 0] CT
0.149 GC
2 setlinecap
1 LJ
0.667 LW
N
333.4 372 M
333.4 367.66 L
S
GR
GS
[0.75 0 0 0.75 0 0] CT
0.149 GC
2 setlinecap
1 LJ
0.667 LW
N
376.8 372 M
376.8 367.66 L
S
GR
GS
[0.75 0 0 0.75 0 0] CT
0.149 GC
2 setlinecap
1 LJ
0.667 LW
N
420.2 372 M
420.2 367.66 L
S
GR
GS
[0.75 0 0 0.75 0 0] CT
0.149 GC
2 setlinecap
1 LJ
0.667 LW
N
463.6 372 M
463.6 367.66 L
S
GR
GS
[0.75 0 0 0.75 0 0] CT
0.149 GC
2 setlinecap
1 LJ
0.667 LW
N
507 372 M
507 367.66 L
S
GR
GS
[0.75 0 0 0.75 54.75 282.99998] CT
0.149 GC
/Helvetica 13.333 F
GS
[1 0 0 1 0 0] CT
-11.5 14 moveto 
1 -1 scale
(-0.5) t 
GR
GR
GS
[0.75 0 0 0.75 87.3 282.99998] CT
0.149 GC
/Helvetica 13.333 F
GS
[1 0 0 1 0 0] CT
-4 14 moveto 
1 -1 scale
(0) t 
GR
GR
GS
[0.75 0 0 0.75 119.85 282.99998] CT
0.149 GC
/Helvetica 13.333 F
GS
[1 0 0 1 0 0] CT
-9.5 14 moveto 
1 -1 scale
(0.5) t 
GR
GR
GS
[0.75 0 0 0.75 152.4 282.99998] CT
0.149 GC
/Helvetica 13.333 F
GS
[1 0 0 1 0 0] CT
-4 14 moveto 
1 -1 scale
(1) t 
GR
GR
GS
[0.75 0 0 0.75 184.95 282.99998] CT
0.149 GC
/Helvetica 13.333 F
GS
[1 0 0 1 0 0] CT
-9.5 14 moveto 
1 -1 scale
(1.5) t 
GR
GR
GS
[0.75 0 0 0.75 217.5 282.99998] CT
0.149 GC
/Helvetica 13.333 F
GS
[1 0 0 1 0 0] CT
-4 14 moveto 
1 -1 scale
(2) t 
GR
GR
GS
[0.75 0 0 0.75 250.05 282.99998] CT
0.149 GC
/Helvetica 13.333 F
GS
[1 0 0 1 0 0] CT
-9.5 14 moveto 
1 -1 scale
(2.5) t 
GR
GR
GS
[0.75 0 0 0.75 282.59999 282.99998] CT
0.149 GC
/Helvetica 13.333 F
GS
[1 0 0 1 0 0] CT
-4 14 moveto 
1 -1 scale
(3) t 
GR
GR
GS
[0.75 0 0 0.75 315.15001 282.99998] CT
0.149 GC
/Helvetica 13.333 F
GS
[1 0 0 1 0 0] CT
-9.5 14 moveto 
1 -1 scale
(3.5) t 
GR
GR
GS
[0.75 0 0 0.75 347.7 282.99998] CT
0.149 GC
/Helvetica 13.333 F
GS
[1 0 0 1 0 0] CT
-4 14 moveto 
1 -1 scale
(4) t 
GR
GR
GS
[0.75 0 0 0.75 380.25 282.99998] CT
0.149 GC
/Helvetica 13.333 F
GS
[1 0 0 1 0 0] CT
-9.5 14 moveto 
1 -1 scale
(4.5) t 
GR
GR
GS
[0.75 0 0 0.75 217.50016 297] CT
0.149 GC
/Helvetica 18.667 F
GS
[1 0 0 1 0 0] CT
-41 19 moveto 
1 -1 scale
(Time / ms) t 
GR
GR
GS
[0.75 0 0 0.75 0 0] CT
0.149 GC
2 setlinecap
1 LJ
0.667 LW
N
73 372 M
73 31 L
S
GR
GS
[0.75 0 0 0.75 0 0] CT
0.149 GC
2 setlinecap
1 LJ
0.667 LW
N
73 372 M
77.34 372 L
S
GR
GS
[0.75 0 0 0.75 0 0] CT
0.149 GC
2 setlinecap
1 LJ
0.667 LW
N
73 323.286 M
77.34 323.286 L
S
GR
GS
[0.75 0 0 0.75 0 0] CT
0.149 GC
2 setlinecap
1 LJ
0.667 LW
N
73 274.571 M
77.34 274.571 L
S
GR
GS
[0.75 0 0 0.75 0 0] CT
0.149 GC
2 setlinecap
1 LJ
0.667 LW
N
73 225.857 M
77.34 225.857 L
S
GR
GS
[0.75 0 0 0.75 0 0] CT
0.149 GC
2 setlinecap
1 LJ
0.667 LW
N
73 177.143 M
77.34 177.143 L
S
GR
GS
[0.75 0 0 0.75 0 0] CT
0.149 GC
2 setlinecap
1 LJ
0.667 LW
N
73 128.429 M
77.34 128.429 L
S
GR
GS
[0.75 0 0 0.75 0 0] CT
0.149 GC
2 setlinecap
1 LJ
0.667 LW
N
73 79.714 M
77.34 79.714 L
S
GR
GS
[0.75 0 0 0.75 0 0] CT
0.149 GC
2 setlinecap
1 LJ
0.667 LW
N
73 31 M
77.34 31 L
S
GR
GS
[0.75 0 0 0.75 50.75 279] CT
0.149 GC
/Helvetica 13.333 F
GS
[1 0 0 1 0 0] CT
-12 5.5 moveto 
1 -1 scale
(-4) t 
GR
GR
GS
[0.75 0 0 0.75 50.75 242.46428] CT
0.149 GC
/Helvetica 13.333 F
GS
[1 0 0 1 0 0] CT
-12 5.5 moveto 
1 -1 scale
(-2) t 
GR
GR
GS
[0.75 0 0 0.75 50.75 205.92858] CT
0.149 GC
/Helvetica 13.333 F
GS
[1 0 0 1 0 0] CT
-8 5.5 moveto 
1 -1 scale
(0) t 
GR
GR
GS
[0.75 0 0 0.75 50.75 169.39286] CT
0.149 GC
/Helvetica 13.333 F
GS
[1 0 0 1 0 0] CT
-8 5.5 moveto 
1 -1 scale
(2) t 
GR
GR
GS
[0.75 0 0 0.75 50.75 132.85714] CT
0.149 GC
/Helvetica 13.333 F
GS
[1 0 0 1 0 0] CT
-8 5.5 moveto 
1 -1 scale
(4) t 
GR
GR
GS
[0.75 0 0 0.75 50.75 96.32143] CT
0.149 GC
/Helvetica 13.333 F
GS
[1 0 0 1 0 0] CT
-8 5.5 moveto 
1 -1 scale
(6) t 
GR
GR
GS
[0.75 0 0 0.75 50.75 59.78572] CT
0.149 GC
/Helvetica 13.333 F
GS
[1 0 0 1 0 0] CT
-8 5.5 moveto 
1 -1 scale
(8) t 
GR
GR
GS
[0.75 0 0 0.75 50.75 23.25] CT
0.149 GC
/Helvetica 13.333 F
GS
[1 0 0 1 0 0] CT
-15 5.5 moveto 
1 -1 scale
(10) t 
GR
GR
GS
[0 -0.75 0.75 0 36.5 151.12487] CT
0.149 GC
/Helvetica 18.667 F
GS
[1 0 0 1 0 0] CT
-45.5 -5 moveto 
1 -1 scale
(Current / A) t 
GR
GR
GS
[0.75 0 0 0.75 0 0] CT
0 0.447 0.741 RC
1 LJ
2 LW
N
83.416 276.383 M
83.624 276.301 L
83.833 276.097 L
84.041 276.057 L
84.249 276.097 L
84.458 276.301 L
84.666 276.057 L
84.874 275.975 L
85.083 275.853 L
85.291 276.057 L
85.499 275.975 L
85.708 276.097 L
85.916 276.057 L
86.124 275.934 L
86.332 275.893 L
86.541 276.179 L
86.749 276.179 L
86.957 275.975 L
87.166 276.138 L
87.374 275.812 L
87.582 275.853 L
87.791 275.893 L
87.999 275.975 L
88.207 276.138 L
88.416 275.812 L
88.624 275.893 L
88.832 276.057 L
89.041 276.179 L
89.249 275.812 L
89.457 275.975 L
89.666 276.261 L
89.874 275.893 L
90.082 275.853 L
90.291 275.893 L
90.499 275.893 L
90.707 276.097 L
90.916 275.934 L
91.124 275.934 L
91.332 275.893 L
91.54 275.893 L
91.749 276.016 L
91.957 275.975 L
92.165 276.057 L
92.374 276.057 L
92.582 275.893 L
92.79 276.016 L
92.999 276.097 L
93.207 275.975 L
93.415 275.893 L
93.624 276.016 L
93.832 276.138 L
94.04 276.22 L
94.249 276.383 L
94.457 276.016 L
94.665 276.016 L
94.874 276.097 L
95.082 275.853 L
95.29 276.138 L
95.499 276.179 L
95.707 276.057 L
95.915 276.138 L
96.124 276.138 L
96.332 276.057 L
96.54 276.097 L
96.748 276.138 L
96.957 275.893 L
97.165 275.853 L
97.373 275.975 L
97.582 276.138 L
97.79 275.934 L
97.998 276.057 L
98.207 276.179 L
98.415 275.893 L
98.623 276.179 L
98.832 276.138 L
99.04 275.893 L
99.248 276.138 L
99.457 276.179 L
99.665 275.975 L
99.873 276.057 L
100.082 275.853 L
100.29 276.138 L
100.498 275.73 L
100.707 275.975 L
100.915 275.893 L
101.123 276.179 L
101.332 276.097 L
101.54 275.893 L
101.748 275.853 L
101.956 276.138 L
102.165 276.057 L
102.373 276.057 L
102.581 275.853 L
102.79 276.016 L
102.998 276.097 L
103.206 275.853 L
103.415 276.138 L
103.623 276.057 L
103.831 275.934 L
104.04 275.975 L
104.248 276.016 L
104.456 275.893 L
104.665 275.73 L
104.873 275.934 L
105.081 276.016 L
105.29 275.893 L
105.498 275.893 L
105.706 275.975 L
105.915 276.016 L
106.123 275.893 L
106.331 275.853 L
106.54 276.057 L
106.748 276.057 L
106.956 276.138 L
107.164 275.812 L
107.373 276.138 L
107.581 275.853 L
107.789 276.138 L
107.998 275.975 L
108.206 276.138 L
108.414 275.893 L
108.623 276.057 L
108.831 276.342 L
109.039 276.261 L
109.248 276.138 L
109.456 276.016 L
109.664 276.138 L
109.873 276.138 L
110.081 276.261 L
110.289 275.934 L
110.498 276.057 L
110.706 276.261 L
110.914 276.138 L
111.123 276.138 L
111.331 276.016 L
111.539 276.138 L
111.748 276.097 L
111.956 275.975 L
112.164 275.934 L
112.372 276.016 L
112.581 275.73 L
112.789 276.179 L
112.997 276.016 L
113.206 275.853 L
113.414 276.016 L
113.622 275.975 L
113.831 275.934 L
114.039 276.097 L
114.247 276.057 L
114.456 275.812 L
114.664 276.016 L
114.872 276.179 L
115.081 275.934 L
115.289 276.138 L
115.497 275.934 L
115.706 276.138 L
115.914 276.179 L
116.122 276.016 L
116.331 275.934 L
116.539 275.893 L
116.747 275.363 L
116.956 275.159 L
117.164 274.873 L
117.372 274.547 L
117.58 274.261 L
117.789 273.445 L
117.997 272.915 L
118.205 272.752 L
118.414 272.099 L
118.622 271.65 L
118.83 270.916 L
119.039 270.345 L
119.247 270.1 L
119.455 269.284 L
119.664 268.753 L
119.872 268.386 L
120.08 267.57 L
120.289 267.04 L
120.497 266.428 L
120.705 265.898 L
120.914 265.367 L
121.122 264.755 L
121.33 264.225 L
121.539 263.858 L
121.747 263.368 L
121.955 262.593 L
122.164 262.43 L
122.372 261.736 L
122.58 260.675 L
122.788 260.39 L
122.997 259.859 L
123.205 259.247 L
123.413 258.717 L
123.622 258.023 L
123.83 257.411 L
124.038 257.126 L
124.247 256.269 L
124.455 255.82 L
124.663 255.412 L
124.872 254.596 L
125.08 254.147 L
125.288 253.576 L
125.497 253.127 L
125.705 252.679 L
125.913 252.026 L
126.122 251.699 L
126.33 251.087 L
126.538 250.761 L
126.747 249.986 L
126.955 249.415 L
127.163 248.925 L
127.372 248.639 L
127.58 247.783 L
127.788 247.252 L
127.996 246.967 L
128.205 246.395 L
128.413 245.865 L
128.621 245.457 L
128.83 245.09 L
129.038 244.396 L
129.246 244.111 L
129.455 243.417 L
129.663 242.601 L
129.871 242.438 L
130.08 241.867 L
130.288 241.459 L
130.496 241.01 L
130.705 240.276 L
130.913 240.072 L
131.121 239.378 L
131.33 239.011 L
131.538 238.644 L
131.746 238.072 L
131.955 237.624 L
132.163 237.216 L
132.371 236.522 L
132.58 236.155 L
132.788 235.624 L
132.996 235.257 L
133.204 234.686 L
133.413 233.829 L
133.621 233.503 L
133.829 233.095 L
134.038 232.769 L
134.246 232.197 L
134.454 231.667 L
134.663 230.933 L
134.871 230.525 L
135.079 230.117 L
135.288 229.627 L
135.496 229.178 L
135.704 228.974 L
135.913 228.117 L
136.121 227.628 L
136.329 227.383 L
136.538 226.649 L
136.746 226.363 L
136.954 225.914 L
137.163 225.425 L
137.371 224.894 L
137.579 224.649 L
137.788 224.201 L
137.996 223.752 L
138.204 223.018 L
138.412 222.854 L
138.621 222.446 L
138.829 221.712 L
139.037 221.263 L
139.246 220.937 L
139.454 220.366 L
139.662 220.08 L
139.871 219.509 L
140.079 219.101 L
140.287 218.815 L
140.496 218.285 L
140.704 217.836 L
140.912 217.469 L
141.121 216.775 L
141.329 216.571 L
141.537 216 L
141.746 215.714 L
141.954 215.021 L
142.162 214.858 L
142.371 214.246 L
142.579 214.001 L
142.787 213.593 L
142.996 213.063 L
143.204 212.818 L
143.412 212.369 L
143.62 211.879 L
143.829 211.839 L
144.037 210.982 L
144.245 210.655 L
144.454 210.247 L
144.662 209.921 L
144.87 209.391 L
145.079 209.064 L
145.287 208.697 L
145.495 208.248 L
145.704 207.555 L
145.912 207.269 L
146.12 206.861 L
146.329 206.453 L
146.537 206.004 L
146.745 205.719 L
146.954 205.311 L
147.162 204.78 L
147.37 204.617 L
147.579 204.005 L
147.787 203.76 L
147.995 203.148 L
148.204 202.618 L
148.412 202.414 L
148.62 202.047 L
148.828 201.598 L
149.037 201.312 L
149.245 201.149 L
149.453 200.619 L
149.662 200.374 L
149.87 199.721 L
150.078 199.517 L
150.287 199.068 L
150.495 198.579 L
150.703 198.212 L
150.912 197.763 L
151.12 197.436 L
151.328 197.151 L
151.537 196.743 L
151.745 196.131 L
151.953 196.09 L
152.162 195.478 L
152.37 194.948 L
152.578 194.744 L
152.787 194.376 L
152.995 193.928 L
153.203 193.52 L
153.412 193.316 L
153.62 192.867 L
153.828 192.377 L
154.036 192.132 L
154.245 191.806 L
154.453 191.561 L
154.661 191.194 L
154.87 190.582 L
155.078 190.378 L
155.286 190.093 L
155.495 189.766 L
155.703 189.113 L
155.911 188.665 L
156.12 188.705 L
156.328 188.012 L
156.536 187.645 L
156.745 187.481 L
156.953 187.073 L
157.161 186.584 L
157.37 186.38 L
157.578 186.094 L
157.786 185.36 L
157.995 185.115 L
158.203 184.829 L
158.411 184.503 L
158.62 184.013 L
158.828 183.605 L
159.036 183.361 L
159.244 183.034 L
159.453 182.585 L
159.661 182.381 L
159.869 181.933 L
160.078 181.402 L
160.286 181.076 L
160.494 180.668 L
160.703 180.342 L
160.911 180.138 L
161.119 179.77 L
161.328 179.403 L
161.536 178.873 L
161.744 178.669 L
161.953 178.383 L
162.161 177.894 L
162.369 177.445 L
162.578 177.159 L
162.786 176.792 L
162.994 176.547 L
163.203 176.425 L
163.411 176.058 L
163.619 175.976 L
163.828 175.364 L
164.036 174.834 L
164.244 174.834 L
164.452 174.262 L
164.661 174.181 L
164.869 174.181 L
165.077 173.446 L
165.286 172.998 L
165.494 172.794 L
165.702 172.426 L
165.911 172.304 L
166.119 171.814 L
166.327 171.57 L
166.536 171.243 L
166.744 170.998 L
166.952 170.55 L
167.161 170.264 L
167.369 169.979 L
167.577 169.611 L
167.786 169.571 L
167.994 169.081 L
168.202 168.591 L
168.411 168.551 L
168.619 167.979 L
168.827 167.735 L
169.036 167.653 L
169.244 166.796 L
169.452 166.755 L
169.66 166.388 L
169.869 165.899 L
170.077 166.021 L
170.285 165.572 L
170.494 165.123 L
170.702 165.123 L
170.91 164.634 L
171.119 164.226 L
171.327 164.267 L
171.535 163.981 L
171.744 163.614 L
171.952 163.491 L
172.16 162.879 L
172.369 162.92 L
172.577 162.431 L
172.785 161.696 L
172.994 161.778 L
173.202 161.411 L
173.41 161.166 L
173.619 160.839 L
173.827 160.431 L
174.035 160.268 L
174.244 160.105 L
174.452 159.575 L
174.66 159.452 L
174.868 159.248 L
175.077 158.677 L
175.285 158.473 L
175.493 158.269 L
175.702 157.739 L
175.91 157.576 L
176.118 157.208 L
176.327 156.923 L
176.535 156.882 L
176.743 156.433 L
176.952 156.148 L
177.16 155.903 L
177.368 155.699 L
177.577 155.454 L
177.785 155.168 L
177.993 154.883 L
178.202 154.597 L
178.41 154.475 L
178.618 153.985 L
178.827 153.904 L
179.035 153.74 L
179.243 153.088 L
179.452 153.006 L
179.66 152.965 L
179.868 152.598 L
180.076 152.353 L
180.285 152.068 L
180.493 151.7 L
180.701 151.496 L
180.91 151.374 L
181.118 150.925 L
181.326 150.884 L
181.535 150.313 L
181.743 150.232 L
181.951 150.028 L
182.16 149.579 L
182.368 149.416 L
182.576 149.049 L
182.785 148.845 L
182.993 148.6 L
183.201 148.192 L
183.41 148.029 L
183.618 147.906 L
183.826 147.621 L
184.035 147.213 L
184.243 146.968 L
184.451 146.764 L
184.66 146.805 L
184.868 146.274 L
185.076 145.744 L
185.284 145.825 L
185.493 145.581 L
185.701 145.336 L
185.909 145.254 L
186.118 144.928 L
186.326 144.438 L
186.534 144.438 L
186.743 143.745 L
186.951 143.663 L
187.159 143.5 L
187.368 143.255 L
187.576 142.888 L
187.784 142.806 L
187.993 142.357 L
188.201 142.357 L
188.409 141.949 L
188.618 141.705 L
188.826 141.664 L
189.034 141.378 L
189.243 141.093 L
189.451 140.889 L
189.659 140.644 L
189.868 140.236 L
190.076 140.358 L
190.284 139.746 L
190.492 139.542 L
190.701 139.583 L
190.909 139.216 L
191.117 139.012 L
191.326 138.767 L
191.534 138.563 L
191.742 138.4 L
191.951 137.91 L
192.159 137.87 L
192.367 137.502 L
192.576 137.176 L
192.784 136.972 L
192.992 136.89 L
193.201 136.809 L
193.409 136.564 L
193.617 136.156 L
193.826 135.993 L
194.034 135.87 L
194.242 135.544 L
194.451 135.299 L
194.659 135.177 L
194.867 134.483 L
195.076 134.483 L
195.284 134.32 L
195.492 134.034 L
195.7 133.912 L
195.909 133.708 L
196.117 133.545 L
196.325 133.504 L
196.534 133.096 L
196.742 132.81 L
196.95 132.892 L
197.159 132.566 L
197.367 132.198 L
197.575 132.076 L
197.784 131.79 L
197.992 131.586 L
198.2 131.75 L
198.409 131.138 L
198.617 130.934 L
198.825 130.934 L
199.034 130.566 L
199.242 130.607 L
199.45 130.158 L
199.659 129.954 L
199.867 129.628 L
200.075 129.669 L
200.284 129.424 L
200.492 129.179 L
200.7 128.975 L
200.908 128.853 L
201.117 128.771 L
201.325 128.363 L
201.533 128.118 L
201.742 127.996 L
201.95 127.792 L
202.158 127.751 L
202.367 127.425 L
202.575 127.058 L
202.783 127.058 L
202.992 126.813 L
203.2 126.731 L
203.408 126.527 L
203.617 125.915 L
203.825 125.956 L
204.033 125.752 L
204.242 125.507 L
204.45 125.181 L
204.658 125.181 L
204.867 125.059 L
205.075 124.855 L
205.283 124.814 L
205.492 124.365 L
205.7 124.161 L
205.908 124.161 L
206.116 123.835 L
206.325 123.712 L
206.533 123.671 L
206.741 123.1 L
206.95 123.223 L
207.158 122.937 L
207.366 122.855 L
207.575 122.855 L
207.783 122.243 L
207.991 122.366 L
208.2 122.121 L
208.408 121.672 L
208.616 121.591 L
208.825 121.672 L
209.033 121.305 L
209.241 121.101 L
209.45 121.305 L
209.658 120.734 L
209.866 120.979 L
210.075 120.407 L
210.283 120.367 L
210.491 120.04 L
210.7 119.673 L
210.908 119.591 L
211.116 119.591 L
211.324 119.224 L
211.533 119.143 L
211.741 119.143 L
211.949 118.898 L
212.158 118.694 L
212.366 118.612 L
212.574 118.408 L
212.783 118.286 L
212.991 118.204 L
213.199 117.674 L
213.408 117.878 L
213.616 117.429 L
213.824 117.388 L
214.033 117.184 L
214.241 117.184 L
214.449 117.144 L
214.658 116.736 L
214.866 116.45 L
215.074 116.532 L
215.283 116.205 L
215.491 115.838 L
215.699 116.083 L
215.908 115.716 L
216.116 115.512 L
216.324 115.593 L
216.532 115.185 L
216.741 115.063 L
216.949 115.022 L
217.157 114.859 L
217.366 114.818 L
217.574 114.818 L
217.782 114.41 L
217.991 114.206 L
218.199 114.247 L
218.407 114.002 L
218.616 114.043 L
218.824 113.635 L
219.032 113.349 L
219.241 113.349 L
219.449 113.186 L
219.657 113.023 L
219.866 113.023 L
220.074 112.9 L
220.282 112.696 L
220.491 112.656 L
220.699 112.248 L
220.907 112.166 L
221.116 111.962 L
221.324 112.003 L
221.532 111.88 L
221.74 111.513 L
221.949 111.105 L
222.157 111.595 L
222.365 111.064 L
222.574 111.228 L
222.782 110.942 L
222.99 110.82 L
223.199 110.412 L
223.407 110.412 L
223.615 110.33 L
223.824 110.289 L
224.032 110.004 L
224.24 109.596 L
224.449 110.044 L
224.657 109.555 L
224.865 109.759 L
225.074 109.351 L
225.282 109.065 L
225.49 109.147 L
225.699 108.984 L
225.907 108.739 L
226.115 108.739 L
226.324 108.739 L
226.532 108.168 L
226.74 108.249 L
226.948 108.127 L
227.157 107.882 L
227.365 108.208 L
227.573 107.841 L
227.782 107.474 L
227.99 107.515 L
228.198 107.556 L
228.407 107.474 L
228.615 107.229 L
228.823 106.903 L
229.032 106.944 L
229.24 106.699 L
229.448 106.536 L
229.657 106.454 L
229.865 106.454 L
230.073 106.25 L
230.282 106.046 L
230.49 105.801 L
230.698 105.597 L
230.907 105.597 L
231.115 105.516 L
231.323 105.312 L
231.532 105.312 L
231.74 105.067 L
231.948 104.904 L
232.156 104.985 L
232.365 104.618 L
232.573 104.781 L
232.781 104.496 L
232.99 104.333 L
233.198 104.577 L
233.406 104.292 L
233.615 104.251 L
233.823 103.843 L
234.031 103.965 L
234.24 103.598 L
234.448 103.639 L
234.656 103.394 L
234.865 103.517 L
235.073 103.231 L
235.281 102.986 L
235.49 103.19 L
235.698 103.149 L
235.906 102.701 L
236.115 102.741 L
236.323 102.741 L
236.531 102.864 L
236.74 102.211 L
236.948 102.333 L
237.156 102.048 L
237.364 101.925 L
237.573 101.762 L
237.781 101.803 L
237.989 101.517 L
238.198 101.477 L
238.406 101.64 L
238.614 101.15 L
238.823 101.191 L
239.031 101.313 L
239.239 100.987 L
239.448 100.701 L
239.656 100.824 L
239.864 100.538 L
240.073 100.538 L
240.281 100.457 L
240.489 100.457 L
240.698 100.457 L
240.906 100.212 L
241.114 100.049 L
241.323 100.089 L
241.531 99.885 L
241.739 99.681 L
241.948 99.518 L
242.156 99.641 L
242.364 99.396 L
242.572 99.069 L
242.781 99.151 L
242.989 99.069 L
243.197 99.029 L
243.406 98.743 L
243.614 98.784 L
243.822 98.743 L
244.031 98.376 L
244.239 98.58 L
244.447 98.335 L
244.656 98.213 L
244.864 98.09 L
245.072 98.009 L
245.281 97.805 L
245.489 97.845 L
245.697 97.478 L
245.906 97.601 L
246.114 97.56 L
246.322 97.397 L
246.531 97.315 L
246.739 97.111 L
246.947 96.948 L
247.156 96.989 L
247.364 96.785 L
247.572 96.703 L
247.78 96.825 L
247.989 96.662 L
248.197 96.295 L
248.405 96.417 L
248.614 96.295 L
248.822 96.173 L
249.03 96.295 L
249.239 95.765 L
249.447 96.05 L
249.655 95.642 L
249.864 95.887 L
250.072 95.479 L
250.28 95.642 L
250.489 95.52 L
250.697 95.316 L
250.905 95.357 L
251.114 94.867 L
251.322 95.071 L
251.53 94.908 L
251.739 94.867 L
251.947 94.704 L
252.155 94.459 L
252.364 94.745 L
252.572 94.459 L
252.78 94.255 L
252.988 94.5 L
253.197 94.337 L
253.405 93.97 L
253.613 93.97 L
253.822 93.929 L
254.03 93.725 L
254.238 93.847 L
254.447 93.684 L
254.655 93.154 L
254.863 93.602 L
255.072 93.031 L
255.28 93.072 L
255.488 93.194 L
255.697 93.031 L
255.905 93.113 L
256.113 92.827 L
256.322 92.786 L
256.53 92.746 L
256.738 92.623 L
256.947 92.582 L
257.155 92.582 L
257.363 92.174 L
257.572 92.134 L
257.78 92.134 L
257.988 91.93 L
258.196 91.848 L
258.405 91.807 L
258.613 91.848 L
258.821 91.603 L
259.03 91.44 L
259.238 91.399 L
259.446 91.277 L
259.655 91.195 L
259.863 91.195 L
260.071 91.236 L
260.28 90.869 L
260.488 90.991 L
260.696 91.032 L
260.905 90.746 L
261.113 90.91 L
261.321 90.869 L
261.53 90.583 L
261.738 90.624 L
261.946 90.746 L
262.155 90.257 L
262.363 90.542 L
262.571 90.338 L
262.78 90.338 L
262.988 90.216 L
263.196 90.012 L
263.404 90.053 L
263.613 90.175 L
263.821 89.767 L
264.029 89.767 L
264.238 89.808 L
264.446 89.808 L
264.654 89.645 L
264.863 89.563 L
265.071 89.482 L
265.279 89.726 L
265.488 89.278 L
265.696 89.4 L
265.904 89.359 L
266.113 89.278 L
266.321 89.318 L
266.529 89.196 L
266.738 89.074 L
266.946 88.951 L
267.154 88.87 L
267.363 88.951 L
267.571 88.992 L
267.779 88.666 L
267.988 88.625 L
268.196 88.788 L
268.404 88.584 L
268.612 88.38 L
268.821 88.462 L
269.029 88.217 L
269.237 88.38 L
269.446 88.258 L
269.654 88.135 L
269.862 88.135 L
270.071 88.176 L
270.279 88.013 L
270.487 88.054 L
270.696 87.686 L
270.904 87.89 L
271.112 87.85 L
271.321 87.401 L
271.529 87.442 L
271.737 87.686 L
271.946 87.278 L
272.154 87.278 L
272.362 87.156 L
272.571 87.074 L
272.779 87.156 L
272.987 86.911 L
273.196 86.993 L
273.404 87.238 L
273.612 87.034 L
273.82 86.911 L
274.029 86.87 L
274.237 86.748 L
274.445 86.707 L
274.654 86.911 L
274.862 86.544 L
275.07 86.626 L
275.279 86.707 L
275.487 86.422 L
275.695 86.136 L
275.904 86.218 L
276.112 86.136 L
276.32 86.381 L
276.529 86.136 L
276.737 86.014 L
276.945 86.177 L
277.154 85.973 L
277.362 86.054 L
277.57 86.177 L
277.779 85.769 L
277.987 85.85 L
278.195 85.85 L
278.404 85.646 L
278.612 85.687 L
278.82 85.565 L
279.028 85.606 L
279.237 85.646 L
279.445 85.606 L
279.653 85.239 L
279.862 85.361 L
280.07 85.157 L
280.278 85.32 L
280.487 85.157 L
280.695 85.198 L
280.903 85.075 L
281.112 85.075 L
281.32 84.79 L
281.528 84.667 L
281.737 84.871 L
281.945 84.627 L
282.153 84.708 L
282.362 84.545 L
282.57 84.341 L
282.778 84.586 L
282.987 84.137 L
283.195 84.137 L
283.403 84.341 L
283.612 83.974 L
283.82 84.3 L
284.028 84.341 L
284.236 84.015 L
284.445 84.055 L
284.653 83.974 L
284.861 83.933 L
285.07 83.851 L
285.278 83.851 L
285.486 83.607 L
285.695 83.647 L
285.903 83.77 L
286.111 83.729 L
286.32 83.484 L
286.528 83.484 L
286.736 83.321 L
286.945 83.484 L
287.153 83.566 L
287.361 83.199 L
287.57 83.443 L
287.778 83.199 L
287.986 83.117 L
288.195 83.199 L
288.403 82.872 L
288.611 83.035 L
288.82 83.035 L
289.028 82.791 L
289.236 83.199 L
289.444 82.791 L
289.653 82.668 L
289.861 82.872 L
290.069 82.709 L
290.278 82.709 L
290.486 82.627 L
290.694 82.464 L
290.903 82.587 L
291.111 82.587 L
291.319 82.26 L
291.528 82.546 L
291.736 82.26 L
291.944 82.219 L
292.153 82.26 L
292.361 82.138 L
292.569 82.219 L
292.778 82.342 L
292.986 82.423 L
293.194 82.179 L
293.403 82.342 L
293.611 82.015 L
293.819 82.179 L
294.028 82.097 L
294.236 81.893 L
294.444 82.097 L
294.652 81.852 L
294.861 81.852 L
295.069 82.015 L
295.277 81.689 L
295.486 81.648 L
295.694 81.689 L
295.902 81.689 L
296.111 81.485 L
296.319 81.811 L
296.527 81.689 L
296.736 81.607 L
296.944 81.771 L
297.152 81.567 L
297.361 81.403 L
297.569 81.689 L
297.777 81.526 L
297.986 81.485 L
298.194 81.403 L
298.402 81.24 L
298.611 81.403 L
298.819 81.118 L
299.027 81.159 L
299.236 81.118 L
299.444 81.118 L
299.652 80.995 L
299.86 80.914 L
300.069 81.077 L
300.277 81.199 L
300.485 80.832 L
300.694 80.873 L
300.902 81.118 L
301.11 80.587 L
301.319 80.669 L
301.527 80.628 L
301.735 80.832 L
301.944 80.669 L
302.152 80.669 L
302.36 80.71 L
302.569 80.669 L
302.777 80.424 L
302.985 80.261 L
303.194 80.71 L
303.402 80.506 L
303.61 80.383 L
303.819 80.343 L
304.027 80.261 L
304.235 80.343 L
304.444 80.465 L
304.652 80.302 L
304.86 80.302 L
305.068 80.383 L
305.277 80.22 L
305.485 80.139 L
305.693 80.179 L
305.902 80.261 L
306.11 80.22 L
306.318 80.261 L
306.527 80.139 L
306.735 80.424 L
306.943 80.261 L
307.152 80.383 L
307.36 80.302 L
307.568 80.302 L
307.777 80.179 L
307.985 80.139 L
308.193 79.975 L
308.402 80.016 L
308.61 80.057 L
308.818 79.975 L
309.027 80.016 L
309.235 79.812 L
309.443 79.935 L
309.652 79.975 L
309.86 79.853 L
310.068 79.649 L
310.276 79.812 L
310.485 79.486 L
310.693 79.486 L
310.901 79.649 L
311.11 79.527 L
311.318 79.567 L
311.526 79.69 L
311.735 79.567 L
311.943 79.608 L
312.151 79.608 L
312.36 79.404 L
312.568 79.69 L
312.776 79.527 L
312.985 79.363 L
313.193 79.608 L
313.401 79.119 L
313.61 79.2 L
313.818 79.363 L
314.026 79.037 L
314.235 79.282 L
314.443 79.159 L
314.651 78.955 L
314.86 79.159 L
315.068 79.2 L
315.276 78.915 L
315.484 79.119 L
315.693 78.955 L
315.901 78.751 L
316.109 79.282 L
316.318 79.282 L
316.526 79.078 L
316.734 79.159 L
316.943 79.037 L
317.151 79.037 L
317.359 78.833 L
317.568 78.915 L
317.776 79.119 L
317.984 78.996 L
318.193 79.078 L
318.401 79.037 L
318.609 78.751 L
318.818 78.711 L
319.026 79.159 L
319.234 78.751 L
319.443 78.588 L
319.651 78.874 L
319.859 78.588 L
320.068 78.711 L
320.276 78.792 L
320.484 78.67 L
320.692 78.466 L
320.901 78.588 L
321.109 78.425 L
321.317 78.507 L
321.526 78.466 L
321.734 78.384 L
321.942 78.588 L
322.151 78.425 L
322.359 78.547 L
322.567 78.67 L
322.776 78.303 L
322.984 78.18 L
323.192 78.629 L
323.401 78.262 L
323.609 78.425 L
323.817 78.466 L
324.026 78.343 L
324.234 78.139 L
324.442 78.303 L
324.651 78.303 L
324.859 78.303 L
325.067 78.18 L
325.276 78.303 L
325.484 78.466 L
325.692 78.384 L
325.9 78.18 L
326.109 78.139 L
326.317 78.139 L
326.525 78.262 L
326.734 77.935 L
326.942 77.895 L
327.15 78.262 L
327.359 77.772 L
327.567 78.017 L
327.775 77.895 L
327.984 77.895 L
328.192 77.935 L
328.4 77.691 L
328.609 77.65 L
328.817 77.609 L
329.025 77.854 L
329.234 77.691 L
329.442 77.772 L
329.65 77.65 L
329.859 77.527 L
330.067 77.609 L
330.275 77.731 L
330.484 77.813 L
330.692 77.65 L
330.9 77.895 L
331.108 77.487 L
331.317 77.609 L
331.525 77.609 L
331.733 77.691 L
331.942 77.487 L
332.15 77.813 L
332.358 77.487 L
332.567 77.568 L
332.775 77.568 L
332.983 77.609 L
333.192 77.405 L
333.4 77.487 L
333.608 77.405 L
333.817 77.487 L
334.025 77.323 L
334.233 77.446 L
334.442 77.201 L
334.65 77.65 L
334.858 77.609 L
335.067 77.568 L
335.275 77.527 L
335.483 77.446 L
335.692 77.038 L
335.9 77.487 L
336.108 77.527 L
336.316 77.405 L
336.525 77.364 L
336.733 77.242 L
336.941 77.283 L
337.15 77.609 L
337.358 77.323 L
337.566 77.446 L
337.775 77.364 L
337.983 77.283 L
338.191 77.487 L
338.4 77.242 L
338.608 77.201 L
338.816 77.242 L
339.025 77.201 L
339.233 77.242 L
339.441 77.283 L
339.65 77.405 L
339.858 77.283 L
340.066 77.446 L
340.275 77.446 L
340.483 77.119 L
340.691 77.405 L
340.9 77.038 L
341.108 77.201 L
341.316 77.405 L
341.524 77.323 L
341.733 77.242 L
341.941 76.956 L
342.149 76.997 L
342.358 77.038 L
342.566 77.038 L
342.774 77.283 L
342.983 76.956 L
343.191 76.956 L
343.399 77.119 L
343.608 76.915 L
343.816 76.793 L
344.024 76.752 L
344.233 77.038 L
344.441 76.875 L
344.649 76.997 L
344.858 77.038 L
345.066 76.915 L
345.274 76.875 L
345.483 76.956 L
345.691 76.63 L
345.899 76.752 L
346.108 76.711 L
346.316 76.875 L
346.524 76.793 L
346.732 76.793 L
346.941 76.834 L
347.149 76.956 L
347.357 76.671 L
347.566 76.752 L
347.774 76.63 L
347.982 76.671 L
348.191 76.711 L
348.399 76.793 L
348.607 76.711 L
348.816 76.752 L
349.024 76.507 L
349.232 76.671 L
349.441 76.793 L
349.649 76.63 L
349.857 76.711 L
350.066 76.63 L
350.274 76.671 L
350.482 76.875 L
350.691 76.793 L
350.899 76.467 L
351.107 76.875 L
351.316 76.671 L
351.524 76.507 L
351.732 76.834 L
351.94 76.589 L
352.149 76.426 L
352.357 76.752 L
352.565 76.793 L
352.774 76.589 L
352.982 76.793 L
353.19 76.63 L
353.399 76.915 L
353.607 76.875 L
353.815 76.344 L
354.024 76.467 L
354.232 76.63 L
354.44 76.548 L
354.649 76.63 L
354.857 76.467 L
355.065 76.548 L
355.274 76.589 L
355.482 76.426 L
355.69 76.507 L
355.899 76.426 L
356.107 76.548 L
356.315 76.426 L
356.524 76.222 L
356.732 76.303 L
356.94 76.507 L
357.148 76.303 L
357.357 76.263 L
357.565 76.344 L
357.773 76.467 L
357.982 76.344 L
358.19 76.344 L
358.398 76.099 L
358.607 76.507 L
358.815 76.426 L
359.023 76.344 L
359.232 76.344 L
359.44 76.507 L
359.648 76.548 L
359.857 76.589 L
360.065 76.385 L
360.273 76.467 L
360.482 76.344 L
360.69 76.181 L
360.898 76.467 L
361.107 76.426 L
361.315 76.303 L
361.523 76.589 L
361.732 76.467 L
361.94 76.344 L
362.148 76.426 L
362.356 76.548 L
362.565 76.059 L
362.773 76.467 L
362.981 76.507 L
363.19 76.222 L
363.398 76.467 L
363.606 76.344 L
363.815 76.467 L
364.023 76.303 L
364.231 76.059 L
364.44 76.222 L
364.648 76.385 L
364.856 76.303 L
365.065 76.263 L
365.273 76.222 L
365.481 76.385 L
365.69 76.222 L
365.898 76.181 L
366.106 76.344 L
366.315 76.426 L
366.523 76.385 L
366.731 76.303 L
366.94 76.263 L
367.148 76.222 L
367.356 76.222 L
367.564 76.426 L
367.773 76.303 L
367.981 76.344 L
368.189 76.303 L
368.398 76.14 L
368.606 76.344 L
368.814 76.14 L
369.023 76.303 L
369.231 76.059 L
369.439 76.222 L
369.648 76.14 L
369.856 76.548 L
370.064 76.14 L
370.273 76.303 L
370.481 76.507 L
370.689 76.467 L
370.898 76.385 L
371.106 76.467 L
371.314 76.385 L
371.523 76.385 L
371.731 76.589 L
371.939 76.222 L
372.148 76.507 L
372.356 76.385 L
372.564 76.181 L
372.772 76.344 L
372.981 76.589 L
373.189 76.63 L
373.397 76.467 L
373.606 76.467 L
373.814 76.222 L
374.022 76.63 L
374.231 76.671 L
374.439 76.426 L
374.647 76.834 L
374.856 76.467 L
375.064 76.507 L
375.272 76.589 L
375.481 76.467 L
375.689 76.711 L
375.897 76.507 L
376.106 76.385 L
376.314 76.507 L
376.522 76.548 L
376.731 76.589 L
376.939 76.467 L
377.147 76.507 L
377.356 76.793 L
377.564 76.548 L
377.772 76.467 L
377.98 76.589 L
378.189 76.711 L
378.397 76.507 L
378.605 76.63 L
378.814 76.63 L
379.022 76.507 L
379.23 76.548 L
379.439 76.589 L
379.647 76.548 L
379.855 76.589 L
380.064 76.548 L
380.272 76.548 L
380.48 76.548 L
380.689 76.671 L
380.897 76.507 L
381.105 76.385 L
381.314 76.63 L
381.522 76.63 L
381.73 76.915 L
381.939 76.344 L
382.147 76.467 L
382.355 76.467 L
382.564 76.548 L
382.772 76.507 L
382.98 76.467 L
383.188 76.752 L
383.397 76.548 L
383.605 76.63 L
383.813 76.793 L
384.022 76.589 L
384.23 76.426 L
384.438 76.711 L
384.647 76.671 L
384.855 76.711 L
385.063 76.793 L
385.272 76.793 L
385.48 76.671 L
385.688 76.875 L
385.897 76.875 L
386.105 76.915 L
386.313 77.038 L
386.522 76.63 L
386.73 76.875 L
386.938 76.671 L
387.147 76.956 L
387.355 76.915 L
387.563 76.711 L
387.772 76.793 L
387.98 76.875 L
388.188 76.793 L
388.396 77.038 L
388.605 77.038 L
388.813 76.875 L
389.021 76.997 L
389.23 76.956 L
389.438 76.915 L
389.646 76.793 L
389.855 76.956 L
390.063 76.997 L
390.271 76.997 L
390.48 76.834 L
390.688 77.16 L
390.896 76.997 L
391.105 76.875 L
391.313 77.038 L
391.521 77.405 L
391.73 76.793 L
391.938 76.793 L
392.146 77.119 L
392.355 76.956 L
392.563 77.242 L
392.771 77.038 L
392.98 77.079 L
393.188 77.16 L
393.396 77.283 L
393.604 77.119 L
393.813 77.16 L
394.021 77.323 L
394.229 77.16 L
394.438 77.446 L
394.646 77.242 L
394.854 77.201 L
395.063 77.487 L
395.271 77.527 L
395.479 77.405 L
395.688 77.201 L
395.896 77.364 L
396.104 77.446 L
396.313 77.16 L
396.521 77.16 L
396.729 77.446 L
396.938 77.487 L
397.146 77.527 L
397.354 77.772 L
397.563 77.405 L
397.771 77.405 L
397.979 77.527 L
398.188 77.323 L
398.396 77.446 L
398.604 77.65 L
398.812 77.364 L
399.021 77.854 L
399.229 77.527 L
399.437 77.242 L
399.646 77.487 L
399.854 77.446 L
400.062 77.691 L
400.271 77.935 L
400.479 77.65 L
400.687 77.772 L
400.896 77.731 L
401.104 77.65 L
401.312 77.772 L
401.521 77.772 L
401.729 77.568 L
401.937 77.895 L
402.146 77.446 L
402.354 77.731 L
402.562 77.691 L
402.771 77.854 L
402.979 77.731 L
403.187 77.976 L
403.396 78.017 L
403.604 78.017 L
403.812 77.895 L
404.02 77.691 L
404.229 78.139 L
404.437 77.895 L
404.645 77.854 L
404.854 78.058 L
405.062 78.058 L
405.27 77.854 L
405.479 78.221 L
405.687 78.303 L
405.895 78.18 L
406.104 78.425 L
406.312 78.384 L
406.52 78.343 L
406.729 78.303 L
406.937 78.343 L
407.145 78.425 L
407.354 78.507 L
407.562 78.425 L
407.77 78.017 L
407.979 78.547 L
408.187 78.343 L
408.395 78.425 L
408.604 78.588 L
408.812 78.547 L
409.02 78.425 L
409.228 78.588 L
409.437 78.629 L
409.645 78.751 L
409.853 78.547 L
410.062 78.67 L
410.27 78.629 L
410.478 78.466 L
410.687 78.792 L
410.895 78.751 L
411.103 78.629 L
411.312 78.67 L
411.52 78.384 L
411.728 78.547 L
411.937 78.466 L
412.145 78.67 L
412.353 78.751 L
412.562 78.466 L
412.77 78.466 L
412.978 78.629 L
413.187 78.588 L
413.395 78.751 L
413.603 78.711 L
413.812 78.751 L
414.02 78.915 L
414.228 78.833 L
414.436 78.711 L
414.645 78.833 L
414.853 78.711 L
415.061 78.629 L
415.27 78.874 L
415.478 79.119 L
415.686 78.955 L
415.895 79.323 L
416.103 79.078 L
416.311 79.037 L
416.52 79.037 L
416.728 79.037 L
416.936 78.833 L
417.145 79.404 L
417.353 79.159 L
417.561 78.996 L
417.77 79.363 L
417.978 79.159 L
418.186 79.282 L
418.395 79.445 L
418.603 79.159 L
418.811 79.282 L
419.02 79.404 L
419.228 79.404 L
419.436 79.282 L
419.644 79.363 L
419.853 79.527 L
420.061 79.486 L
420.269 283.727 L
420.478 289.765 L
420.686 294.375 L
420.894 298.7 L
421.103 301.76 L
421.311 304.494 L
421.519 307.227 L
421.728 309.104 L
421.936 310.981 L
422.144 312.613 L
422.353 313.959 L
422.561 315.142 L
422.769 315.917 L
422.978 316.57 L
423.186 317.509 L
423.394 317.509 L
423.603 318.121 L
423.811 318.039 L
424.019 318.284 L
424.228 318.325 L
424.436 318.121 L
424.644 318.121 L
424.852 318.325 L
425.061 317.794 L
425.269 317.59 L
425.477 317.427 L
425.686 317.019 L
425.894 317.182 L
426.102 316.774 L
426.311 316.489 L
426.519 316.529 L
426.727 316.244 L
426.936 316.121 L
427.144 316.244 L
427.352 315.917 L
427.561 315.877 L
427.769 315.999 L
427.977 315.877 L
428.186 316.121 L
428.394 316.081 L
428.602 315.999 L
428.811 315.958 L
429.019 315.917 L
429.227 315.836 L
429.436 316.162 L
429.644 316.081 L
429.852 316.081 L
430.06 316.325 L
430.269 316.244 L
430.477 316.448 L
430.685 316.57 L
430.894 316.489 L
431.102 316.529 L
431.31 316.652 L
431.519 316.448 L
431.727 316.652 L
431.935 316.774 L
432.144 316.611 L
432.352 316.733 L
432.56 316.693 L
432.769 316.897 L
432.977 316.897 L
433.185 316.856 L
433.394 317.019 L
433.602 317.019 L
433.81 316.978 L
434.019 317.223 L
434.227 317.101 L
434.435 316.978 L
434.644 317.223 L
434.852 317.101 L
435.06 317.223 L
435.268 317.345 L
435.477 317.223 L
435.685 317.141 L
435.893 317.549 L
436.102 317.182 L
436.31 317.305 L
436.518 317.386 L
436.727 317.305 L
436.935 317.549 L
437.143 317.509 L
437.352 317.59 L
437.56 317.753 L
437.768 317.794 L
437.977 317.713 L
438.185 317.794 L
438.393 317.753 L
438.602 317.753 L
438.81 317.917 L
439.018 317.876 L
439.227 317.998 L
439.435 317.998 L
439.643 317.998 L
439.852 317.917 L
440.06 318.406 L
440.268 318.08 L
440.476 318.365 L
440.685 318.406 L
440.893 318.284 L
441.101 318.529 L
441.31 318.365 L
441.518 318.406 L
441.726 318.61 L
441.935 318.733 L
442.143 318.488 L
442.351 318.651 L
442.56 318.529 L
442.768 318.529 L
442.976 318.651 L
443.185 318.61 L
443.393 318.773 L
443.601 318.977 L
443.81 318.488 L
444.018 318.896 L
444.226 318.855 L
444.435 318.855 L
444.643 319.059 L
444.851 319.1 L
445.06 319.222 L
445.268 319.304 L
445.476 319.181 L
445.684 319.263 L
445.893 319.508 L
446.101 319.426 L
446.309 319.385 L
446.518 319.467 L
446.726 319.385 L
446.934 319.671 L
447.143 319.671 L
447.351 319.548 L
447.559 319.793 L
447.768 319.589 L
447.976 319.671 L
448.184 319.793 L
448.393 319.63 L
448.601 319.875 L
448.809 319.916 L
449.018 319.63 L
449.226 319.834 L
449.434 319.997 L
449.643 320.038 L
449.851 319.793 L
450.059 320.16 L
450.268 320.079 L
450.476 320.201 L
450.684 320.283 L
450.892 320.242 L
451.101 320.365 L
451.309 320.365 L
451.517 320.365 L
451.726 320.324 L
451.934 320.446 L
452.142 320.528 L
452.351 320.487 L
452.559 320.405 L
452.767 320.772 L
452.976 320.446 L
453.184 320.609 L
453.392 320.609 L
453.601 320.691 L
453.809 320.609 L
454.017 320.895 L
454.226 320.732 L
454.434 320.895 L
454.642 320.895 L
454.851 320.936 L
455.059 320.976 L
455.267 321.099 L
455.476 320.976 L
455.684 321.017 L
455.892 321.221 L
456.1 321.262 L
456.309 321.221 L
456.517 321.14 L
456.725 320.976 L
456.934 321.384 L
457.142 321.262 L
457.35 321.262 L
457.559 321.67 L
457.767 321.14 L
457.975 321.588 L
458.184 321.548 L
458.392 321.425 L
458.6 321.507 L
458.809 321.67 L
459.017 321.425 L
459.225 321.792 L
459.434 321.67 L
459.642 321.588 L
459.85 321.752 L
460.059 321.874 L
460.267 321.67 L
460.475 321.996 L
460.684 321.833 L
460.892 321.996 L
461.1 322.119 L
461.308 321.752 L
461.517 322.078 L
461.725 322.2 L
461.933 322.16 L
462.142 322.241 L
462.35 322.282 L
462.558 322.323 L
462.767 322.404 L
462.975 322.364 L
463.183 322.772 L
463.392 322.608 L
463.6 322.323 L
463.808 322.894 L
464.017 322.976 L
464.225 323.465 L
464.433 323.751 L
464.642 323.955 L
464.85 324.036 L
465.058 324.404 L
465.267 324.281 L
465.475 324.281 L
465.683 324.771 L
465.892 324.648 L
466.1 324.771 L
466.308 325.056 L
466.516 324.648 L
466.725 325.179 L
466.933 325.016 L
467.141 325.016 L
467.35 325.097 L
467.558 325.016 L
467.766 324.934 L
467.975 325.138 L
468.183 325.056 L
468.391 325.22 L
468.6 325.138 L
468.808 325.22 L
469.016 325.056 L
469.225 325.301 L
469.433 324.934 L
469.641 325.179 L
469.85 325.464 L
470.058 325.22 L
470.266 325.26 L
470.475 325.424 L
470.683 325.097 L
470.891 325.383 L
471.1 325.26 L
471.308 325.138 L
471.516 325.179 L
471.724 325.22 L
471.933 325.179 L
472.141 325.342 L
472.349 325.179 L
472.558 325.22 L
472.766 325.26 L
472.974 325.097 L
473.183 325.056 L
473.391 325.26 L
473.599 325.056 L
473.808 325.301 L
474.016 325.097 L
474.224 325.138 L
474.433 325.056 L
474.641 325.097 L
474.849 325.138 L
475.058 325.138 L
475.266 325.138 L
475.474 325.056 L
475.683 325.016 L
475.891 325.056 L
476.099 324.975 L
476.308 324.893 L
476.516 325.056 L
476.724 325.22 L
476.932 324.893 L
477.141 324.893 L
477.349 325.179 L
477.557 324.893 L
477.766 324.852 L
477.974 325.097 L
478.182 325.016 L
478.391 324.812 L
478.599 325.016 L
478.807 324.852 L
479.016 325.138 L
479.224 324.975 L
479.432 325.138 L
479.641 325.056 L
479.849 324.893 L
480.057 324.893 L
480.266 325.016 L
480.474 325.056 L
480.682 325.097 L
480.891 325.056 L
481.099 324.975 L
481.307 324.934 L
481.516 325.056 L
481.724 324.975 L
481.932 324.852 L
482.141 324.893 L
482.349 325.016 L
482.557 324.975 L
482.765 325.016 L
482.974 324.975 L
483.182 325.016 L
483.39 324.852 L
483.599 324.689 L
483.807 324.975 L
484.015 324.852 L
484.224 324.771 L
484.432 324.934 L
484.64 324.893 L
484.849 324.812 L
485.057 325.26 L
485.265 324.893 L
485.474 324.812 L
485.682 324.812 L
485.89 324.893 L
486.099 324.934 L
486.307 324.975 L
486.515 324.771 L
486.724 324.975 L
486.932 324.934 L
487.14 324.893 L
487.348 324.975 L
487.557 324.648 L
487.765 324.934 L
487.973 324.934 L
488.182 324.73 L
488.39 324.771 L
488.598 325.056 L
488.807 324.812 L
489.015 324.812 L
489.223 324.689 L
489.432 324.73 L
489.64 324.812 L
489.848 324.812 L
490.057 324.812 L
490.265 325.016 L
490.473 324.812 L
490.682 324.934 L
490.89 324.812 L
491.098 324.812 L
491.307 324.771 L
491.515 324.975 L
491.723 324.771 L
491.931 324.812 L
492.14 324.893 L
492.348 324.648 L
492.556 324.812 L
492.765 324.893 L
492.973 324.73 L
493.181 324.567 L
493.39 324.567 L
493.598 324.975 L
493.806 324.893 L
494.015 324.608 L
494.223 324.893 L
494.431 324.608 L
494.64 324.567 L
494.848 324.893 L
495.056 324.73 L
495.265 324.567 L
495.473 324.689 L
495.681 324.689 L
495.89 324.771 L
496.098 324.934 L
496.306 324.648 L
496.515 324.771 L
496.723 325.097 L
496.931 324.485 L
497.14 324.934 L
497.348 324.73 L
497.556 324.812 L
497.764 324.73 L
497.973 324.608 L
498.181 324.689 L
498.389 324.771 L
498.598 324.812 L
498.806 324.771 L
499.014 324.812 L
499.223 324.812 L
499.431 324.771 L
499.639 324.771 L
S
GR
GS
[0.75 0 0 0.75 0 0] CT
0.98 0.98 1 RC
N
420.769 32.982 M
420.769 75.582 L
420.775 75.737 L
420.79 75.891 L
420.815 76.043 L
420.85 76.194 L
420.895 76.343 L
420.95 76.487 L
421.014 76.629 L
421.087 76.765 L
421.168 76.897 L
421.259 77.023 L
421.357 77.142 L
421.463 77.255 L
421.576 77.361 L
421.695 77.459 L
421.821 77.55 L
421.953 77.631 L
422.089 77.704 L
422.23 77.768 L
422.375 77.823 L
422.524 77.868 L
422.674 77.903 L
422.827 77.928 L
422.981 77.943 L
423.136 77.948 L
493.736 77.948 L
493.891 77.943 L
494.045 77.928 L
494.198 77.903 L
494.349 77.868 L
494.497 77.823 L
494.642 77.768 L
494.783 77.704 L
494.919 77.631 L
495.051 77.55 L
495.177 77.459 L
495.297 77.361 L
495.41 77.255 L
495.516 77.142 L
495.614 77.023 L
495.704 76.897 L
495.786 76.765 L
495.859 76.629 L
495.923 76.487 L
495.977 76.343 L
496.022 76.194 L
496.057 76.043 L
496.083 75.891 L
496.098 75.737 L
496.103 75.582 L
496.103 32.982 L
496.098 32.827 L
496.083 32.673 L
496.057 32.52 L
496.022 32.369 L
495.977 32.221 L
495.923 32.076 L
495.859 31.935 L
495.786 31.798 L
495.704 31.667 L
495.614 31.541 L
495.516 31.421 L
495.41 31.308 L
495.297 31.202 L
495.177 31.104 L
495.051 31.014 L
494.919 30.932 L
494.783 30.859 L
494.642 30.795 L
494.497 30.741 L
494.349 30.696 L
494.198 30.661 L
494.045 30.635 L
493.891 30.62 L
493.736 30.615 L
423.136 30.615 L
422.981 30.62 L
422.827 30.635 L
422.674 30.661 L
422.524 30.696 L
422.375 30.741 L
422.23 30.795 L
422.089 30.859 L
421.953 30.932 L
421.821 31.014 L
421.695 31.104 L
421.576 31.202 L
421.463 31.308 L
421.357 31.421 L
421.259 31.541 L
421.168 31.667 L
421.087 31.798 L
421.014 31.935 L
420.95 32.076 L
420.895 32.221 L
420.85 32.369 L
420.815 32.52 L
420.79 32.673 L
420.775 32.827 L
cp
f
GR
GS
[0.75 0 0 0.75 0 0] CT
0.651 GC
1 LJ
0.667 LW
N
420.769 75.582 M
420.775 75.737 L
420.79 75.891 L
420.815 76.043 L
420.85 76.194 L
420.895 76.343 L
420.95 76.487 L
421.014 76.629 L
421.087 76.765 L
421.168 76.897 L
421.259 77.023 L
421.357 77.142 L
421.463 77.255 L
421.576 77.361 L
421.695 77.459 L
421.821 77.55 L
421.953 77.631 L
422.089 77.704 L
422.23 77.768 L
422.375 77.823 L
422.524 77.868 L
422.674 77.903 L
422.827 77.928 L
422.981 77.943 L
423.136 77.948 L
493.736 77.948 L
493.891 77.943 L
494.045 77.928 L
494.198 77.903 L
494.349 77.868 L
494.497 77.823 L
494.642 77.768 L
494.783 77.704 L
494.919 77.631 L
495.051 77.55 L
495.177 77.459 L
495.297 77.361 L
495.41 77.255 L
495.516 77.142 L
495.614 77.023 L
495.704 76.897 L
495.786 76.765 L
495.859 76.629 L
495.923 76.487 L
495.977 76.343 L
496.022 76.194 L
496.057 76.043 L
496.083 75.891 L
496.098 75.737 L
496.103 75.582 L
496.103 32.982 L
496.098 32.827 L
496.083 32.673 L
496.057 32.52 L
496.022 32.369 L
495.977 32.221 L
495.923 32.076 L
495.859 31.935 L
495.786 31.798 L
495.704 31.667 L
495.614 31.541 L
495.516 31.421 L
495.41 31.308 L
495.297 31.202 L
495.177 31.104 L
495.051 31.014 L
494.919 30.932 L
494.783 30.859 L
494.642 30.795 L
494.497 30.741 L
494.349 30.696 L
494.198 30.661 L
494.045 30.635 L
493.891 30.62 L
493.736 30.615 L
423.136 30.615 L
422.981 30.62 L
422.827 30.635 L
422.674 30.661 L
422.524 30.696 L
422.375 30.741 L
422.23 30.795 L
422.089 30.859 L
421.953 30.932 L
421.821 31.014 L
421.695 31.104 L
421.576 31.202 L
421.463 31.308 L
421.357 31.421 L
421.259 31.541 L
421.168 31.667 L
421.087 31.798 L
421.014 31.935 L
420.95 32.076 L
420.895 32.221 L
420.85 32.369 L
420.815 32.52 L
420.79 32.673 L
420.775 32.827 L
420.769 32.982 L
cp
S
GR
GS
[0.75 0 0 0.75 320.25 38.25] CT
0.251 GC
/Helvetica 13.333 F
GS
[1 0 0 1 0 0] CT
0 0 moveto 
1 -1 scale
(X ) t 
GR
GR
GS
[0.75 0 0 0.75 330 38.25] CT
0 0.6 1 RC
/Helvetica-Bold 13.333 F
GS
[1 0 0 1 0 0] CT
0 0 moveto 
1 -1 scale
(3.4912) t 
GR
GR
GS
[0.75 0 0 0.75 320.25 51] CT
0.251 GC
/Helvetica 13.333 F
GS
[1 0 0 1 0 0] CT
0 0 moveto 
1 -1 scale
(Y ) t 
GR
GR
GS
[0.75 0 0 0.75 330 51] CT
0 0.6 1 RC
/Helvetica-Bold 13.333 F
GS
[1 0 0 1 0 0] CT
0 0 moveto 
1 -1 scale
(8.01776) t 
GR
GR
GS
[0.75 0 0 0.75 314.5771 59.46133] CT
0.149 GC
N
2.667 0 M
2.667 -1.473 1.473 -2.667 0 -2.667 C
-1.473 -2.667 -2.667 -1.473 -2.667 0 C
-2.667 1.473 -1.473 2.667 0 2.667 C
1.473 2.667 2.667 1.473 2.667 0 C
cp
f
GR
GS
[0.75 0 0 0.75 314.5771 59.46133] CT
1 1 0.863 RC
N
0 -2.667 M
1.473 -2.667 2.667 -1.473 2.667 0 C
2.667 0 L
2.667 1.473 1.473 2.667 0 2.667 C
-1.473 2.667 -2.667 1.473 -2.667 0 C
-2.667 -1.473 -1.473 -2.667 0 -2.667 C
cp
0 -4 M
-2.209 -4 -4 -2.209 -4 0 C
-4 2.209 -2.209 4 0 4 C
2.209 4 4 2.209 4 0 C
4 0 L
4 -2.209 2.209 -4 0 -4 C
cp
f
GR
GS
[0.75 0 0 0.75 0 0] CT
0.98 0.98 1 RC
N
292.564 29.759 M
292.564 72.359 L
292.569 72.513 L
292.585 72.668 L
292.61 72.82 L
292.645 72.971 L
292.69 73.119 L
292.745 73.264 L
292.808 73.405 L
292.881 73.542 L
292.963 73.674 L
293.053 73.799 L
293.152 73.919 L
293.258 74.032 L
293.371 74.138 L
293.49 74.236 L
293.616 74.326 L
293.748 74.408 L
293.884 74.481 L
294.025 74.545 L
294.17 74.6 L
294.318 74.645 L
294.469 74.68 L
294.622 74.705 L
294.776 74.72 L
294.931 74.725 L
365.531 74.725 L
365.686 74.72 L
365.84 74.705 L
365.993 74.68 L
366.144 74.645 L
366.292 74.6 L
366.437 74.545 L
366.578 74.481 L
366.714 74.408 L
366.846 74.326 L
366.972 74.236 L
367.091 74.138 L
367.204 74.032 L
367.31 73.919 L
367.409 73.799 L
367.499 73.674 L
367.581 73.542 L
367.654 73.405 L
367.718 73.264 L
367.772 73.119 L
367.817 72.971 L
367.852 72.82 L
367.877 72.668 L
367.893 72.513 L
367.898 72.359 L
367.898 29.759 L
367.893 29.604 L
367.877 29.45 L
367.852 29.297 L
367.817 29.146 L
367.772 28.998 L
367.718 28.853 L
367.654 28.712 L
367.581 28.575 L
367.499 28.444 L
367.409 28.318 L
367.31 28.198 L
367.204 28.085 L
367.091 27.979 L
366.972 27.881 L
366.846 27.791 L
366.714 27.709 L
366.578 27.636 L
366.437 27.572 L
366.292 27.518 L
366.144 27.473 L
365.993 27.437 L
365.84 27.412 L
365.686 27.397 L
365.531 27.392 L
294.931 27.392 L
294.776 27.397 L
294.622 27.412 L
294.469 27.437 L
294.318 27.473 L
294.17 27.518 L
294.025 27.572 L
293.884 27.636 L
293.748 27.709 L
293.616 27.791 L
293.49 27.881 L
293.371 27.979 L
293.258 28.085 L
293.152 28.198 L
293.053 28.318 L
292.963 28.444 L
292.881 28.575 L
292.808 28.712 L
292.745 28.853 L
292.69 28.998 L
292.645 29.146 L
292.61 29.297 L
292.585 29.45 L
292.569 29.604 L
cp
f
GR
GS
[0.75 0 0 0.75 0 0] CT
0.349 GC
1 LJ
0.667 LW
N
292.564 72.359 M
292.569 72.513 L
292.585 72.668 L
292.61 72.82 L
292.645 72.971 L
292.69 73.119 L
292.745 73.264 L
292.808 73.405 L
292.881 73.542 L
292.963 73.674 L
293.053 73.799 L
293.152 73.919 L
293.258 74.032 L
293.371 74.138 L
293.49 74.236 L
293.616 74.326 L
293.748 74.408 L
293.884 74.481 L
294.025 74.545 L
294.17 74.6 L
294.318 74.645 L
294.469 74.68 L
294.622 74.705 L
294.776 74.72 L
294.931 74.725 L
365.531 74.725 L
365.686 74.72 L
365.84 74.705 L
365.993 74.68 L
366.144 74.645 L
366.292 74.6 L
366.437 74.545 L
366.578 74.481 L
366.714 74.408 L
366.846 74.326 L
366.972 74.236 L
367.091 74.138 L
367.204 74.032 L
367.31 73.919 L
367.409 73.799 L
367.499 73.674 L
367.581 73.542 L
367.654 73.405 L
367.718 73.264 L
367.772 73.119 L
367.817 72.971 L
367.852 72.82 L
367.877 72.668 L
367.893 72.513 L
367.898 72.359 L
367.898 29.759 L
367.893 29.604 L
367.877 29.45 L
367.852 29.297 L
367.817 29.146 L
367.772 28.998 L
367.718 28.853 L
367.654 28.712 L
367.581 28.575 L
367.499 28.444 L
367.409 28.318 L
367.31 28.198 L
367.204 28.085 L
367.091 27.979 L
366.972 27.881 L
366.846 27.791 L
366.714 27.709 L
366.578 27.636 L
366.437 27.572 L
366.292 27.518 L
366.144 27.473 L
365.993 27.437 L
365.84 27.412 L
365.686 27.397 L
365.531 27.392 L
294.931 27.392 L
294.776 27.397 L
294.622 27.412 L
294.469 27.437 L
294.318 27.473 L
294.17 27.518 L
294.025 27.572 L
293.884 27.636 L
293.748 27.709 L
293.616 27.791 L
293.49 27.881 L
293.371 27.979 L
293.258 28.085 L
293.152 28.198 L
293.053 28.318 L
292.963 28.444 L
292.881 28.575 L
292.808 28.712 L
292.745 28.853 L
292.69 28.998 L
292.645 29.146 L
292.61 29.297 L
292.585 29.45 L
292.569 29.604 L
292.564 29.759 L
cp
S
GR
GS
[0.75 0 0 0.75 230.25 36] CT
0.251 GC
/Helvetica 13.333 F
GS
[1 0 0 1 0 0] CT
0 0 moveto 
1 -1 scale
(X ) t 
GR
GR
GS
[0.75 0 0 0.75 240 36] CT
0 0.6 1 RC
/Helvetica-Bold 13.333 F
GS
[1 0 0 1 0 0] CT
0 0 moveto 
1 -1 scale
(2.9128) t 
GR
GR
GS
[0.75 0 0 0.75 224.25 48.75] CT
0.251 GC
/Helvetica 13.333 F
GS
[1 0 0 1 0 0] CT
0 0 moveto 
1 -1 scale
(Y ) t 
GR
GR
GS
[0.75 0 0 0.75 234 48.75] CT
0 0.6 1 RC
/Helvetica-Bold 13.333 F
GS
[1 0 0 1 0 0] CT
0 0 moveto 
1 -1 scale
(8.15008) t 
GR
GR
GS
[0.75 0 0 0.75 276.92326 57.04399] CT
0.149 GC
N
/f1921431499{2.667 0 M
2.667 -1.473 1.473 -2.667 0 -2.667 C
-1.473 -2.667 -2.667 -1.473 -2.667 0 C
-2.667 1.473 -1.473 2.667 0 2.667 C
1.473 2.667 2.667 1.473 2.667 0 C
cp}def
f1921431499
f
GR
GS
[0.75 0 0 0.75 276.92326 57.04399] CT
1 1 0.863 RC
N
/f-83181660{0 -2.667 M
1.473 -2.667 2.667 -1.473 2.667 0 C
2.667 0 L
2.667 1.473 1.473 2.667 0 2.667 C
-1.473 2.667 -2.667 1.473 -2.667 0 C
-2.667 -1.473 -1.473 -2.667 0 -2.667 C
cp
0 -4 M
-2.209 -4 -4 -2.209 -4 0 C
-4 2.209 -2.209 4 0 4 C
2.209 4 4 2.209 4 0 C
4 0 L
4 -2.209 2.209 -4 0 -4 C
cp}def
f-83181660
f
GR
%%Trailer
%%Pages: 1
%%EOF
