%!PS-Adobe-3.0 EPSF-3.0
%%Creator: cairo 1.11.2 (http://cairographics.org)
%%CreationDate: Mon Apr 28 11:13:19 2014
%%Pages: 1
%%DocumentData: Clean7Bit
%%LanguageLevel: 2
%%BoundingBox: 4 3 376 78
%%EndComments
%%BeginProlog
/cairo_eps_state save def
/dict_count countdictstack def
/op_count count 1 sub def
userdict begin
/q { gsave } bind def
/Q { grestore } bind def
/cm { 6 array astore concat } bind def
/w { setlinewidth } bind def
/J { setlinecap } bind def
/j { setlinejoin } bind def
/M { setmiterlimit } bind def
/d { setdash } bind def
/m { moveto } bind def
/l { lineto } bind def
/c { curveto } bind def
/h { closepath } bind def
/re { exch dup neg 3 1 roll 5 3 roll moveto 0 rlineto
      0 exch rlineto 0 rlineto closepath } bind def
/S { stroke } bind def
/f { fill } bind def
/f* { eofill } bind def
/n { newpath } bind def
/W { clip } bind def
/W* { eoclip } bind def
/BT { } bind def
/ET { } bind def
/pdfmark where { pop globaldict /?pdfmark /exec load put }
    { globaldict begin /?pdfmark /pop load def /pdfmark
    /cleartomark load def end } ifelse
/BDC { mark 3 1 roll /BDC pdfmark } bind def
/EMC { mark /EMC pdfmark } bind def
/cairo_store_point { /cairo_point_y exch def /cairo_point_x exch def } def
/Tj { show currentpoint cairo_store_point } bind def
/TJ {
  {
    dup
    type /stringtype eq
    { show } { -0.001 mul 0 cairo_font_matrix dtransform rmoveto } ifelse
  } forall
  currentpoint cairo_store_point
} bind def
/cairo_selectfont { cairo_font_matrix aload pop pop pop 0 0 6 array astore
    cairo_font exch selectfont cairo_point_x cairo_point_y moveto } bind def
/Tf { pop /cairo_font exch def /cairo_font_matrix where
      { pop cairo_selectfont } if } bind def
/Td { matrix translate cairo_font_matrix matrix concatmatrix dup
      /cairo_font_matrix exch def dup 4 get exch 5 get cairo_store_point
      /cairo_font where { pop cairo_selectfont } if } bind def
/Tm { 2 copy 8 2 roll 6 array astore /cairo_font_matrix exch def
      cairo_store_point /cairo_font where { pop cairo_selectfont } if } bind def
/g { setgray } bind def
/rg { setrgbcolor } bind def
/d1 { setcachedevice } bind def
%%EndProlog
%%Page: 1 1
%%BeginPageSetup
%%PageBoundingBox: 4 3 376 78
%%EndPageSetup
q 4 3 372 75 rectclip q
0 g
30.398 76.982 m 29.07 76.982 28 75.911 28 74.579 c 28 11.38 l 28 10.052
 29.07 8.982 30.398 8.982 c 61.602 8.982 l 62.93 8.982 64 10.052 64 11.38
 c 64 26.579 l 64 27.911 62.93 28.982 61.602 28.982 c 50.398 28.982 l 49.07
 28.982 48 30.052 48 31.38 c 48 74.579 l 48 75.911 46.93 76.982 45.602 76.982
 c h
f
0.4 g
70.398 76.982 m 69.07 76.982 68 75.911 68 74.579 c 68 55.38 l 68 54.052
 66.93 52.982 65.602 52.982 c 54.398 52.982 l 53.07 52.982 52 51.911 52 
50.579 c 52 35.38 l 52 34.052 53.07 32.982 54.398 32.982 c 65.602 32.982
 l 66.93 32.982 68 31.911 68 30.579 c 68 11.38 l 68 10.052 69.07 8.982 70.398
 8.982 c 85.602 8.982 l 86.93 8.982 88 10.052 88 11.38 c 88 74.579 l 88 
75.911 86.93 76.982 85.602 76.982 c h
f
6.398 52.982 m 21.602 52.982 l 22.93 52.982 24 51.911 24 50.579 c 24 11.38
 l 24 10.052 22.93 8.982 21.602 8.982 c 6.398 8.982 l 5.07 8.982 4 10.052
 4 11.38 c 4 50.579 l 4 51.911 5.07 52.982 6.398 52.982 c h
f
0 g
99.227 76.822 m 99.227 60.509 l 97.367 60.509 l 97.367 76.822 l h
102.426 71.931 m 104.016 71.931 l 104.016 70.462 l 104.453 71.161 105.016
 71.622 105.703 71.845 c 106.387 72.064 107.117 72.173 107.902 72.177 c 
109.449 72.173 110.535 71.876 111.156 71.283 c 111.773 70.685 112.082 69.615
 112.086 68.068 c 112.086 60.509 l 110.348 60.509 l 110.348 67.919 l 110.344
 69.06 110.164 69.818 109.809 70.197 c 109.449 70.568 108.691 70.755 107.535
 70.759 c 106.441 70.755 105.602 70.501 105.016 69.997 c 104.426 69.49 104.133
 68.661 104.137 67.505 c 104.137 60.509 l 102.426 60.509 l h
124.145 68.97 m 122.434 68.97 l 122.434 69.587 122.336 70.025 122.141 70.29
 c 121.945 70.548 121.52 70.697 120.867 70.732 c 120.555 70.747 120.242 
70.755 119.926 70.759 c 119.605 70.755 119.281 70.755 118.961 70.759 c 118.844
 70.755 118.727 70.755 118.605 70.759 c 118.48 70.755 118.355 70.747 118.227
 70.732 c 117.98 70.712 117.742 70.681 117.516 70.634 c 117.285 70.583 117.082
 70.494 116.906 70.365 c 116.758 70.251 116.66 70.111 116.613 69.951 c 116.563
 69.783 116.531 69.611 116.516 69.435 c 116.516 69.365 116.516 69.302 116.516
 69.24 c 116.516 69.173 116.516 69.107 116.516 69.044 c 116.516 68.341 116.625
 67.865 116.844 67.615 c 117.063 67.361 117.523 67.216 118.227 67.185 c 
118.438 67.165 118.652 67.158 118.875 67.161 c 119.094 67.158 119.309 67.158
 119.523 67.161 c 120.773 67.142 121.914 66.99 122.945 66.697 c 123.969 
66.4 124.484 65.462 124.488 63.884 c 124.484 62.22 124.035 61.216 123.141
 60.872 c 122.242 60.533 121.086 60.365 119.672 60.361 c 119.602 60.365 
119.535 60.365 119.473 60.361 c 119.406 60.365 119.34 60.365 119.277 60.361
 c 118.117 60.384 117.063 60.552 116.109 60.876 c 115.152 61.201 114.676
 62.072 114.68 63.494 c 114.676 63.54 114.676 63.595 114.68 63.654 c 114.676
 63.708 114.684 63.759 114.703 63.81 c 114.699 63.857 114.703 63.911 114.715
 63.97 c 114.723 64.025 114.727 64.079 114.73 64.13 c 116.441 64.13 l 116.438
 63.083 116.637 62.408 117.039 62.111 c 117.438 61.806 118.137 61.658 119.133
 61.658 c 119.547 61.658 l 119.707 61.658 119.887 61.661 120.086 61.669 
c 120.277 61.677 120.484 61.689 120.699 61.708 c 120.973 61.72 121.246 61.759
 121.527 61.829 c 121.801 61.892 122.031 61.99 122.215 62.122 c 122.375 
62.232 122.492 62.388 122.566 62.587 c 122.641 62.779 122.688 62.982 122.703
 63.201 c 122.719 63.294 122.727 63.392 122.727 63.49 c 122.727 63.587 122.727
 63.685 122.727 63.786 c 122.727 64.677 122.492 65.201 122.027 65.349 c 
121.563 65.497 120.988 65.572 120.305 65.572 c 120.285 65.572 120.27 65.572
 120.258 65.572 c 120.238 65.572 120.223 65.572 120.207 65.572 c 120.109
 65.587 120.008 65.595 119.902 65.595 c 119.793 65.595 119.68 65.595 119.57
 65.595 c 119.484 65.595 119.406 65.599 119.328 65.607 c 119.246 65.615 
119.164 65.619 119.082 65.622 c 117.906 65.665 116.898 65.833 116.063 66.122
 c 115.223 66.408 114.805 67.267 114.805 68.704 c 114.805 68.849 114.809
 68.997 114.816 69.154 c 114.824 69.306 114.836 69.466 114.852 69.634 c 
114.883 69.954 114.953 70.267 115.07 70.572 c 115.18 70.869 115.367 71.119
 115.633 71.322 c 115.906 71.529 116.234 71.693 116.613 71.81 c 116.984 
71.923 117.375 72.005 117.785 72.052 c 118.063 72.083 118.336 72.103 118.605
 72.115 c 118.871 72.119 119.121 72.122 119.352 72.126 c 119.563 72.122 
119.777 72.122 120 72.126 c 120.219 72.122 120.441 72.115 120.672 72.103
 c 121.547 72.052 122.352 71.857 123.082 71.513 c 123.805 71.169 124.168
 70.458 124.172 69.388 c 124.168 69.349 124.168 69.314 124.172 69.275 c 
124.168 69.236 124.168 69.201 124.172 69.169 c 124.152 69.134 124.145 69.099
 124.145 69.068 c 124.145 69.033 124.145 69.001 124.145 68.97 c h
133.051 71.931 m 133.051 70.56 l 128.648 70.56 l 128.648 63.54 l 128.648
 62.884 128.746 62.423 128.941 62.158 c 129.137 61.884 129.574 61.751 130.262
 61.755 c 131.027 61.751 131.488 61.939 131.645 62.318 c 131.797 62.689 
131.875 63.177 131.879 63.786 c 131.879 64.544 l 133.492 64.544 l 133.488
 63.353 133.309 62.357 132.953 61.56 c 132.59 60.759 131.684 60.365 130.238
 60.361 c 128.965 60.365 128.094 60.587 127.621 61.044 c 127.148 61.497 
126.914 62.329 126.914 63.54 c 126.914 70.56 l 125.422 70.56 l 125.422 71.931
 l 126.914 71.931 l 126.914 74.697 l 128.648 74.697 l 128.648 71.931 l h
136.836 71.931 m 136.836 60.509 l 135.102 60.509 l 135.102 71.931 l h
136.836 76.822 m 136.836 74.939 l 135.102 74.939 l 135.102 76.822 l h
145.984 71.931 m 145.984 70.56 l 141.582 70.56 l 141.582 63.54 l 141.582
 62.884 141.68 62.423 141.875 62.158 c 142.07 61.884 142.508 61.751 143.195
 61.755 c 143.961 61.751 144.422 61.939 144.578 62.318 c 144.73 62.689 144.809
 63.177 144.813 63.786 c 144.813 64.544 l 146.426 64.544 l 146.422 63.353
 146.242 62.357 145.887 61.56 c 145.523 60.759 144.617 60.365 143.172 60.361
 c 141.898 60.365 141.027 60.587 140.555 61.044 c 140.082 61.497 139.848
 62.329 139.848 63.54 c 139.848 70.56 l 138.355 70.56 l 138.355 71.931 l
 139.848 71.931 l 139.848 74.697 l 141.582 74.697 l 141.582 71.931 l h
157.5 71.931 m 157.5 60.509 l 155.91 60.509 l 155.91 62.025 l 155.418 61.286
 154.859 60.826 154.234 60.642 c 153.605 60.454 152.859 60.365 151.996 60.361
 c 150.625 60.365 149.621 60.677 148.988 61.314 c 148.348 61.947 148.031
 62.951 148.035 64.326 c 148.035 71.931 l 149.77 71.931 l 149.77 64.326 
l 149.766 63.326 149.938 62.65 150.281 62.294 c 150.625 61.931 151.316 61.751
 152.363 61.755 c 153.715 61.751 154.621 62.005 155.078 62.513 c 155.531
 63.021 155.758 63.915 155.762 65.204 c 155.762 71.931 l h
166.652 71.931 m 166.652 70.56 l 162.25 70.56 l 162.25 63.54 l 162.25 62.884
 162.348 62.423 162.543 62.158 c 162.738 61.884 163.176 61.751 163.863 61.755
 c 164.629 61.751 165.09 61.939 165.246 62.318 c 165.398 62.689 165.477 
63.177 165.48 63.786 c 165.48 64.544 l 167.094 64.544 l 167.09 63.353 166.91
 62.357 166.555 61.56 c 166.191 60.759 165.285 60.365 163.84 60.361 c 162.566
 60.365 161.695 60.587 161.223 61.044 c 160.75 61.497 160.516 62.329 160.516
 63.54 c 160.516 70.56 l 159.023 70.56 l 159.023 71.931 l 160.516 71.931
 l 160.516 74.697 l 162.25 74.697 l 162.25 71.931 l h
180.832 71.931 m 180.832 70.536 l 177.824 70.536 l 177.824 60.509 l 176.086
 60.509 l 176.086 70.536 l 174.352 70.536 l 174.352 71.931 l 176.086 71.931
 l 176.086 73.619 l 176.082 74.935 176.387 75.833 176.992 76.306 c 177.594
 76.779 178.516 77.013 179.758 77.017 c 179.852 77.013 179.941 77.009 180.035
 77.005 c 180.121 76.994 180.207 76.99 180.293 76.994 c 180.371 76.99 180.457
 76.986 180.551 76.982 c 180.637 76.97 180.73 76.966 180.832 76.97 c 180.832
 75.552 l 180.617 75.579 180.41 75.595 180.207 75.599 c 180 75.595 179.793
 75.595 179.586 75.599 c 178.914 75.595 178.453 75.447 178.203 75.146 c 
177.949 74.845 177.824 74.384 177.824 73.767 c 177.824 71.931 l h
191.863 71.931 m 191.863 60.509 l 190.273 60.509 l 190.273 62.025 l 189.781
 61.286 189.223 60.826 188.598 60.642 c 187.969 60.454 187.223 60.365 186.359
 60.361 c 184.988 60.365 183.984 60.677 183.352 61.314 c 182.711 61.947 
182.395 62.951 182.398 64.326 c 182.398 71.931 l 184.133 71.931 l 184.133
 64.326 l 184.129 63.326 184.301 62.65 184.645 62.294 c 184.988 61.931 185.68
 61.751 186.727 61.755 c 188.078 61.751 188.984 62.005 189.441 62.513 c 
189.895 63.021 190.121 63.915 190.125 65.204 c 190.125 71.931 l h
185.895 74.697 m 185.895 73.079 l 183.988 73.079 l 183.988 74.697 l h
190.25 74.697 m 190.25 73.079 l 188.316 73.079 l 188.316 74.697 l h
194.98 71.931 m 196.641 71.931 l 196.57 70.611 l 196.91 71.181 197.352 
71.587 197.902 71.833 c 198.445 72.076 199.047 72.197 199.699 72.201 c 200.855
 72.197 201.699 71.919 202.23 71.369 c 202.762 70.81 203.027 69.962 203.027
 68.826 c 203.027 68.708 203.027 68.599 203.027 68.494 c 203.027 68.388 
203.016 68.271 203 68.142 c 201.34 68.142 l 201.355 68.271 201.363 68.408
 201.363 68.556 c 201.363 68.697 201.363 68.845 201.363 68.997 c 201.363
 69.697 201.195 70.169 200.859 70.415 c 200.523 70.658 200.02 70.779 199.355
 70.783 c 198.473 70.779 197.809 70.56 197.363 70.122 c 196.91 69.681 196.688
 69.013 196.691 68.115 c 196.691 60.509 l 194.98 60.509 l h
f
97.367 34.829 m 97.367 51.142 l 105.098 51.142 l 106.793 51.142 108.02 
50.79 108.777 50.091 c 109.535 49.388 109.914 48.165 109.918 46.423 c 109.914
 45.326 109.793 44.4 109.551 43.646 c 109.305 42.884 108.473 42.376 107.055
 42.119 c 108 42.052 108.676 41.736 109.082 41.177 c 109.488 40.611 109.691
 39.88 109.695 38.986 c 109.695 34.829 l 107.813 34.829 l 107.813 38.572
 l 107.809 39.646 107.563 40.388 107.066 40.794 c 106.566 41.201 105.785
 41.404 104.73 41.408 c 99.18 41.408 l 99.18 34.829 l h
99.18 42.927 m 104.488 42.927 l 105.723 42.927 106.617 43.126 107.176 43.525
 c 107.727 43.923 108.004 44.74 108.008 45.982 c 108.004 47.154 107.855 
48.04 107.566 48.634 c 107.27 49.228 106.457 49.525 105.121 49.529 c 99.18
 49.529 l h
112.547 40.845 m 112.543 42.783 112.832 44.201 113.414 45.099 c 113.992
 45.994 115.328 46.443 117.414 46.447 c 119.598 46.443 121.016 46.064 121.668
 45.31 c 122.32 44.548 122.645 43.091 122.648 40.943 c 122.645 39.064 122.445
 37.548 122.047 36.392 c 121.645 35.236 120.273 34.661 117.93 34.658 c 115.891
 34.661 114.48 34.974 113.707 35.611 c 112.93 36.244 112.543 37.63 112.547
 39.771 c h
114.309 40.872 m 114.309 39.915 l 114.309 39.751 114.309 39.576 114.309
 39.392 c 114.309 39.201 114.316 39.017 114.332 38.841 c 114.363 38.365 
114.426 37.915 114.527 37.494 c 114.621 37.068 114.777 36.744 114.992 36.517
 c 115.168 36.353 115.387 36.236 115.652 36.173 c 115.91 36.103 116.188 
36.064 116.484 36.052 c 116.547 36.048 116.609 36.048 116.668 36.052 c 116.723
 36.048 116.785 36.048 116.852 36.052 c 117.637 36.052 l 118.629 36.048 
119.387 36.185 119.918 36.466 c 120.445 36.74 120.746 37.419 120.813 38.497
 c 120.828 38.724 120.84 38.943 120.852 39.158 c 120.855 39.369 120.859 
39.587 120.863 39.818 c 120.875 40.029 120.883 40.247 120.887 40.466 c 120.883
 40.685 120.883 40.9 120.887 41.115 c 120.883 42.517 120.754 43.521 120.496
 44.122 c 120.234 44.724 119.402 45.025 118 45.029 c 117.637 45.029 l 116.152
 45.025 115.227 44.794 114.859 44.341 c 114.492 43.88 114.309 42.849 114.309
 41.24 c h
125.277 34.829 m 125.277 51.142 l 126.965 51.142 l 126.965 44.81 l 127.238
 45.376 127.641 45.771 128.172 45.994 c 128.699 46.212 129.258 46.349 129.852
 46.4 c 129.945 46.411 130.043 46.419 130.141 46.423 c 130.238 46.419 130.336
 46.419 130.438 46.423 c 132.473 46.419 133.77 45.935 134.324 44.966 c 134.875
 43.997 135.152 42.591 135.156 40.747 c 135.152 38.986 134.914 37.544 134.445
 36.431 c 133.969 35.314 132.66 34.759 130.512 34.755 c 130.477 34.759 130.445
 34.759 130.422 34.755 c 130.395 34.759 130.367 34.759 130.34 34.755 c 129.668
 34.775 129.02 34.88 128.395 35.083 c 127.766 35.286 127.258 35.685 126.867
 36.271 c 126.965 34.829 l h
127.012 40.872 m 127.012 40.236 l 127.008 38.849 127.176 37.818 127.512
 37.142 c 127.848 36.462 128.797 36.122 130.363 36.126 c 131.289 36.122 
131.973 36.279 132.418 36.591 c 132.855 36.9 133.133 37.536 133.25 38.497
 c 133.297 38.872 133.332 39.244 133.348 39.611 c 133.363 39.978 133.371
 40.349 133.371 40.724 c 133.371 42.107 133.234 43.173 132.969 43.927 c 
132.695 44.673 131.754 45.048 130.145 45.052 c 128.672 45.048 127.785 44.681
 127.477 43.951 c 127.164 43.216 127.008 42.189 127.012 40.872 c h
147.418 46.251 m 147.418 34.829 l 145.828 34.829 l 145.828 36.345 l 145.336
 35.607 144.777 35.146 144.152 34.962 c 143.523 34.775 142.777 34.685 141.914
 34.681 c 140.543 34.685 139.539 34.997 138.906 35.634 c 138.266 36.267 
137.949 37.271 137.953 38.646 c 137.953 46.251 l 139.688 46.251 l 139.688
 38.646 l 139.684 37.646 139.855 36.97 140.199 36.615 c 140.543 36.251 141.234
 36.072 142.281 36.076 c 143.633 36.072 144.539 36.326 144.996 36.833 c 
145.449 37.341 145.676 38.236 145.68 39.525 c 145.68 46.251 l h
159.48 43.29 m 157.77 43.29 l 157.77 43.908 157.672 44.345 157.477 44.611
 c 157.281 44.869 156.855 45.017 156.203 45.052 c 155.891 45.068 155.578
 45.076 155.262 45.079 c 154.941 45.076 154.617 45.076 154.297 45.079 c 
154.18 45.076 154.063 45.076 153.941 45.079 c 153.816 45.076 153.691 45.068
 153.563 45.052 c 153.316 45.033 153.078 45.001 152.852 44.954 c 152.621
 44.904 152.418 44.814 152.242 44.685 c 152.094 44.572 151.996 44.431 151.949
 44.271 c 151.898 44.103 151.867 43.931 151.852 43.755 c 151.852 43.685 
151.852 43.622 151.852 43.56 c 151.852 43.494 151.852 43.427 151.852 43.365
 c 151.852 42.661 151.961 42.185 152.18 41.935 c 152.398 41.681 152.859 
41.536 153.563 41.505 c 153.773 41.486 153.988 41.478 154.211 41.482 c 154.43
 41.478 154.645 41.478 154.859 41.482 c 156.109 41.462 157.25 41.31 158.281
 41.017 c 159.305 40.72 159.82 39.783 159.824 38.204 c 159.82 36.54 159.371
 35.536 158.477 35.193 c 157.578 34.853 156.422 34.685 155.008 34.681 c 
154.938 34.685 154.871 34.685 154.809 34.681 c 154.742 34.685 154.676 34.685
 154.613 34.681 c 153.453 34.704 152.398 34.872 151.445 35.197 c 150.488
 35.521 150.012 36.392 150.016 37.814 c 150.012 37.861 150.012 37.915 150.016
 37.974 c 150.012 38.029 150.02 38.079 150.039 38.13 c 150.035 38.177 150.039
 38.232 150.051 38.29 c 150.059 38.345 150.063 38.4 150.066 38.451 c 151.777
 38.451 l 151.773 37.404 151.973 36.728 152.375 36.431 c 152.773 36.126 
153.473 35.978 154.469 35.978 c 154.883 35.978 l 155.043 35.978 155.223 
35.982 155.422 35.99 c 155.613 35.997 155.82 36.009 156.035 36.029 c 156.309
 36.04 156.582 36.079 156.863 36.15 c 157.137 36.212 157.367 36.31 157.551
 36.443 c 157.711 36.552 157.828 36.708 157.902 36.908 c 157.977 37.099 
158.023 37.302 158.039 37.521 c 158.055 37.615 158.063 37.712 158.063 37.81
 c 158.063 37.908 158.063 38.005 158.063 38.107 c 158.063 38.997 157.828
 39.521 157.363 39.669 c 156.898 39.818 156.324 39.892 155.641 39.892 c 
155.621 39.892 155.605 39.892 155.594 39.892 c 155.574 39.892 155.559 39.892
 155.543 39.892 c 155.445 39.908 155.344 39.915 155.238 39.915 c 155.129
 39.915 155.016 39.915 154.906 39.915 c 154.82 39.915 154.742 39.919 154.664
 39.927 c 154.582 39.935 154.5 39.939 154.418 39.943 c 153.242 39.986 152.234
 40.154 151.398 40.443 c 150.559 40.728 150.141 41.587 150.141 43.025 c 
150.141 43.169 150.145 43.318 150.152 43.474 c 150.16 43.626 150.172 43.786
 150.188 43.954 c 150.219 44.275 150.289 44.587 150.406 44.892 c 150.516
 45.189 150.703 45.439 150.969 45.642 c 151.242 45.849 151.57 46.013 151.949
 46.13 c 152.32 46.244 152.711 46.326 153.121 46.372 c 153.398 46.404 153.672
 46.423 153.941 46.435 c 154.207 46.439 154.457 46.443 154.688 46.447 c 
154.898 46.443 155.113 46.443 155.336 46.447 c 155.555 46.443 155.777 46.435
 156.008 46.423 c 156.883 46.372 157.688 46.177 158.418 45.833 c 159.141
 45.49 159.504 44.779 159.508 43.708 c 159.504 43.669 159.504 43.634 159.508
 43.595 c 159.504 43.556 159.504 43.521 159.508 43.49 c 159.488 43.454 159.48
 43.419 159.48 43.388 c 159.48 43.353 159.48 43.322 159.48 43.29 c h
168.387 46.251 m 168.387 44.88 l 163.984 44.88 l 163.984 37.861 l 163.984
 37.204 164.082 36.744 164.277 36.478 c 164.473 36.204 164.91 36.072 165.598
 36.076 c 166.363 36.072 166.824 36.259 166.98 36.638 c 167.133 37.009 167.211
 37.497 167.215 38.107 c 167.215 38.865 l 168.828 38.865 l 168.824 37.673
 168.645 36.677 168.289 35.88 c 167.926 35.079 167.02 34.685 165.574 34.681
 c 164.301 34.685 163.43 34.908 162.957 35.365 c 162.484 35.818 162.25 36.65
 162.25 37.861 c 162.25 44.88 l 160.758 44.88 l 160.758 46.251 l 162.25 
46.251 l 162.25 49.017 l 163.984 49.017 l 163.984 46.251 l h
178.359 38.302 m 180.121 38.302 l 180.117 36.619 179.668 35.599 178.773
 35.244 c 177.875 34.888 176.703 34.712 175.254 34.708 c 173.117 34.712 
171.73 35.119 171.098 35.931 c 170.457 36.744 170.141 38.185 170.145 40.259
 c 170.141 42.247 170.383 43.771 170.875 44.833 c 171.359 45.888 172.738
 46.419 175.012 46.423 c 177.145 46.419 178.527 46.06 179.156 45.345 c 179.781
 44.626 180.102 43.208 180.121 41.091 c 180.121 40.236 l 171.902 40.236 
l 171.898 38.958 172.031 37.939 172.305 37.177 c 172.57 36.408 173.473 36.025
 175.012 36.029 c 175.477 36.029 l 175.637 36.025 175.813 36.025 176 36.029
 c 176.188 36.025 176.387 36.04 176.602 36.076 c 176.844 36.091 177.078 
36.134 177.309 36.201 c 177.535 36.263 177.73 36.353 177.895 36.47 c 178.055
 36.579 178.168 36.728 178.227 36.919 c 178.281 37.103 178.316 37.294 178.336
 37.497 c 178.348 37.56 178.355 37.634 178.359 37.716 c 178.355 37.794 178.355
 37.869 178.359 37.935 c h
178.41 41.556 m 178.406 42.974 178.238 43.919 177.906 44.392 c 177.57 44.865
 176.656 45.099 175.156 45.103 c 173.836 45.099 172.965 44.857 172.551 44.369
 c 172.133 43.876 171.926 42.939 171.93 41.556 c h
f
99.324 25.458 m 99.324 10.833 l 107.617 10.833 l 107.617 9.146 l 97.395
 9.146 l 97.395 25.458 l h
117.227 12.619 m 118.988 12.619 l 118.984 10.935 118.535 9.915 117.641 
9.56 c 116.742 9.204 115.57 9.029 114.121 9.025 c 111.984 9.029 110.598 
9.435 109.965 10.247 c 109.324 11.06 109.008 12.501 109.012 14.576 c 109.008
 16.564 109.25 18.087 109.742 19.15 c 110.227 20.204 111.605 20.736 113.879
 20.74 c 116.012 20.736 117.395 20.376 118.023 19.661 c 118.648 18.943 118.969
 17.525 118.988 15.408 c 118.988 14.552 l 110.77 14.552 l 110.766 13.275
 110.898 12.255 111.172 11.494 c 111.438 10.724 112.34 10.341 113.879 10.345
 c 114.344 10.345 l 114.504 10.341 114.68 10.341 114.867 10.345 c 115.055
 10.341 115.254 10.357 115.469 10.392 c 115.711 10.408 115.945 10.451 116.176
 10.517 c 116.402 10.579 116.598 10.669 116.762 10.786 c 116.922 10.896 
117.035 11.044 117.094 11.236 c 117.148 11.419 117.184 11.611 117.203 11.814
 c 117.215 11.876 117.223 11.951 117.227 12.033 c 117.223 12.111 117.223
 12.185 117.227 12.251 c h
117.277 15.872 m 117.273 17.29 117.105 18.236 116.773 18.708 c 116.438 
19.181 115.523 19.415 114.023 19.419 c 112.703 19.415 111.832 19.173 111.418
 18.685 c 111 18.193 110.793 17.255 110.797 15.872 c h
123.477 20.568 m 123.477 9.146 l 121.742 9.146 l 121.742 20.568 l h
123.477 25.458 m 123.477 23.576 l 121.742 23.576 l 121.742 25.458 l h
135.531 17.607 m 133.82 17.607 l 133.82 18.224 133.723 18.661 133.527 18.927
 c 133.332 19.185 132.906 19.333 132.254 19.369 c 131.941 19.384 131.629
 19.392 131.313 19.396 c 130.992 19.392 130.668 19.392 130.348 19.396 c 
130.23 19.392 130.113 19.392 129.992 19.396 c 129.867 19.392 129.742 19.384
 129.613 19.369 c 129.367 19.349 129.129 19.318 128.902 19.271 c 128.672
 19.22 128.469 19.13 128.293 19.001 c 128.145 18.888 128.047 18.747 128 
18.587 c 127.949 18.419 127.918 18.247 127.902 18.072 c 127.902 18.001 127.902
 17.939 127.902 17.876 c 127.902 17.81 127.902 17.744 127.902 17.681 c 127.902
 16.978 128.012 16.501 128.23 16.251 c 128.449 15.997 128.91 15.853 129.613
 15.822 c 129.824 15.802 130.039 15.794 130.262 15.798 c 130.48 15.794 130.695
 15.794 130.91 15.798 c 132.16 15.779 133.301 15.626 134.332 15.333 c 135.355
 15.036 135.871 14.099 135.875 12.521 c 135.871 10.857 135.422 9.853 134.527
 9.509 c 133.629 9.169 132.473 9.001 131.059 8.997 c 130.988 9.001 130.922
 9.001 130.859 8.997 c 130.793 9.001 130.727 9.001 130.664 8.997 c 129.504
 9.021 128.449 9.189 127.496 9.513 c 126.539 9.837 126.063 10.708 126.066
 12.13 c 126.063 12.177 126.063 12.232 126.066 12.29 c 126.063 12.345 126.07
 12.396 126.09 12.447 c 126.086 12.494 126.09 12.548 126.102 12.607 c 126.109
 12.661 126.113 12.716 126.117 12.767 c 127.828 12.767 l 127.824 11.72 128.023
 11.044 128.426 10.747 c 128.824 10.443 129.523 10.294 130.52 10.294 c 130.934
 10.294 l 131.094 10.294 131.273 10.298 131.473 10.306 c 131.664 10.314 
131.871 10.326 132.086 10.345 c 132.359 10.357 132.633 10.396 132.914 10.466
 c 133.188 10.529 133.418 10.626 133.602 10.759 c 133.762 10.869 133.879
 11.025 133.953 11.224 c 134.027 11.415 134.074 11.619 134.09 11.837 c 134.105
 11.931 134.113 12.029 134.113 12.126 c 134.113 12.224 134.113 12.322 134.113
 12.423 c 134.113 13.314 133.879 13.837 133.414 13.986 c 132.949 14.134 
132.375 14.208 131.691 14.208 c 131.672 14.208 131.656 14.208 131.645 14.208
 c 131.625 14.208 131.609 14.208 131.594 14.208 c 131.496 14.224 131.395
 14.232 131.289 14.232 c 131.18 14.232 131.066 14.232 130.957 14.232 c 130.871
 14.232 130.793 14.236 130.715 14.244 c 130.633 14.251 130.551 14.255 130.469
 14.259 c 129.293 14.302 128.285 14.47 127.449 14.759 c 126.609 15.044 126.191
 15.904 126.191 17.341 c 126.191 17.486 126.195 17.634 126.203 17.79 c 126.211
 17.943 126.223 18.103 126.238 18.271 c 126.27 18.591 126.34 18.904 126.457
 19.208 c 126.566 19.505 126.754 19.755 127.02 19.958 c 127.293 20.165 127.621
 20.329 128 20.447 c 128.371 20.56 128.762 20.642 129.172 20.689 c 129.449
 20.72 129.723 20.74 129.992 20.751 c 130.258 20.755 130.508 20.759 130.738
 20.763 c 130.949 20.759 131.164 20.759 131.387 20.763 c 131.605 20.759 
131.828 20.751 132.059 20.74 c 132.934 20.689 133.738 20.494 134.469 20.15
 c 135.191 19.806 135.555 19.095 135.559 18.025 c 135.555 17.986 135.555
 17.951 135.559 17.911 c 135.555 17.872 135.555 17.837 135.559 17.806 c 
135.539 17.771 135.531 17.736 135.531 17.704 c 135.531 17.669 135.531 17.638
 135.531 17.607 c h
144.438 20.568 m 144.438 19.197 l 140.035 19.197 l 140.035 12.177 l 140.035
 11.521 140.133 11.06 140.328 10.794 c 140.523 10.521 140.961 10.388 141.648
 10.392 c 142.414 10.388 142.875 10.576 143.031 10.954 c 143.184 11.326 
143.262 11.814 143.266 12.423 c 143.266 13.181 l 144.879 13.181 l 144.875
 11.99 144.695 10.994 144.34 10.197 c 143.977 9.396 143.07 9.001 141.625
 8.997 c 140.352 9.001 139.48 9.224 139.008 9.681 c 138.535 10.134 138.301
 10.966 138.301 12.177 c 138.301 19.197 l 136.809 19.197 l 136.809 20.568
 l 138.301 20.568 l 138.301 23.333 l 140.035 23.333 l 140.035 20.568 l h
155.953 20.568 m 155.953 9.146 l 154.363 9.146 l 154.363 10.661 l 153.871
 9.923 153.313 9.462 152.688 9.279 c 152.059 9.091 151.313 9.001 150.449
 8.997 c 149.078 9.001 148.074 9.314 147.441 9.951 c 146.801 10.583 146.484
 11.587 146.488 12.962 c 146.488 20.568 l 148.223 20.568 l 148.223 12.962
 l 148.219 11.962 148.391 11.286 148.734 10.931 c 149.078 10.568 149.77 
10.388 150.816 10.392 c 152.168 10.388 153.074 10.642 153.531 11.15 c 153.984
 11.658 154.211 12.552 154.215 13.841 c 154.215 20.568 l h
159.07 20.568 m 160.66 20.568 l 160.66 19.099 l 161.098 19.798 161.66 20.259
 162.348 20.482 c 163.031 20.701 163.762 20.81 164.547 20.814 c 166.094 
20.81 167.18 20.513 167.801 19.919 c 168.418 19.322 168.727 18.251 168.73
 16.704 c 168.73 9.146 l 166.992 9.146 l 166.992 16.556 l 166.988 17.697
 166.809 18.454 166.453 18.833 c 166.094 19.204 165.336 19.392 164.18 19.396
 c 163.086 19.392 162.246 19.138 161.66 18.634 c 161.07 18.126 160.777 17.298
 160.781 16.142 c 160.781 9.146 l 159.07 9.146 l h
181.426 20.568 m 181.426 8.411 l 181.422 6.654 181.012 5.49 180.191 4.927
 c 179.367 4.365 178.113 4.083 176.438 4.083 c 174.965 4.083 173.852 4.298
 173.098 4.72 c 172.336 5.146 171.957 6.181 171.961 7.826 c 173.551 7.802
 l 173.598 6.779 173.816 6.134 174.211 5.869 c 174.598 5.611 175.277 5.478
 176.242 5.478 c 177.367 5.478 178.238 5.626 178.859 5.919 c 179.477 6.212
 179.785 7.001 179.789 8.29 c 179.789 10.54 l 179.477 9.935 179.031 9.533
 178.453 9.341 c 177.871 9.146 177.273 9.044 176.656 9.025 c 176.559 9.009
 176.453 9.001 176.34 8.997 c 176.223 9.001 176.117 9.001 176.02 8.997 c
 174.176 9.001 172.973 9.486 172.414 10.466 c 171.848 11.443 171.566 12.751
 171.57 14.392 c 171.566 16.201 171.789 17.708 172.242 18.911 c 172.688 
20.111 173.996 20.712 176.168 20.716 c 176.93 20.712 177.633 20.611 178.27
 20.408 c 178.906 20.204 179.434 19.767 179.859 19.099 c 179.789 20.568 
l h
173.355 14.869 m 173.355 14.454 l 173.352 13.165 173.492 12.165 173.77 
11.454 c 174.047 10.744 174.949 10.388 176.484 10.392 c 177.379 10.388 178.105
 10.564 178.664 10.919 c 179.215 11.267 179.535 11.923 179.617 12.888 c 
179.648 13.212 179.672 13.54 179.688 13.876 c 179.703 14.208 179.711 14.54
 179.715 14.869 c 179.711 16.204 179.57 17.271 179.297 18.072 c 179.016 
18.869 178.078 19.271 176.484 19.271 c 175.211 19.271 174.371 19.029 173.965
 18.548 c 173.555 18.068 173.352 17.15 173.355 15.798 c h
193.418 17.607 m 191.707 17.607 l 191.707 18.224 191.609 18.661 191.414
 18.927 c 191.219 19.185 190.793 19.333 190.141 19.369 c 189.828 19.384 
189.516 19.392 189.199 19.396 c 188.879 19.392 188.555 19.392 188.234 19.396
 c 188.117 19.392 188 19.392 187.879 19.396 c 187.754 19.392 187.629 19.384
 187.5 19.369 c 187.254 19.349 187.016 19.318 186.789 19.271 c 186.559 19.22
 186.355 19.13 186.18 19.001 c 186.031 18.888 185.934 18.747 185.887 18.587
 c 185.836 18.419 185.805 18.247 185.789 18.072 c 185.789 18.001 185.789
 17.939 185.789 17.876 c 185.789 17.81 185.789 17.744 185.789 17.681 c 185.789
 16.978 185.898 16.501 186.117 16.251 c 186.336 15.997 186.797 15.853 187.5
 15.822 c 187.711 15.802 187.926 15.794 188.148 15.798 c 188.367 15.794 
188.582 15.794 188.797 15.798 c 190.047 15.779 191.188 15.626 192.219 15.333
 c 193.242 15.036 193.758 14.099 193.762 12.521 c 193.758 10.857 193.309
 9.853 192.414 9.509 c 191.516 9.169 190.359 9.001 188.945 8.997 c 188.875
 9.001 188.809 9.001 188.746 8.997 c 188.68 9.001 188.613 9.001 188.551 
8.997 c 187.391 9.021 186.336 9.189 185.383 9.513 c 184.426 9.837 183.949
 10.708 183.953 12.13 c 183.949 12.177 183.949 12.232 183.953 12.29 c 183.949
 12.345 183.957 12.396 183.977 12.447 c 183.973 12.494 183.977 12.548 183.988
 12.607 c 183.996 12.661 184 12.716 184.004 12.767 c 185.715 12.767 l 185.711
 11.72 185.91 11.044 186.313 10.747 c 186.711 10.443 187.41 10.294 188.406
 10.294 c 188.82 10.294 l 188.98 10.294 189.16 10.298 189.359 10.306 c 189.551
 10.314 189.758 10.326 189.973 10.345 c 190.246 10.357 190.52 10.396 190.801
 10.466 c 191.074 10.529 191.305 10.626 191.488 10.759 c 191.648 10.869 
191.766 11.025 191.84 11.224 c 191.914 11.415 191.961 11.619 191.977 11.837
 c 191.992 11.931 192 12.029 192 12.126 c 192 12.224 192 12.322 192 12.423
 c 192 13.314 191.766 13.837 191.301 13.986 c 190.836 14.134 190.262 14.208
 189.578 14.208 c 189.559 14.208 189.543 14.208 189.531 14.208 c 189.512
 14.208 189.496 14.208 189.48 14.208 c 189.383 14.224 189.281 14.232 189.176
 14.232 c 189.066 14.232 188.953 14.232 188.844 14.232 c 188.758 14.232 
188.68 14.236 188.602 14.244 c 188.52 14.251 188.438 14.255 188.355 14.259
 c 187.18 14.302 186.172 14.47 185.336 14.759 c 184.496 15.044 184.078 15.904
 184.078 17.341 c 184.078 17.486 184.082 17.634 184.09 17.79 c 184.098 17.943
 184.109 18.103 184.125 18.271 c 184.156 18.591 184.227 18.904 184.344 19.208
 c 184.453 19.505 184.641 19.755 184.906 19.958 c 185.18 20.165 185.508 
20.329 185.887 20.447 c 186.258 20.56 186.648 20.642 187.059 20.689 c 187.336
 20.72 187.609 20.74 187.879 20.751 c 188.145 20.755 188.395 20.759 188.625
 20.763 c 188.836 20.759 189.051 20.759 189.273 20.763 c 189.492 20.759 
189.715 20.751 189.945 20.74 c 190.82 20.689 191.625 20.494 192.355 20.15
 c 193.078 19.806 193.441 19.095 193.445 18.025 c 193.441 17.986 193.441
 17.951 193.445 17.911 c 193.441 17.872 193.441 17.837 193.445 17.806 c 
193.426 17.771 193.418 17.736 193.418 17.704 c 193.418 17.669 193.418 17.638
 193.418 17.607 c h
197.973 25.458 m 197.973 19.271 l 198.344 19.97 198.855 20.396 199.512 
20.552 c 200.16 20.704 200.855 20.783 201.59 20.786 c 203.188 20.783 204.305
 20.49 204.941 19.908 c 205.574 19.318 205.891 18.201 205.895 16.556 c 205.895
 9.146 l 204.16 9.146 l 204.16 16.556 l 204.156 16.587 204.156 16.615 204.16
 16.642 c 204.156 16.665 204.156 16.697 204.16 16.728 c 204.156 16.744 204.16
 16.767 204.172 16.798 c 204.176 16.829 204.18 16.853 204.184 16.876 c 204.18
 17.931 203.973 18.622 203.559 18.943 c 203.145 19.259 202.438 19.415 201.445
 19.419 c 200.008 19.415 199.07 19.13 198.633 18.564 c 198.188 17.99 197.969
 17.029 197.973 15.677 c 197.973 9.146 l 196.285 9.146 l 196.285 25.458 
l h
210.742 17.267 m 208.98 17.267 l 208.98 18.845 209.41 19.786 210.277 20.099
 c 211.137 20.408 212.215 20.564 213.508 20.568 c 215.086 20.564 216.305
 20.345 217.164 19.908 c 218.02 19.466 218.449 18.353 218.449 16.564 c 218.449
 9.146 l 216.859 9.146 l 216.93 10.322 l 216.441 9.701 215.867 9.322 215.207
 9.181 c 214.543 9.044 213.836 8.978 213.09 8.974 c 211.684 8.978 210.586
 9.181 209.789 9.599 c 208.988 10.013 208.586 11.005 208.59 12.572 c 208.586
 14.083 209.008 15.036 209.848 15.431 c 210.688 15.818 211.75 16.013 213.043
 16.017 c 213.219 16.013 213.406 16.009 213.605 16.005 c 213.797 15.994 
213.992 15.982 214.191 15.97 c 214.48 15.951 214.77 15.915 215.059 15.861
 c 215.34 15.802 215.613 15.724 215.879 15.626 c 216.055 15.56 216.211 15.458
 216.344 15.322 c 216.473 15.181 216.586 15.021 216.688 14.845 c 216.688
 16.216 l 216.684 17.615 216.488 18.486 216.098 18.829 c 215.703 19.169 
214.809 19.341 213.41 19.345 c 213.277 19.341 213.121 19.337 212.945 19.333
 c 212.762 19.322 212.59 19.31 212.43 19.298 c 212.184 19.279 211.957 19.236
 211.746 19.173 c 211.535 19.103 211.355 19.013 211.207 18.904 c 211.043
 18.786 210.93 18.646 210.867 18.474 c 210.801 18.302 210.758 18.119 210.742
 17.927 c 210.723 17.876 210.715 17.822 210.719 17.767 c 210.715 17.704 
210.715 17.654 210.719 17.607 c 210.715 17.56 210.715 17.505 210.719 17.451
 c 210.715 17.388 210.723 17.329 210.742 17.267 c h
210.352 12.767 m 210.352 11.771 210.555 11.115 210.961 10.798 c 211.367
 10.478 212.043 10.318 212.992 10.322 c 213.152 10.318 213.324 10.318 213.508
 10.322 c 213.684 10.318 213.863 10.326 214.047 10.345 c 214.73 10.372 215.359
 10.521 215.93 10.794 c 216.5 11.06 216.785 11.622 216.785 12.474 c 216.785
 13.497 216.473 14.122 215.855 14.353 c 215.23 14.579 214.488 14.693 213.629
 14.697 c 213.215 14.697 l 213.063 14.693 212.906 14.693 212.746 14.697 
c 212.582 14.693 212.418 14.685 212.258 14.673 c 211.977 14.638 211.703 
14.587 211.438 14.513 c 211.164 14.439 210.941 14.322 210.77 14.161 c 210.633
 14.06 210.539 13.927 210.484 13.767 c 210.426 13.603 210.391 13.431 210.375
 13.255 c 210.359 13.169 210.352 13.087 210.352 13.009 c 210.352 12.923 
210.352 12.845 210.352 12.767 c h
223.324 25.458 m 223.324 9.146 l 221.59 9.146 l 221.59 25.458 l h
226.43 9.146 m 226.43 25.458 l 228.117 25.458 l 228.117 19.126 l 228.391
 19.693 228.793 20.087 229.324 20.31 c 229.852 20.529 230.41 20.665 231.004
 20.716 c 231.098 20.728 231.195 20.736 231.293 20.74 c 231.391 20.736 231.488
 20.736 231.59 20.74 c 233.625 20.736 234.922 20.251 235.477 19.283 c 236.027
 18.314 236.305 16.908 236.309 15.064 c 236.305 13.302 236.066 11.861 235.598
 10.747 c 235.121 9.63 233.813 9.076 231.664 9.072 c 231.629 9.076 231.598
 9.076 231.574 9.072 c 231.547 9.076 231.52 9.076 231.492 9.072 c 230.82
 9.091 230.172 9.197 229.547 9.4 c 228.918 9.603 228.41 10.001 228.02 10.587
 c 228.117 9.146 l h
228.164 15.189 m 228.164 14.552 l 228.16 13.165 228.328 12.134 228.664 
11.458 c 229 10.779 229.949 10.439 231.516 10.443 c 232.441 10.439 233.125
 10.595 233.57 10.908 c 234.008 11.216 234.285 11.853 234.402 12.814 c 234.449
 13.189 234.484 13.56 234.5 13.927 c 234.516 14.294 234.523 14.665 234.523
 15.04 c 234.523 16.423 234.387 17.49 234.121 18.244 c 233.848 18.99 232.906
 19.365 231.297 19.369 c 229.824 19.365 228.938 18.997 228.629 18.267 c 
228.316 17.533 228.16 16.505 228.164 15.189 c h
240.84 25.458 m 240.84 9.146 l 239.105 9.146 l 239.105 25.458 l h
251.871 12.619 m 253.633 12.619 l 253.629 10.935 253.18 9.915 252.285 9.56
 c 251.387 9.204 250.215 9.029 248.766 9.025 c 246.629 9.029 245.242 9.435
 244.609 10.247 c 243.969 11.06 243.652 12.501 243.656 14.576 c 243.652 
16.564 243.895 18.087 244.387 19.15 c 244.871 20.204 246.25 20.736 248.523
 20.74 c 250.656 20.736 252.039 20.376 252.668 19.661 c 253.293 18.943 253.613
 17.525 253.633 15.408 c 253.633 14.552 l 245.414 14.552 l 245.41 13.275
 245.543 12.255 245.816 11.494 c 246.082 10.724 246.984 10.341 248.523 10.345
 c 248.988 10.345 l 249.148 10.341 249.324 10.341 249.512 10.345 c 249.699
 10.341 249.898 10.357 250.113 10.392 c 250.355 10.408 250.59 10.451 250.82
 10.517 c 251.047 10.579 251.242 10.669 251.406 10.786 c 251.566 10.896 
251.68 11.044 251.738 11.236 c 251.793 11.419 251.828 11.611 251.848 11.814
 c 251.859 11.876 251.867 11.951 251.871 12.033 c 251.867 12.111 251.867
 12.185 251.871 12.251 c h
251.922 15.872 m 251.918 17.29 251.75 18.236 251.418 18.708 c 251.082 19.181
 250.168 19.415 248.668 19.419 c 247.348 19.415 246.477 19.173 246.063 18.685
 c 245.645 18.193 245.438 17.255 245.441 15.872 c h
258.121 20.568 m 258.121 9.146 l 256.387 9.146 l 256.387 20.568 l h
258.121 25.458 m 258.121 23.576 l 256.387 23.576 l 256.387 25.458 l h
267.266 20.568 m 267.266 19.197 l 262.863 19.197 l 262.863 12.177 l 262.863
 11.521 262.961 11.06 263.156 10.794 c 263.352 10.521 263.789 10.388 264.477
 10.392 c 265.242 10.388 265.703 10.576 265.859 10.954 c 266.012 11.326 
266.09 11.814 266.094 12.423 c 266.094 13.181 l 267.707 13.181 l 267.703
 11.99 267.523 10.994 267.168 10.197 c 266.805 9.396 265.898 9.001 264.453
 8.997 c 263.18 9.001 262.309 9.224 261.836 9.681 c 261.363 10.134 261.129
 10.966 261.129 12.177 c 261.129 19.197 l 259.637 19.197 l 259.637 20.568
 l 261.129 20.568 l 261.129 23.333 l 262.863 23.333 l 262.863 20.568 l h
277.238 12.619 m 279 12.619 l 278.996 10.935 278.547 9.915 277.652 9.56
 c 276.754 9.204 275.582 9.029 274.133 9.025 c 271.996 9.029 270.609 9.435
 269.977 10.247 c 269.336 11.06 269.02 12.501 269.023 14.576 c 269.02 16.564
 269.262 18.087 269.754 19.15 c 270.238 20.204 271.617 20.736 273.891 20.74
 c 276.023 20.736 277.406 20.376 278.035 19.661 c 278.66 18.943 278.98 17.525
 279 15.408 c 279 14.552 l 270.781 14.552 l 270.777 13.275 270.91 12.255
 271.184 11.494 c 271.449 10.724 272.352 10.341 273.891 10.345 c 274.355
 10.345 l 274.516 10.341 274.691 10.341 274.879 10.345 c 275.066 10.341 
275.266 10.357 275.48 10.392 c 275.723 10.408 275.957 10.451 276.188 10.517
 c 276.414 10.579 276.609 10.669 276.773 10.786 c 276.934 10.896 277.047
 11.044 277.105 11.236 c 277.16 11.419 277.195 11.611 277.215 11.814 c 277.227
 11.876 277.234 11.951 277.238 12.033 c 277.234 12.111 277.234 12.185 277.238
 12.251 c h
277.289 15.872 m 277.285 17.29 277.117 18.236 276.785 18.708 c 276.449 
19.181 275.535 19.415 274.035 19.419 c 272.715 19.415 271.844 19.173 271.43
 18.685 c 271.012 18.193 270.805 17.255 270.809 15.872 c h
281.754 20.568 m 283.414 20.568 l 283.344 19.247 l 283.684 19.818 284.125
 20.224 284.676 20.47 c 285.219 20.712 285.82 20.833 286.473 20.837 c 287.629
 20.833 288.473 20.556 289.004 20.005 c 289.535 19.447 289.801 18.599 289.801
 17.462 c 289.801 17.345 289.801 17.236 289.801 17.13 c 289.801 17.025 289.789
 16.908 289.773 16.779 c 288.113 16.779 l 288.129 16.908 288.137 17.044 
288.137 17.193 c 288.137 17.333 288.137 17.482 288.137 17.634 c 288.137 
18.333 287.969 18.806 287.633 19.052 c 287.297 19.294 286.793 19.415 286.129
 19.419 c 285.246 19.415 284.582 19.197 284.137 18.759 c 283.684 18.318 
283.461 17.65 283.465 16.751 c 283.465 9.146 l 281.754 9.146 l h
300.465 17.607 m 298.754 17.607 l 298.754 18.224 298.656 18.661 298.461
 18.927 c 298.266 19.185 297.84 19.333 297.188 19.369 c 296.875 19.384 296.563
 19.392 296.246 19.396 c 295.926 19.392 295.602 19.392 295.281 19.396 c 
295.164 19.392 295.047 19.392 294.926 19.396 c 294.801 19.392 294.676 19.384
 294.547 19.369 c 294.301 19.349 294.063 19.318 293.836 19.271 c 293.605
 19.22 293.402 19.13 293.227 19.001 c 293.078 18.888 292.98 18.747 292.934
 18.587 c 292.883 18.419 292.852 18.247 292.836 18.072 c 292.836 18.001 
292.836 17.939 292.836 17.876 c 292.836 17.81 292.836 17.744 292.836 17.681
 c 292.836 16.978 292.945 16.501 293.164 16.251 c 293.383 15.997 293.844
 15.853 294.547 15.822 c 294.758 15.802 294.973 15.794 295.195 15.798 c 
295.414 15.794 295.629 15.794 295.844 15.798 c 297.094 15.779 298.234 15.626
 299.266 15.333 c 300.289 15.036 300.805 14.099 300.809 12.521 c 300.805
 10.857 300.355 9.853 299.461 9.509 c 298.563 9.169 297.406 9.001 295.992
 8.997 c 295.922 9.001 295.855 9.001 295.793 8.997 c 295.727 9.001 295.66
 9.001 295.598 8.997 c 294.438 9.021 293.383 9.189 292.43 9.513 c 291.473
 9.837 290.996 10.708 291 12.13 c 290.996 12.177 290.996 12.232 291 12.29
 c 290.996 12.345 291.004 12.396 291.023 12.447 c 291.02 12.494 291.023 
12.548 291.035 12.607 c 291.043 12.661 291.047 12.716 291.051 12.767 c 292.762
 12.767 l 292.758 11.72 292.957 11.044 293.359 10.747 c 293.758 10.443 294.457
 10.294 295.453 10.294 c 295.867 10.294 l 296.027 10.294 296.207 10.298 
296.406 10.306 c 296.598 10.314 296.805 10.326 297.02 10.345 c 297.293 10.357
 297.566 10.396 297.848 10.466 c 298.121 10.529 298.352 10.626 298.535 10.759
 c 298.695 10.869 298.813 11.025 298.887 11.224 c 298.961 11.415 299.008
 11.619 299.023 11.837 c 299.039 11.931 299.047 12.029 299.047 12.126 c 
299.047 12.224 299.047 12.322 299.047 12.423 c 299.047 13.314 298.813 13.837
 298.348 13.986 c 297.883 14.134 297.309 14.208 296.625 14.208 c 296.605
 14.208 296.59 14.208 296.578 14.208 c 296.559 14.208 296.543 14.208 296.527
 14.208 c 296.43 14.224 296.328 14.232 296.223 14.232 c 296.113 14.232 296
 14.232 295.891 14.232 c 295.805 14.232 295.727 14.236 295.648 14.244 c 
295.566 14.251 295.484 14.255 295.402 14.259 c 294.227 14.302 293.219 14.47
 292.383 14.759 c 291.543 15.044 291.125 15.904 291.125 17.341 c 291.125
 17.486 291.129 17.634 291.137 17.79 c 291.145 17.943 291.156 18.103 291.172
 18.271 c 291.203 18.591 291.273 18.904 291.391 19.208 c 291.5 19.505 291.688
 19.755 291.953 19.958 c 292.227 20.165 292.555 20.329 292.934 20.447 c 
293.305 20.56 293.695 20.642 294.105 20.689 c 294.383 20.72 294.656 20.74
 294.926 20.751 c 295.191 20.755 295.441 20.759 295.672 20.763 c 295.883
 20.759 296.098 20.759 296.32 20.763 c 296.539 20.759 296.762 20.751 296.992
 20.74 c 297.867 20.689 298.672 20.494 299.402 20.15 c 300.125 19.806 300.488
 19.095 300.492 18.025 c 300.488 17.986 300.488 17.951 300.492 17.911 c 
300.488 17.872 300.488 17.837 300.492 17.806 c 300.473 17.771 300.465 17.736
 300.465 17.704 c 300.465 17.669 300.465 17.638 300.465 17.607 c h
311.449 20.568 m 308.223 8.486 l 308.184 8.388 308.156 8.283 308.137 8.169
 c 308.109 8.056 308.082 7.943 308.051 7.826 c 307.773 6.865 307.367 5.986
 306.84 5.197 c 306.309 4.408 305.473 4.013 304.332 4.009 c 304.199 4.013
 304.066 4.025 303.93 4.048 c 303.789 4.072 303.656 4.099 303.527 4.13 c
 303.527 5.501 l 303.574 5.501 303.625 5.497 303.684 5.49 c 303.738 5.482
 303.793 5.478 303.844 5.478 c 303.891 5.462 303.941 5.454 304.004 5.454
 c 304.059 5.454 304.113 5.454 304.164 5.454 c 304.746 5.454 305.191 5.689
 305.496 6.15 c 305.797 6.619 306.02 7.126 306.168 7.677 c 306.246 7.958
 306.316 8.224 306.375 8.474 c 306.43 8.728 306.48 8.951 306.535 9.146 c
 305.922 9.146 l 301.789 20.568 l 303.527 20.568 l 307.098 10.392 l 309.691
 20.568 l h
321.949 17.607 m 320.238 17.607 l 320.238 18.224 320.141 18.661 319.945
 18.927 c 319.75 19.185 319.324 19.333 318.672 19.369 c 318.359 19.384 318.047
 19.392 317.73 19.396 c 317.41 19.392 317.086 19.392 316.766 19.396 c 316.648
 19.392 316.531 19.392 316.41 19.396 c 316.285 19.392 316.16 19.384 316.031
 19.369 c 315.785 19.349 315.547 19.318 315.32 19.271 c 315.09 19.22 314.887
 19.13 314.711 19.001 c 314.563 18.888 314.465 18.747 314.418 18.587 c 314.367
 18.419 314.336 18.247 314.32 18.072 c 314.32 18.001 314.32 17.939 314.32
 17.876 c 314.32 17.81 314.32 17.744 314.32 17.681 c 314.32 16.978 314.43
 16.501 314.648 16.251 c 314.867 15.997 315.328 15.853 316.031 15.822 c 
316.242 15.802 316.457 15.794 316.68 15.798 c 316.898 15.794 317.113 15.794
 317.328 15.798 c 318.578 15.779 319.719 15.626 320.75 15.333 c 321.773 
15.036 322.289 14.099 322.293 12.521 c 322.289 10.857 321.84 9.853 320.945
 9.509 c 320.047 9.169 318.891 9.001 317.477 8.997 c 317.406 9.001 317.34
 9.001 317.277 8.997 c 317.211 9.001 317.145 9.001 317.082 8.997 c 315.922
 9.021 314.867 9.189 313.914 9.513 c 312.957 9.837 312.48 10.708 312.484
 12.13 c 312.48 12.177 312.48 12.232 312.484 12.29 c 312.48 12.345 312.488
 12.396 312.508 12.447 c 312.504 12.494 312.508 12.548 312.52 12.607 c 312.527
 12.661 312.531 12.716 312.535 12.767 c 314.246 12.767 l 314.242 11.72 314.441
 11.044 314.844 10.747 c 315.242 10.443 315.941 10.294 316.938 10.294 c 
317.352 10.294 l 317.512 10.294 317.691 10.298 317.891 10.306 c 318.082 
10.314 318.289 10.326 318.504 10.345 c 318.777 10.357 319.051 10.396 319.332
 10.466 c 319.605 10.529 319.836 10.626 320.02 10.759 c 320.18 10.869 320.297
 11.025 320.371 11.224 c 320.445 11.415 320.492 11.619 320.508 11.837 c 
320.523 11.931 320.531 12.029 320.531 12.126 c 320.531 12.224 320.531 12.322
 320.531 12.423 c 320.531 13.314 320.297 13.837 319.832 13.986 c 319.367
 14.134 318.793 14.208 318.109 14.208 c 318.09 14.208 318.074 14.208 318.063
 14.208 c 318.043 14.208 318.027 14.208 318.012 14.208 c 317.914 14.224 
317.813 14.232 317.707 14.232 c 317.598 14.232 317.484 14.232 317.375 14.232
 c 317.289 14.232 317.211 14.236 317.133 14.244 c 317.051 14.251 316.969
 14.255 316.887 14.259 c 315.711 14.302 314.703 14.47 313.867 14.759 c 313.027
 15.044 312.609 15.904 312.609 17.341 c 312.609 17.486 312.613 17.634 312.621
 17.79 c 312.629 17.943 312.641 18.103 312.656 18.271 c 312.688 18.591 312.758
 18.904 312.875 19.208 c 312.984 19.505 313.172 19.755 313.438 19.958 c 
313.711 20.165 314.039 20.329 314.418 20.447 c 314.789 20.56 315.18 20.642
 315.59 20.689 c 315.867 20.72 316.141 20.74 316.41 20.751 c 316.676 20.755
 316.926 20.759 317.156 20.763 c 317.367 20.759 317.582 20.759 317.805 20.763
 c 318.023 20.759 318.246 20.751 318.477 20.74 c 319.352 20.689 320.156 
20.494 320.887 20.15 c 321.609 19.806 321.973 19.095 321.977 18.025 c 321.973
 17.986 321.973 17.951 321.977 17.911 c 321.973 17.872 321.973 17.837 321.977
 17.806 c 321.957 17.771 321.949 17.736 321.949 17.704 c 321.949 17.669 
321.949 17.638 321.949 17.607 c h
330.855 20.568 m 330.855 19.197 l 326.453 19.197 l 326.453 12.177 l 326.453
 11.521 326.551 11.06 326.746 10.794 c 326.941 10.521 327.379 10.388 328.066
 10.392 c 328.832 10.388 329.293 10.576 329.449 10.954 c 329.602 11.326 
329.68 11.814 329.684 12.423 c 329.684 13.181 l 331.297 13.181 l 331.293
 11.99 331.113 10.994 330.758 10.197 c 330.395 9.396 329.488 9.001 328.043
 8.997 c 326.77 9.001 325.898 9.224 325.426 9.681 c 324.953 10.134 324.719
 10.966 324.719 12.177 c 324.719 19.197 l 323.227 19.197 l 323.227 20.568
 l 324.719 20.568 l 324.719 23.333 l 326.453 23.333 l 326.453 20.568 l h
340.828 12.619 m 342.59 12.619 l 342.586 10.935 342.137 9.915 341.242 9.56
 c 340.344 9.204 339.172 9.029 337.723 9.025 c 335.586 9.029 334.199 9.435
 333.566 10.247 c 332.926 11.06 332.609 12.501 332.613 14.576 c 332.609 
16.564 332.852 18.087 333.344 19.15 c 333.828 20.204 335.207 20.736 337.48
 20.74 c 339.613 20.736 340.996 20.376 341.625 19.661 c 342.25 18.943 342.57
 17.525 342.59 15.408 c 342.59 14.552 l 334.371 14.552 l 334.367 13.275 
334.5 12.255 334.773 11.494 c 335.039 10.724 335.941 10.341 337.48 10.345
 c 337.945 10.345 l 338.105 10.341 338.281 10.341 338.469 10.345 c 338.656
 10.341 338.855 10.357 339.07 10.392 c 339.313 10.408 339.547 10.451 339.777
 10.517 c 340.004 10.579 340.199 10.669 340.363 10.786 c 340.523 10.896 
340.637 11.044 340.695 11.236 c 340.75 11.419 340.785 11.611 340.805 11.814
 c 340.816 11.876 340.824 11.951 340.828 12.033 c 340.824 12.111 340.824
 12.185 340.828 12.251 c h
340.879 15.872 m 340.875 17.29 340.707 18.236 340.375 18.708 c 340.039 
19.181 339.125 19.415 337.625 19.419 c 336.305 19.415 335.434 19.173 335.02
 18.685 c 334.602 18.193 334.395 17.255 334.398 15.872 c h
345.344 20.568 m 346.98 20.568 l 346.98 18.857 l 347.355 19.568 347.883
 20.06 348.57 20.333 c 349.25 20.599 349.969 20.736 350.723 20.74 c 350.852
 20.736 350.977 20.732 351.102 20.728 c 351.219 20.716 351.348 20.712 351.48
 20.716 c 352.098 20.65 352.68 20.482 353.23 20.212 c 353.773 19.943 354.152
 19.49 354.367 18.857 c 354.789 19.568 355.344 20.064 356.031 20.345 c 356.715
 20.619 357.457 20.759 358.258 20.763 c 359.754 20.759 360.816 20.451 361.449
 19.833 c 362.074 19.212 362.391 18.161 362.391 16.681 c 362.391 9.146 l
 360.605 9.146 l 360.605 16.826 l 360.602 17.802 360.426 18.466 360.078 
18.818 c 359.727 19.165 359.055 19.341 358.063 19.345 c 357.895 19.341 357.719
 19.333 357.535 19.322 c 357.344 19.302 357.152 19.279 356.961 19.247 c 
356.547 19.181 356.156 19.052 355.785 18.869 c 355.406 18.677 355.137 18.396
 354.98 18.025 c 354.879 17.81 354.813 17.583 354.781 17.341 c 354.746 17.095
 354.723 16.857 354.711 16.63 c 354.707 16.544 354.707 16.462 354.711 16.384
 c 354.707 16.298 354.707 16.22 354.711 16.142 c 354.711 9.146 l 352.973
 9.146 l 352.973 16.681 l 352.922 17.74 352.742 18.443 352.434 18.794 c 
352.125 19.142 351.418 19.318 350.309 19.322 c 349.035 19.318 348.16 19.009
 347.688 18.392 c 347.215 17.771 346.98 16.872 346.98 15.701 c 346.98 9.146
 l 345.344 9.146 l h
373.395 12.619 m 375.156 12.619 l 375.152 10.935 374.703 9.915 373.809 
9.56 c 372.91 9.204 371.738 9.029 370.289 9.025 c 368.152 9.029 366.766 
9.435 366.133 10.247 c 365.492 11.06 365.176 12.501 365.18 14.576 c 365.176
 16.564 365.418 18.087 365.91 19.15 c 366.395 20.204 367.773 20.736 370.047
 20.74 c 372.18 20.736 373.563 20.376 374.191 19.661 c 374.816 18.943 375.137
 17.525 375.156 15.408 c 375.156 14.552 l 366.938 14.552 l 366.934 13.275
 367.066 12.255 367.34 11.494 c 367.605 10.724 368.508 10.341 370.047 10.345
 c 370.512 10.345 l 370.672 10.341 370.848 10.341 371.035 10.345 c 371.223
 10.341 371.422 10.357 371.637 10.392 c 371.879 10.408 372.113 10.451 372.344
 10.517 c 372.57 10.579 372.766 10.669 372.93 10.786 c 373.09 10.896 373.203
 11.044 373.262 11.236 c 373.316 11.419 373.352 11.611 373.371 11.814 c 
373.383 11.876 373.391 11.951 373.395 12.033 c 373.391 12.111 373.391 12.185
 373.395 12.251 c h
373.445 15.872 m 373.441 17.29 373.273 18.236 372.941 18.708 c 372.605 
19.181 371.691 19.415 370.191 19.419 c 368.871 19.415 368 19.173 367.586
 18.685 c 367.168 18.193 366.961 17.255 366.965 15.872 c h
f
0.4 g
6.93 56.982 m 3.023 60.884 3.023 67.216 6.93 71.122 c 10.836 75.029 17.164
 75.029 21.07 71.122 c 24.977 67.216 24.977 60.884 21.07 56.982 c f
Q Q
showpage
%%Trailer
count op_count sub {pop} repeat
countdictstack dict_count sub {end} repeat
cairo_eps_state restore
%%EOF
