%!PS-Adobe-3.0 EPSF-3.0
%%Creator: (MATLAB, The Mathworks, Inc. Version 24.1.0.2603908 \(R2024a\) Update 3. Operating System: Windows 10)
%%Title: (C:/Users/lorde/Documents/MATLAB/Master Lab Course/Exercise 4/Pearson_charge.eps)
%%CreationDate: 2024-06-29T11:19:31
%%Pages: (atend)
%%BoundingBox:     0     0   420   315
%%LanguageLevel: 3
%%EndComments
%%BeginProlog
%%BeginResource: procset (Apache XML Graphics Std ProcSet) 1.2 0
%%Version: 1.2 0
%%Copyright: (Copyright 2001-2003,2010 The Apache Software Foundation. License terms: http://www.apache.org/licenses/LICENSE-2.0)
/bd{bind def}bind def
/ld{load def}bd
/GR/grestore ld
/GS/gsave ld
/RM/rmoveto ld
/C/curveto ld
/t/show ld
/L/lineto ld
/ML/setmiterlimit ld
/CT/concat ld
/f/fill ld
/N/newpath ld
/S/stroke ld
/CC/setcmykcolor ld
/A/ashow ld
/cp/closepath ld
/RC/setrgbcolor ld
/LJ/setlinejoin ld
/GC/setgray ld
/LW/setlinewidth ld
/M/moveto ld
/re {4 2 roll M
1 index 0 rlineto
0 exch rlineto
neg 0 rlineto
cp } bd
/_ctm matrix def
/_tm matrix def
/BT { _ctm currentmatrix pop matrix _tm copy pop 0 0 moveto } bd
/ET { _ctm setmatrix } bd
/iTm { _ctm setmatrix _tm concat } bd
/Tm { _tm astore pop iTm 0 0 moveto } bd
/ux 0.0 def
/uy 0.0 def
/F {
  /Tp exch def
  /Tf exch def
  Tf findfont Tp scalefont setfont
  /cf Tf def  /cs Tp def
} bd
/ULS {currentpoint /uy exch def /ux exch def} bd
/ULE {
  /Tcx currentpoint pop def
  gsave
  newpath
  cf findfont cs scalefont dup
  /FontMatrix get 0 get /Ts exch def /FontInfo get dup
  /UnderlinePosition get Ts mul /To exch def
  /UnderlineThickness get Ts mul /Tt exch def
  ux uy To add moveto  Tcx uy To add lineto
  Tt setlinewidth stroke
  grestore
} bd
/OLE {
  /Tcx currentpoint pop def
  gsave
  newpath
  cf findfont cs scalefont dup
  /FontMatrix get 0 get /Ts exch def /FontInfo get dup
  /UnderlinePosition get Ts mul /To exch def
  /UnderlineThickness get Ts mul /Tt exch def
  ux uy To add cs add moveto Tcx uy To add cs add lineto
  Tt setlinewidth stroke
  grestore
} bd
/SOE {
  /Tcx currentpoint pop def
  gsave
  newpath
  cf findfont cs scalefont dup
  /FontMatrix get 0 get /Ts exch def /FontInfo get dup
  /UnderlinePosition get Ts mul /To exch def
  /UnderlineThickness get Ts mul /Tt exch def
  ux uy To add cs 10 mul 26 idiv add moveto Tcx uy To add cs 10 mul 26 idiv add lineto
  Tt setlinewidth stroke
  grestore
} bd
/QT {
/Y22 exch store
/X22 exch store
/Y21 exch store
/X21 exch store
currentpoint
/Y21 load 2 mul add 3 div exch
/X21 load 2 mul add 3 div exch
/X21 load 2 mul /X22 load add 3 div
/Y21 load 2 mul /Y22 load add 3 div
/X22 load /Y22 load curveto
} bd
/SSPD {
dup length /d exch dict def
{
/v exch def
/k exch def
currentpagedevice k known {
/cpdv currentpagedevice k get def
v cpdv ne {
/upd false def
/nullv v type /nulltype eq def
/nullcpdv cpdv type /nulltype eq def
nullv nullcpdv or
{
/upd true def
} {
/sametype v type cpdv type eq def
sametype {
v type /arraytype eq {
/vlen v length def
/cpdvlen cpdv length def
vlen cpdvlen eq {
0 1 vlen 1 sub {
/i exch def
/obj v i get def
/cpdobj cpdv i get def
obj cpdobj ne {
/upd true def
exit
} if
} for
} {
/upd true def
} ifelse
} {
v type /dicttype eq {
v {
/dv exch def
/dk exch def
/cpddv cpdv dk get def
dv cpddv ne {
/upd true def
exit
} if
} forall
} {
/upd true def
} ifelse
} ifelse
} if
} ifelse
upd true eq {
d k v put
} if
} if
} if
} forall
d length 0 gt {
d setpagedevice
} if
} bd
/RE { % /NewFontName [NewEncodingArray] /FontName RE -
  findfont dup length dict begin
  {
    1 index /FID ne
    {def} {pop pop} ifelse
  } forall
  /Encoding exch def
  /FontName 1 index def
  currentdict definefont pop
  end
} bind def
%%EndResource
%%BeginResource: procset (Apache XML Graphics EPS ProcSet) 1.0 0
%%Version: 1.0 0
%%Copyright: (Copyright 2002-2003 The Apache Software Foundation. License terms: http://www.apache.org/licenses/LICENSE-2.0)
/BeginEPSF { %def
/b4_Inc_state save def         % Save state for cleanup
/dict_count countdictstack def % Count objects on dict stack
/op_count count 1 sub def      % Count objects on operand stack
userdict begin                 % Push userdict on dict stack
/showpage { } def              % Redefine showpage, { } = null proc
0 setgray 0 setlinecap         % Prepare graphics state
1 setlinewidth 0 setlinejoin
10 setmiterlimit [ ] 0 setdash newpath
/languagelevel where           % If level not equal to 1 then
{pop languagelevel             % set strokeadjust and
1 ne                           % overprint to their defaults.
{false setstrokeadjust false setoverprint
} if
} if
} bd
/EndEPSF { %def
count op_count sub {pop} repeat            % Clean up stacks
countdictstack dict_count sub {end} repeat
b4_Inc_state restore
} bd
%%EndResource
%FOPBeginFontDict
%%IncludeResource: font Courier-Oblique
%%IncludeResource: font Courier-BoldOblique
%%IncludeResource: font Courier-Bold
%%IncludeResource: font ZapfDingbats
%%IncludeResource: font Symbol
%%IncludeResource: font Helvetica
%%IncludeResource: font Helvetica-Oblique
%%IncludeResource: font Helvetica-Bold
%%IncludeResource: font Helvetica-BoldOblique
%%IncludeResource: font Times-Roman
%%IncludeResource: font Times-Italic
%%IncludeResource: font Times-Bold
%%IncludeResource: font Times-BoldItalic
%%IncludeResource: font Courier
%FOPEndFontDict
%%BeginResource: encoding WinAnsiEncoding
/WinAnsiEncoding [
/.notdef /.notdef /.notdef /.notdef /.notdef
/.notdef /.notdef /.notdef /.notdef /.notdef
/.notdef /.notdef /.notdef /.notdef /.notdef
/.notdef /.notdef /.notdef /.notdef /.notdef
/.notdef /.notdef /.notdef /.notdef /.notdef
/.notdef /.notdef /.notdef /.notdef /.notdef
/.notdef /.notdef /space /exclam /quotedbl
/numbersign /dollar /percent /ampersand /quotesingle
/parenleft /parenright /asterisk /plus /comma
/hyphen /period /slash /zero /one
/two /three /four /five /six
/seven /eight /nine /colon /semicolon
/less /equal /greater /question /at
/A /B /C /D /E
/F /G /H /I /J
/K /L /M /N /O
/P /Q /R /S /T
/U /V /W /X /Y
/Z /bracketleft /backslash /bracketright /asciicircum
/underscore /quoteleft /a /b /c
/d /e /f /g /h
/i /j /k /l /m
/n /o /p /q /r
/s /t /u /v /w
/x /y /z /braceleft /bar
/braceright /asciitilde /bullet /Euro /bullet
/quotesinglbase /florin /quotedblbase /ellipsis /dagger
/daggerdbl /circumflex /perthousand /Scaron /guilsinglleft
/OE /bullet /Zcaron /bullet /bullet
/quoteleft /quoteright /quotedblleft /quotedblright /bullet
/endash /emdash /asciitilde /trademark /scaron
/guilsinglright /oe /bullet /zcaron /Ydieresis
/space /exclamdown /cent /sterling /currency
/yen /brokenbar /section /dieresis /copyright
/ordfeminine /guillemotleft /logicalnot /sfthyphen /registered
/macron /degree /plusminus /twosuperior /threesuperior
/acute /mu /paragraph /middot /cedilla
/onesuperior /ordmasculine /guillemotright /onequarter /onehalf
/threequarters /questiondown /Agrave /Aacute /Acircumflex
/Atilde /Adieresis /Aring /AE /Ccedilla
/Egrave /Eacute /Ecircumflex /Edieresis /Igrave
/Iacute /Icircumflex /Idieresis /Eth /Ntilde
/Ograve /Oacute /Ocircumflex /Otilde /Odieresis
/multiply /Oslash /Ugrave /Uacute /Ucircumflex
/Udieresis /Yacute /Thorn /germandbls /agrave
/aacute /acircumflex /atilde /adieresis /aring
/ae /ccedilla /egrave /eacute /ecircumflex
/edieresis /igrave /iacute /icircumflex /idieresis
/eth /ntilde /ograve /oacute /ocircumflex
/otilde /odieresis /divide /oslash /ugrave
/uacute /ucircumflex /udieresis /yacute /thorn
/ydieresis
] def
%%EndResource
%FOPBeginFontReencode
/Courier-Oblique findfont
dup length dict begin
  {1 index /FID ne {def} {pop pop} ifelse} forall
  /Encoding WinAnsiEncoding def
  currentdict
end
/Courier-Oblique exch definefont pop
/Courier-BoldOblique findfont
dup length dict begin
  {1 index /FID ne {def} {pop pop} ifelse} forall
  /Encoding WinAnsiEncoding def
  currentdict
end
/Courier-BoldOblique exch definefont pop
/Courier-Bold findfont
dup length dict begin
  {1 index /FID ne {def} {pop pop} ifelse} forall
  /Encoding WinAnsiEncoding def
  currentdict
end
/Courier-Bold exch definefont pop
/Helvetica findfont
dup length dict begin
  {1 index /FID ne {def} {pop pop} ifelse} forall
  /Encoding WinAnsiEncoding def
  currentdict
end
/Helvetica exch definefont pop
/Helvetica-Oblique findfont
dup length dict begin
  {1 index /FID ne {def} {pop pop} ifelse} forall
  /Encoding WinAnsiEncoding def
  currentdict
end
/Helvetica-Oblique exch definefont pop
/Helvetica-Bold findfont
dup length dict begin
  {1 index /FID ne {def} {pop pop} ifelse} forall
  /Encoding WinAnsiEncoding def
  currentdict
end
/Helvetica-Bold exch definefont pop
/Helvetica-BoldOblique findfont
dup length dict begin
  {1 index /FID ne {def} {pop pop} ifelse} forall
  /Encoding WinAnsiEncoding def
  currentdict
end
/Helvetica-BoldOblique exch definefont pop
/Times-Roman findfont
dup length dict begin
  {1 index /FID ne {def} {pop pop} ifelse} forall
  /Encoding WinAnsiEncoding def
  currentdict
end
/Times-Roman exch definefont pop
/Times-Italic findfont
dup length dict begin
  {1 index /FID ne {def} {pop pop} ifelse} forall
  /Encoding WinAnsiEncoding def
  currentdict
end
/Times-Italic exch definefont pop
/Times-Bold findfont
dup length dict begin
  {1 index /FID ne {def} {pop pop} ifelse} forall
  /Encoding WinAnsiEncoding def
  currentdict
end
/Times-Bold exch definefont pop
/Times-BoldItalic findfont
dup length dict begin
  {1 index /FID ne {def} {pop pop} ifelse} forall
  /Encoding WinAnsiEncoding def
  currentdict
end
/Times-BoldItalic exch definefont pop
/Courier findfont
dup length dict begin
  {1 index /FID ne {def} {pop pop} ifelse} forall
  /Encoding WinAnsiEncoding def
  currentdict
end
/Courier exch definefont pop
%FOPEndFontReencode
%%EndProlog
%%Page: 1 1
%%PageBoundingBox: 0 0 420 315
%%BeginPageSetup
[1 0 0 -1 0 315] CT
%%EndPageSetup
GS
[0.75 0 0 0.75 0 0] CT
1 GC
N
0 0 560 420 re
f
GR
GS
[0.75 0 0 0.75 0 0] CT
1 GC
N
0 0 560 420 re
f
GR
GS
[0.75 0 0 0.75 0 0] CT
1 GC
N
73 372 M
496 372 L
496 31 L
73 31 L
cp
f
GR
GS
[0.75 0 0 0.75 0 0] CT
0.873 GC
1 LJ
0.667 LW
N
73 372 M
73 31 L
S
GR
GS
[0.75 0 0 0.75 0 0] CT
0.873 GC
1 LJ
0.667 LW
N
115.3 372 M
115.3 31 L
S
GR
GS
[0.75 0 0 0.75 0 0] CT
0.873 GC
1 LJ
0.667 LW
N
157.6 372 M
157.6 31 L
S
GR
GS
[0.75 0 0 0.75 0 0] CT
0.873 GC
1 LJ
0.667 LW
N
199.9 372 M
199.9 31 L
S
GR
GS
[0.75 0 0 0.75 0 0] CT
0.873 GC
1 LJ
0.667 LW
N
242.2 372 M
242.2 31 L
S
GR
GS
[0.75 0 0 0.75 0 0] CT
0.873 GC
1 LJ
0.667 LW
N
284.5 372 M
284.5 31 L
S
GR
GS
[0.75 0 0 0.75 0 0] CT
0.873 GC
1 LJ
0.667 LW
N
326.8 372 M
326.8 31 L
S
GR
GS
[0.75 0 0 0.75 0 0] CT
0.873 GC
1 LJ
0.667 LW
N
369.1 372 M
369.1 31 L
S
GR
GS
[0.75 0 0 0.75 0 0] CT
0.873 GC
1 LJ
0.667 LW
N
411.4 372 M
411.4 31 L
S
GR
GS
[0.75 0 0 0.75 0 0] CT
0.873 GC
1 LJ
0.667 LW
N
453.7 372 M
453.7 31 L
S
GR
GS
[0.75 0 0 0.75 0 0] CT
0.873 GC
1 LJ
0.667 LW
N
496 372 M
496 31 L
S
GR
GS
[0.75 0 0 0.75 0 0] CT
0.851 0.918 0.961 RC
1 LJ
0.667 LW
N
496 372 M
73 372 L
S
GR
GS
[0.75 0 0 0.75 0 0] CT
0.851 0.918 0.961 RC
1 LJ
0.667 LW
N
496 329.375 M
73 329.375 L
S
GR
GS
[0.75 0 0 0.75 0 0] CT
0.851 0.918 0.961 RC
1 LJ
0.667 LW
N
496 286.75 M
73 286.75 L
S
GR
GS
[0.75 0 0 0.75 0 0] CT
0.851 0.918 0.961 RC
1 LJ
0.667 LW
N
496 244.125 M
73 244.125 L
S
GR
GS
[0.75 0 0 0.75 0 0] CT
0.851 0.918 0.961 RC
1 LJ
0.667 LW
N
496 201.5 M
73 201.5 L
S
GR
GS
[0.75 0 0 0.75 0 0] CT
0.851 0.918 0.961 RC
1 LJ
0.667 LW
N
496 158.875 M
73 158.875 L
S
GR
GS
[0.75 0 0 0.75 0 0] CT
0.851 0.918 0.961 RC
1 LJ
0.667 LW
N
496 116.25 M
73 116.25 L
S
GR
GS
[0.75 0 0 0.75 0 0] CT
0.851 0.918 0.961 RC
1 LJ
0.667 LW
N
496 73.625 M
73 73.625 L
S
GR
GS
[0.75 0 0 0.75 0 0] CT
0.851 0.918 0.961 RC
1 LJ
0.667 LW
N
496 31 M
73 31 L
S
GR
GS
[0.75 0 0 0.75 0 0] CT
0.149 GC
2 setlinecap
1 LJ
0.667 LW
N
73 372 M
496 372 L
S
GR
GS
[0.75 0 0 0.75 0 0] CT
0.149 GC
2 setlinecap
1 LJ
0.667 LW
N
73 372 M
73 367.77 L
S
GR
GS
[0.75 0 0 0.75 0 0] CT
0.149 GC
2 setlinecap
1 LJ
0.667 LW
N
115.3 372 M
115.3 367.77 L
S
GR
GS
[0.75 0 0 0.75 0 0] CT
0.149 GC
2 setlinecap
1 LJ
0.667 LW
N
157.6 372 M
157.6 367.77 L
S
GR
GS
[0.75 0 0 0.75 0 0] CT
0.149 GC
2 setlinecap
1 LJ
0.667 LW
N
199.9 372 M
199.9 367.77 L
S
GR
GS
[0.75 0 0 0.75 0 0] CT
0.149 GC
2 setlinecap
1 LJ
0.667 LW
N
242.2 372 M
242.2 367.77 L
S
GR
GS
[0.75 0 0 0.75 0 0] CT
0.149 GC
2 setlinecap
1 LJ
0.667 LW
N
284.5 372 M
284.5 367.77 L
S
GR
GS
[0.75 0 0 0.75 0 0] CT
0.149 GC
2 setlinecap
1 LJ
0.667 LW
N
326.8 372 M
326.8 367.77 L
S
GR
GS
[0.75 0 0 0.75 0 0] CT
0.149 GC
2 setlinecap
1 LJ
0.667 LW
N
369.1 372 M
369.1 367.77 L
S
GR
GS
[0.75 0 0 0.75 0 0] CT
0.149 GC
2 setlinecap
1 LJ
0.667 LW
N
411.4 372 M
411.4 367.77 L
S
GR
GS
[0.75 0 0 0.75 0 0] CT
0.149 GC
2 setlinecap
1 LJ
0.667 LW
N
453.7 372 M
453.7 367.77 L
S
GR
GS
[0.75 0 0 0.75 0 0] CT
0.149 GC
2 setlinecap
1 LJ
0.667 LW
N
496 372 M
496 367.77 L
S
GR
GS
[0.75 0 0 0.75 54.75 282.99998] CT
0.149 GC
/Helvetica 13.333 F
GS
[1 0 0 1 0 0] CT
-11.5 14 moveto 
1 -1 scale
(-0.5) t 
GR
GR
GS
[0.75 0 0 0.75 86.475 282.99998] CT
0.149 GC
/Helvetica 13.333 F
GS
[1 0 0 1 0 0] CT
-4 14 moveto 
1 -1 scale
(0) t 
GR
GR
GS
[0.75 0 0 0.75 118.2 282.99998] CT
0.149 GC
/Helvetica 13.333 F
GS
[1 0 0 1 0 0] CT
-9.5 14 moveto 
1 -1 scale
(0.5) t 
GR
GR
GS
[0.75 0 0 0.75 149.925 282.99998] CT
0.149 GC
/Helvetica 13.333 F
GS
[1 0 0 1 0 0] CT
-4 14 moveto 
1 -1 scale
(1) t 
GR
GR
GS
[0.75 0 0 0.75 181.65 282.99998] CT
0.149 GC
/Helvetica 13.333 F
GS
[1 0 0 1 0 0] CT
-9.5 14 moveto 
1 -1 scale
(1.5) t 
GR
GR
GS
[0.75 0 0 0.75 213.375 282.99998] CT
0.149 GC
/Helvetica 13.333 F
GS
[1 0 0 1 0 0] CT
-4 14 moveto 
1 -1 scale
(2) t 
GR
GR
GS
[0.75 0 0 0.75 245.09999 282.99998] CT
0.149 GC
/Helvetica 13.333 F
GS
[1 0 0 1 0 0] CT
-9.5 14 moveto 
1 -1 scale
(2.5) t 
GR
GR
GS
[0.75 0 0 0.75 276.825 282.99998] CT
0.149 GC
/Helvetica 13.333 F
GS
[1 0 0 1 0 0] CT
-4 14 moveto 
1 -1 scale
(3) t 
GR
GR
GS
[0.75 0 0 0.75 308.55 282.99998] CT
0.149 GC
/Helvetica 13.333 F
GS
[1 0 0 1 0 0] CT
-9.5 14 moveto 
1 -1 scale
(3.5) t 
GR
GR
GS
[0.75 0 0 0.75 340.27501 282.99998] CT
0.149 GC
/Helvetica 13.333 F
GS
[1 0 0 1 0 0] CT
-4 14 moveto 
1 -1 scale
(4) t 
GR
GR
GS
[0.75 0 0 0.75 372 282.99998] CT
0.149 GC
/Helvetica 13.333 F
GS
[1 0 0 1 0 0] CT
-9.5 14 moveto 
1 -1 scale
(4.5) t 
GR
GR
GS
[0.75 0 0 0.75 213.37516 296.74999] CT
0.149 GC
/Helvetica 18.667 F
GS
[1 0 0 1 0 0] CT
-41 19 moveto 
1 -1 scale
(Time / ms) t 
GR
GR
GS
[0.75 0 0 0.75 0 0] CT
0 0.447 0.741 RC
2 setlinecap
1 LJ
0.667 LW
N
73 372 M
73 31 L
S
GR
GS
[0.75 0 0 0.75 0 0] CT
0 0.447 0.741 RC
2 setlinecap
1 LJ
0.667 LW
N
73 372 M
77.23 372 L
S
GR
GS
[0.75 0 0 0.75 0 0] CT
0 0.447 0.741 RC
2 setlinecap
1 LJ
0.667 LW
N
73 329.375 M
77.23 329.375 L
S
GR
GS
[0.75 0 0 0.75 0 0] CT
0 0.447 0.741 RC
2 setlinecap
1 LJ
0.667 LW
N
73 286.75 M
77.23 286.75 L
S
GR
GS
[0.75 0 0 0.75 0 0] CT
0 0.447 0.741 RC
2 setlinecap
1 LJ
0.667 LW
N
73 244.125 M
77.23 244.125 L
S
GR
GS
[0.75 0 0 0.75 0 0] CT
0 0.447 0.741 RC
2 setlinecap
1 LJ
0.667 LW
N
73 201.5 M
77.23 201.5 L
S
GR
GS
[0.75 0 0 0.75 0 0] CT
0 0.447 0.741 RC
2 setlinecap
1 LJ
0.667 LW
N
73 158.875 M
77.23 158.875 L
S
GR
GS
[0.75 0 0 0.75 0 0] CT
0 0.447 0.741 RC
2 setlinecap
1 LJ
0.667 LW
N
73 116.25 M
77.23 116.25 L
S
GR
GS
[0.75 0 0 0.75 0 0] CT
0 0.447 0.741 RC
2 setlinecap
1 LJ
0.667 LW
N
73 73.625 M
77.23 73.625 L
S
GR
GS
[0.75 0 0 0.75 0 0] CT
0 0.447 0.741 RC
2 setlinecap
1 LJ
0.667 LW
N
73 31 M
77.23 31 L
S
GR
GS
[0.75 0 0 0.75 50.75 279] CT
0 0.447 0.741 RC
/Helvetica 13.333 F
GS
[1 0 0 1 0 0] CT
-12 5.5 moveto 
1 -1 scale
(-5) t 
GR
GR
GS
[0.75 0 0 0.75 50.75 247.03125] CT
0 0.447 0.741 RC
/Helvetica 13.333 F
GS
[1 0 0 1 0 0] CT
-12 5.5 moveto 
1 -1 scale
(-4) t 
GR
GR
GS
[0.75 0 0 0.75 50.75 215.0625] CT
0 0.447 0.741 RC
/Helvetica 13.333 F
GS
[1 0 0 1 0 0] CT
-12 5.5 moveto 
1 -1 scale
(-3) t 
GR
GR
GS
[0.75 0 0 0.75 50.75 183.09375] CT
0 0.447 0.741 RC
/Helvetica 13.333 F
GS
[1 0 0 1 0 0] CT
-12 5.5 moveto 
1 -1 scale
(-2) t 
GR
GR
GS
[0.75 0 0 0.75 50.75 151.125] CT
0 0.447 0.741 RC
/Helvetica 13.333 F
GS
[1 0 0 1 0 0] CT
-12 5.5 moveto 
1 -1 scale
(-1) t 
GR
GR
GS
[0.75 0 0 0.75 50.75 119.15625] CT
0 0.447 0.741 RC
/Helvetica 13.333 F
GS
[1 0 0 1 0 0] CT
-8 5.5 moveto 
1 -1 scale
(0) t 
GR
GR
GS
[0.75 0 0 0.75 50.75 87.1875] CT
0 0.447 0.741 RC
/Helvetica 13.333 F
GS
[1 0 0 1 0 0] CT
-8 5.5 moveto 
1 -1 scale
(1) t 
GR
GR
GS
[0.75 0 0 0.75 50.75 55.21875] CT
0 0.447 0.741 RC
/Helvetica 13.333 F
GS
[1 0 0 1 0 0] CT
-8 5.5 moveto 
1 -1 scale
(2) t 
GR
GR
GS
[0.75 0 0 0.75 50.75 23.25] CT
0 0.447 0.741 RC
/Helvetica 13.333 F
GS
[1 0 0 1 0 0] CT
-8 5.5 moveto 
1 -1 scale
(3) t 
GR
GR
GS
[0 -0.75 0.75 0 38.75 151.12487] CT
0 0.447 0.741 RC
/Helvetica 18.667 F
GS
[1 0 0 1 0 0] CT
-45.5 -5 moveto 
1 -1 scale
(Current / A) t 
GR
GR
GS
[0.75 0 0 0.75 0 0] CT
0.851 0.325 0.098 RC
2 setlinecap
1 LJ
0.667 LW
N
496 372 M
496 31 L
S
GR
GS
[0.75 0 0 0.75 0 0] CT
0.851 0.325 0.098 RC
2 setlinecap
1 LJ
0.667 LW
N
496 372 M
491.77 372 L
S
GR
GS
[0.75 0 0 0.75 0 0] CT
0.851 0.325 0.098 RC
2 setlinecap
1 LJ
0.667 LW
N
496 315.167 M
491.77 315.167 L
S
GR
GS
[0.75 0 0 0.75 0 0] CT
0.851 0.325 0.098 RC
2 setlinecap
1 LJ
0.667 LW
N
496 258.333 M
491.77 258.333 L
S
GR
GS
[0.75 0 0 0.75 0 0] CT
0.851 0.325 0.098 RC
2 setlinecap
1 LJ
0.667 LW
N
496 201.5 M
491.77 201.5 L
S
GR
GS
[0.75 0 0 0.75 0 0] CT
0.851 0.325 0.098 RC
2 setlinecap
1 LJ
0.667 LW
N
496 144.667 M
491.77 144.667 L
S
GR
GS
[0.75 0 0 0.75 0 0] CT
0.851 0.325 0.098 RC
2 setlinecap
1 LJ
0.667 LW
N
496 87.833 M
491.77 87.833 L
S
GR
GS
[0.75 0 0 0.75 0 0] CT
0.851 0.325 0.098 RC
2 setlinecap
1 LJ
0.667 LW
N
496 31 M
491.77 31 L
S
GR
GS
[0.75 0 0 0.75 375.99998 279] CT
0.851 0.325 0.098 RC
/Helvetica 13.333 F
GS
[1 0 0 1 0 0] CT
0 5.5 moveto 
1 -1 scale
(0) t 
GR
GR
GS
[0.75 0 0 0.75 375.99998 236.37499] CT
0.851 0.325 0.098 RC
/Helvetica 13.333 F
GS
[1 0 0 1 0 0] CT
0 5.5 moveto 
1 -1 scale
(200) t 
GR
GR
GS
[0.75 0 0 0.75 375.99998 193.75001] CT
0.851 0.325 0.098 RC
/Helvetica 13.333 F
GS
[1 0 0 1 0 0] CT
0 5.5 moveto 
1 -1 scale
(400) t 
GR
GR
GS
[0.75 0 0 0.75 375.99998 151.125] CT
0.851 0.325 0.098 RC
/Helvetica 13.333 F
GS
[1 0 0 1 0 0] CT
0 5.5 moveto 
1 -1 scale
(600) t 
GR
GR
GS
[0.75 0 0 0.75 375.99998 108.5] CT
0.851 0.325 0.098 RC
/Helvetica 13.333 F
GS
[1 0 0 1 0 0] CT
0 5.5 moveto 
1 -1 scale
(800) t 
GR
GR
GS
[0.75 0 0 0.75 375.99998 65.875] CT
0.851 0.325 0.098 RC
/Helvetica 13.333 F
GS
[1 0 0 1 0 0] CT
0 5.5 moveto 
1 -1 scale
(1000) t 
GR
GR
GS
[0.75 0 0 0.75 375.99998 23.25] CT
0.851 0.325 0.098 RC
/Helvetica 13.333 F
GS
[1 0 0 1 0 0] CT
0 5.5 moveto 
1 -1 scale
(1200) t 
GR
GR
GS
[0 -0.75 0.75 0 416.25 189.75] CT
0.851 0.325 0.098 RC
/Helvetica 18.667 F
GS
[1 0 0 1 0 0] CT
0 0 moveto 
1 -1 scale
(Charge / ) t 
GR
GR
GS
[0 -0.75 0.75 0 416.25 132] CT
0.851 0.325 0.098 RC
N
0.531 3.578 M
0.531 3.453 0.547 3.422 QT
3.344 -7.797 L
3.422 -8.063 3.641 -8.227 QT
3.859 -8.391 4.141 -8.391 QT
4.375 -8.391 4.547 -8.25 QT
4.719 -8.109 4.719 -7.875 QT
4.719 -7.813 4.711 -7.781 QT
4.703 -7.75 4.688 -7.703 QT
3.578 -3.266 L
3.391 -2.484 3.391 -1.906 QT
3.391 -1.203 3.719 -0.742 QT
4.047 -0.281 4.734 -0.281 QT
6.109 -0.281 7.156 -2.016 QT
7.172 -2.031 7.18 -2.039 QT
7.188 -2.047 7.188 -2.063 QT
8.547 -7.578 L
8.625 -7.828 8.852 -8.008 QT
9.078 -8.188 9.359 -8.188 QT
9.578 -8.188 9.75 -8.039 QT
9.922 -7.891 9.922 -7.656 QT
9.922 -7.547 9.906 -7.5 QT
8.531 -2.031 L
8.391 -1.5 8.391 -1.109 QT
8.391 -0.281 8.953 -0.281 QT
9.547 -0.281 9.852 -1.016 QT
10.156 -1.75 10.375 -2.797 QT
10.406 -2.906 10.531 -2.906 QT
10.75 -2.906 L
10.828 -2.906 10.875 -2.844 QT
10.922 -2.781 10.922 -2.719 QT
10.594 -1.391 10.203 -0.586 QT
9.813 0.219 8.922 0.219 QT
8.281 0.219 7.797 -0.148 QT
7.313 -0.516 7.156 -1.125 QT
6.688 -0.531 6.055 -0.156 QT
5.422 0.219 4.719 0.219 QT
3.531 0.219 2.844 -0.344 QT
1.891 3.5 L
1.828 3.766 1.602 3.93 QT
1.375 4.094 1.109 4.094 QT
0.875 4.094 0.703 3.953 QT
0.531 3.813 0.531 3.578 QT
cp
f
GR
GS
[0 -0.75 0.75 0 416.25 123] CT
0.851 0.325 0.098 RC
/Helvetica 18.667 F
GS
[1 0 0 1 0 0] CT
0 0 moveto 
1 -1 scale
(C) t 
GR
GR
GS
[0.75 0 0 0.75 0 0] CT
N
73 31 M
497 31 L
497 372 L
73 372 L
73 31 L
cp
clip
0 0.447 0.741 RC
1 LJ
2 LW
N
83.152 158.371 M
83.355 157.942 L
83.558 157.799 L
83.761 158.335 L
83.964 157.621 L
84.167 157.907 L
84.37 158.192 L
84.573 157.585 L
84.776 158.299 L
84.979 157.978 L
85.182 157.657 L
85.385 158.228 L
85.588 157.871 L
85.792 157.942 L
85.995 158.371 L
86.198 157.799 L
86.401 157.728 L
86.604 158.371 L
86.807 157.799 L
87.01 158.049 L
87.213 158.442 L
87.416 157.692 L
87.619 158.264 L
87.822 158.228 L
88.025 157.764 L
88.228 158.371 L
88.431 158.085 L
88.634 157.728 L
88.837 158.299 L
89.04 157.871 L
89.243 158.228 L
89.446 158.192 L
89.649 157.585 L
89.852 158.121 L
90.055 158.228 L
90.258 157.585 L
90.461 158.192 L
90.664 157.835 L
90.868 157.764 L
91.071 158.442 L
91.274 158.049 L
91.477 157.657 L
91.68 158.406 L
91.883 157.692 L
92.086 157.799 L
92.289 158.335 L
92.492 157.657 L
92.695 158.192 L
92.898 158.121 L
93.101 157.442 L
93.304 158.085 L
93.507 158.121 L
93.71 157.585 L
93.913 158.299 L
94.116 157.835 L
94.319 157.799 L
94.522 158.085 L
94.725 157.799 L
94.928 157.728 L
95.131 158.121 L
95.334 157.621 L
95.537 158.014 L
95.74 158.192 L
95.944 157.728 L
96.147 158.049 L
96.35 158.049 L
96.553 157.692 L
96.756 158.299 L
96.959 158.014 L
97.162 157.692 L
97.365 158.299 L
97.568 157.871 L
97.771 157.907 L
97.974 158.549 L
98.177 157.692 L
98.38 158.049 L
98.583 158.085 L
98.786 157.657 L
98.989 158.228 L
99.192 158.299 L
99.395 157.621 L
99.598 158.299 L
99.801 157.978 L
100.004 157.764 L
100.207 158.371 L
100.41 157.942 L
100.613 157.978 L
100.816 158.478 L
101.02 157.978 L
101.223 158.192 L
101.426 158.335 L
101.629 157.657 L
101.832 158.156 L
102.035 158.299 L
102.238 157.621 L
102.441 158.478 L
102.644 158.049 L
102.847 157.728 L
103.05 158.478 L
103.253 157.907 L
103.456 158.121 L
103.659 158.478 L
103.862 157.692 L
104.065 158.049 L
104.268 158.192 L
104.471 157.799 L
104.674 158.228 L
104.877 158.049 L
105.08 157.514 L
105.283 158.371 L
105.486 158.049 L
105.689 157.657 L
105.892 158.371 L
106.096 157.835 L
106.299 157.871 L
106.502 158.228 L
106.705 157.692 L
106.908 157.978 L
107.111 158.264 L
107.314 157.585 L
107.517 158.121 L
107.72 158.264 L
107.923 157.657 L
108.126 158.335 L
108.329 157.907 L
108.532 157.764 L
108.735 158.442 L
108.938 157.835 L
109.141 157.835 L
109.344 158.228 L
109.547 157.585 L
109.75 158.014 L
109.953 158.371 L
110.156 157.728 L
110.359 158.228 L
110.562 158.299 L
110.765 157.55 L
110.968 158.442 L
111.172 158.228 L
111.375 157.692 L
111.578 158.478 L
111.781 157.907 L
111.984 157.978 L
112.187 158.335 L
112.39 157.907 L
112.593 158.085 L
112.796 158.442 L
112.999 157.514 L
113.202 158.156 L
113.405 158.299 L
113.608 157.585 L
113.811 158.335 L
114.014 157.942 L
114.217 157.621 L
114.42 158.335 L
114.623 157.835 L
114.826 157.942 L
115.029 158.406 L
115.232 157.585 L
115.435 157.514 L
115.638 156.657 L
115.841 155.479 L
116.044 155.086 L
116.248 153.98 L
116.451 152.552 L
116.654 152.48 L
116.857 151.374 L
117.06 150.124 L
117.263 150.053 L
117.466 148.875 L
117.669 147.875 L
117.872 147.661 L
118.075 146.197 L
118.278 145.519 L
118.481 145.09 L
118.684 143.591 L
118.887 143.163 L
119.09 142.663 L
119.293 141.271 L
119.496 140.985 L
119.699 140.2 L
119.902 138.915 L
120.105 138.736 L
120.308 137.558 L
120.511 136.665 L
120.714 136.451 L
120.917 134.952 L
121.12 134.345 L
121.324 133.917 L
121.527 132.56 L
121.73 132.453 L
121.933 131.703 L
122.136 130.382 L
122.339 130.097 L
122.542 129.24 L
122.745 128.133 L
122.948 128.026 L
123.151 126.705 L
123.354 126.098 L
123.557 125.92 L
123.76 124.563 L
123.963 123.956 L
124.166 123.742 L
124.369 122.35 L
124.572 121.993 L
124.775 121.315 L
124.978 120.065 L
125.181 120.065 L
125.384 119.03 L
125.587 117.923 L
125.79 117.888 L
125.993 116.852 L
126.196 115.996 L
126.4 116.138 L
126.603 114.568 L
126.806 113.961 L
127.009 113.889 L
127.212 112.39 L
127.415 112.354 L
127.618 111.533 L
127.821 110.391 L
128.024 110.177 L
128.227 109.284 L
128.43 108.284 L
128.633 108.606 L
128.836 107.214 L
129.039 106.392 L
129.242 106.214 L
129.445 105.143 L
129.648 104.5 L
129.851 104.358 L
130.054 102.93 L
130.257 102.644 L
130.46 102.18 L
130.663 100.966 L
130.866 100.895 L
131.069 100.002 L
131.272 98.931 L
131.476 98.896 L
131.679 97.86 L
131.882 97.111 L
132.085 97.075 L
132.288 95.754 L
132.491 95.326 L
132.694 94.862 L
132.897 93.612 L
133.1 93.434 L
133.303 92.862 L
133.506 91.649 L
133.709 91.684 L
133.912 90.828 L
134.115 89.721 L
134.318 89.864 L
134.521 88.686 L
134.724 87.972 L
134.927 88.114 L
135.13 86.758 L
135.333 86.365 L
135.536 86.222 L
135.739 84.687 L
135.942 84.544 L
136.145 84.259 L
136.348 82.724 L
136.552 83.009 L
136.755 82.153 L
136.958 81.01 L
137.161 81.189 L
137.364 80.189 L
137.567 79.332 L
137.77 79.368 L
137.973 78.261 L
138.176 77.69 L
138.379 77.726 L
138.582 76.369 L
138.785 76.119 L
138.988 75.798 L
139.191 74.656 L
139.394 74.584 L
139.597 73.87 L
139.8 72.764 L
140.003 72.978 L
140.206 71.978 L
140.409 71.514 L
140.612 71.371 L
140.815 70.193 L
141.018 69.765 L
141.221 69.693 L
141.424 68.23 L
141.628 68.23 L
141.831 67.801 L
142.034 66.659 L
142.237 66.695 L
142.44 66.159 L
142.643 65.053 L
142.846 65.195 L
143.049 64.481 L
143.252 63.589 L
143.455 63.625 L
143.658 62.554 L
143.861 62.232 L
144.064 62.304 L
144.267 60.911 L
144.47 60.769 L
144.673 60.662 L
144.876 59.591 L
145.079 59.412 L
145.282 59.019 L
145.485 57.984 L
145.688 58.27 L
145.891 57.413 L
146.094 56.913 L
146.297 56.949 L
146.5 56.056 L
146.704 55.592 L
146.907 55.521 L
147.11 54.414 L
147.313 54.521 L
147.516 54.271 L
147.719 53.343 L
147.922 53.486 L
148.125 53.272 L
148.328 52.451 L
148.531 52.701 L
148.734 52.237 L
148.937 51.737 L
149.14 52.201 L
149.343 51.772 L
149.546 51.665 L
149.749 52.308 L
149.952 51.701 L
150.155 52.558 L
150.358 53.486 L
150.561 53.986 L
150.764 55.414 L
150.967 57.377 L
151.17 58.948 L
151.373 62.375 L
151.576 66.266 L
151.78 71.264 L
151.983 78.618 L
152.186 85.758 L
152.389 94.933 L
152.592 105.429 L
152.795 114.746 L
152.998 124.064 L
153.201 132.81 L
153.404 138.379 L
153.607 143.627 L
153.81 147.589 L
154.013 149.267 L
154.216 151.481 L
154.419 152.587 L
154.622 152.802 L
154.825 154.23 L
155.028 154.087 L
155.231 154.194 L
155.434 155.122 L
155.637 154.551 L
155.84 154.765 L
156.043 155.265 L
156.246 154.694 L
156.449 155.051 L
156.652 155.158 L
156.856 154.479 L
157.059 155.122 L
157.262 155.158 L
157.465 154.479 L
157.668 155.336 L
157.871 154.836 L
158.074 154.765 L
158.277 155.336 L
158.48 154.622 L
158.683 154.765 L
158.886 155.479 L
159.089 154.729 L
159.292 155.051 L
159.495 155.336 L
159.698 154.479 L
159.901 155.229 L
160.104 155.051 L
160.307 154.444 L
160.51 155.265 L
160.713 155.015 L
160.916 154.551 L
161.119 155.515 L
161.322 154.801 L
161.525 154.872 L
161.728 155.443 L
161.932 154.658 L
162.135 155.158 L
162.338 155.408 L
162.541 154.515 L
162.744 155.158 L
162.947 155.158 L
163.15 154.551 L
163.353 155.193 L
163.556 155.086 L
163.759 154.658 L
163.962 155.408 L
164.165 154.765 L
164.368 154.836 L
164.571 155.336 L
164.774 154.479 L
164.977 154.729 L
165.18 155.372 L
165.383 154.515 L
165.586 155.122 L
165.789 155.051 L
165.992 154.479 L
166.195 155.229 L
166.398 154.836 L
166.601 154.515 L
166.804 155.479 L
167.008 154.622 L
167.211 154.658 L
167.414 155.372 L
167.617 154.658 L
167.82 155.051 L
168.023 155.372 L
168.226 154.622 L
168.429 155.158 L
168.632 155.229 L
168.835 154.408 L
169.038 155.193 L
169.241 154.801 L
169.444 154.658 L
169.647 155.372 L
169.85 154.943 L
170.053 154.765 L
170.256 155.408 L
170.459 154.729 L
170.662 154.872 L
170.865 155.3 L
171.068 154.551 L
171.271 155.051 L
171.474 155.158 L
171.677 154.551 L
171.88 155.051 L
172.084 154.908 L
172.287 154.444 L
172.49 155.265 L
172.693 154.729 L
172.896 154.658 L
173.099 155.265 L
173.302 154.515 L
173.505 154.836 L
173.708 155.193 L
173.911 154.372 L
174.114 154.908 L
174.317 155.086 L
174.52 154.301 L
174.723 155.158 L
174.926 154.872 L
175.129 154.23 L
175.332 155.122 L
175.535 154.801 L
175.738 154.515 L
175.941 155.229 L
176.144 154.551 L
176.347 154.551 L
176.55 155.193 L
176.753 154.301 L
176.956 154.765 L
177.16 155.086 L
177.363 154.158 L
177.566 154.979 L
177.769 154.908 L
177.972 154.408 L
178.175 155.193 L
178.378 154.729 L
178.581 154.587 L
178.784 155.051 L
178.987 154.479 L
179.19 154.551 L
179.393 155.086 L
179.596 154.408 L
179.799 154.765 L
180.002 154.943 L
180.205 154.23 L
180.408 154.943 L
180.611 154.908 L
180.814 154.23 L
181.017 155.122 L
181.22 154.551 L
181.423 154.194 L
181.626 155.122 L
181.829 154.515 L
182.032 154.301 L
182.236 155.086 L
182.439 154.265 L
182.642 154.658 L
182.845 155.086 L
183.048 154.301 L
183.251 154.943 L
183.454 154.765 L
183.657 154.194 L
183.86 154.943 L
184.063 154.587 L
184.266 154.408 L
184.469 155.086 L
184.672 154.444 L
184.875 154.337 L
185.078 154.801 L
185.281 154.158 L
185.484 154.587 L
185.687 154.836 L
185.89 154.194 L
186.093 154.765 L
186.296 154.765 L
186.499 154.051 L
186.702 155.015 L
186.905 154.301 L
187.108 153.98 L
187.312 154.979 L
187.515 154.301 L
187.718 154.301 L
187.921 155.051 L
188.124 154.158 L
188.327 154.515 L
188.53 154.872 L
188.733 154.23 L
188.936 154.801 L
189.139 154.765 L
189.342 154.015 L
189.545 154.872 L
189.748 154.729 L
189.951 154.051 L
190.154 154.908 L
190.357 154.337 L
190.56 154.372 L
190.763 154.872 L
190.966 154.122 L
191.169 154.479 L
191.372 154.872 L
191.575 154.051 L
191.778 154.658 L
191.981 154.658 L
192.184 154.158 L
192.388 154.658 L
192.591 154.479 L
192.794 154.051 L
192.997 154.943 L
193.2 154.408 L
193.403 154.265 L
193.606 154.801 L
193.809 154.015 L
194.012 154.515 L
194.215 154.765 L
194.418 154.051 L
194.621 154.729 L
194.824 154.551 L
195.027 154.087 L
195.23 154.801 L
195.433 154.265 L
195.636 154.015 L
195.839 154.872 L
196.042 154.051 L
196.245 154.158 L
196.448 154.801 L
196.651 153.944 L
196.854 154.301 L
197.057 154.622 L
197.26 153.837 L
197.464 154.372 L
197.667 154.515 L
197.87 153.837 L
198.073 154.515 L
198.276 154.158 L
198.479 153.873 L
198.682 154.836 L
198.885 154.265 L
199.088 153.98 L
199.291 154.801 L
199.494 154.122 L
199.697 154.301 L
199.9 154.765 L
200.103 153.908 L
200.306 154.515 L
200.509 154.587 L
200.712 153.73 L
200.915 154.729 L
201.118 154.372 L
201.321 153.908 L
201.524 154.801 L
201.727 154.265 L
201.93 154.122 L
202.133 154.765 L
202.336 153.908 L
202.54 154.194 L
202.743 154.801 L
202.946 153.908 L
203.149 154.372 L
203.352 154.694 L
203.555 153.73 L
203.758 154.694 L
203.961 154.551 L
204.164 153.944 L
204.367 154.658 L
204.57 154.265 L
204.773 154.158 L
204.976 154.622 L
205.179 154.122 L
205.382 154.194 L
205.585 154.694 L
205.788 153.873 L
205.991 154.372 L
206.194 154.479 L
206.397 153.837 L
206.6 154.408 L
206.803 154.158 L
207.006 153.765 L
207.209 154.587 L
207.412 153.98 L
207.616 153.944 L
207.819 154.694 L
208.022 153.944 L
208.225 154.194 L
208.428 154.658 L
208.631 153.908 L
208.834 154.194 L
209.037 154.408 L
209.24 153.765 L
209.443 154.444 L
209.646 154.301 L
209.849 153.623 L
210.052 154.658 L
210.255 154.158 L
210.458 153.908 L
210.661 154.694 L
210.864 153.908 L
211.067 154.051 L
211.27 154.587 L
211.473 153.908 L
211.676 154.23 L
211.879 154.587 L
212.082 153.694 L
212.285 154.408 L
212.488 154.337 L
212.692 153.73 L
212.895 154.729 L
213.098 154.087 L
213.301 153.944 L
213.504 154.622 L
213.707 153.98 L
213.91 154.051 L
214.113 154.587 L
214.316 153.658 L
214.519 154.122 L
214.722 154.551 L
214.925 153.623 L
215.128 154.408 L
215.331 154.194 L
215.534 153.658 L
215.737 154.444 L
215.94 154.087 L
216.143 153.837 L
216.346 154.694 L
216.549 153.73 L
216.752 153.873 L
216.955 154.551 L
217.158 153.694 L
217.361 154.087 L
217.564 154.479 L
217.768 153.694 L
217.971 154.444 L
218.174 154.408 L
218.377 153.73 L
218.58 154.479 L
218.783 154.051 L
218.986 153.658 L
219.189 154.551 L
219.392 153.551 L
219.595 153.873 L
219.798 154.301 L
220.001 153.694 L
220.204 153.944 L
220.407 154.194 L
220.61 153.694 L
220.813 154.087 L
221.016 154.087 L
221.219 153.623 L
221.422 154.158 L
221.625 154.051 L
221.828 153.873 L
222.031 154.551 L
222.234 153.801 L
222.437 153.908 L
222.64 154.587 L
222.844 153.516 L
223.047 153.801 L
223.25 154.301 L
223.453 153.587 L
223.656 154.194 L
223.859 154.23 L
224.062 153.373 L
224.265 154.479 L
224.468 153.944 L
224.671 153.48 L
224.874 154.479 L
225.077 153.623 L
225.28 153.801 L
225.483 154.301 L
225.686 153.516 L
225.889 154.087 L
226.092 154.515 L
226.295 153.551 L
226.498 154.051 L
226.701 154.051 L
226.904 153.73 L
227.107 154.265 L
227.31 154.087 L
227.513 153.623 L
227.716 154.301 L
227.92 153.623 L
228.123 153.694 L
228.326 154.23 L
228.529 153.48 L
228.732 153.908 L
228.935 154.194 L
229.138 153.48 L
229.341 154.051 L
229.544 153.908 L
229.747 153.373 L
229.95 154.265 L
230.153 153.944 L
230.356 153.444 L
230.559 154.444 L
230.762 153.765 L
230.965 153.765 L
231.168 154.23 L
231.371 153.551 L
231.574 153.801 L
231.777 154.23 L
231.98 153.408 L
232.183 153.908 L
232.386 153.908 L
232.589 153.408 L
232.792 154.087 L
232.996 153.658 L
233.199 153.337 L
233.402 154.158 L
233.605 153.551 L
233.808 153.551 L
234.011 154.087 L
234.214 153.444 L
234.417 153.658 L
234.62 154.015 L
234.823 153.123 L
235.026 153.944 L
235.229 153.944 L
235.432 153.444 L
235.635 154.087 L
235.838 153.873 L
236.041 153.337 L
236.244 154.122 L
236.447 153.623 L
236.65 153.551 L
236.853 154.087 L
237.056 153.373 L
237.259 153.658 L
237.462 154.301 L
237.665 153.23 L
237.868 153.98 L
238.072 153.837 L
238.275 153.266 L
238.478 154.015 L
238.681 153.658 L
238.884 153.301 L
239.087 154.194 L
239.29 153.408 L
239.493 153.373 L
239.696 154.122 L
239.899 153.337 L
240.102 153.444 L
240.305 154.051 L
240.508 153.159 L
240.711 153.801 L
240.914 153.837 L
241.117 153.123 L
241.32 153.765 L
241.523 153.587 L
241.726 153.337 L
241.929 153.908 L
242.132 153.658 L
242.335 153.301 L
242.538 154.051 L
242.741 153.48 L
242.944 153.623 L
243.148 154.015 L
243.351 153.23 L
243.554 153.516 L
243.757 153.873 L
243.96 153.087 L
244.163 153.73 L
244.366 153.694 L
244.569 153.23 L
244.772 153.837 L
244.975 153.48 L
245.178 153.266 L
245.381 154.122 L
245.584 153.337 L
245.787 153.408 L
245.99 153.98 L
246.193 153.194 L
246.396 153.694 L
246.599 153.837 L
246.802 153.087 L
247.005 153.873 L
247.208 153.623 L
247.411 153.123 L
247.614 154.158 L
247.817 153.48 L
248.02 153.266 L
248.224 153.873 L
248.427 153.23 L
248.63 153.373 L
248.833 153.908 L
249.036 153.087 L
249.239 153.694 L
249.442 153.694 L
249.645 153.194 L
249.848 153.837 L
250.051 153.73 L
250.254 153.016 L
250.457 153.944 L
250.66 153.516 L
250.863 153.373 L
251.066 154.122 L
251.269 153.23 L
251.472 153.48 L
251.675 153.944 L
251.878 153.23 L
252.081 153.694 L
252.284 154.015 L
252.487 153.123 L
252.69 153.73 L
252.893 153.73 L
253.096 153.051 L
253.3 154.23 L
253.503 153.373 L
253.706 153.266 L
253.909 154.051 L
254.112 153.194 L
254.315 153.373 L
254.518 154.051 L
254.721 153.123 L
254.924 153.551 L
255.127 153.908 L
255.33 153.051 L
255.533 153.73 L
255.736 153.516 L
255.939 152.98 L
256.142 153.873 L
256.345 153.266 L
256.548 153.051 L
256.751 153.73 L
256.954 153.159 L
257.157 153.373 L
257.36 153.873 L
257.563 153.159 L
257.766 153.408 L
257.969 153.623 L
258.172 152.944 L
258.376 153.73 L
258.579 153.623 L
258.782 152.873 L
258.985 153.73 L
259.188 153.301 L
259.391 153.194 L
259.594 153.873 L
259.797 153.23 L
260 153.408 L
260.203 153.765 L
260.406 153.159 L
260.609 153.301 L
260.812 153.837 L
261.015 152.98 L
261.218 153.623 L
261.421 153.623 L
261.624 152.873 L
261.827 153.73 L
262.03 153.48 L
262.233 153.159 L
262.436 153.908 L
262.639 153.301 L
262.842 153.23 L
263.045 153.908 L
263.248 153.016 L
263.452 153.301 L
263.655 153.658 L
263.858 152.98 L
264.061 153.73 L
264.264 153.551 L
264.467 152.944 L
264.67 153.873 L
264.873 153.266 L
265.076 152.944 L
265.279 153.908 L
265.482 153.444 L
265.685 153.087 L
265.888 153.801 L
266.091 152.98 L
266.294 153.23 L
266.497 153.587 L
266.7 152.837 L
266.903 153.623 L
267.106 153.623 L
267.309 153.051 L
267.512 153.801 L
267.715 153.408 L
267.918 153.266 L
268.121 153.944 L
268.324 153.444 L
268.528 153.23 L
268.731 153.801 L
268.934 153.123 L
269.137 153.337 L
269.34 154.087 L
269.543 152.944 L
269.746 153.694 L
269.949 153.48 L
270.152 152.766 L
270.355 153.694 L
270.558 153.587 L
270.761 153.087 L
270.964 153.837 L
271.167 153.23 L
271.37 153.301 L
271.573 154.015 L
271.776 152.909 L
271.979 153.337 L
272.182 153.98 L
272.385 152.909 L
272.588 153.408 L
272.791 153.694 L
272.994 152.837 L
273.197 153.944 L
273.4 153.373 L
273.604 153.159 L
273.807 153.944 L
274.01 153.194 L
274.213 153.159 L
274.416 153.694 L
274.619 153.159 L
274.822 153.337 L
275.025 153.765 L
275.228 152.837 L
275.431 153.623 L
275.634 153.694 L
275.837 152.98 L
276.04 153.765 L
276.243 153.373 L
276.446 153.087 L
276.649 153.908 L
276.852 153.301 L
277.055 153.194 L
277.258 153.837 L
277.461 153.194 L
277.664 153.337 L
277.867 153.73 L
278.07 152.766 L
278.273 153.337 L
278.476 153.48 L
278.68 152.802 L
278.883 153.658 L
279.086 153.444 L
279.289 152.837 L
279.492 153.765 L
279.695 153.194 L
279.898 153.23 L
280.101 153.765 L
280.304 153.016 L
280.507 153.016 L
280.71 153.551 L
280.913 152.659 L
281.116 153.301 L
281.319 153.444 L
281.522 152.659 L
281.725 153.373 L
281.928 153.408 L
282.131 152.802 L
282.334 153.551 L
282.537 153.016 L
282.74 152.944 L
282.943 153.694 L
283.146 152.909 L
283.349 153.194 L
283.552 153.658 L
283.756 152.873 L
283.959 153.266 L
284.162 153.587 L
284.365 152.694 L
284.568 153.516 L
284.771 153.266 L
284.974 152.873 L
285.177 153.908 L
285.38 153.194 L
285.583 152.944 L
285.786 153.694 L
285.989 153.051 L
286.192 153.194 L
286.395 153.658 L
286.598 152.98 L
286.801 153.516 L
287.004 153.658 L
287.207 152.766 L
287.41 153.516 L
287.613 153.408 L
287.816 152.98 L
288.019 153.48 L
288.222 153.266 L
288.425 152.98 L
288.628 153.801 L
288.832 152.909 L
289.035 153.23 L
289.238 153.73 L
289.441 152.873 L
289.644 153.266 L
289.847 153.587 L
290.05 152.873 L
290.253 153.516 L
290.456 153.48 L
290.659 152.837 L
290.862 153.587 L
291.065 153.408 L
291.268 153.159 L
291.471 153.623 L
291.674 153.087 L
291.877 153.159 L
292.08 153.801 L
292.283 152.802 L
292.486 153.408 L
292.689 153.373 L
292.892 152.659 L
293.095 153.444 L
293.298 153.301 L
293.501 152.802 L
293.704 153.623 L
293.908 153.123 L
294.111 152.873 L
294.314 153.658 L
294.517 153.016 L
294.72 153.123 L
294.923 153.48 L
295.126 152.873 L
295.329 153.159 L
295.532 153.516 L
295.735 152.587 L
295.938 153.408 L
296.141 153.444 L
296.344 152.73 L
296.547 153.658 L
296.75 153.123 L
296.953 152.909 L
297.156 153.444 L
297.359 152.802 L
297.562 152.944 L
297.765 153.444 L
297.968 152.694 L
298.171 153.159 L
298.374 153.551 L
298.577 152.623 L
298.78 153.016 L
298.984 153.266 L
299.187 152.409 L
299.39 153.587 L
299.593 153.123 L
299.796 152.694 L
299.999 153.801 L
300.202 152.909 L
300.405 153.051 L
300.608 153.623 L
300.811 152.73 L
301.014 153.051 L
301.217 153.444 L
301.42 152.623 L
301.623 153.301 L
301.826 153.373 L
302.029 152.694 L
302.232 153.408 L
302.435 153.087 L
302.638 152.73 L
302.841 153.516 L
303.044 152.944 L
303.247 153.016 L
303.45 153.551 L
303.653 152.766 L
303.856 153.23 L
304.06 153.551 L
304.263 152.73 L
304.466 153.301 L
304.669 153.373 L
304.872 152.659 L
305.075 153.337 L
305.278 153.123 L
305.481 152.873 L
305.684 153.623 L
305.887 152.909 L
306.09 153.016 L
306.293 153.658 L
306.496 152.766 L
306.699 153.087 L
306.902 153.444 L
307.105 152.552 L
307.308 153.23 L
307.511 153.123 L
307.714 152.623 L
307.917 153.373 L
308.12 153.123 L
308.323 152.766 L
308.526 153.551 L
308.729 152.98 L
308.932 152.802 L
309.136 153.587 L
309.339 152.623 L
309.542 152.98 L
309.745 153.23 L
309.948 152.552 L
310.151 153.016 L
310.354 153.23 L
310.557 152.445 L
310.76 153.444 L
310.963 152.98 L
311.166 152.694 L
311.369 153.373 L
311.572 152.873 L
311.775 152.73 L
311.978 153.23 L
312.181 152.802 L
312.384 153.051 L
312.587 153.444 L
312.79 152.552 L
312.993 153.087 L
313.196 153.159 L
313.399 152.623 L
313.602 153.301 L
313.805 152.98 L
314.008 152.552 L
314.212 153.337 L
314.415 152.944 L
314.618 152.694 L
314.821 153.551 L
315.024 152.552 L
315.227 152.98 L
315.43 153.337 L
315.633 152.623 L
315.836 152.98 L
316.039 153.266 L
316.242 152.516 L
316.445 153.337 L
316.648 153.159 L
316.851 152.802 L
317.054 153.48 L
317.257 152.802 L
317.46 152.659 L
317.663 153.444 L
317.866 152.766 L
318.069 152.873 L
318.272 153.337 L
318.475 152.445 L
318.678 153.016 L
318.881 153.23 L
319.084 152.587 L
319.288 153.266 L
319.491 153.123 L
319.694 152.659 L
319.897 153.516 L
320.1 152.802 L
320.303 152.837 L
320.506 153.444 L
320.709 152.837 L
320.912 152.837 L
321.115 153.408 L
321.318 152.73 L
321.521 153.194 L
321.724 153.23 L
321.927 152.516 L
322.13 153.123 L
322.333 153.123 L
322.536 152.409 L
322.739 153.373 L
322.942 152.873 L
323.145 152.587 L
323.348 153.373 L
323.551 152.873 L
323.754 152.73 L
323.957 153.48 L
324.16 152.623 L
324.364 153.051 L
324.567 153.373 L
324.77 152.659 L
324.973 153.194 L
325.176 153.016 L
325.379 152.587 L
325.582 153.373 L
325.785 152.837 L
325.988 152.373 L
326.191 153.373 L
326.394 152.73 L
326.597 152.659 L
326.8 153.373 L
327.003 152.587 L
327.206 152.944 L
327.409 153.159 L
327.612 152.266 L
327.815 153.087 L
328.018 153.123 L
328.221 152.445 L
328.424 153.337 L
328.627 152.766 L
328.83 152.373 L
329.033 153.23 L
329.236 152.516 L
329.44 152.694 L
329.643 153.123 L
329.846 152.48 L
330.049 153.016 L
330.252 153.23 L
330.455 152.516 L
330.658 153.016 L
330.861 153.266 L
331.064 152.337 L
331.267 153.159 L
331.47 152.944 L
331.673 152.48 L
331.876 153.266 L
332.079 152.587 L
332.282 152.766 L
332.485 153.301 L
332.688 152.552 L
332.891 152.909 L
333.094 153.337 L
333.297 152.659 L
333.5 153.087 L
333.703 153.159 L
333.906 152.694 L
334.109 153.373 L
334.312 152.98 L
334.516 152.623 L
334.719 153.23 L
334.922 152.694 L
335.125 152.73 L
335.328 153.23 L
335.531 152.659 L
335.734 152.944 L
335.937 153.194 L
336.14 152.48 L
336.343 152.98 L
336.546 153.159 L
336.749 152.516 L
336.952 153.337 L
337.155 152.694 L
337.358 152.623 L
337.561 153.444 L
337.764 152.766 L
337.967 152.694 L
338.17 153.337 L
338.373 152.48 L
338.576 152.802 L
338.779 153.48 L
338.982 152.373 L
339.185 153.051 L
339.388 152.98 L
339.592 152.659 L
339.795 153.051 L
339.998 152.98 L
340.201 152.623 L
340.404 153.301 L
340.607 152.837 L
340.81 152.623 L
341.013 153.266 L
341.216 152.587 L
341.419 152.802 L
341.622 153.301 L
341.825 152.409 L
342.028 152.909 L
342.231 152.98 L
342.434 152.552 L
342.637 153.373 L
342.84 152.98 L
343.043 152.445 L
343.246 153.266 L
343.449 152.837 L
343.652 152.766 L
343.855 153.266 L
344.058 152.552 L
344.261 152.623 L
344.464 153.194 L
344.668 152.445 L
344.871 153.159 L
345.074 153.159 L
345.277 152.409 L
345.48 153.016 L
345.683 153.051 L
345.886 152.552 L
346.089 153.23 L
346.292 152.694 L
346.495 152.766 L
346.698 153.373 L
346.901 152.445 L
347.104 152.766 L
347.307 153.266 L
347.51 152.409 L
347.713 152.98 L
347.916 152.98 L
348.119 152.266 L
348.322 152.909 L
348.525 152.944 L
348.728 152.373 L
348.931 153.123 L
349.134 152.552 L
349.337 152.337 L
349.54 153.123 L
349.744 152.409 L
349.947 152.694 L
350.15 153.23 L
350.353 152.159 L
350.556 152.73 L
350.759 152.766 L
350.962 152.23 L
351.165 152.873 L
351.368 152.873 L
351.571 152.409 L
351.774 153.23 L
351.977 152.623 L
352.18 152.373 L
352.383 153.194 L
352.586 152.48 L
352.789 152.659 L
352.992 153.123 L
353.195 152.337 L
353.398 152.766 L
353.601 153.051 L
353.804 152.23 L
354.007 152.802 L
354.21 152.766 L
354.413 152.337 L
354.616 153.159 L
354.82 152.659 L
355.023 152.48 L
355.226 153.159 L
355.429 152.623 L
355.632 152.694 L
355.835 153.194 L
356.038 152.302 L
356.241 152.944 L
356.444 153.159 L
356.647 152.48 L
356.85 153.016 L
357.053 152.873 L
357.256 152.302 L
357.459 153.373 L
357.662 152.73 L
357.865 152.445 L
358.068 153.266 L
358.271 152.587 L
358.474 152.694 L
358.677 153.23 L
358.88 152.409 L
359.083 152.909 L
359.286 152.909 L
359.489 152.266 L
359.692 153.016 L
359.896 152.694 L
360.099 152.266 L
360.302 152.98 L
360.505 152.73 L
360.708 152.409 L
360.911 153.159 L
361.114 152.587 L
361.317 152.48 L
361.52 153.159 L
361.723 152.48 L
361.926 152.659 L
362.129 153.23 L
362.332 152.159 L
362.535 152.802 L
362.738 152.909 L
362.941 152.23 L
363.144 153.23 L
363.347 152.623 L
363.55 152.373 L
363.753 153.087 L
363.956 152.587 L
364.159 152.766 L
364.362 153.23 L
364.565 152.195 L
364.768 152.587 L
364.972 153.159 L
365.175 152.409 L
365.378 153.016 L
365.581 153.016 L
365.784 152.23 L
365.987 153.016 L
366.19 152.73 L
366.393 152.23 L
366.596 153.194 L
366.799 152.516 L
367.002 152.516 L
367.205 153.087 L
367.408 152.48 L
367.611 152.73 L
367.814 153.266 L
368.017 152.266 L
368.22 152.766 L
368.423 153.087 L
368.626 152.337 L
368.829 153.194 L
369.032 152.802 L
369.235 152.409 L
369.438 153.123 L
369.641 152.802 L
369.844 152.48 L
370.048 153.23 L
370.251 152.409 L
370.454 152.587 L
370.657 153.23 L
370.86 152.445 L
371.063 152.766 L
371.266 152.98 L
371.469 152.445 L
371.672 152.766 L
371.875 152.766 L
372.078 152.266 L
372.281 153.194 L
372.484 152.659 L
372.687 152.445 L
372.89 153.159 L
373.093 152.337 L
373.296 152.659 L
373.499 153.194 L
373.702 152.23 L
373.905 152.73 L
374.108 153.016 L
374.311 152.088 L
374.514 153.051 L
374.717 152.802 L
374.92 152.266 L
375.124 153.016 L
375.327 152.659 L
375.53 152.302 L
375.733 153.016 L
375.936 152.48 L
376.139 152.587 L
376.342 153.087 L
376.545 152.302 L
376.748 152.766 L
376.951 153.016 L
377.154 152.23 L
377.357 153.087 L
377.56 152.909 L
377.763 152.302 L
377.966 153.159 L
378.169 152.623 L
378.372 152.516 L
378.575 153.123 L
378.778 152.516 L
378.981 152.659 L
379.184 153.194 L
379.387 152.48 L
379.59 152.659 L
379.793 153.051 L
379.996 152.373 L
380.2 152.802 L
380.403 152.802 L
380.606 152.302 L
380.809 153.051 L
381.012 152.623 L
381.215 152.266 L
381.418 153.123 L
381.621 152.302 L
381.824 152.623 L
382.027 152.873 L
382.23 152.195 L
382.433 152.516 L
382.636 152.944 L
382.839 152.302 L
383.042 152.909 L
383.245 153.016 L
383.448 152.373 L
383.651 152.98 L
383.854 152.694 L
384.057 152.302 L
384.26 152.98 L
384.463 152.552 L
384.666 152.445 L
384.869 153.087 L
385.072 152.159 L
385.276 152.48 L
385.479 153.016 L
385.682 152.195 L
385.885 152.694 L
386.088 152.837 L
386.291 152.195 L
386.494 152.802 L
386.697 152.587 L
386.9 152.159 L
387.103 152.944 L
387.306 152.445 L
387.509 152.088 L
387.712 152.909 L
387.915 152.373 L
388.118 152.659 L
388.321 152.873 L
388.524 152.23 L
388.727 152.837 L
388.93 152.73 L
389.133 152.052 L
389.336 152.909 L
389.539 152.766 L
389.742 152.373 L
389.945 153.159 L
390.148 152.409 L
390.352 152.373 L
390.555 153.23 L
390.758 152.409 L
390.961 152.409 L
391.164 153.016 L
391.367 152.266 L
391.57 152.623 L
391.773 153.016 L
391.976 152.123 L
392.179 153.016 L
392.382 152.659 L
392.585 152.373 L
392.788 152.944 L
392.991 152.516 L
393.194 152.373 L
393.397 152.944 L
393.6 152.266 L
393.803 152.516 L
394.006 153.194 L
394.209 152.266 L
394.412 152.48 L
394.615 152.659 L
394.818 152.052 L
395.021 152.73 L
395.224 152.694 L
395.428 152.088 L
395.631 152.837 L
395.834 152.516 L
396.037 152.088 L
396.24 153.016 L
396.443 152.337 L
396.646 152.445 L
396.849 152.909 L
397.052 152.123 L
397.255 152.587 L
397.458 152.944 L
397.661 152.123 L
397.864 152.766 L
398.067 152.73 L
398.27 152.088 L
398.473 152.944 L
398.676 152.552 L
398.879 152.195 L
399.082 152.98 L
399.285 152.302 L
399.488 152.48 L
399.691 152.909 L
399.894 152.195 L
400.097 152.48 L
400.3 152.944 L
400.504 152.052 L
400.707 152.909 L
400.91 152.73 L
401.113 152.23 L
401.316 152.909 L
401.519 152.694 L
401.722 152.123 L
401.925 153.051 L
402.128 152.552 L
402.331 152.48 L
402.534 153.159 L
402.737 152.159 L
402.94 152.445 L
403.143 153.016 L
403.346 152.088 L
403.549 152.587 L
403.752 152.909 L
403.955 152.337 L
404.158 153.051 L
404.361 152.837 L
404.564 152.23 L
404.767 152.909 L
404.97 152.48 L
405.173 152.445 L
405.376 153.051 L
405.58 152.373 L
405.783 152.73 L
405.986 152.944 L
406.189 152.23 L
406.392 152.802 L
406.595 152.98 L
406.798 152.302 L
407.001 152.909 L
407.204 152.623 L
407.407 152.123 L
407.61 153.23 L
407.813 152.623 L
408.016 152.409 L
408.219 153.123 L
408.422 152.302 L
408.625 152.694 L
408.828 153.016 L
409.031 152.373 L
409.234 152.659 L
409.437 152.837 L
409.64 152.052 L
409.843 152.909 L
410.046 152.587 L
410.249 152.302 L
410.452 153.016 L
410.656 152.587 L
410.859 152.23 L
411.062 153.016 L
411.265 152.302 L
411.468 370.567 L
411.671 273.037 L
411.874 241.086 L
412.077 220.773 L
412.28 212.955 L
412.483 204.708 L
412.686 198.961 L
412.889 196.997 L
413.092 192.107 L
413.295 190.393 L
413.498 189.036 L
413.701 186.002 L
413.904 185.574 L
414.107 183.646 L
414.31 182.075 L
414.513 182.432 L
414.716 180.183 L
414.919 180.004 L
415.122 179.647 L
415.325 178.005 L
415.528 178.184 L
415.732 177.684 L
415.935 176.542 L
416.138 176.899 L
416.341 175.899 L
416.544 175.292 L
416.747 175.578 L
416.95 174.614 L
417.153 174.328 L
417.356 174.65 L
417.559 173.364 L
417.762 173.65 L
417.965 173.4 L
418.168 172.543 L
418.371 173.007 L
418.574 172.579 L
418.777 171.758 L
418.98 172.329 L
419.183 171.722 L
419.386 171.329 L
419.589 171.936 L
419.792 170.901 L
419.995 171.008 L
420.198 171.329 L
420.401 170.151 L
420.604 170.651 L
420.808 170.651 L
421.011 169.723 L
421.214 170.366 L
421.417 170.009 L
421.62 169.366 L
421.823 170.151 L
422.026 169.33 L
422.229 169.009 L
422.432 169.759 L
422.635 168.973 L
422.838 168.938 L
423.041 169.366 L
423.244 168.509 L
423.447 168.902 L
423.65 169.188 L
423.853 168.152 L
424.056 168.795 L
424.259 168.545 L
424.462 167.938 L
424.665 168.759 L
424.868 168.224 L
425.071 167.76 L
425.274 168.438 L
425.477 167.688 L
425.68 167.652 L
425.884 168.152 L
426.087 167.367 L
426.29 167.617 L
426.493 168.009 L
426.696 166.938 L
426.899 167.652 L
427.102 167.581 L
427.305 167.01 L
427.508 167.724 L
427.711 167.153 L
427.914 166.938 L
428.117 167.617 L
428.32 166.796 L
428.523 166.867 L
428.726 167.331 L
428.929 166.51 L
429.132 167.01 L
429.335 167.046 L
429.538 166.26 L
429.741 166.867 L
429.944 166.796 L
430.147 166.26 L
430.35 166.867 L
430.553 166.546 L
430.756 166.153 L
430.96 166.938 L
431.163 166.224 L
431.366 166.189 L
431.569 166.903 L
431.772 165.903 L
431.975 166.474 L
432.178 166.51 L
432.381 165.653 L
432.584 166.51 L
432.787 166.296 L
432.99 165.689 L
433.193 166.474 L
433.396 165.939 L
433.599 165.582 L
433.802 166.26 L
434.005 165.832 L
434.208 165.725 L
434.411 166.439 L
434.614 165.475 L
434.817 165.903 L
435.02 166.153 L
435.223 165.296 L
435.426 166.01 L
435.629 165.867 L
435.832 165.225 L
436.036 166.153 L
436.239 165.653 L
436.442 165.368 L
436.645 166.153 L
436.848 165.368 L
437.051 165.332 L
437.254 165.975 L
437.457 165.046 L
437.66 165.51 L
437.863 165.653 L
438.066 164.868 L
438.269 165.689 L
438.472 165.689 L
438.675 164.797 L
438.878 165.582 L
439.081 165.332 L
439.284 164.725 L
439.487 165.618 L
439.69 164.904 L
439.893 165.011 L
440.096 165.618 L
440.299 164.832 L
440.502 165.118 L
440.705 165.475 L
440.908 164.475 L
441.112 165.225 L
441.315 165.225 L
441.518 164.725 L
441.721 165.261 L
441.924 165.118 L
442.127 164.582 L
442.33 165.261 L
442.533 164.797 L
442.736 164.797 L
442.939 165.368 L
443.142 164.832 L
443.345 165.011 L
443.548 165.011 L
443.751 164.297 L
443.954 165.011 L
444.157 164.975 L
444.36 164.261 L
444.563 165.082 L
444.766 164.689 L
444.969 164.118 L
445.172 165.082 L
445.375 164.582 L
445.578 164.404 L
445.781 165.332 L
445.984 164.332 L
446.188 164.511 L
446.391 164.832 L
446.594 164.19 L
446.797 164.832 L
447 164.797 L
447.203 164.083 L
447.406 164.654 L
447.609 164.404 L
447.812 164.083 L
448.015 164.725 L
448.218 164.297 L
448.421 164.118 L
448.624 164.654 L
448.827 164.154 L
449.03 164.118 L
449.233 164.654 L
449.436 163.833 L
449.639 164.44 L
449.842 164.475 L
450.045 163.654 L
450.248 164.44 L
450.451 164.261 L
450.654 163.797 L
450.857 164.582 L
451.06 164.047 L
451.264 164.011 L
451.467 164.725 L
451.67 164.011 L
451.873 164.083 L
452.076 164.511 L
452.279 163.583 L
452.482 164.297 L
452.685 164.297 L
452.888 163.547 L
453.091 164.332 L
453.294 164.19 L
453.497 163.476 L
453.7 164.582 L
453.903 164.011 L
454.106 163.761 L
454.309 164.332 L
454.512 164.011 L
454.715 163.868 L
454.918 164.511 L
455.121 163.761 L
455.324 164.19 L
455.527 164.618 L
455.73 163.369 L
455.933 164.368 L
456.136 164.404 L
456.34 163.44 L
456.543 164.689 L
456.746 163.975 L
456.949 163.618 L
457.152 164.44 L
457.355 163.69 L
457.558 164.047 L
457.761 164.368 L
457.964 163.726 L
458.167 164.118 L
458.37 164.118 L
458.573 163.583 L
458.776 164.154 L
458.979 164.047 L
459.182 163.511 L
459.385 164.118 L
459.588 163.94 L
459.791 163.69 L
459.994 164.19 L
460.197 163.511 L
460.4 163.583 L
460.603 164.44 L
460.806 163.618 L
461.009 163.797 L
461.212 164.225 L
461.415 163.583 L
461.619 164.19 L
461.822 164.154 L
462.025 163.44 L
462.228 164.118 L
462.431 163.94 L
462.634 163.547 L
462.837 164.297 L
463.04 163.583 L
463.243 163.547 L
463.446 164.297 L
463.649 163.583 L
463.852 163.726 L
464.055 164.118 L
464.258 163.333 L
464.461 163.797 L
464.664 163.94 L
464.867 163.226 L
465.07 164.154 L
465.273 163.69 L
465.476 163.369 L
465.679 163.94 L
465.882 163.654 L
466.085 163.476 L
466.288 164.083 L
466.492 163.333 L
466.695 163.69 L
466.898 164.047 L
467.101 163.333 L
467.304 163.654 L
467.507 163.797 L
467.71 163.154 L
467.913 163.868 L
468.116 163.797 L
468.319 163.154 L
468.522 164.011 L
468.725 163.369 L
468.928 163.333 L
469.131 163.975 L
469.334 163.226 L
469.537 163.511 L
469.74 163.797 L
469.943 163.261 L
470.146 163.69 L
470.349 163.797 L
470.552 163.119 L
470.755 163.69 L
470.958 163.654 L
471.161 163.226 L
471.364 163.761 L
471.568 163.333 L
471.771 163.261 L
471.974 164.047 L
472.177 163.261 L
472.38 163.261 L
472.583 163.975 L
472.786 163.083 L
472.989 163.369 L
473.192 163.511 L
473.395 163.154 L
473.598 163.618 L
473.801 163.547 L
474.004 163.012 L
474.207 163.761 L
474.41 163.369 L
474.613 163.012 L
474.816 163.761 L
475.019 163.19 L
475.222 163.047 L
475.425 163.761 L
475.628 162.904 L
475.831 163.333 L
476.034 163.583 L
476.237 163.047 L
476.44 163.511 L
476.644 163.476 L
476.847 162.976 L
477.05 163.726 L
477.253 163.261 L
477.456 162.976 L
477.659 163.761 L
477.862 163.119 L
478.065 163.261 L
478.268 163.726 L
478.471 162.904 L
478.674 163.226 L
478.877 163.583 L
479.08 162.833 L
479.283 163.44 L
479.486 163.369 L
479.689 162.762 L
479.892 163.44 L
480.095 163.154 L
480.298 162.94 L
480.501 163.547 L
480.704 162.94 L
480.907 162.94 L
481.11 163.511 L
481.313 162.69 L
481.517 163.154 L
481.72 163.404 L
481.923 162.797 L
482.126 163.226 L
482.329 163.226 L
482.532 162.797 L
482.735 163.226 L
482.938 163.083 L
483.141 162.762 L
483.344 163.404 L
483.547 162.94 L
483.75 162.94 L
483.953 163.547 L
484.156 162.833 L
484.359 162.869 L
484.562 163.618 L
484.765 162.762 L
484.968 163.047 L
485.171 163.297 L
485.374 162.726 L
485.577 163.404 L
485.78 163.119 L
485.983 162.619 L
486.186 163.44 L
486.389 163.047 L
486.592 162.833 L
486.796 163.333 L
486.999 162.833 L
487.202 163.083 L
487.405 163.297 L
487.608 162.726 L
487.811 163.261 L
488.014 163.333 L
488.217 162.69 L
488.42 163.261 L
488.623 163.083 L
488.826 162.619 L
S
GR
GS
[0.75 0 0 0.75 0 0] CT
0.851 0.325 0.098 RC
1 LJ
2 LW
N
83.152 372 M
83.355 371.988 L
83.558 371.972 L
83.761 371.96 L
83.964 371.945 L
84.167 371.927 L
84.37 371.914 L
84.573 371.898 L
84.776 371.883 L
84.979 371.872 L
85.182 371.855 L
85.385 371.84 L
85.588 371.827 L
85.792 371.811 L
85.995 371.8 L
86.198 371.787 L
86.401 371.769 L
86.604 371.756 L
86.807 371.743 L
87.01 371.728 L
87.213 371.718 L
87.416 371.705 L
87.619 371.691 L
87.822 371.681 L
88.025 371.667 L
88.228 371.654 L
88.431 371.643 L
88.634 371.628 L
88.837 371.614 L
89.04 371.601 L
89.243 371.588 L
89.446 371.578 L
89.649 371.562 L
89.852 371.546 L
90.055 371.534 L
90.258 371.519 L
90.461 371.503 L
90.664 371.489 L
90.868 371.472 L
91.071 371.46 L
91.274 371.45 L
91.477 371.433 L
91.68 371.42 L
91.883 371.407 L
92.086 371.388 L
92.289 371.376 L
92.492 371.361 L
92.695 371.346 L
92.898 371.335 L
93.101 371.317 L
93.304 371.299 L
93.507 371.287 L
93.71 371.271 L
93.913 371.256 L
94.116 371.243 L
94.319 371.226 L
94.522 371.211 L
94.725 371.196 L
94.928 371.178 L
95.131 371.163 L
95.334 371.147 L
95.537 371.13 L
95.74 371.118 L
95.944 371.103 L
96.147 371.087 L
96.35 371.074 L
96.553 371.058 L
96.756 371.044 L
96.959 371.033 L
97.162 371.016 L
97.365 371.002 L
97.568 370.99 L
97.771 370.974 L
97.974 370.963 L
98.177 370.951 L
98.38 370.935 L
98.583 370.922 L
98.786 370.906 L
98.989 370.891 L
99.192 370.882 L
99.395 370.867 L
99.598 370.852 L
99.801 370.84 L
100.004 370.824 L
100.207 370.811 L
100.41 370.8 L
100.613 370.785 L
100.816 370.775 L
101.02 370.765 L
101.223 370.752 L
101.426 370.742 L
101.629 370.728 L
101.832 370.713 L
102.035 370.702 L
102.238 370.688 L
102.441 370.674 L
102.644 370.665 L
102.847 370.649 L
103.05 370.637 L
103.253 370.626 L
103.456 370.612 L
103.659 370.603 L
103.862 370.59 L
104.065 370.574 L
104.268 370.562 L
104.471 370.548 L
104.674 370.534 L
104.877 370.522 L
105.08 370.505 L
105.283 370.49 L
105.486 370.479 L
105.689 370.463 L
105.892 370.449 L
106.096 370.437 L
106.299 370.42 L
106.502 370.407 L
106.705 370.392 L
106.908 370.376 L
107.111 370.364 L
107.314 370.349 L
107.517 370.332 L
107.72 370.321 L
107.923 370.307 L
108.126 370.293 L
108.329 370.281 L
108.532 370.264 L
108.735 370.252 L
108.938 370.24 L
109.141 370.223 L
109.344 370.21 L
109.547 370.194 L
109.75 370.177 L
109.953 370.166 L
110.156 370.153 L
110.359 370.138 L
110.562 370.129 L
110.765 370.113 L
110.968 370.099 L
111.172 370.091 L
111.375 370.076 L
111.578 370.063 L
111.781 370.052 L
111.984 370.038 L
112.187 370.026 L
112.39 370.014 L
112.593 370 L
112.796 369.99 L
112.999 369.976 L
113.202 369.959 L
113.405 369.949 L
113.608 369.934 L
113.811 369.919 L
114.014 369.907 L
114.217 369.89 L
114.42 369.876 L
114.623 369.863 L
114.826 369.847 L
115.029 369.836 L
115.232 369.822 L
115.435 369.801 L
115.638 369.772 L
115.841 369.727 L
116.044 369.67 L
116.248 369.6 L
116.451 369.51 L
116.654 369.409 L
116.857 369.298 L
117.06 369.168 L
117.263 369.027 L
117.466 368.876 L
117.669 368.708 L
117.872 368.531 L
118.075 368.34 L
118.278 368.131 L
118.481 367.914 L
118.684 367.682 L
118.887 367.434 L
119.09 367.178 L
119.293 366.908 L
119.496 366.624 L
119.699 366.331 L
119.902 366.022 L
120.105 365.701 L
120.308 365.37 L
120.511 365.021 L
120.714 364.664 L
120.917 364.294 L
121.12 363.906 L
121.324 363.51 L
121.527 363.1 L
121.73 362.678 L
121.933 362.249 L
122.136 361.804 L
122.339 361.346 L
122.542 360.878 L
122.745 360.395 L
122.948 359.903 L
123.151 359.399 L
123.354 358.879 L
123.557 358.353 L
123.76 357.815 L
123.963 357.261 L
124.166 356.701 L
124.369 356.128 L
124.572 355.54 L
124.775 354.945 L
124.978 354.334 L
125.181 353.713 L
125.384 353.084 L
125.587 352.437 L
125.79 351.782 L
125.993 351.118 L
126.196 350.438 L
126.4 349.753 L
126.603 349.057 L
126.806 348.343 L
127.009 347.624 L
127.212 346.892 L
127.415 346.148 L
127.618 345.397 L
127.821 344.631 L
128.024 343.853 L
128.227 343.067 L
128.43 342.266 L
128.633 341.459 L
128.836 340.643 L
129.039 339.81 L
129.242 338.969 L
129.445 338.118 L
129.648 337.253 L
129.851 336.382 L
130.054 335.498 L
130.257 334.601 L
130.46 333.697 L
130.663 332.78 L
130.866 331.853 L
131.069 330.919 L
131.272 329.968 L
131.476 329.009 L
131.679 328.041 L
131.882 327.058 L
132.085 326.07 L
132.288 325.071 L
132.491 324.057 L
132.694 323.037 L
132.897 322.002 L
133.1 320.957 L
133.303 319.905 L
133.506 318.839 L
133.709 317.764 L
133.912 316.682 L
134.115 315.584 L
134.318 314.479 L
134.521 313.365 L
134.724 312.237 L
134.927 311.103 L
135.13 309.96 L
135.333 308.803 L
135.536 307.642 L
135.739 306.467 L
135.942 305.279 L
136.145 304.088 L
136.348 302.882 L
136.552 301.665 L
136.755 300.445 L
136.958 299.208 L
137.161 297.964 L
137.364 296.713 L
137.567 295.447 L
137.77 294.174 L
137.973 292.893 L
138.176 291.599 L
138.379 290.3 L
138.582 288.991 L
138.785 287.669 L
138.988 286.342 L
139.191 285.004 L
139.394 283.656 L
139.597 282.302 L
139.8 280.933 L
140.003 279.557 L
140.206 278.174 L
140.409 276.78 L
140.612 275.381 L
140.815 273.972 L
141.018 272.549 L
141.221 271.123 L
141.424 269.684 L
141.628 268.234 L
141.831 266.78 L
142.034 265.314 L
142.237 263.839 L
142.44 262.36 L
142.643 260.867 L
142.846 259.367 L
143.049 257.863 L
143.252 256.345 L
143.455 254.821 L
143.658 253.289 L
143.861 251.745 L
144.064 250.199 L
144.267 248.643 L
144.47 247.074 L
144.673 245.504 L
144.876 243.924 L
145.079 242.334 L
145.282 240.739 L
145.485 239.133 L
145.688 237.521 L
145.891 235.905 L
146.094 234.277 L
146.297 232.646 L
146.5 231.008 L
146.704 229.359 L
146.907 227.706 L
147.11 226.044 L
147.313 224.373 L
147.516 222.702 L
147.719 221.021 L
147.922 219.333 L
148.125 217.645 L
148.328 215.949 L
148.531 214.248 L
148.734 212.546 L
148.937 210.836 L
149.14 209.125 L
149.343 207.415 L
149.546 205.7 L
149.749 203.99 L
149.952 202.28 L
150.155 200.572 L
150.358 198.879 L
150.561 197.196 L
150.764 195.53 L
150.967 193.89 L
151.17 192.279 L
151.373 190.707 L
151.576 189.194 L
151.78 187.752 L
151.983 186.41 L
152.186 185.183 L
152.389 184.086 L
152.592 183.147 L
152.795 182.366 L
152.998 181.735 L
153.201 181.248 L
153.404 180.875 L
153.607 180.589 L
153.81 180.377 L
154.013 180.21 L
154.216 180.074 L
154.419 179.964 L
154.622 179.866 L
154.825 179.78 L
155.028 179.704 L
155.231 179.629 L
155.434 179.561 L
155.637 179.497 L
155.84 179.429 L
156.043 179.367 L
156.246 179.305 L
156.449 179.241 L
156.652 179.181 L
156.856 179.116 L
157.059 179.05 L
157.262 178.991 L
157.465 178.926 L
157.668 178.862 L
157.871 178.802 L
158.074 178.737 L
158.277 178.675 L
158.48 178.613 L
158.683 178.546 L
158.886 178.486 L
159.089 178.426 L
159.292 178.362 L
159.495 178.303 L
159.698 178.24 L
159.901 178.175 L
160.104 178.115 L
160.307 178.049 L
160.51 177.985 L
160.713 177.925 L
160.916 177.86 L
161.119 177.798 L
161.322 177.739 L
161.525 177.674 L
161.728 177.615 L
161.932 177.554 L
162.135 177.49 L
162.338 177.433 L
162.541 177.37 L
162.744 177.305 L
162.947 177.246 L
163.15 177.182 L
163.353 177.118 L
163.556 177.058 L
163.759 176.994 L
163.962 176.932 L
164.165 176.872 L
164.368 176.807 L
164.571 176.746 L
164.774 176.682 L
164.977 176.614 L
165.18 176.553 L
165.383 176.49 L
165.586 176.425 L
165.789 176.364 L
165.992 176.299 L
166.195 176.234 L
166.398 176.173 L
166.601 176.106 L
166.804 176.044 L
167.008 175.982 L
167.211 175.915 L
167.414 175.853 L
167.617 175.791 L
167.82 175.727 L
168.023 175.668 L
168.226 175.606 L
168.429 175.542 L
168.632 175.484 L
168.835 175.419 L
169.038 175.353 L
169.241 175.291 L
169.444 175.225 L
169.647 175.163 L
169.85 175.104 L
170.053 175.039 L
170.256 174.979 L
170.459 174.918 L
170.662 174.853 L
170.865 174.792 L
171.068 174.729 L
171.271 174.664 L
171.474 174.603 L
171.677 174.539 L
171.88 174.474 L
172.084 174.412 L
172.287 174.344 L
172.49 174.28 L
172.693 174.218 L
172.896 174.151 L
173.099 174.089 L
173.302 174.025 L
173.505 173.958 L
173.708 173.896 L
173.911 173.83 L
174.114 173.763 L
174.317 173.701 L
174.52 173.634 L
174.723 173.567 L
174.926 173.506 L
175.129 173.436 L
175.332 173.369 L
175.535 173.307 L
175.738 173.239 L
175.941 173.175 L
176.144 173.111 L
176.347 173.042 L
176.55 172.978 L
176.753 172.912 L
176.956 172.842 L
177.16 172.779 L
177.363 172.711 L
177.566 172.642 L
177.769 172.579 L
177.972 172.512 L
178.175 172.447 L
178.378 172.384 L
178.581 172.317 L
178.784 172.252 L
178.987 172.186 L
179.19 172.116 L
179.393 172.051 L
179.596 171.985 L
179.799 171.917 L
180.002 171.852 L
180.205 171.784 L
180.408 171.715 L
180.611 171.652 L
180.814 171.583 L
181.017 171.516 L
181.22 171.451 L
181.423 171.379 L
181.626 171.312 L
181.829 171.247 L
182.032 171.175 L
182.236 171.108 L
182.439 171.041 L
182.642 170.971 L
182.845 170.907 L
183.048 170.84 L
183.251 170.772 L
183.454 170.707 L
183.657 170.637 L
183.86 170.568 L
184.063 170.502 L
184.266 170.432 L
184.469 170.366 L
184.672 170.3 L
184.875 170.229 L
185.078 170.16 L
185.281 170.09 L
185.484 170.017 L
185.687 169.951 L
185.89 169.881 L
186.093 169.811 L
186.296 169.745 L
186.499 169.674 L
186.702 169.604 L
186.905 169.537 L
187.108 169.461 L
187.312 169.391 L
187.515 169.323 L
187.718 169.25 L
187.921 169.182 L
188.124 169.114 L
188.327 169.041 L
188.53 168.975 L
188.733 168.905 L
188.936 168.836 L
189.139 168.77 L
189.342 168.698 L
189.545 168.627 L
189.748 168.562 L
189.951 168.49 L
190.154 168.42 L
190.357 168.352 L
190.56 168.28 L
190.763 168.212 L
190.966 168.142 L
191.169 168.069 L
191.372 168.001 L
191.575 167.931 L
191.778 167.858 L
191.981 167.791 L
192.184 167.719 L
192.388 167.648 L
192.591 167.579 L
192.794 167.505 L
192.997 167.435 L
193.2 167.368 L
193.403 167.295 L
193.606 167.226 L
193.809 167.155 L
194.012 167.081 L
194.215 167.013 L
194.418 166.942 L
194.621 166.87 L
194.824 166.802 L
195.027 166.729 L
195.23 166.658 L
195.433 166.589 L
195.636 166.513 L
195.839 166.442 L
196.042 166.371 L
196.245 166.295 L
196.448 166.225 L
196.651 166.153 L
196.854 166.077 L
197.057 166.006 L
197.26 165.932 L
197.464 165.855 L
197.667 165.785 L
197.87 165.709 L
198.073 165.634 L
198.276 165.562 L
198.479 165.484 L
198.682 165.411 L
198.885 165.342 L
199.088 165.266 L
199.291 165.195 L
199.494 165.124 L
199.697 165.049 L
199.9 164.98 L
200.103 164.907 L
200.306 164.833 L
200.509 164.763 L
200.712 164.688 L
200.915 164.614 L
201.118 164.544 L
201.321 164.469 L
201.524 164.396 L
201.727 164.327 L
201.93 164.252 L
202.133 164.181 L
202.336 164.108 L
202.54 164.031 L
202.743 163.961 L
202.946 163.889 L
203.149 163.813 L
203.352 163.744 L
203.555 163.669 L
203.758 163.594 L
203.961 163.526 L
204.164 163.452 L
204.367 163.379 L
204.57 163.309 L
204.773 163.234 L
204.976 163.162 L
205.179 163.09 L
205.382 163.015 L
205.585 162.944 L
205.788 162.87 L
205.991 162.794 L
206.194 162.723 L
206.397 162.648 L
206.6 162.572 L
206.803 162.498 L
207.006 162.419 L
207.209 162.344 L
207.412 162.271 L
207.616 162.192 L
207.819 162.119 L
208.022 162.046 L
208.225 161.97 L
208.428 161.898 L
208.631 161.825 L
208.834 161.748 L
209.037 161.674 L
209.24 161.598 L
209.443 161.522 L
209.646 161.449 L
209.849 161.371 L
210.052 161.295 L
210.255 161.224 L
210.458 161.146 L
210.661 161.073 L
210.864 161 L
211.067 160.921 L
211.27 160.849 L
211.473 160.775 L
211.676 160.698 L
211.879 160.626 L
212.082 160.55 L
212.285 160.473 L
212.488 160.401 L
212.692 160.324 L
212.895 160.249 L
213.098 160.178 L
213.301 160.1 L
213.504 160.027 L
213.707 159.954 L
213.91 159.876 L
214.113 159.803 L
214.316 159.727 L
214.519 159.647 L
214.722 159.574 L
214.925 159.498 L
215.128 159.42 L
215.331 159.347 L
215.534 159.268 L
215.737 159.191 L
215.94 159.117 L
216.143 159.038 L
216.346 158.964 L
216.549 158.89 L
216.752 158.809 L
216.955 158.734 L
217.158 158.658 L
217.361 158.578 L
217.564 158.505 L
217.768 158.428 L
217.971 158.351 L
218.174 158.28 L
218.377 158.203 L
218.58 158.127 L
218.783 158.053 L
218.986 157.973 L
219.189 157.896 L
219.392 157.819 L
219.595 157.737 L
219.798 157.66 L
220.001 157.582 L
220.204 157.501 L
220.407 157.424 L
220.61 157.345 L
220.813 157.266 L
221.016 157.189 L
221.219 157.109 L
221.422 157.029 L
221.625 156.952 L
221.828 156.874 L
222.031 156.799 L
222.234 156.724 L
222.437 156.644 L
222.64 156.57 L
222.844 156.493 L
223.047 156.409 L
223.25 156.332 L
223.453 156.253 L
223.656 156.173 L
223.859 156.099 L
224.062 156.017 L
224.265 155.938 L
224.468 155.864 L
224.671 155.781 L
224.874 155.703 L
225.077 155.626 L
225.28 155.543 L
225.483 155.466 L
225.686 155.386 L
225.889 155.305 L
226.092 155.232 L
226.295 155.154 L
226.498 155.073 L
226.701 154.996 L
226.904 154.916 L
227.107 154.838 L
227.31 154.763 L
227.513 154.683 L
227.716 154.604 L
227.92 154.526 L
228.123 154.442 L
228.326 154.363 L
228.529 154.283 L
228.732 154.2 L
228.935 154.123 L
229.138 154.042 L
229.341 153.961 L
229.544 153.882 L
229.747 153.799 L
229.95 153.718 L
230.153 153.641 L
230.356 153.558 L
230.559 153.48 L
230.762 153.403 L
230.965 153.322 L
231.168 153.243 L
231.371 153.164 L
231.574 153.081 L
231.777 153.003 L
231.98 152.922 L
232.183 152.838 L
232.386 152.759 L
232.589 152.675 L
232.792 152.593 L
232.996 152.513 L
233.199 152.427 L
233.402 152.345 L
233.605 152.265 L
233.808 152.18 L
234.011 152.099 L
234.214 152.017 L
234.417 151.932 L
234.62 151.851 L
234.823 151.766 L
235.026 151.681 L
235.229 151.602 L
235.432 151.519 L
235.635 151.437 L
235.838 151.359 L
236.041 151.275 L
236.244 151.192 L
236.447 151.112 L
236.65 151.028 L
236.853 150.947 L
237.056 150.865 L
237.259 150.779 L
237.462 150.701 L
237.665 150.619 L
237.868 150.534 L
238.072 150.455 L
238.275 150.37 L
238.478 150.286 L
238.681 150.205 L
238.884 150.119 L
239.087 150.037 L
239.29 149.956 L
239.493 149.868 L
239.696 149.786 L
239.899 149.704 L
240.102 149.616 L
240.305 149.534 L
240.508 149.45 L
240.711 149.363 L
240.914 149.282 L
241.117 149.196 L
241.32 149.109 L
241.523 149.026 L
241.726 148.939 L
241.929 148.855 L
242.132 148.774 L
242.335 148.688 L
242.538 148.604 L
242.741 148.523 L
242.944 148.438 L
243.148 148.357 L
243.351 148.273 L
243.554 148.185 L
243.757 148.102 L
243.96 148.015 L
244.163 147.928 L
244.366 147.845 L
244.569 147.759 L
244.772 147.673 L
244.975 147.59 L
245.178 147.502 L
245.381 147.419 L
245.584 147.336 L
245.787 147.248 L
245.99 147.166 L
246.193 147.081 L
246.396 146.994 L
246.599 146.912 L
246.802 146.826 L
247.005 146.739 L
247.208 146.657 L
247.411 146.569 L
247.614 146.486 L
247.817 146.405 L
248.02 146.317 L
248.224 146.232 L
248.427 146.146 L
248.63 146.057 L
248.833 145.974 L
249.036 145.888 L
249.239 145.8 L
249.442 145.717 L
249.645 145.63 L
249.848 145.544 L
250.051 145.463 L
250.254 145.375 L
250.457 145.288 L
250.66 145.206 L
250.863 145.119 L
251.066 145.037 L
251.269 144.954 L
251.472 144.866 L
251.675 144.783 L
251.878 144.698 L
252.081 144.612 L
252.284 144.532 L
252.487 144.447 L
252.69 144.359 L
252.893 144.277 L
253.096 144.189 L
253.3 144.106 L
253.503 144.024 L
253.706 143.936 L
253.909 143.852 L
254.112 143.768 L
254.315 143.679 L
254.518 143.596 L
254.721 143.511 L
254.924 143.423 L
255.127 143.34 L
255.33 143.254 L
255.533 143.166 L
255.736 143.082 L
255.939 142.992 L
256.142 142.905 L
256.345 142.82 L
256.548 142.729 L
256.751 142.641 L
256.954 142.554 L
257.157 142.464 L
257.36 142.38 L
257.563 142.295 L
257.766 142.205 L
257.969 142.119 L
258.172 142.03 L
258.376 141.941 L
258.579 141.858 L
258.782 141.768 L
258.985 141.679 L
259.188 141.593 L
259.391 141.503 L
259.594 141.418 L
259.797 141.332 L
260 141.244 L
260.203 141.159 L
260.406 141.072 L
260.609 140.982 L
260.812 140.897 L
261.015 140.81 L
261.218 140.72 L
261.421 140.636 L
261.624 140.546 L
261.827 140.457 L
262.03 140.373 L
262.233 140.284 L
262.436 140.199 L
262.639 140.114 L
262.842 140.024 L
263.045 139.94 L
263.248 139.853 L
263.452 139.761 L
263.655 139.675 L
263.858 139.586 L
264.061 139.498 L
264.264 139.414 L
264.467 139.324 L
264.67 139.237 L
264.873 139.152 L
265.076 139.059 L
265.279 138.972 L
265.482 138.889 L
265.685 138.799 L
265.888 138.712 L
266.091 138.625 L
266.294 138.532 L
266.497 138.445 L
266.7 138.354 L
266.903 138.264 L
267.106 138.18 L
267.309 138.091 L
267.512 138.004 L
267.715 137.92 L
267.918 137.831 L
268.121 137.747 L
268.324 137.664 L
268.528 137.575 L
268.731 137.49 L
268.934 137.403 L
269.137 137.313 L
269.34 137.23 L
269.543 137.144 L
269.746 137.055 L
269.949 136.971 L
270.152 136.879 L
270.355 136.789 L
270.558 136.705 L
270.761 136.616 L
270.964 136.53 L
271.167 136.444 L
271.37 136.354 L
271.573 136.271 L
271.776 136.184 L
271.979 136.092 L
272.182 136.009 L
272.385 135.922 L
272.588 135.83 L
272.791 135.745 L
272.994 135.655 L
273.197 135.568 L
273.4 135.484 L
273.604 135.395 L
273.807 135.309 L
274.01 135.224 L
274.213 135.133 L
274.416 135.046 L
274.619 134.959 L
274.822 134.869 L
275.025 134.784 L
275.228 134.695 L
275.431 134.604 L
275.634 134.521 L
275.837 134.432 L
276.04 134.344 L
276.243 134.259 L
276.446 134.169 L
276.649 134.083 L
276.852 133.999 L
277.055 133.908 L
277.258 133.823 L
277.461 133.737 L
277.664 133.647 L
277.867 133.562 L
278.07 133.472 L
278.273 133.379 L
278.476 133.291 L
278.68 133.199 L
278.883 133.109 L
279.086 133.024 L
279.289 132.932 L
279.492 132.843 L
279.695 132.757 L
279.898 132.666 L
280.101 132.58 L
280.304 132.492 L
280.507 132.398 L
280.71 132.309 L
280.913 132.217 L
281.116 132.122 L
281.319 132.034 L
281.522 131.941 L
281.725 131.847 L
281.928 131.76 L
282.131 131.667 L
282.334 131.576 L
282.537 131.487 L
282.74 131.392 L
282.943 131.303 L
283.146 131.214 L
283.349 131.121 L
283.552 131.034 L
283.756 130.944 L
283.959 130.851 L
284.162 130.764 L
284.365 130.672 L
284.568 130.58 L
284.771 130.492 L
284.974 130.399 L
285.177 130.312 L
285.38 130.226 L
285.583 130.134 L
285.786 130.045 L
285.989 129.957 L
286.192 129.865 L
286.395 129.777 L
286.598 129.689 L
286.801 129.598 L
287.004 129.514 L
287.207 129.423 L
287.41 129.331 L
287.613 129.245 L
287.816 129.154 L
288.019 129.064 L
288.222 128.976 L
288.425 128.884 L
288.628 128.796 L
288.832 128.708 L
289.035 128.615 L
289.238 128.528 L
289.441 128.439 L
289.644 128.346 L
289.847 128.259 L
290.05 128.169 L
290.253 128.078 L
290.456 127.992 L
290.659 127.9 L
290.862 127.81 L
291.065 127.724 L
291.268 127.634 L
291.471 127.547 L
291.674 127.458 L
291.877 127.366 L
292.08 127.28 L
292.283 127.191 L
292.486 127.098 L
292.689 127.011 L
292.892 126.917 L
293.095 126.824 L
293.298 126.736 L
293.501 126.642 L
293.704 126.552 L
293.908 126.464 L
294.111 126.37 L
294.314 126.28 L
294.517 126.191 L
294.72 126.099 L
294.923 126.009 L
295.126 125.918 L
295.329 125.824 L
295.532 125.736 L
295.735 125.643 L
295.938 125.549 L
296.141 125.461 L
296.344 125.369 L
296.547 125.278 L
296.75 125.19 L
296.953 125.096 L
297.156 125.005 L
297.359 124.913 L
297.562 124.817 L
297.765 124.726 L
297.968 124.633 L
298.171 124.538 L
298.374 124.45 L
298.577 124.357 L
298.78 124.26 L
298.984 124.169 L
299.187 124.072 L
299.39 123.978 L
299.593 123.89 L
299.796 123.794 L
299.999 123.704 L
300.202 123.616 L
300.405 123.522 L
300.608 123.433 L
300.811 123.342 L
301.014 123.246 L
301.217 123.156 L
301.42 123.063 L
301.623 122.968 L
301.826 122.879 L
302.029 122.786 L
302.232 122.693 L
302.435 122.603 L
302.638 122.507 L
302.841 122.415 L
303.044 122.325 L
303.247 122.23 L
303.45 122.141 L
303.653 122.05 L
303.856 121.956 L
304.06 121.868 L
304.263 121.776 L
304.466 121.682 L
304.669 121.594 L
304.872 121.5 L
305.075 121.406 L
305.278 121.316 L
305.481 121.222 L
305.684 121.131 L
305.887 121.042 L
306.09 120.947 L
306.293 120.859 L
306.496 120.768 L
306.699 120.673 L
306.902 120.583 L
307.105 120.489 L
307.308 120.393 L
307.511 120.302 L
307.714 120.206 L
307.917 120.112 L
308.12 120.022 L
308.323 119.927 L
308.526 119.836 L
308.729 119.746 L
308.932 119.65 L
309.136 119.559 L
309.339 119.467 L
309.542 119.37 L
309.745 119.277 L
309.948 119.182 L
310.151 119.084 L
310.354 118.992 L
310.557 118.896 L
310.76 118.801 L
310.963 118.71 L
311.166 118.613 L
311.369 118.52 L
311.572 118.428 L
311.775 118.331 L
311.978 118.236 L
312.181 118.143 L
312.384 118.048 L
312.587 117.957 L
312.79 117.863 L
312.993 117.767 L
313.196 117.675 L
313.399 117.579 L
313.602 117.484 L
313.805 117.392 L
314.008 117.295 L
314.212 117.2 L
314.415 117.108 L
314.618 117.011 L
314.821 116.919 L
315.024 116.826 L
315.227 116.728 L
315.43 116.637 L
315.633 116.542 L
315.836 116.445 L
316.039 116.353 L
316.242 116.257 L
316.445 116.162 L
316.648 116.072 L
316.851 115.978 L
317.054 115.886 L
317.257 115.794 L
317.46 115.696 L
317.663 115.603 L
317.866 115.511 L
318.069 115.414 L
318.272 115.321 L
318.475 115.226 L
318.678 115.127 L
318.881 115.035 L
319.084 114.94 L
319.288 114.845 L
319.491 114.754 L
319.694 114.658 L
319.897 114.565 L
320.1 114.474 L
320.303 114.377 L
320.506 114.285 L
320.709 114.194 L
320.912 114.097 L
321.115 114.005 L
321.318 113.912 L
321.521 113.817 L
321.724 113.727 L
321.927 113.631 L
322.13 113.534 L
322.333 113.442 L
322.536 113.344 L
322.739 113.248 L
322.942 113.156 L
323.145 113.058 L
323.348 112.964 L
323.551 112.872 L
323.754 112.774 L
323.957 112.682 L
324.16 112.589 L
324.364 112.492 L
324.567 112.402 L
324.77 112.308 L
324.973 112.213 L
325.176 112.121 L
325.379 112.023 L
325.582 111.929 L
325.785 111.837 L
325.988 111.736 L
326.191 111.64 L
326.394 111.547 L
326.597 111.448 L
326.8 111.355 L
327.003 111.26 L
327.206 111.162 L
327.409 111.069 L
327.612 110.971 L
327.815 110.872 L
328.018 110.779 L
328.221 110.682 L
328.424 110.586 L
328.627 110.493 L
328.83 110.392 L
329.033 110.295 L
329.236 110.199 L
329.44 110.098 L
329.643 110.003 L
329.846 109.906 L
330.049 109.808 L
330.252 109.716 L
330.455 109.62 L
330.658 109.522 L
330.861 109.43 L
331.064 109.333 L
331.267 109.235 L
331.47 109.142 L
331.673 109.043 L
331.876 108.947 L
332.079 108.852 L
332.282 108.753 L
332.485 108.659 L
332.688 108.564 L
332.891 108.466 L
333.094 108.374 L
333.297 108.28 L
333.5 108.184 L
333.703 108.092 L
333.906 107.997 L
334.109 107.903 L
334.312 107.812 L
334.516 107.715 L
334.719 107.62 L
334.922 107.525 L
335.125 107.426 L
335.328 107.332 L
335.531 107.237 L
335.734 107.14 L
335.937 107.047 L
336.14 106.95 L
336.343 106.852 L
336.546 106.759 L
336.749 106.663 L
336.952 106.567 L
337.155 106.474 L
337.358 106.374 L
337.561 106.281 L
337.764 106.188 L
337.967 106.09 L
338.17 105.996 L
338.373 105.901 L
338.576 105.801 L
338.779 105.709 L
338.982 105.614 L
339.185 105.516 L
339.388 105.422 L
339.592 105.325 L
339.795 105.229 L
339.998 105.135 L
340.201 105.038 L
340.404 104.943 L
340.607 104.85 L
340.81 104.752 L
341.013 104.657 L
341.216 104.562 L
341.419 104.463 L
341.622 104.37 L
341.825 104.274 L
342.028 104.174 L
342.231 104.079 L
342.434 103.981 L
342.637 103.887 L
342.84 103.796 L
343.043 103.697 L
343.246 103.601 L
343.449 103.508 L
343.652 103.41 L
343.855 103.317 L
344.058 103.221 L
344.261 103.121 L
344.464 103.025 L
344.668 102.928 L
344.871 102.831 L
345.074 102.74 L
345.277 102.642 L
345.48 102.544 L
345.683 102.45 L
345.886 102.353 L
346.089 102.257 L
346.292 102.163 L
346.495 102.064 L
346.698 101.971 L
346.901 101.876 L
347.104 101.776 L
347.307 101.682 L
347.51 101.585 L
347.713 101.486 L
347.916 101.392 L
348.119 101.292 L
348.322 101.191 L
348.525 101.096 L
348.728 100.997 L
348.931 100.899 L
349.134 100.802 L
349.337 100.699 L
349.54 100.601 L
349.744 100.503 L
349.947 100.402 L
350.15 100.307 L
350.353 100.208 L
350.556 100.106 L
350.759 100.008 L
350.962 99.906 L
351.165 99.804 L
351.368 99.708 L
351.571 99.609 L
351.774 99.512 L
351.977 99.416 L
352.18 99.314 L
352.383 99.217 L
352.586 99.12 L
352.789 99.02 L
352.992 98.924 L
353.195 98.825 L
353.398 98.724 L
353.601 98.629 L
353.804 98.529 L
354.007 98.427 L
354.21 98.33 L
354.413 98.229 L
354.616 98.131 L
354.82 98.035 L
355.023 97.934 L
355.226 97.837 L
355.429 97.742 L
355.632 97.642 L
355.835 97.547 L
356.038 97.449 L
356.241 97.349 L
356.444 97.256 L
356.647 97.159 L
356.85 97.061 L
357.053 96.966 L
357.256 96.866 L
357.459 96.769 L
357.662 96.676 L
357.865 96.575 L
358.068 96.479 L
358.271 96.384 L
358.474 96.284 L
358.677 96.189 L
358.88 96.093 L
359.083 95.993 L
359.286 95.898 L
359.489 95.797 L
359.692 95.697 L
359.896 95.601 L
360.099 95.499 L
360.302 95.399 L
360.505 95.302 L
360.708 95.201 L
360.911 95.104 L
361.114 95.008 L
361.317 94.906 L
361.52 94.81 L
361.723 94.713 L
361.926 94.612 L
362.129 94.517 L
362.332 94.418 L
362.535 94.316 L
362.738 94.219 L
362.941 94.118 L
363.144 94.02 L
363.347 93.925 L
363.55 93.823 L
363.753 93.725 L
363.956 93.628 L
364.159 93.529 L
364.362 93.435 L
364.565 93.336 L
364.768 93.232 L
364.972 93.136 L
365.175 93.039 L
365.378 92.94 L
365.581 92.847 L
365.784 92.747 L
365.987 92.647 L
366.19 92.551 L
366.393 92.448 L
366.596 92.35 L
366.799 92.253 L
367.002 92.152 L
367.205 92.054 L
367.408 91.957 L
367.611 91.857 L
367.814 91.763 L
368.017 91.665 L
368.22 91.563 L
368.423 91.468 L
368.626 91.369 L
368.829 91.272 L
369.032 91.178 L
369.235 91.077 L
369.438 90.979 L
369.641 90.885 L
369.844 90.785 L
370.048 90.689 L
370.251 90.592 L
370.454 90.49 L
370.657 90.394 L
370.86 90.298 L
371.063 90.197 L
371.266 90.101 L
371.469 90.003 L
371.672 89.903 L
371.875 89.805 L
372.078 89.703 L
372.281 89.605 L
372.484 89.51 L
372.687 89.408 L
372.89 89.311 L
373.093 89.213 L
373.296 89.111 L
373.499 89.016 L
373.702 88.917 L
373.905 88.815 L
374.108 88.719 L
374.311 88.618 L
374.514 88.517 L
374.717 88.422 L
374.92 88.32 L
375.124 88.221 L
375.327 88.124 L
375.53 88.022 L
375.733 87.922 L
375.936 87.824 L
376.139 87.723 L
376.342 87.626 L
376.545 87.527 L
376.748 87.426 L
376.951 87.33 L
377.154 87.23 L
377.357 87.13 L
377.56 87.036 L
377.763 86.936 L
377.966 86.838 L
378.169 86.742 L
378.372 86.641 L
378.575 86.544 L
378.778 86.447 L
378.981 86.347 L
379.184 86.252 L
379.387 86.155 L
379.59 86.054 L
379.793 85.958 L
379.996 85.859 L
380.2 85.759 L
380.403 85.661 L
380.606 85.56 L
380.809 85.461 L
381.012 85.364 L
381.215 85.262 L
381.418 85.163 L
381.621 85.064 L
381.824 84.962 L
382.027 84.863 L
382.23 84.762 L
382.433 84.658 L
382.636 84.559 L
382.839 84.459 L
383.042 84.359 L
383.245 84.264 L
383.448 84.166 L
383.651 84.066 L
383.854 83.97 L
384.057 83.868 L
384.26 83.768 L
384.463 83.67 L
384.666 83.568 L
384.869 83.47 L
385.072 83.37 L
385.276 83.266 L
385.479 83.168 L
385.682 83.067 L
385.885 82.964 L
386.088 82.867 L
386.291 82.765 L
386.494 82.663 L
386.697 82.564 L
386.9 82.46 L
387.103 82.359 L
387.306 82.26 L
387.509 82.154 L
387.712 82.052 L
387.915 81.952 L
388.118 81.851 L
388.321 81.753 L
388.524 81.652 L
388.727 81.55 L
388.93 81.453 L
389.133 81.349 L
389.336 81.247 L
389.539 81.15 L
389.742 81.049 L
389.945 80.951 L
390.148 80.854 L
390.352 80.75 L
390.555 80.653 L
390.758 80.556 L
390.961 80.453 L
391.164 80.354 L
391.367 80.254 L
391.57 80.151 L
391.773 80.055 L
391.976 79.954 L
392.179 79.853 L
392.382 79.756 L
392.585 79.654 L
392.788 79.555 L
392.991 79.457 L
393.194 79.354 L
393.397 79.254 L
393.6 79.154 L
393.803 79.05 L
394.006 78.954 L
394.209 78.856 L
394.412 78.752 L
394.615 78.651 L
394.818 78.546 L
395.021 78.443 L
395.224 78.344 L
395.428 78.24 L
395.631 78.138 L
395.834 78.038 L
396.037 77.933 L
396.24 77.832 L
396.443 77.733 L
396.646 77.629 L
396.849 77.53 L
397.052 77.428 L
397.255 77.324 L
397.458 77.226 L
397.661 77.125 L
397.864 77.022 L
398.067 76.924 L
398.27 76.82 L
398.473 76.719 L
398.676 76.621 L
398.879 76.517 L
399.082 76.416 L
399.285 76.316 L
399.488 76.213 L
399.691 76.114 L
399.894 76.012 L
400.097 75.908 L
400.3 75.809 L
400.504 75.707 L
400.707 75.605 L
400.91 75.508 L
401.113 75.406 L
401.316 75.305 L
401.519 75.208 L
401.722 75.104 L
401.925 75.004 L
402.128 74.906 L
402.331 74.805 L
402.534 74.708 L
402.737 74.608 L
402.94 74.503 L
403.143 74.405 L
403.346 74.304 L
403.549 74.199 L
403.752 74.101 L
403.955 74.001 L
404.158 73.902 L
404.361 73.807 L
404.564 73.706 L
404.767 73.605 L
404.97 73.506 L
405.173 73.403 L
405.376 73.305 L
405.58 73.207 L
405.783 73.106 L
405.986 73.009 L
406.189 72.908 L
406.392 72.807 L
406.595 72.711 L
406.798 72.611 L
407.001 72.511 L
407.204 72.413 L
407.407 72.309 L
407.61 72.21 L
407.813 72.115 L
408.016 72.013 L
408.219 71.915 L
408.422 71.817 L
408.625 71.715 L
408.828 71.618 L
409.031 71.519 L
409.234 71.418 L
409.437 71.32 L
409.64 71.217 L
409.843 71.114 L
410.046 71.016 L
410.249 70.913 L
410.452 70.814 L
410.656 70.717 L
410.859 70.613 L
411.062 70.513 L
411.265 70.414 L
411.468 72.055 L
411.671 74.662 L
411.874 76.233 L
412.077 77.385 L
412.28 78.313 L
412.483 79.113 L
412.686 79.8 L
412.889 80.426 L
413.092 80.996 L
413.295 81.514 L
413.498 82.008 L
413.701 82.466 L
413.904 82.897 L
414.107 83.309 L
414.31 83.692 L
414.513 84.066 L
414.716 84.425 L
414.919 84.765 L
415.122 85.1 L
415.325 85.419 L
415.528 85.727 L
415.732 86.032 L
415.935 86.324 L
416.138 86.609 L
416.341 86.889 L
416.544 87.157 L
416.747 87.422 L
416.95 87.681 L
417.153 87.931 L
417.356 88.181 L
417.559 88.423 L
417.762 88.657 L
417.965 88.891 L
418.168 89.117 L
418.371 89.339 L
418.574 89.562 L
418.777 89.775 L
418.98 89.985 L
419.183 90.196 L
419.386 90.398 L
419.589 90.602 L
419.792 90.803 L
419.995 90.996 L
420.198 91.193 L
420.401 91.383 L
420.604 91.567 L
420.808 91.756 L
421.011 91.937 L
421.214 92.115 L
421.417 92.296 L
421.62 92.469 L
421.823 92.644 L
422.026 92.817 L
422.229 92.982 L
422.432 93.15 L
422.635 93.318 L
422.838 93.479 L
423.041 93.644 L
423.244 93.805 L
423.447 93.962 L
423.65 94.125 L
423.853 94.282 L
424.056 94.435 L
424.259 94.592 L
424.462 94.742 L
424.665 94.893 L
424.868 95.047 L
425.071 95.193 L
425.274 95.341 L
425.477 95.488 L
425.68 95.628 L
425.884 95.773 L
426.087 95.915 L
426.29 96.053 L
426.493 96.196 L
426.696 96.333 L
426.899 96.468 L
427.102 96.608 L
427.305 96.743 L
427.508 96.879 L
427.711 97.016 L
427.914 97.146 L
428.117 97.281 L
428.32 97.414 L
428.523 97.541 L
428.726 97.673 L
428.929 97.802 L
429.132 97.928 L
429.335 98.058 L
429.538 98.183 L
429.741 98.306 L
429.944 98.433 L
430.147 98.556 L
430.35 98.679 L
430.553 98.804 L
430.756 98.923 L
430.96 99.046 L
431.163 99.169 L
431.366 99.287 L
431.569 99.41 L
431.772 99.53 L
431.975 99.647 L
432.178 99.769 L
432.381 99.884 L
432.584 99.999 L
432.787 100.12 L
432.99 100.234 L
433.193 100.349 L
433.396 100.466 L
433.599 100.577 L
433.802 100.689 L
434.005 100.804 L
434.208 100.915 L
434.411 101.03 L
434.614 101.143 L
434.817 101.252 L
435.02 101.367 L
435.223 101.476 L
435.426 101.585 L
435.629 101.698 L
435.832 101.804 L
436.036 101.913 L
436.239 102.026 L
436.442 102.132 L
436.645 102.242 L
436.848 102.352 L
437.051 102.456 L
437.254 102.564 L
437.457 102.671 L
437.66 102.773 L
437.863 102.88 L
438.066 102.983 L
438.269 103.085 L
438.472 103.194 L
438.675 103.296 L
438.878 103.397 L
439.081 103.502 L
439.284 103.601 L
439.487 103.701 L
439.69 103.804 L
439.893 103.901 L
440.096 104.004 L
440.299 104.106 L
440.502 104.203 L
440.705 104.306 L
440.908 104.404 L
441.112 104.499 L
441.315 104.601 L
441.518 104.698 L
441.721 104.796 L
441.924 104.897 L
442.127 104.993 L
442.33 105.09 L
442.533 105.188 L
442.736 105.283 L
442.939 105.382 L
443.142 105.482 L
443.345 105.578 L
443.548 105.677 L
443.751 105.769 L
443.954 105.862 L
444.157 105.959 L
444.36 106.051 L
444.563 106.144 L
444.766 106.24 L
444.969 106.329 L
445.172 106.42 L
445.375 106.516 L
445.578 106.605 L
445.781 106.701 L
445.984 106.797 L
446.188 106.885 L
446.391 106.978 L
446.594 107.068 L
446.797 107.159 L
447 107.254 L
447.203 107.343 L
447.406 107.43 L
447.609 107.521 L
447.812 107.607 L
448.015 107.695 L
448.218 107.785 L
448.421 107.871 L
448.624 107.959 L
448.827 108.047 L
449.03 108.132 L
449.233 108.22 L
449.436 108.306 L
449.639 108.39 L
449.842 108.479 L
450.045 108.562 L
450.248 108.645 L
450.451 108.733 L
450.654 108.815 L
450.857 108.9 L
451.06 108.987 L
451.264 109.07 L
451.467 109.157 L
451.67 109.245 L
451.873 109.328 L
452.076 109.415 L
452.279 109.498 L
452.482 109.579 L
452.685 109.665 L
452.888 109.746 L
453.091 109.827 L
453.294 109.913 L
453.497 109.993 L
453.7 110.075 L
453.903 110.162 L
454.106 110.242 L
454.309 110.325 L
454.512 110.41 L
454.715 110.491 L
454.918 110.576 L
455.121 110.66 L
455.324 110.741 L
455.527 110.83 L
455.73 110.912 L
455.933 110.992 L
456.136 111.08 L
456.34 111.161 L
456.543 111.244 L
456.746 111.331 L
456.949 111.41 L
457.152 111.492 L
457.355 111.575 L
457.558 111.655 L
457.761 111.74 L
457.964 111.823 L
458.167 111.904 L
458.37 111.988 L
458.573 112.067 L
458.776 112.147 L
458.979 112.231 L
459.182 112.309 L
459.385 112.388 L
459.588 112.471 L
459.791 112.55 L
459.994 112.631 L
460.197 112.711 L
460.4 112.785 L
460.603 112.867 L
460.806 112.95 L
461.009 113.027 L
461.212 113.109 L
461.415 113.19 L
461.619 113.27 L
461.822 113.355 L
462.025 113.434 L
462.228 113.512 L
462.431 113.594 L
462.634 113.672 L
462.837 113.753 L
463.04 113.834 L
463.243 113.909 L
463.446 113.99 L
463.649 114.071 L
463.852 114.147 L
464.055 114.228 L
464.258 114.306 L
464.461 114.381 L
464.664 114.461 L
464.867 114.536 L
465.07 114.613 L
465.273 114.694 L
465.476 114.768 L
465.679 114.845 L
465.882 114.924 L
466.085 114.999 L
466.288 115.077 L
466.492 115.154 L
466.695 115.229 L
466.898 115.308 L
467.101 115.385 L
467.304 115.459 L
467.507 115.537 L
467.71 115.611 L
467.913 115.685 L
468.116 115.764 L
468.319 115.838 L
468.522 115.913 L
468.725 115.99 L
468.928 116.062 L
469.131 116.138 L
469.334 116.214 L
469.537 116.286 L
469.74 116.362 L
469.943 116.437 L
470.146 116.51 L
470.349 116.588 L
470.552 116.661 L
470.755 116.734 L
470.958 116.811 L
471.161 116.884 L
471.364 116.958 L
471.568 117.032 L
471.771 117.103 L
471.974 117.18 L
472.177 117.256 L
472.38 117.326 L
472.583 117.402 L
472.786 117.477 L
472.989 117.546 L
473.192 117.619 L
473.395 117.691 L
473.598 117.763 L
473.801 117.838 L
474.004 117.909 L
474.207 117.981 L
474.41 118.056 L
474.613 118.125 L
474.816 118.197 L
475.019 118.271 L
475.222 118.338 L
475.425 118.411 L
475.628 118.482 L
475.831 118.55 L
476.034 118.623 L
476.237 118.695 L
476.44 118.765 L
476.644 118.839 L
476.847 118.908 L
477.05 118.98 L
477.253 119.054 L
477.456 119.122 L
477.659 119.194 L
477.862 119.267 L
478.065 119.336 L
478.268 119.41 L
478.471 119.481 L
478.674 119.548 L
478.877 119.62 L
479.08 119.69 L
479.283 119.758 L
479.486 119.83 L
479.689 119.897 L
479.892 119.965 L
480.095 120.036 L
480.298 120.102 L
480.501 120.172 L
480.704 120.242 L
480.907 120.307 L
481.11 120.377 L
481.313 120.445 L
481.517 120.509 L
481.72 120.58 L
481.923 120.647 L
482.126 120.714 L
482.329 120.783 L
482.532 120.849 L
482.735 120.916 L
482.938 120.984 L
483.141 121.049 L
483.344 121.116 L
483.547 121.185 L
483.75 121.25 L
483.953 121.32 L
484.156 121.389 L
484.359 121.452 L
484.562 121.522 L
484.765 121.591 L
484.968 121.656 L
485.171 121.725 L
485.374 121.791 L
485.577 121.858 L
485.78 121.928 L
485.983 121.992 L
486.186 122.058 L
486.389 122.128 L
486.592 122.193 L
486.796 122.261 L
486.999 122.328 L
487.202 122.393 L
487.405 122.462 L
487.608 122.529 L
487.811 122.594 L
488.014 122.665 L
488.217 122.731 L
488.42 122.797 L
488.623 122.866 L
488.826 122.929 L
S
GR
GS
[0.75 0 0 0.75 118.5 156.75] CT
/Helvetica 18.667 F
GS
[1 0 0 1 0 0] CT
0 0 moveto 
1 -1 scale
(585 ) t 
GR
GR
GS
[0.75 0 0 0.75 146.25 156.75] CT
N
/f1980772255{0.531 3.578 M
0.531 3.453 0.547 3.422 QT
3.344 -7.797 L
3.422 -8.063 3.641 -8.227 QT
3.859 -8.391 4.141 -8.391 QT
4.375 -8.391 4.547 -8.25 QT
4.719 -8.109 4.719 -7.875 QT
4.719 -7.813 4.711 -7.781 QT
4.703 -7.75 4.688 -7.703 QT
3.578 -3.266 L
3.391 -2.484 3.391 -1.906 QT
3.391 -1.203 3.719 -0.742 QT
4.047 -0.281 4.734 -0.281 QT
6.109 -0.281 7.156 -2.016 QT
7.172 -2.031 7.18 -2.039 QT
7.188 -2.047 7.188 -2.063 QT
8.547 -7.578 L
8.625 -7.828 8.852 -8.008 QT
9.078 -8.188 9.359 -8.188 QT
9.578 -8.188 9.75 -8.039 QT
9.922 -7.891 9.922 -7.656 QT
9.922 -7.547 9.906 -7.5 QT
8.531 -2.031 L
8.391 -1.5 8.391 -1.109 QT
8.391 -0.281 8.953 -0.281 QT
9.547 -0.281 9.852 -1.016 QT
10.156 -1.75 10.375 -2.797 QT
10.406 -2.906 10.531 -2.906 QT
10.75 -2.906 L
10.828 -2.906 10.875 -2.844 QT
10.922 -2.781 10.922 -2.719 QT
10.594 -1.391 10.203 -0.586 QT
9.813 0.219 8.922 0.219 QT
8.281 0.219 7.797 -0.148 QT
7.313 -0.516 7.156 -1.125 QT
6.688 -0.531 6.055 -0.156 QT
5.422 0.219 4.719 0.219 QT
3.531 0.219 2.844 -0.344 QT
1.891 3.5 L
1.828 3.766 1.602 3.93 QT
1.375 4.094 1.109 4.094 QT
0.875 4.094 0.703 3.953 QT
0.531 3.813 0.531 3.578 QT
cp}def
f1980772255
f
GR
GS
[0.75 0 0 0.75 155.25 156.75] CT
/Helvetica 18.667 F
GS
[1 0 0 1 0 0] CT
0 0 moveto 
1 -1 scale
(C) t 
GR
GR
GS
[0.75 0 0 0.75 0 0] CT
N
73 31 M
497 31 L
497 372 L
73 372 L
73 31 L
cp
clip
0.403 GC
1 LJ
0.667 LW
N
149.546 372 M
149.546 31 L
S
GR
GS
[0.75 0 0 0.75 0 0] CT
1 GC
N
328 98 M
328 45 L
188 45 L
188 98 L
cp
f
GR
GS
[0.75 0 0 0.75 176.25 41.25] CT
/Helvetica 12 F
GS
[1 0 0 1 0 0] CT
0 5 moveto 
1 -1 scale
(Pearson Current) t 
GR
GR
GS
[0.75 0 0 0.75 0 0] CT
0 0.447 0.741 RC
1 LJ
2 LW
N
192 55 M
232 55 L
S
GR
GS
[0.75 0 0 0.75 176.25 53.625] CT
/Helvetica 12 F
GS
[1 0 0 1 0 0] CT
0 5 moveto 
1 -1 scale
(Pearson Charge) t 
GR
GR
GS
[0.75 0 0 0.75 0 0] CT
0.851 0.325 0.098 RC
1 LJ
2 LW
N
192 71.5 M
232 71.5 L
S
GR
GS
[0.75 0 0 0.75 176.25 66] CT
/Helvetica 12 F
GS
[1 0 0 1 0 0] CT
0 5 moveto 
1 -1 scale
(data1) t 
GR
GR
GS
[0.75 0 0 0.75 0 0] CT
0.403 GC
1 LJ
0.667 LW
N
192 88 M
232 88 L
S
GR
GS
[0.75 0 0 0.75 0 0] CT
0.149 GC
10.0 ML
0.667 LW
N
188 98 M
188 45 L
328 45 L
328 98 L
cp
S
GR
%%Trailer
%%Pages: 1
%%EOF
