freq	db(S(2,1))	db(S(1,1))	db(S(2,2))
2.00E+11	-2.19E+01	-6.96E+00	-2.16E+00
2.01E+11	-2.14E+01	-7.15E+00	-2.19E+00
2.02E+11	-2.08E+01	-7.35E+00	-2.23E+00
2.03E+11	-2.03E+01	-7.58E+00	-2.26E+00
2.04E+11	-1.98E+01	-7.81E+00	-2.30E+00
2.05E+11	-1.92E+01	-8.07E+00	-2.34E+00
2.06E+11	-1.87E+01	-8.34E+00	-2.38E+00
2.07E+11	-1.81E+01	-8.64E+00	-2.42E+00
2.08E+11	-1.75E+01	-8.96E+00	-2.46E+00
2.09E+11	-1.69E+01	-9.30E+00	-2.50E+00
2.10E+11	-1.64E+01	-9.67E+00	-2.54E+00
2.11E+11	-1.58E+01	-1.01E+01	-2.58E+00
2.12E+11	-1.52E+01	-1.05E+01	-2.62E+00
2.13E+11	-1.45E+01	-1.10E+01	-2.67E+00
2.14E+11	-1.39E+01	-1.14E+01	-2.71E+00
2.15E+11	-1.33E+01	-1.19E+01	-2.76E+00
2.16E+11	-1.27E+01	-1.24E+01	-2.81E+00
2.17E+11	-1.21E+01	-1.29E+01	-2.85E+00
2.18E+11	-1.15E+01	-1.33E+01	-2.90E+00
2.19E+11	-1.08E+01	-1.36E+01	-2.95E+00
2.20E+11	-1.02E+01	-1.36E+01	-3.00E+00
2.21E+11	-9.62E+00	-1.35E+01	-3.05E+00
2.22E+11	-9.03E+00	-1.32E+01	-3.11E+00
2.23E+11	-8.45E+00	-1.27E+01	-3.16E+00
2.24E+11	-7.90E+00	-1.20E+01	-3.22E+00
2.25E+11	-7.37E+00	-1.13E+01	-3.27E+00
2.26E+11	-6.86E+00	-1.06E+01	-3.33E+00
2.27E+11	-6.39E+00	-9.92E+00	-3.39E+00
2.28E+11	-5.94E+00	-9.26E+00	-3.45E+00
2.29E+11	-5.53E+00	-8.67E+00	-3.51E+00
2.30E+11	-5.14E+00	-8.14E+00	-3.57E+00
2.31E+11	-4.79E+00	-7.68E+00	-3.64E+00
2.32E+11	-4.46E+00	-7.30E+00	-3.70E+00
2.33E+11	-4.15E+00	-6.97E+00	-3.77E+00
2.34E+11	-3.86E+00	-6.71E+00	-3.84E+00
2.35E+11	-3.59E+00	-6.51E+00	-3.91E+00
2.36E+11	-3.34E+00	-6.35E+00	-3.98E+00
2.37E+11	-3.09E+00	-6.24E+00	-4.05E+00
2.38E+11	-2.84E+00	-6.17E+00	-4.12E+00
2.39E+11	-2.60E+00	-6.14E+00	-4.20E+00
2.40E+11	-2.35E+00	-6.14E+00	-4.27E+00
2.41E+11	-2.10E+00	-6.17E+00	-4.35E+00
2.42E+11	-1.85E+00	-6.22E+00	-4.43E+00
2.43E+11	-1.59E+00	-6.29E+00	-4.51E+00
2.44E+11	-1.31E+00	-6.39E+00	-4.60E+00
2.45E+11	-1.03E+00	-6.50E+00	-4.68E+00
2.46E+11	-7.30E-01	-6.63E+00	-4.77E+00
2.47E+11	-4.19E-01	-6.78E+00	-4.86E+00
2.48E+11	-9.40E-02	-6.94E+00	-4.95E+00
2.49E+11	2.46E-01	-7.11E+00	-5.05E+00
2.50E+11	6.00E-01	-7.29E+00	-5.14E+00
2.51E+11	9.70E-01	-7.49E+00	-5.24E+00
2.52E+11	1.36E+00	-7.70E+00	-5.34E+00
2.53E+11	1.76E+00	-7.92E+00	-5.45E+00
2.54E+11	2.17E+00	-8.15E+00	-5.56E+00
2.55E+11	2.61E+00	-8.39E+00	-5.67E+00
2.56E+11	3.05E+00	-8.64E+00	-5.78E+00
2.57E+11	3.52E+00	-8.90E+00	-5.90E+00
2.58E+11	4.00E+00	-9.16E+00	-6.02E+00
2.59E+11	4.49E+00	-9.43E+00	-6.15E+00
2.60E+11	4.99E+00	-9.71E+00	-6.29E+00
2.61E+11	5.51E+00	-9.99E+00	-6.43E+00
2.62E+11	6.04E+00	-1.03E+01	-6.58E+00
2.63E+11	6.58E+00	-1.06E+01	-6.73E+00
2.64E+11	7.12E+00	-1.08E+01	-6.90E+00
2.65E+11	7.67E+00	-1.11E+01	-7.08E+00
2.66E+11	8.22E+00	-1.13E+01	-7.27E+00
2.67E+11	8.77E+00	-1.15E+01	-7.48E+00
2.68E+11	9.32E+00	-1.17E+01	-7.70E+00
2.69E+11	9.86E+00	-1.18E+01	-7.95E+00
2.70E+11	1.04E+01	-1.18E+01	-8.22E+00
2.71E+11	1.09E+01	-1.18E+01	-8.52E+00
2.72E+11	1.14E+01	-1.17E+01	-8.85E+00
2.73E+11	1.18E+01	-1.15E+01	-9.22E+00
2.74E+11	1.22E+01	-1.13E+01	-9.62E+00
2.75E+11	1.26E+01	-1.11E+01	-1.01E+01
2.76E+11	1.29E+01	-1.08E+01	-1.05E+01
2.77E+11	1.32E+01	-1.04E+01	-1.10E+01
2.78E+11	1.34E+01	-1.01E+01	-1.16E+01
2.79E+11	1.36E+01	-9.74E+00	-1.22E+01
2.80E+11	1.37E+01	-9.40E+00	-1.28E+01
2.81E+11	1.38E+01	-9.07E+00	-1.34E+01
2.82E+11	1.38E+01	-8.74E+00	-1.40E+01
2.83E+11	1.39E+01	-8.43E+00	-1.46E+01
2.84E+11	1.39E+01	-8.14E+00	-1.53E+01
2.85E+11	1.39E+01	-7.85E+00	-1.59E+01
2.86E+11	1.38E+01	-7.58E+00	-1.66E+01
2.87E+11	1.38E+01	-7.33E+00	-1.72E+01
2.88E+11	1.37E+01	-7.08E+00	-1.78E+01
2.89E+11	1.36E+01	-6.85E+00	-1.85E+01
2.90E+11	1.36E+01	-6.63E+00	-1.91E+01
2.91E+11	1.35E+01	-6.43E+00	-1.98E+01
2.92E+11	1.34E+01	-6.24E+00	-2.04E+01
2.93E+11	1.34E+01	-6.06E+00	-2.10E+01
2.94E+11	1.33E+01	-5.89E+00	-2.15E+01
2.95E+11	1.32E+01	-5.73E+00	-2.20E+01
2.96E+11	1.32E+01	-5.58E+00	-2.24E+01
2.97E+11	1.31E+01	-5.45E+00	-2.27E+01
2.98E+11	1.31E+01	-5.33E+00	-2.28E+01
2.99E+11	1.30E+01	-5.21E+00	-2.28E+01
3.00E+11	1.30E+01	-5.11E+00	-2.26E+01
3.01E+11	1.30E+01	-5.02E+00	-2.23E+01
3.02E+11	1.30E+01	-4.94E+00	-2.19E+01
3.03E+11	1.30E+01	-4.86E+00	-2.14E+01
3.04E+11	1.30E+01	-4.80E+00	-2.09E+01
3.05E+11	1.30E+01	-4.74E+00	-2.03E+01
3.06E+11	1.30E+01	-4.70E+00	-1.97E+01
3.07E+11	1.30E+01	-4.66E+00	-1.92E+01
3.08E+11	1.30E+01	-4.62E+00	-1.87E+01
3.09E+11	1.31E+01	-4.60E+00	-1.81E+01
3.10E+11	1.31E+01	-4.58E+00	-1.76E+01
3.11E+11	1.31E+01	-4.58E+00	-1.72E+01
3.12E+11	1.32E+01	-4.57E+00	-1.68E+01
3.13E+11	1.32E+01	-4.58E+00	-1.64E+01
3.14E+11	1.32E+01	-4.59E+00	-1.60E+01
3.15E+11	1.33E+01	-4.61E+00	-1.57E+01
3.16E+11	1.33E+01	-4.64E+00	-1.54E+01
3.17E+11	1.33E+01	-4.67E+00	-1.52E+01
3.18E+11	1.33E+01	-4.71E+00	-1.50E+01
3.19E+11	1.33E+01	-4.76E+00	-1.48E+01
3.20E+11	1.33E+01	-4.81E+00	-1.47E+01
3.21E+11	1.32E+01	-4.86E+00	-1.47E+01
3.22E+11	1.32E+01	-4.92E+00	-1.47E+01
3.23E+11	1.31E+01	-4.97E+00	-1.47E+01
3.24E+11	1.30E+01	-5.03E+00	-1.48E+01
3.25E+11	1.29E+01	-5.08E+00	-1.49E+01
3.26E+11	1.28E+01	-5.14E+00	-1.50E+01
3.27E+11	1.26E+01	-5.18E+00	-1.52E+01
3.28E+11	1.25E+01	-5.22E+00	-1.54E+01
3.29E+11	1.23E+01	-5.26E+00	-1.57E+01
3.30E+11	1.21E+01	-5.29E+00	-1.59E+01
3.31E+11	1.19E+01	-5.31E+00	-1.62E+01
3.32E+11	1.17E+01	-5.32E+00	-1.66E+01
3.33E+11	1.15E+01	-5.32E+00	-1.69E+01
3.34E+11	1.13E+01	-5.32E+00	-1.73E+01
3.35E+11	1.11E+01	-5.31E+00	-1.76E+01
3.36E+11	1.08E+01	-5.28E+00	-1.80E+01
3.37E+11	1.06E+01	-5.25E+00	-1.83E+01
3.38E+11	1.04E+01	-5.21E+00	-1.87E+01
3.39E+11	1.01E+01	-5.16E+00	-1.91E+01
3.40E+11	9.89E+00	-5.11E+00	-1.94E+01
3.41E+11	9.64E+00	-5.04E+00	-1.97E+01
3.42E+11	9.38E+00	-4.97E+00	-2.01E+01
3.43E+11	9.11E+00	-4.89E+00	-2.04E+01
3.44E+11	8.84E+00	-4.80E+00	-2.07E+01
3.45E+11	8.56E+00	-4.71E+00	-2.09E+01
3.46E+11	8.26E+00	-4.61E+00	-2.12E+01
3.47E+11	7.96E+00	-4.50E+00	-2.15E+01
3.48E+11	7.64E+00	-4.39E+00	-2.17E+01
3.49E+11	7.31E+00	-4.28E+00	-2.19E+01
3.50E+11	6.96E+00	-4.17E+00	-2.21E+01
3.51E+11	6.60E+00	-4.06E+00	-2.23E+01
3.52E+11	6.22E+00	-3.94E+00	-2.25E+01
3.53E+11	5.83E+00	-3.83E+00	-2.27E+01
3.54E+11	5.43E+00	-3.73E+00	-2.28E+01
3.55E+11	5.00E+00	-3.62E+00	-2.29E+01
3.56E+11	4.57E+00	-3.52E+00	-2.30E+01
3.57E+11	4.12E+00	-3.43E+00	-2.30E+01
3.58E+11	3.66E+00	-3.34E+00	-2.30E+01
3.59E+11	3.19E+00	-3.26E+00	-2.30E+01
3.60E+11	2.71E+00	-3.18E+00	-2.29E+01
3.61E+11	2.22E+00	-3.10E+00	-2.27E+01
3.62E+11	1.72E+00	-3.04E+00	-2.26E+01
3.63E+11	1.22E+00	-2.98E+00	-2.23E+01
3.64E+11	7.12E-01	-2.92E+00	-2.21E+01
3.65E+11	2.03E-01	-2.87E+00	-2.18E+01
3.66E+11	-3.07E-01	-2.82E+00	-2.15E+01
3.67E+11	-8.18E-01	-2.77E+00	-2.12E+01
3.68E+11	-1.33E+00	-2.73E+00	-2.09E+01
3.69E+11	-1.84E+00	-2.69E+00	-2.06E+01
3.70E+11	-2.35E+00	-2.66E+00	-2.02E+01
3.71E+11	-2.85E+00	-2.62E+00	-1.99E+01
3.72E+11	-3.35E+00	-2.59E+00	-1.96E+01
3.73E+11	-3.85E+00	-2.56E+00	-1.92E+01
3.74E+11	-4.35E+00	-2.53E+00	-1.89E+01
3.75E+11	-4.83E+00	-2.51E+00	-1.86E+01
3.76E+11	-5.32E+00	-2.48E+00	-1.83E+01
3.77E+11	-5.80E+00	-2.46E+00	-1.80E+01
3.78E+11	-6.27E+00	-2.44E+00	-1.77E+01
3.79E+11	-6.74E+00	-2.41E+00	-1.74E+01
3.80E+11	-7.21E+00	-2.39E+00	-1.71E+01
3.81E+11	-7.67E+00	-2.37E+00	-1.68E+01
3.82E+11	-8.12E+00	-2.35E+00	-1.66E+01
3.83E+11	-8.57E+00	-2.34E+00	-1.63E+01
3.84E+11	-9.01E+00	-2.32E+00	-1.60E+01
3.85E+11	-9.45E+00	-2.30E+00	-1.58E+01
3.86E+11	-9.88E+00	-2.28E+00	-1.55E+01
3.87E+11	-1.03E+01	-2.26E+00	-1.53E+01
3.88E+11	-1.07E+01	-2.25E+00	-1.51E+01
3.89E+11	-1.11E+01	-2.23E+00	-1.48E+01
3.90E+11	-1.15E+01	-2.22E+00	-1.46E+01
3.91E+11	-1.19E+01	-2.20E+00	-1.44E+01
3.92E+11	-1.23E+01	-2.18E+00	-1.42E+01
3.93E+11	-1.27E+01	-2.17E+00	-1.39E+01
3.94E+11	-1.31E+01	-2.15E+00	-1.37E+01
3.95E+11	-1.35E+01	-2.14E+00	-1.35E+01
3.96E+11	-1.39E+01	-2.12E+00	-1.33E+01
3.97E+11	-1.42E+01	-2.11E+00	-1.31E+01
3.98E+11	-1.46E+01	-2.10E+00	-1.29E+01
3.99E+11	-1.49E+01	-2.08E+00	-1.27E+01
4.00E+11	-1.53E+01	-2.07E+00	-1.26E+01
